# -------------------------------------------------------------------------------
#		C:/Users/ASAT 02/Documents/OMERE 5.4/CDR CLOSE-OUT/SSO 500 - 1.5 years/LET/Vessel/Integral LET spectrum.txt
# -------------------------------------------------------------------------------
# ID: 1 2 1

# Graph: Integral LET spectrum 
# min: 1.60896e-05 1e-07 max: 1.09391e+10 1.35931e+09
# X-axis L: LET (MeV.cm^2.g^{-1})
# Y-axis L: Flux (cm^{-2}.s^{-1})
# -------------------------------------------------------------------------------
# Curve 0: LET spectrum without Flares
# Params: 0 5 #14bf4c 2 1
#	LET (MeV.cm^2.g^{-1})		Flux (cm^{-2}.s^{-1})
# -------------------------------------------------------------------------------
        1.608960e+00	        6.969591e+01
        1.626982e+00	        6.969591e+01
        1.645205e+00	        6.969591e+01
        1.663632e+00	        6.969591e+01
        1.682265e+00	        6.958615e+01
        1.701107e+00	        6.944894e+01
        1.720161e+00	        6.936048e+01
        1.739427e+00	        6.929917e+01
        1.758910e+00	        6.924512e+01
        1.778610e+00	        6.920146e+01
        1.798532e+00	        6.916446e+01
        1.818676e+00	        6.913174e+01
        1.839046e+00	        6.910183e+01
        1.859644e+00	        6.907349e+01
        1.880473e+00	        6.904805e+01
        1.901536e+00	        6.902413e+01
        1.922834e+00	        6.900290e+01
        1.944370e+00	        6.898677e+01
        1.966148e+00	        6.897518e+01
        1.988170e+00	        6.896754e+01
        2.010439e+00	        6.896050e+01
        2.032956e+00	        6.895339e+01
        2.055727e+00	        6.894674e+01
        2.078752e+00	        6.894108e+01
        2.102035e+00	        6.893536e+01
        2.125579e+00	        6.892958e+01
        2.149386e+00	        6.892455e+01
        2.173460e+00	        6.892000e+01
        2.197804e+00	        6.891539e+01
        2.222421e+00	        6.891074e+01
        2.247313e+00	        6.890680e+01
        2.272484e+00	        6.890351e+01
        2.297937e+00	        6.890018e+01
        2.323675e+00	        6.889681e+01
        2.349701e+00	        6.889341e+01
        2.376019e+00	        6.889019e+01
        2.402632e+00	        6.888707e+01
        2.429542e+00	        6.888392e+01
        2.456754e+00	        6.888073e+01
        2.484271e+00	        6.887770e+01
        2.512096e+00	        6.887578e+01
        2.540233e+00	        6.887385e+01
        2.568685e+00	        6.887189e+01
        2.597455e+00	        6.886992e+01
        2.626548e+00	        6.886792e+01
        2.655967e+00	        6.886590e+01
        2.685715e+00	        6.886397e+01
        2.715796e+00	        6.886203e+01
        2.746214e+00	        6.886007e+01
        2.776973e+00	        6.885809e+01
        2.808077e+00	        6.885608e+01
        2.839529e+00	        6.885449e+01
        2.871333e+00	        6.885304e+01
        2.903493e+00	        6.885158e+01
        2.936014e+00	        6.885010e+01
        2.968899e+00	        6.884860e+01
        3.002152e+00	        6.884708e+01
        3.035777e+00	        6.879299e+01
        3.069779e+00	        6.873002e+01
        3.104162e+00	        6.866634e+01
        3.138931e+00	        6.860194e+01
        3.174088e+00	        6.853683e+01
        3.209640e+00	        6.847098e+01
        3.245589e+00	        6.836723e+01
        3.281941e+00	        6.825459e+01
        3.318701e+00	        6.814068e+01
        3.355872e+00	        6.802551e+01
        3.393459e+00	        6.790904e+01
        3.431468e+00	        6.779127e+01
        3.469902e+00	        6.767218e+01
        3.508766e+00	        6.753356e+01
        3.548066e+00	        6.738786e+01
        3.587806e+00	        6.724053e+01
        3.627992e+00	        6.709155e+01
        3.668627e+00	        6.694091e+01
        3.709717e+00	        6.678857e+01
        3.751268e+00	        6.663466e+01
        3.793284e+00	        6.648414e+01
        3.835771e+00	        6.633194e+01
        3.878733e+00	        6.617803e+01
        3.922177e+00	        6.602240e+01
        3.966107e+00	        6.586503e+01
        4.010530e+00	        6.570589e+01
        4.055449e+00	        6.554497e+01
        4.100872e+00	        6.536615e+01
        4.146804e+00	        6.514704e+01
        4.193250e+00	        6.492547e+01
        4.240217e+00	        6.470142e+01
        4.287709e+00	        6.447486e+01
        4.335734e+00	        6.424576e+01
        4.384296e+00	        6.401410e+01
        4.433403e+00	        6.381823e+01
        4.483059e+00	        6.362133e+01
        4.533271e+00	        6.342223e+01
        4.584046e+00	        6.322089e+01
        4.635390e+00	        6.301730e+01
        4.687308e+00	        6.281143e+01
        4.739809e+00	        6.260326e+01
        4.792897e+00	        6.239275e+01
        4.846580e+00	        6.214513e+01
        4.900864e+00	        6.188945e+01
        4.955756e+00	        6.163090e+01
        5.011263e+00	        6.136946e+01
        5.067391e+00	        6.110508e+01
        5.124149e+00	        6.083775e+01
        5.181542e+00	        6.056742e+01
        5.239577e+00	        6.031585e+01
        5.298263e+00	        6.006754e+01
        5.357606e+00	        5.981645e+01
        5.417614e+00	        5.956254e+01
        5.478294e+00	        5.930579e+01
        5.539654e+00	        5.904617e+01
        5.601701e+00	        5.878363e+01
        5.664442e+00	        5.851816e+01
        5.727887e+00	        5.825230e+01
        5.792042e+00	        5.798479e+01
        5.856916e+00	        5.771429e+01
        5.922516e+00	        5.744076e+01
        5.988851e+00	        5.716417e+01
        6.055929e+00	        5.688448e+01
        6.123759e+00	        5.660166e+01
        6.192348e+00	        5.631567e+01
        6.261705e+00	        5.601818e+01
        6.331839e+00	        5.570242e+01
        6.402759e+00	        5.538312e+01
        6.474473e+00	        5.506025e+01
        6.546991e+00	        5.473376e+01
        6.620320e+00	        5.440361e+01
        6.694471e+00	        5.406977e+01
        6.769452e+00	        5.371309e+01
        6.845274e+00	        5.337162e+01
        6.921944e+00	        5.303660e+01
        6.999473e+00	        5.269927e+01
        7.077871e+00	        5.235876e+01
        7.157146e+00	        5.201602e+01
        7.237310e+00	        5.166979e+01
        7.318371e+00	        5.132010e+01
        7.400341e+00	        5.096652e+01
        7.483228e+00	        5.062068e+01
        7.567044e+00	        5.028398e+01
        7.651799e+00	        4.994376e+01
        7.737503e+00	        4.960017e+01
        7.824166e+00	        4.925321e+01
        7.911801e+00	        4.890281e+01
        8.000417e+00	        4.854874e+01
        8.090026e+00	        4.819070e+01
        8.180638e+00	        4.782881e+01
        8.272265e+00	        4.747722e+01
        8.364918e+00	        4.712174e+01
        8.458610e+00	        4.676227e+01
        8.553350e+00	        4.639880e+01
        8.649152e+00	        4.603143e+01
        8.746027e+00	        4.565995e+01
        8.843987e+00	        4.528431e+01
        8.943044e+00	        4.490446e+01
        9.043210e+00	        4.452143e+01
        9.144499e+00	        4.413480e+01
        9.246921e+00	        4.374383e+01
        9.350492e+00	        4.334849e+01
        9.455222e+00	        4.294872e+01
        9.561125e+00	        4.254451e+01
        9.668214e+00	        4.213577e+01
        9.776503e+00	        4.172246e+01
        9.886005e+00	        4.133388e+01
        9.996733e+00	        4.098307e+01
        1.010870e+01	        4.062844e+01
        1.022192e+01	        4.026983e+01
        1.033641e+01	        3.990720e+01
        1.045219e+01	        3.954051e+01
        1.056926e+01	        3.916971e+01
        1.068764e+01	        3.879477e+01
        1.080734e+01	        3.841563e+01
        1.092839e+01	        3.802611e+01
        1.105080e+01	        3.761224e+01
        1.117457e+01	        3.719374e+01
        1.129973e+01	        3.677057e+01
        1.142629e+01	        3.634276e+01
        1.155427e+01	        3.591015e+01
        1.168369e+01	        3.547270e+01
        1.181455e+01	        3.503035e+01
        1.194688e+01	        3.461567e+01
        1.208069e+01	        3.428271e+01
        1.221600e+01	        3.394606e+01
        1.235282e+01	        3.360565e+01
        1.249118e+01	        3.326142e+01
        1.263109e+01	        3.291333e+01
        1.277256e+01	        3.256135e+01
        1.291562e+01	        3.220545e+01
        1.306028e+01	        3.184563e+01
        1.320657e+01	        3.148178e+01
        1.335449e+01	        3.109023e+01
        1.350406e+01	        3.067701e+01
        1.365531e+01	        3.025916e+01
        1.380826e+01	        2.983663e+01
        1.396292e+01	        2.940938e+01
        1.411931e+01	        2.897737e+01
        1.427746e+01	        2.854052e+01
        1.443737e+01	        2.809877e+01
        1.459908e+01	        2.772116e+01
        1.476259e+01	        2.735766e+01
        1.492794e+01	        2.699008e+01
        1.509514e+01	        2.661842e+01
        1.526421e+01	        2.624253e+01
        1.543518e+01	        2.586248e+01
        1.560806e+01	        2.547819e+01
        1.578288e+01	        2.508960e+01
        1.595966e+01	        2.470347e+01
        1.613841e+01	        2.435231e+01
        1.631917e+01	        2.399722e+01
        1.650195e+01	        2.363816e+01
        1.668678e+01	        2.327507e+01
        1.687368e+01	        2.290792e+01
        1.706268e+01	        2.253666e+01
        1.725379e+01	        2.216124e+01
        1.744704e+01	        2.178162e+01
        1.764245e+01	        2.145047e+01
        1.784006e+01	        2.113502e+01
        1.803988e+01	        2.081604e+01
        1.824193e+01	        2.049349e+01
        1.844625e+01	        2.016732e+01
        1.865286e+01	        1.983750e+01
        1.886178e+01	        1.950399e+01
        1.907304e+01	        1.916674e+01
        1.928667e+01	        1.882571e+01
        1.950269e+01	        1.853239e+01
        1.972113e+01	        1.823660e+01
        1.994201e+01	        1.793749e+01
        2.016537e+01	        1.763503e+01
        2.039124e+01	        1.732919e+01
        2.061963e+01	        1.701992e+01
        2.085058e+01	        1.670718e+01
        2.108411e+01	        1.639095e+01
        2.132027e+01	        1.609637e+01
        2.155906e+01	        1.583824e+01
        2.180054e+01	        1.557722e+01
        2.204471e+01	        1.531327e+01
        2.229162e+01	        1.504637e+01
        2.254130e+01	        1.477648e+01
        2.279378e+01	        1.450356e+01
        2.304908e+01	        1.422756e+01
        2.330724e+01	        1.394847e+01
        2.356829e+01	        1.366826e+01
        2.383227e+01	        1.338663e+01
        2.409920e+01	        1.310185e+01
        2.436912e+01	        1.281388e+01
        2.464207e+01	        1.252268e+01
        2.491807e+01	        1.222821e+01
        2.519717e+01	        1.193039e+01
        2.547939e+01	        1.164896e+01
        2.576477e+01	        1.145412e+01
        2.605335e+01	        1.125710e+01
        2.634516e+01	        1.105787e+01
        2.664024e+01	        1.085641e+01
        2.693862e+01	        1.065269e+01
        2.724035e+01	        1.044663e+01
        2.754545e+01	        1.023823e+01
        2.785397e+01	        1.002751e+01
        2.816595e+01	        9.814423e+00
        2.848142e+01	        9.623211e+00
        2.880043e+01	        9.430398e+00
        2.912301e+01	        9.235426e+00
        2.944920e+01	        9.038272e+00
        2.977905e+01	        8.838910e+00
        3.011259e+01	        8.637238e+00
        3.044986e+01	        8.433306e+00
        3.079092e+01	        8.227090e+00
        3.113579e+01	        8.067744e+00
        3.148453e+01	        7.913013e+00
        3.183717e+01	        7.756550e+00
        3.219376e+01	        7.598336e+00
        3.255435e+01	        7.438349e+00
        3.291897e+01	        7.276511e+00
        3.328768e+01	        7.112803e+00
        3.366052e+01	        6.947261e+00
        3.403753e+01	        6.792170e+00
        3.441877e+01	        6.668231e+00
        3.480428e+01	        6.542905e+00
        3.519410e+01	        6.416174e+00
        3.558829e+01	        6.288025e+00
        3.598690e+01	        6.158432e+00
        3.638997e+01	        6.027223e+00
        3.679756e+01	        5.894544e+00
        3.720971e+01	        5.760379e+00
        3.762647e+01	        5.629113e+00
        3.804791e+01	        5.510813e+00
        3.847406e+01	        5.391188e+00
        3.890499e+01	        5.270223e+00
        3.934075e+01	        5.147903e+00
        3.978138e+01	        5.024206e+00
        4.022696e+01	        4.899124e+00
        4.067752e+01	        4.772641e+00
        4.113313e+01	        4.655038e+00
        4.159384e+01	        4.563132e+00
        4.205971e+01	        4.470197e+00
        4.253080e+01	        4.376048e+00
        4.300716e+01	        4.280933e+00
        4.348887e+01	        4.184783e+00
        4.397596e+01	        4.087357e+00
        4.446851e+01	        3.988755e+00
        4.496658e+01	        3.889059e+00
        4.547023e+01	        3.808074e+00
        4.597952e+01	        3.732093e+00
        4.649451e+01	        3.655263e+00
        4.701528e+01	        3.577576e+00
        4.754187e+01	        3.499022e+00
        4.807436e+01	        3.419747e+00
        4.861282e+01	        3.339650e+00
        4.915731e+01	        3.258658e+00
        4.970789e+01	        3.180053e+00
        5.026464e+01	        3.117244e+00
        5.082763e+01	        3.053731e+00
        5.139693e+01	        2.989507e+00
        5.197260e+01	        2.924566e+00
        5.255472e+01	        2.858898e+00
        5.314336e+01	        2.792478e+00
        5.373859e+01	        2.724946e+00
        5.434049e+01	        2.656659e+00
        5.494913e+01	        2.596262e+00
        5.556458e+01	        2.539603e+00
        5.618694e+01	        2.482310e+00
        5.681626e+01	        2.424377e+00
        5.745263e+01	        2.365796e+00
        5.809612e+01	        2.306607e+00
        5.874683e+01	        2.246893e+00
        5.940482e+01	        2.186510e+00
        6.007019e+01	        2.138171e+00
        6.074300e+01	        2.092596e+00
        6.142335e+01	        2.046334e+00
        6.211133e+01	        1.999714e+00
        6.280700e+01	        1.952665e+00
        6.351047e+01	        1.905106e+00
        6.422182e+01	        1.857078e+00
        6.494114e+01	        1.808555e+00
        6.566851e+01	        1.765623e+00
        6.640403e+01	        1.725286e+00
        6.714779e+01	        1.684504e+00
        6.789988e+01	        1.643279e+00
        6.866039e+01	        1.601599e+00
        6.942942e+01	        1.559462e+00
        7.020706e+01	        1.516960e+00
        7.099342e+01	        1.476183e+00
        7.178858e+01	        1.448339e+00
        7.259264e+01	        1.420187e+00
        7.340572e+01	        1.391719e+00
        7.422790e+01	        1.362934e+00
        7.505929e+01	        1.333831e+00
        7.589999e+01	        1.304403e+00
        7.675011e+01	        1.274645e+00
        7.760974e+01	        1.244721e+00
        7.847901e+01	        1.214898e+00
        7.935802e+01	        1.186584e+00
        8.024686e+01	        1.157953e+00
        8.114567e+01	        1.129004e+00
        8.205454e+01	        1.099735e+00
        8.297359e+01	        1.070030e+00
        8.390294e+01	        1.040010e+00
        8.484269e+01	        1.009894e+00
        8.579297e+01	        9.884879e-01
        8.675389e+01	        9.673063e-01
        8.772558e+01	        9.458982e-01
        8.870815e+01	        9.242564e-01
        8.970173e+01	        9.023762e-01
        9.070643e+01	        8.802576e-01
        9.172239e+01	        8.578936e-01
        9.274972e+01	        8.352620e-01
        9.378856e+01	        8.163158e-01
        9.483904e+01	        7.977690e-01
        9.590129e+01	        7.790182e-01
        9.697543e+01	        7.600600e-01
        9.806160e+01	        7.408925e-01
        9.915994e+01	        7.215108e-01
        1.002706e+02	        7.020992e-01
        1.013937e+02	        6.835655e-01
        1.025293e+02	        6.685068e-01
        1.036777e+02	        6.532805e-01
        1.048389e+02	        6.378836e-01
        1.060132e+02	        6.223154e-01
        1.072006e+02	        6.065731e-01
        1.084013e+02	        5.902622e-01
        1.096154e+02	        5.738487e-01
        1.108432e+02	        5.593852e-01
        1.120847e+02	        5.467210e-01
        1.133401e+02	        5.339329e-01
        1.146095e+02	        5.210385e-01
        1.158932e+02	        5.080196e-01
        1.171913e+02	        4.948680e-01
        1.185039e+02	        4.815700e-01
        1.198312e+02	        4.681322e-01
        1.211734e+02	        4.569433e-01
        1.225306e+02	        4.462103e-01
        1.239030e+02	        4.353684e-01
        1.252907e+02	        4.244206e-01
        1.266941e+02	        4.133625e-01
        1.281131e+02	        4.021915e-01
        1.295480e+02	        3.908965e-01
        1.309990e+02	        3.802651e-01
        1.324663e+02	        3.702288e-01
        1.339500e+02	        3.604193e-01
        1.354503e+02	        3.505000e-01
        1.369674e+02	        3.404635e-01
        1.385015e+02	        3.303160e-01
        1.400528e+02	        3.201520e-01
        1.416214e+02	        3.127442e-01
        1.432077e+02	        3.052540e-01
        1.448117e+02	        2.976849e-01
        1.464336e+02	        2.900334e-01
        1.480737e+02	        2.824305e-01
        1.497322e+02	        2.747445e-01
        1.514093e+02	        2.669726e-01
        1.531052e+02	        2.600916e-01
        1.548200e+02	        2.533340e-01
        1.565541e+02	        2.465009e-01
        1.583076e+02	        2.395917e-01
        1.600807e+02	        2.326168e-01
        1.618737e+02	        2.258488e-01
        1.636867e+02	        2.193737e-01
        1.655201e+02	        2.138502e-01
        1.673740e+02	        2.082649e-01
        1.692487e+02	        2.025600e-01
        1.711444e+02	        1.967920e-01
        1.730613e+02	        1.909778e-01
        1.749996e+02	        1.851096e-01
        1.769597e+02	        1.804466e-01
        1.789418e+02	        1.761000e-01
        1.809460e+02	        1.717084e-01
        1.829727e+02	        1.672722e-01
        1.850221e+02	        1.627869e-01
        1.870944e+02	        1.582529e-01
        1.891900e+02	        1.536753e-01
        1.913090e+02	        1.494848e-01
        1.934517e+02	        1.452491e-01
        1.956185e+02	        1.410945e-01
        1.978095e+02	        1.369289e-01
        2.000251e+02	        1.327185e-01
        2.022655e+02	        1.285885e-01
        2.045309e+02	        1.252519e-01
        2.068218e+02	        1.218739e-01
        2.091383e+02	        1.184658e-01
        2.114807e+02	        1.150225e-01
        2.138494e+02	        1.115600e-01
        2.162446e+02	        1.081482e-01
        2.186667e+02	        1.053798e-01
        2.211159e+02	        1.025808e-01
        2.235925e+02	        9.975064e-02
        2.260968e+02	        9.689037e-02
        2.286292e+02	        9.399879e-02
        2.311900e+02	        9.107510e-02
        2.337794e+02	        8.858886e-02
        2.363979e+02	        8.625586e-02
        2.390456e+02	        8.389719e-02
        2.417231e+02	        8.151294e-02
        2.444305e+02	        7.900422e-02
        2.471682e+02	        7.650472e-02
        2.499366e+02	        7.429970e-02
        2.527360e+02	        7.213548e-02
        2.555668e+02	        6.995127e-02
        2.584293e+02	        6.781198e-02
        2.613238e+02	        6.566355e-02
        2.642508e+02	        6.357359e-02
        2.672105e+02	        6.184311e-02
        2.702034e+02	        6.009590e-02
        2.732298e+02	        5.833126e-02
        2.762901e+02	        5.654863e-02
        2.793847e+02	        5.476262e-02
        2.825139e+02	        5.313261e-02
        2.856782e+02	        5.167716e-02
        2.888780e+02	        5.020242e-02
        2.921136e+02	        4.871679e-02
        2.953854e+02	        4.721757e-02
        2.986938e+02	        4.570298e-02
        3.020393e+02	        4.435241e-02
        3.054223e+02	        4.312112e-02
        3.088432e+02	        4.187657e-02
        3.123024e+02	        4.063673e-02
        3.158004e+02	        3.938326e-02
        3.193375e+02	        3.811625e-02
        3.229142e+02	        3.687140e-02
        3.265310e+02	        3.563008e-02
        3.301883e+02	        3.437549e-02
        3.338866e+02	        3.306789e-02
        3.376263e+02	        3.177082e-02
        3.414079e+02	        3.077788e-02
        3.452318e+02	        2.985693e-02
        3.490986e+02	        2.892836e-02
        3.530086e+02	        2.799453e-02
        3.569625e+02	        2.705540e-02
        3.609607e+02	        2.611589e-02
        3.650036e+02	        2.528367e-02
        3.690918e+02	        2.445775e-02
        3.732258e+02	        2.364778e-02
        3.774062e+02	        2.282997e-02
        3.816333e+02	        2.200486e-02
        3.859078e+02	        2.123028e-02
        3.902301e+02	        2.049181e-02
        3.946009e+02	        1.974782e-02
        3.990206e+02	        1.899598e-02
        4.034898e+02	        1.825222e-02
        4.080091e+02	        1.757005e-02
        4.125790e+02	        1.694058e-02
        4.172001e+02	        1.630414e-02
        4.218730e+02	        1.566060e-02
        4.265982e+02	        1.501072e-02
        4.313763e+02	        1.437722e-02
        4.362079e+02	        1.376117e-02
        4.410936e+02	        1.315678e-02
        4.460341e+02	        1.256029e-02
        4.510299e+02	        1.196036e-02
        4.560817e+02	        1.137886e-02
        4.611900e+02	        1.079587e-02
        4.663556e+02	        1.020741e-02
        4.715790e+02	        9.613177e-03
        4.768609e+02	        9.048737e-03
        4.822020e+02	        8.499253e-03
        4.876029e+02	        7.947269e-03
        4.930643e+02	        7.378571e-03
        4.985868e+02	        6.792264e-03
        5.041712e+02	        6.200748e-03
        5.098182e+02	        5.584375e-03
        5.155284e+02	        4.950288e-03
        5.213026e+02	        4.549778e-03
        5.271414e+02	        4.463650e-03
        5.330457e+02	        4.376772e-03
        5.390161e+02	        4.289021e-03
        5.450533e+02	        4.200436e-03
        5.511582e+02	        4.109301e-03
        5.573314e+02	        4.012293e-03
        5.635738e+02	        3.935023e-03
        5.698861e+02	        3.865526e-03
        5.762691e+02	        3.795964e-03
        5.827236e+02	        3.726424e-03
        5.892504e+02	        3.657129e-03
        5.958503e+02	        3.587316e-03
        6.025241e+02	        3.517128e-03
        6.092727e+02	        3.450248e-03
        6.160968e+02	        3.385168e-03
        6.229974e+02	        3.319648e-03
        6.299753e+02	        3.254846e-03
        6.370313e+02	        3.191409e-03
        6.441664e+02	        3.128071e-03
        6.513814e+02	        3.064631e-03
        6.586772e+02	        3.009536e-03
        6.660547e+02	        2.956804e-03
        6.735148e+02	        2.903527e-03
        6.810585e+02	        2.845371e-03
        6.886867e+02	        2.782035e-03
        6.964003e+02	        2.722278e-03
        7.042004e+02	        2.666724e-03
        7.120878e+02	        2.620020e-03
        7.200635e+02	        2.573638e-03
        7.281286e+02	        2.527509e-03
        7.362840e+02	        2.481283e-03
        7.445307e+02	        2.434808e-03
        7.528698e+02	        2.386471e-03
        7.613023e+02	        2.340051e-03
        7.698293e+02	        2.296863e-03
        7.784518e+02	        2.253876e-03
        7.871708e+02	        2.211059e-03
        7.959875e+02	        2.168196e-03
        8.049030e+02	        2.125171e-03
        8.139183e+02	        2.087148e-03
        8.230346e+02	        2.051631e-03
        8.322529e+02	        2.010100e-03
        8.415746e+02	        1.969330e-03
        8.510006e+02	        1.929577e-03
        8.605323e+02	        1.890698e-03
        8.701706e+02	        1.855479e-03
        8.799170e+02	        1.822280e-03
        8.897725e+02	        1.789012e-03
        8.997384e+02	        1.755593e-03
        9.098159e+02	        1.718975e-03
        9.200063e+02	        1.683831e-03
        9.303108e+02	        1.653070e-03
        9.407307e+02	        1.623495e-03
        9.512674e+02	        1.593985e-03
        9.619221e+02	        1.564611e-03
        9.726961e+02	        1.535169e-03
        9.835907e+02	        1.506600e-03
        9.946074e+02	        1.472066e-03
        1.005748e+03	        1.440891e-03
        1.017012e+03	        1.411396e-03
        1.028403e+03	        1.382609e-03
        1.039922e+03	        1.354826e-03
        1.051570e+03	        1.330398e-03
        1.063348e+03	        1.305984e-03
        1.075258e+03	        1.277184e-03
        1.087301e+03	        1.249251e-03
        1.099480e+03	        1.222200e-03
        1.111794e+03	        1.198050e-03
        1.124247e+03	        1.174531e-03
        1.136839e+03	        1.151367e-03
        1.149572e+03	        1.128387e-03
        1.162448e+03	        1.062777e-03
        1.175468e+03	        1.005348e-03
        1.188634e+03	        9.579204e-04
        1.201947e+03	        9.178173e-04
        1.215409e+03	        8.793937e-04
        1.229023e+03	        8.456902e-04
        1.242788e+03	        8.138773e-04
        1.256708e+03	        7.829976e-04
        1.270784e+03	        7.526887e-04
        1.285017e+03	        7.253213e-04
        1.299410e+03	        6.992145e-04
        1.313964e+03	        6.738092e-04
        1.328681e+03	        6.493262e-04
        1.343563e+03	        6.261138e-04
        1.358612e+03	        6.030048e-04
        1.373829e+03	        5.822704e-04
        1.389216e+03	        5.621912e-04
        1.404776e+03	        5.424589e-04
        1.420510e+03	        5.231287e-04
        1.436421e+03	        5.041360e-04
        1.452509e+03	        4.849097e-04
        1.468778e+03	        4.660563e-04
        1.485229e+03	        4.475659e-04
        1.501865e+03	        4.291192e-04
        1.518686e+03	        4.102237e-04
        1.535696e+03	        3.899356e-04
        1.552897e+03	        3.657432e-04
        1.570290e+03	        3.222212e-04
        1.587878e+03	        3.149910e-04
        1.605663e+03	        3.080380e-04
        1.623647e+03	        3.016676e-04
        1.641833e+03	        2.954090e-04
        1.660222e+03	        2.892558e-04
        1.678818e+03	        2.830628e-04
        1.697621e+03	        2.768165e-04
        1.716635e+03	        2.710289e-04
        1.735863e+03	        2.655452e-04
        1.755305e+03	        2.603040e-04
        1.774965e+03	        2.551016e-04
        1.794846e+03	        2.500271e-04
        1.814949e+03	        2.449893e-04
        1.835277e+03	        2.399155e-04
        1.855833e+03	        2.348119e-04
        1.876620e+03	        2.296704e-04
        1.897639e+03	        2.245251e-04
        1.918893e+03	        2.195605e-04
        1.940386e+03	        2.147797e-04
        1.962119e+03	        2.103974e-04
        1.984096e+03	        2.060671e-04
        2.006319e+03	        2.017120e-04
        2.028790e+03	        1.973360e-04
        2.051514e+03	        1.929512e-04
        2.074492e+03	        1.887933e-04
        2.097727e+03	        1.848199e-04
        2.121223e+03	        1.809023e-04
        2.144981e+03	        1.772003e-04
        2.169006e+03	        1.735304e-04
        2.193300e+03	        1.698416e-04
        2.217866e+03	        1.663331e-04
        2.242707e+03	        1.628888e-04
        2.267827e+03	        1.594345e-04
        2.293228e+03	        1.560580e-04
        2.318913e+03	        1.527217e-04
        2.344886e+03	        1.494747e-04
        2.371150e+03	        1.462587e-04
        2.397708e+03	        1.431368e-04
        2.424563e+03	        1.400862e-04
        2.451720e+03	        1.370075e-04
        2.479180e+03	        1.339018e-04
        2.506948e+03	        1.309451e-04
        2.535027e+03	        1.280893e-04
        2.563421e+03	        1.254603e-04
        2.592132e+03	        1.229265e-04
        2.621165e+03	        1.203833e-04
        2.650524e+03	        1.178135e-04
        2.680211e+03	        1.152167e-04
        2.710231e+03	        1.125951e-04
        2.740587e+03	        1.101253e-04
        2.771282e+03	        1.078290e-04
        2.802322e+03	        1.056237e-04
        2.833710e+03	        1.033930e-04
        2.865449e+03	        1.011375e-04
        2.897543e+03	        9.885777e-05
        2.929997e+03	        9.656020e-05
        2.962814e+03	        9.426793e-05
        2.995999e+03	        9.217290e-05
        3.029556e+03	        9.034648e-05
        3.063488e+03	        8.850013e-05
        3.097801e+03	        8.663326e-05
        3.132498e+03	        8.474629e-05
        3.167583e+03	        8.288117e-05
        3.203062e+03	        8.104377e-05
        3.238938e+03	        7.919005e-05
        3.275216e+03	        7.742709e-05
        3.311900e+03	        7.574952e-05
        3.348994e+03	        7.405891e-05
        3.386505e+03	        7.237969e-05
        3.424435e+03	        7.069014e-05
        3.462791e+03	        6.898708e-05
        3.501576e+03	        6.730323e-05
        3.540795e+03	        6.575046e-05
        3.580454e+03	        6.430472e-05
        3.620557e+03	        6.291155e-05
        3.661109e+03	        6.153827e-05
        3.702115e+03	        6.014968e-05
        3.743580e+03	        5.874889e-05
        3.785510e+03	        5.737562e-05
        3.827910e+03	        5.600575e-05
        3.870784e+03	        5.468439e-05
        3.914139e+03	        5.341318e-05
        3.957979e+03	        5.219666e-05
        4.002311e+03	        5.097664e-05
        4.047138e+03	        4.980645e-05
        4.092468e+03	        4.863734e-05
        4.138306e+03	        4.748056e-05
        4.184657e+03	        4.632715e-05
        4.231527e+03	        4.521581e-05
        4.278923e+03	        4.414006e-05
        4.326849e+03	        4.307215e-05
        4.375311e+03	        4.201480e-05
        4.424317e+03	        4.095142e-05
        4.473872e+03	        3.988279e-05
        4.523981e+03	        3.880275e-05
        4.574652e+03	        3.778773e-05
        4.625890e+03	        3.683828e-05
        4.677703e+03	        3.592894e-05
        4.730095e+03	        3.503170e-05
        4.783075e+03	        3.412445e-05
        4.836647e+03	        3.320060e-05
        4.890820e+03	        3.228515e-05
        4.945600e+03	        3.137231e-05
        5.000993e+03	        3.048097e-05
        5.057007e+03	        2.957022e-05
        5.113648e+03	        2.853360e-05
        5.170923e+03	        2.758823e-05
        5.228840e+03	        2.689748e-05
        5.287405e+03	        2.621544e-05
        5.346627e+03	        2.552722e-05
        5.406512e+03	        2.484557e-05
        5.467067e+03	        2.422885e-05
        5.528301e+03	        2.362155e-05
        5.590221e+03	        2.302169e-05
        5.652834e+03	        2.242256e-05
        5.716149e+03	        2.181988e-05
        5.780172e+03	        2.121549e-05
        5.844913e+03	        2.060726e-05
        5.910379e+03	        2.001916e-05
        5.976578e+03	        1.945605e-05
        6.043519e+03	        1.890437e-05
        6.111209e+03	        1.833152e-05
        6.179658e+03	        1.773212e-05
        6.248873e+03	        1.700083e-05
        6.318863e+03	        1.652879e-05
        6.389638e+03	        1.606861e-05
        6.461205e+03	        1.564137e-05
        6.533574e+03	        1.522072e-05
        6.606753e+03	        1.479577e-05
        6.680752e+03	        1.437458e-05
        6.755579e+03	        1.395454e-05
        6.831245e+03	        1.353507e-05
        6.907759e+03	        1.310926e-05
        6.985129e+03	        1.268992e-05
        7.063366e+03	        1.227262e-05
        7.142479e+03	        1.183661e-05
        7.222478e+03	        1.138065e-05
        7.303374e+03	        1.083527e-05
        7.385175e+03	        1.020777e-05
        7.467893e+03	        9.929890e-06
        7.551537e+03	        9.674454e-06
        7.636118e+03	        9.442108e-06
        7.721646e+03	        9.214486e-06
        7.808132e+03	        8.989019e-06
        7.895587e+03	        8.761491e-06
        7.984022e+03	        8.531470e-06
        8.073446e+03	        8.309737e-06
        8.163873e+03	        8.095148e-06
        8.255312e+03	        7.880281e-06
        8.347776e+03	        7.667477e-06
        8.441275e+03	        7.453122e-06
        8.535822e+03	        7.236645e-06
        8.631427e+03	        7.022608e-06
        8.728103e+03	        6.809150e-06
        8.825862e+03	        6.594822e-06
        8.924716e+03	        6.394722e-06
        9.024678e+03	        6.208986e-06
        9.125758e+03	        6.027354e-06
        9.227971e+03	        5.845449e-06
        9.331329e+03	        5.658314e-06
        9.435845e+03	        5.464632e-06
        9.541531e+03	        5.263672e-06
        9.648401e+03	        5.002878e-06
        9.756468e+03	        4.867332e-06
        9.865745e+03	        4.733609e-06
        9.976246e+03	        4.599438e-06
        1.008798e+04	        4.463909e-06
        1.020098e+04	        4.330371e-06
        1.031523e+04	        4.199912e-06
        1.043077e+04	        4.071609e-06
        1.054760e+04	        3.954863e-06
        1.066573e+04	        3.838658e-06
        1.078520e+04	        3.720878e-06
        1.090600e+04	        3.602284e-06
        1.102815e+04	        3.485817e-06
        1.115167e+04	        3.368571e-06
        1.127657e+04	        3.253114e-06
        1.140288e+04	        3.145409e-06
        1.153059e+04	        3.036004e-06
        1.165974e+04	        2.923898e-06
        1.179034e+04	        2.807099e-06
        1.192240e+04	        2.676607e-06
        1.205593e+04	        2.511399e-06
        1.219096e+04	        2.432752e-06
        1.232751e+04	        2.364103e-06
        1.246558e+04	        2.295717e-06
        1.260520e+04	        2.226540e-06
        1.274639e+04	        2.156517e-06
        1.288915e+04	        2.085499e-06
        1.303352e+04	        2.014151e-06
        1.317950e+04	        1.940250e-06
        1.332712e+04	        1.869588e-06
        1.347639e+04	        1.802500e-06
        1.362733e+04	        1.733357e-06
        1.377996e+04	        1.660353e-06
        1.393431e+04	        1.583538e-06
        1.409038e+04	        1.497818e-06
        1.424820e+04	        1.419320e-06
        1.440778e+04	        1.383307e-06
        1.456916e+04	        1.347054e-06
        1.473234e+04	        1.310435e-06
        1.489735e+04	        1.273605e-06
        1.506421e+04	        1.236496e-06
        1.523293e+04	        1.201025e-06
        1.540355e+04	        1.166512e-06
        1.557608e+04	        1.131948e-06
        1.575054e+04	        1.096974e-06
        1.592695e+04	        1.061505e-06
        1.610534e+04	        1.026031e-06
        1.628573e+04	        9.945209e-07
        1.646814e+04	        9.628294e-07
        1.665259e+04	        9.277894e-07
        1.683910e+04	        9.003440e-07
        1.702771e+04	        8.726977e-07
        1.721843e+04	        8.453638e-07
        1.741128e+04	        8.217948e-07
        1.760630e+04	        7.980730e-07
        1.780350e+04	        7.740661e-07
        1.800291e+04	        7.499204e-07
        1.820455e+04	        7.257276e-07
        1.840845e+04	        7.026599e-07
        1.861463e+04	        6.802109e-07
        1.882312e+04	        6.574245e-07
        1.903395e+04	        6.340122e-07
        1.924714e+04	        6.109965e-07
        1.946272e+04	        5.905666e-07
        1.968071e+04	        5.712439e-07
        1.990114e+04	        5.516793e-07
        2.012405e+04	        5.319324e-07
        2.034945e+04	        5.117326e-07
        2.057737e+04	        4.936735e-07
        2.080785e+04	        4.757336e-07
        2.104091e+04	        4.575281e-07
        2.127657e+04	        4.387900e-07
        2.151488e+04	        4.197764e-07
        2.175586e+04	        4.022713e-07
        2.199954e+04	        3.865208e-07
        2.224594e+04	        3.706154e-07
        2.249511e+04	        3.548661e-07
        2.274706e+04	        3.397698e-07
        2.300184e+04	        3.244031e-07
        2.325947e+04	        3.089960e-07
        2.351999e+04	        2.936802e-07
        2.378343e+04	        2.798806e-07
        2.404981e+04	        2.659467e-07
        2.431918e+04	        2.518867e-07
        2.459157e+04	        2.378090e-07
        2.486701e+04	        2.235438e-07
        2.514553e+04	        2.096586e-07
        2.542717e+04	        1.963767e-07
        2.571197e+04	        1.826549e-07
        2.599996e+04	        1.676904e-07
        2.629117e+04	        1.548370e-07
        2.658564e+04	        1.414997e-07
        2.688341e+04	        1.275215e-07
        2.718452e+04	        1.121689e-07
        2.748900e+04	        9.630556e-08
        2.779689e+04	        7.958593e-08
        2.810823e+04	        5.861436e-08
        2.842306e+04	        2.097045e-08
        2.874141e+04	        6.699177e-09
        2.906333e+04	        6.094374e-09
        2.938885e+04	        5.430366e-09
        2.971802e+04	        4.670632e-09
        3.005088e+04	        3.985542e-09
        3.038746e+04	        3.216805e-09
        3.072782e+04	        2.169168e-09
        3.107198e+04	        4.150471e-10
        3.142000e+04	        3.862147e-10
        3.177192e+04	        3.549541e-10
        3.212779e+04	        3.171204e-10
        3.248763e+04	        2.811787e-10
        3.285151e+04	        2.574365e-10
        3.321946e+04	        2.295514e-10
        3.359154e+04	        1.846521e-10
        3.396778e+04	        1.750979e-10
        3.434823e+04	        1.671077e-10
        3.473295e+04	        1.588038e-10
        3.512198e+04	        1.471250e-10
        3.551536e+04	        1.415344e-10
        3.591315e+04	        1.358972e-10
        3.631540e+04	        1.301376e-10
        3.672215e+04	        1.245251e-10
        3.713345e+04	        1.187862e-10
        3.754937e+04	        1.122453e-10
        3.796994e+04	        1.066423e-10
        3.839522e+04	        1.020587e-10
        3.882526e+04	        9.676284e-11
        3.926013e+04	        9.230249e-11
        3.969986e+04	        8.845517e-11
        4.014452e+04	        8.392313e-11
        4.059416e+04	        8.064965e-11
        4.104883e+04	        7.734972e-11
        4.150860e+04	        7.378363e-11
        4.197351e+04	        7.080849e-11
        4.244364e+04	        6.743867e-11
        4.291903e+04	        6.398825e-11
        4.339974e+04	        6.166736e-11
        4.388584e+04	        5.928387e-11
        4.437738e+04	        5.706881e-11
        4.487443e+04	        5.483534e-11
        4.537705e+04	        5.242883e-11
        4.588529e+04	        5.064309e-11
        4.639923e+04	        4.883525e-11
        4.691893e+04	        4.711294e-11
        4.744444e+04	        4.540965e-11
        4.797584e+04	        4.367475e-11
        4.851319e+04	        4.213891e-11
        4.905657e+04	        4.060031e-11
        4.960602e+04	        3.907616e-11
        5.016164e+04	        3.748546e-11
        5.072347e+04	        3.601924e-11
        5.129160e+04	        3.453682e-11
        5.186609e+04	        3.325146e-11
        5.244702e+04	        3.194296e-11
        5.303445e+04	        3.066311e-11
        5.362846e+04	        2.934945e-11
        5.422913e+04	        2.810239e-11
        5.483652e+04	        2.689686e-11
        5.545071e+04	        2.570745e-11
        5.607179e+04	        2.445830e-11
        5.669982e+04	        2.330787e-11
        5.733489e+04	        2.225070e-11
        5.797707e+04	        2.118791e-11
        5.862644e+04	        2.001839e-11
        5.928308e+04	        1.906179e-11
        5.994708e+04	        1.816166e-11
        6.061852e+04	        1.730150e-11
        6.129748e+04	        1.636693e-11
        6.198404e+04	        1.558565e-11
        6.267829e+04	        1.476079e-11
        6.338032e+04	        1.385571e-11
        6.409021e+04	        1.301151e-11
        6.480805e+04	        1.239835e-11
        6.553393e+04	        1.180826e-11
        6.626795e+04	        1.117546e-11
        6.701018e+04	        1.065856e-11
        6.776073e+04	        1.012822e-11
        6.851968e+04	        9.561847e-12
        6.928713e+04	        9.085993e-12
        7.006318e+04	        8.614047e-12
        7.084793e+04	        8.124827e-12
        7.164146e+04	        7.650925e-12
        7.244388e+04	        7.219111e-12
        7.325529e+04	        6.785357e-12
        7.407578e+04	        6.353246e-12
        7.490547e+04	        5.955375e-12
        7.574444e+04	        5.552625e-12
        7.659282e+04	        5.153825e-12
        7.745070e+04	        4.785666e-12
        7.831818e+04	        4.426951e-12
        7.919539e+04	        4.087143e-12
        8.008241e+04	        3.755460e-12
        8.097938e+04	        3.383244e-12
        8.188638e+04	        3.054212e-12
        8.280355e+04	        2.710876e-12
        8.373099e+04	        2.350059e-12
        8.466882e+04	        2.052654e-12
        8.561715e+04	        1.698373e-12
        8.657611e+04	        1.431966e-12
        8.754580e+04	        1.142544e-12
        8.852636e+04	        8.860053e-13
        8.951790e+04	        7.228104e-13
        9.052054e+04	        5.535644e-13
        9.153442e+04	        3.902258e-13
        9.255965e+04	        1.924786e-13
        9.359636e+04	        6.634239e-14
        9.464469e+04	        5.336139e-14
        9.570475e+04	        4.881427e-14
        9.677669e+04	        4.423288e-14
        9.786064e+04	        3.937861e-14
        9.895673e+04	        3.436735e-14
        1.000651e+05	        2.866157e-14
        1.011859e+05	        2.162639e-14
        1.023192e+05	        1.091814e-14
        1.034652e+05	        6.125659e-15
        1.046241e+05	        1.819961e-15
        1.057959e+05	        0.000000e+00
        1.069809e+05	        0.000000e+00
        1.081791e+05	        0.000000e+00
        1.093908e+05	        0.000000e+00

# -------------------------------------------------------------------------------
# Curve 1: LET spectrum with Flares
# Params: 0 5 #e086ff 2 1
#	LET (MeV.cm^2.g^{-1})		Flux (cm^{-2}.s^{-1})
# -------------------------------------------------------------------------------
        1.608960e+00	        1.359307e+04
        1.626982e+00	        1.359307e+04
        1.645205e+00	        1.359307e+04
        1.663632e+00	        1.359307e+04
        1.682265e+00	        1.359296e+04
        1.701107e+00	        1.359282e+04
        1.720161e+00	        1.359273e+04
        1.739427e+00	        1.359267e+04
        1.758910e+00	        1.359262e+04
        1.778610e+00	        1.359257e+04
        1.798532e+00	        1.359254e+04
        1.818676e+00	        1.359227e+04
        1.839046e+00	        1.359183e+04
        1.859644e+00	        1.359129e+04
        1.880473e+00	        1.359043e+04
        1.901536e+00	        1.358955e+04
        1.922834e+00	        1.358858e+04
        1.944370e+00	        1.358753e+04
        1.966148e+00	        1.358648e+04
        1.988170e+00	        1.358533e+04
        2.010439e+00	        1.358414e+04
        2.032956e+00	        1.358294e+04
        2.055727e+00	        1.358164e+04
        2.078752e+00	        1.358017e+04
        2.102035e+00	        1.357868e+04
        2.125579e+00	        1.357718e+04
        2.149386e+00	        1.357547e+04
        2.173460e+00	        1.357362e+04
        2.197804e+00	        1.357175e+04
        2.222421e+00	        1.356986e+04
        2.247313e+00	        1.356786e+04
        2.272484e+00	        1.356576e+04
        2.297937e+00	        1.356363e+04
        2.323675e+00	        1.356149e+04
        2.349701e+00	        1.355932e+04
        2.376019e+00	        1.355654e+04
        2.402632e+00	        1.355340e+04
        2.429542e+00	        1.355022e+04
        2.456754e+00	        1.354700e+04
        2.484271e+00	        1.354378e+04
        2.512096e+00	        1.354073e+04
        2.540233e+00	        1.353764e+04
        2.568685e+00	        1.353451e+04
        2.597455e+00	        1.353135e+04
        2.626548e+00	        1.352816e+04
        2.655967e+00	        1.352492e+04
        2.685715e+00	        1.352008e+04
        2.715796e+00	        1.351514e+04
        2.746214e+00	        1.351014e+04
        2.776973e+00	        1.350509e+04
        2.808077e+00	        1.349998e+04
        2.839529e+00	        1.349432e+04
        2.871333e+00	        1.348842e+04
        2.903493e+00	        1.348245e+04
        2.936014e+00	        1.347641e+04
        2.968899e+00	        1.347031e+04
        3.002152e+00	        1.346414e+04
        3.035777e+00	        1.345670e+04
        3.069779e+00	        1.344899e+04
        3.104162e+00	        1.344118e+04
        3.138931e+00	        1.343330e+04
        3.174088e+00	        1.342532e+04
        3.209640e+00	        1.341725e+04
        3.245589e+00	        1.340919e+04
        3.281941e+00	        1.340106e+04
        3.318701e+00	        1.339283e+04
        3.355872e+00	        1.338452e+04
        3.393459e+00	        1.337611e+04
        3.431468e+00	        1.336760e+04
        3.469902e+00	        1.335900e+04
        3.508766e+00	        1.334965e+04
        3.548066e+00	        1.334000e+04
        3.587806e+00	        1.333024e+04
        3.627992e+00	        1.332037e+04
        3.668627e+00	        1.331039e+04
        3.709717e+00	        1.330030e+04
        3.751268e+00	        1.329012e+04
        3.793284e+00	        1.328100e+04
        3.835771e+00	        1.327178e+04
        3.878733e+00	        1.326246e+04
        3.922177e+00	        1.325304e+04
        3.966107e+00	        1.324350e+04
        4.010530e+00	        1.323386e+04
        4.055449e+00	        1.322412e+04
        4.100872e+00	        1.321350e+04
        4.146804e+00	        1.320094e+04
        4.193250e+00	        1.318825e+04
        4.240217e+00	        1.317541e+04
        4.287709e+00	        1.316243e+04
        4.335734e+00	        1.314930e+04
        4.384296e+00	        1.313603e+04
        4.433403e+00	        1.312486e+04
        4.483059e+00	        1.311363e+04
        4.533271e+00	        1.310227e+04
        4.584046e+00	        1.309079e+04
        4.635390e+00	        1.307918e+04
        4.687308e+00	        1.306743e+04
        4.739809e+00	        1.305556e+04
        4.792897e+00	        1.304355e+04
        4.846580e+00	        1.302891e+04
        4.900864e+00	        1.301372e+04
        4.955756e+00	        1.299836e+04
        5.011263e+00	        1.298283e+04
        5.067391e+00	        1.296712e+04
        5.124149e+00	        1.295124e+04
        5.181542e+00	        1.293518e+04
        5.239577e+00	        1.291952e+04
        5.298263e+00	        1.290385e+04
        5.357606e+00	        1.288800e+04
        5.417614e+00	        1.287198e+04
        5.478294e+00	        1.285578e+04
        5.539654e+00	        1.283939e+04
        5.601701e+00	        1.282283e+04
        5.664442e+00	        1.280607e+04
        5.727887e+00	        1.278817e+04
        5.792042e+00	        1.276957e+04
        5.856916e+00	        1.275076e+04
        5.922516e+00	        1.273174e+04
        5.988851e+00	        1.271250e+04
        6.055929e+00	        1.269305e+04
        6.123759e+00	        1.267339e+04
        6.192348e+00	        1.265350e+04
        6.261705e+00	        1.263172e+04
        6.331839e+00	        1.260668e+04
        6.402759e+00	        1.258137e+04
        6.474473e+00	        1.255577e+04
        6.546991e+00	        1.252989e+04
        6.620320e+00	        1.250371e+04
        6.694471e+00	        1.247724e+04
        6.769452e+00	        1.245046e+04
        6.845274e+00	        1.242210e+04
        6.921944e+00	        1.239259e+04
        6.999473e+00	        1.236276e+04
        7.077871e+00	        1.233259e+04
        7.157146e+00	        1.230208e+04
        7.237310e+00	        1.227124e+04
        7.318371e+00	        1.224005e+04
        7.400341e+00	        1.220851e+04
        7.483228e+00	        1.217520e+04
        7.567044e+00	        1.213992e+04
        7.651799e+00	        1.210424e+04
        7.737503e+00	        1.206816e+04
        7.824166e+00	        1.203168e+04
        7.911801e+00	        1.199479e+04
        8.000417e+00	        1.195749e+04
        8.090026e+00	        1.191977e+04
        8.180638e+00	        1.188157e+04
        8.272265e+00	        1.183688e+04
        8.364918e+00	        1.179169e+04
        8.458610e+00	        1.174599e+04
        8.553350e+00	        1.169978e+04
        8.649152e+00	        1.165305e+04
        8.746027e+00	        1.160580e+04
        8.843987e+00	        1.155802e+04
        8.943044e+00	        1.150971e+04
        9.043210e+00	        1.145551e+04
        9.144499e+00	        1.139634e+04
        9.246921e+00	        1.133652e+04
        9.350492e+00	        1.127603e+04
        9.455222e+00	        1.121485e+04
        9.561125e+00	        1.115300e+04
        9.668214e+00	        1.109045e+04
        9.776503e+00	        1.102720e+04
        9.886005e+00	        1.096369e+04
        9.996733e+00	        1.090011e+04
        1.010870e+01	        1.083583e+04
        1.022192e+01	        1.077082e+04
        1.033641e+01	        1.070509e+04
        1.045219e+01	        1.063862e+04
        1.056926e+01	        1.057140e+04
        1.068764e+01	        1.050343e+04
        1.080734e+01	        1.043470e+04
        1.092839e+01	        1.036153e+04
        1.105080e+01	        1.027560e+04
        1.117457e+01	        1.018871e+04
        1.129973e+01	        1.010084e+04
        1.142629e+01	        1.001199e+04
        1.155427e+01	        9.922149e+03
        1.168369e+01	        9.831297e+03
        1.181455e+01	        9.739428e+03
        1.194688e+01	        9.651601e+03
        1.208069e+01	        9.576204e+03
        1.221600e+01	        9.499962e+03
        1.235282e+01	        9.422867e+03
        1.249118e+01	        9.344908e+03
        1.263109e+01	        9.266076e+03
        1.277256e+01	        9.186361e+03
        1.291562e+01	        9.105753e+03
        1.306028e+01	        9.024242e+03
        1.320657e+01	        8.941818e+03
        1.335449e+01	        8.849679e+03
        1.350406e+01	        8.750070e+03
        1.365531e+01	        8.649346e+03
        1.380826e+01	        8.547494e+03
        1.396292e+01	        8.444501e+03
        1.411931e+01	        8.340355e+03
        1.427746e+01	        8.235041e+03
        1.443737e+01	        8.128549e+03
        1.459908e+01	        8.033252e+03
        1.476259e+01	        7.940176e+03
        1.492794e+01	        7.846058e+03
        1.509514e+01	        7.750885e+03
        1.526421e+01	        7.654647e+03
        1.543518e+01	        7.557331e+03
        1.560806e+01	        7.458924e+03
        1.578288e+01	        7.359416e+03
        1.595966e+01	        7.259826e+03
        1.613841e+01	        7.165080e+03
        1.631917e+01	        7.069272e+03
        1.650195e+01	        6.972392e+03
        1.668678e+01	        6.874426e+03
        1.687368e+01	        6.775363e+03
        1.706268e+01	        6.675191e+03
        1.725379e+01	        6.573896e+03
        1.744704e+01	        6.471467e+03
        1.764245e+01	        6.380040e+03
        1.784006e+01	        6.292056e+03
        1.803988e+01	        6.203086e+03
        1.824193e+01	        6.113120e+03
        1.844625e+01	        6.022146e+03
        1.865286e+01	        5.930153e+03
        1.886178e+01	        5.837130e+03
        1.907304e+01	        5.743065e+03
        1.928667e+01	        5.647947e+03
        1.950269e+01	        5.563706e+03
        1.972113e+01	        5.478709e+03
        1.994201e+01	        5.392760e+03
        2.016537e+01	        5.305848e+03
        2.039124e+01	        5.217962e+03
        2.061963e+01	        5.129093e+03
        2.085058e+01	        5.039228e+03
        2.108411e+01	        4.948356e+03
        2.132027e+01	        4.862957e+03
        2.155906e+01	        4.786843e+03
        2.180054e+01	        4.709878e+03
        2.204471e+01	        4.632050e+03
        2.229162e+01	        4.553350e+03
        2.254130e+01	        4.473769e+03
        2.279378e+01	        4.393297e+03
        2.304908e+01	        4.311923e+03
        2.330724e+01	        4.229637e+03
        2.356829e+01	        4.146496e+03
        2.383227e+01	        4.062480e+03
        2.409920e+01	        3.977523e+03
        2.436912e+01	        3.891614e+03
        2.464207e+01	        3.804743e+03
        2.491807e+01	        3.716899e+03
        2.519717e+01	        3.628071e+03
        2.547939e+01	        3.543945e+03
        2.576477e+01	        3.484779e+03
        2.605335e+01	        3.424950e+03
        2.634516e+01	        3.364451e+03
        2.664024e+01	        3.303274e+03
        2.693862e+01	        3.241412e+03
        2.724035e+01	        3.178858e+03
        2.754545e+01	        3.115602e+03
        2.785397e+01	        3.051638e+03
        2.816595e+01	        2.986957e+03
        2.848142e+01	        2.927664e+03
        2.880043e+01	        2.867842e+03
        2.912301e+01	        2.807351e+03
        2.944920e+01	        2.746181e+03
        2.977905e+01	        2.684327e+03
        3.011259e+01	        2.621780e+03
        3.044986e+01	        2.558532e+03
        3.079092e+01	        2.494576e+03
        3.113579e+01	        2.445055e+03
        3.148453e+01	        2.396951e+03
        3.183717e+01	        2.348308e+03
        3.219376e+01	        2.299120e+03
        3.255435e+01	        2.249382e+03
        3.291897e+01	        2.199086e+03
        3.328768e+01	        2.148227e+03
        3.366052e+01	        2.096798e+03
        3.403753e+01	        2.048672e+03
        3.441877e+01	        2.010373e+03
        3.480428e+01	        1.971646e+03
        3.519410e+01	        1.932485e+03
        3.558829e+01	        1.892886e+03
        3.598690e+01	        1.852842e+03
        3.638997e+01	        1.812350e+03
        3.679756e+01	        1.771405e+03
        3.720971e+01	        1.730001e+03
        3.762647e+01	        1.689455e+03
        3.804791e+01	        1.652793e+03
        3.847406e+01	        1.615720e+03
        3.890499e+01	        1.578231e+03
        3.934075e+01	        1.540323e+03
        3.978138e+01	        1.501990e+03
        4.022696e+01	        1.463229e+03
        4.067752e+01	        1.424033e+03
        4.113313e+01	        1.387574e+03
        4.159384e+01	        1.359036e+03
        4.205971e+01	        1.330178e+03
        4.253080e+01	        1.300997e+03
        4.300716e+01	        1.271490e+03
        4.348887e+01	        1.241652e+03
        4.397596e+01	        1.211479e+03
        4.446851e+01	        1.180968e+03
        4.496658e+01	        1.150115e+03
        4.547023e+01	        1.125155e+03
        4.597952e+01	        1.101772e+03
        4.649451e+01	        1.078128e+03
        4.701528e+01	        1.054219e+03
        4.754187e+01	        1.030043e+03
        4.807436e+01	        1.005596e+03
        4.861282e+01	        9.808766e+02
        4.915731e+01	        9.558801e+02
        4.970789e+01	        9.316356e+02
        5.026464e+01	        9.123482e+02
        5.082763e+01	        8.928448e+02
        5.139693e+01	        8.731229e+02
        5.197260e+01	        8.531802e+02
        5.255472e+01	        8.330141e+02
        5.314336e+01	        8.126220e+02
        5.373859e+01	        7.920009e+02
        5.434049e+01	        7.711488e+02
        5.494913e+01	        7.527553e+02
        5.556458e+01	        7.355292e+02
        5.618694e+01	        7.181101e+02
        5.681626e+01	        7.004960e+02
        5.745263e+01	        6.826845e+02
        5.809612e+01	        6.646739e+02
        5.874683e+01	        6.464625e+02
        5.940482e+01	        6.280471e+02
        6.007019e+01	        6.133894e+02
        6.074300e+01	        5.996755e+02
        6.142335e+01	        5.858078e+02
        6.211133e+01	        5.717850e+02
        6.280700e+01	        5.576052e+02
        6.351047e+01	        5.432665e+02
        6.422182e+01	        5.287678e+02
        6.494114e+01	        5.141069e+02
        6.566851e+01	        5.011777e+02
        6.640403e+01	        4.890545e+02
        6.714779e+01	        4.767954e+02
        6.789988e+01	        4.643991e+02
        6.866039e+01	        4.518639e+02
        6.942942e+01	        4.391883e+02
        7.020706e+01	        4.263712e+02
        7.099342e+01	        4.140653e+02
        7.178858e+01	        4.058806e+02
        7.259264e+01	        3.976043e+02
        7.340572e+01	        3.892353e+02
        7.422790e+01	        3.807725e+02
        7.505929e+01	        3.722150e+02
        7.589999e+01	        3.635616e+02
        7.675011e+01	        3.548112e+02
        7.760974e+01	        3.459636e+02
        7.847901e+01	        3.371611e+02
        7.935802e+01	        3.288857e+02
        8.024686e+01	        3.205177e+02
        8.114567e+01	        3.120560e+02
        8.205454e+01	        3.034995e+02
        8.297359e+01	        2.948471e+02
        8.390294e+01	        2.860977e+02
        8.484269e+01	        2.772511e+02
        8.579297e+01	        2.711084e+02
        8.675389e+01	        2.650406e+02
        8.772558e+01	        2.589050e+02
        8.870815e+01	        2.527006e+02
        8.970173e+01	        2.464267e+02
        9.070643e+01	        2.400825e+02
        9.172239e+01	        2.336673e+02
        9.274972e+01	        2.271803e+02
        9.378856e+01	        2.218797e+02
        9.483904e+01	        2.167119e+02
        9.590129e+01	        2.114862e+02
        9.697543e+01	        2.062019e+02
        9.806160e+01	        2.008585e+02
        9.915994e+01	        1.954553e+02
        1.002706e+02	        1.899919e+02
        1.013937e+02	        1.846367e+02
        1.025293e+02	        1.803881e+02
        1.036777e+02	        1.760920e+02
        1.048389e+02	        1.717478e+02
        1.060132e+02	        1.673549e+02
        1.072006e+02	        1.629128e+02
        1.084013e+02	        1.584206e+02
        1.096154e+02	        1.538781e+02
        1.108432e+02	        1.499143e+02
        1.120847e+02	        1.464774e+02
        1.133401e+02	        1.430020e+02
        1.146095e+02	        1.394877e+02
        1.158932e+02	        1.359341e+02
        1.171913e+02	        1.323407e+02
        1.185039e+02	        1.287070e+02
        1.198312e+02	        1.250326e+02
        1.211734e+02	        1.220081e+02
        1.225306e+02	        1.190658e+02
        1.239030e+02	        1.160906e+02
        1.252907e+02	        1.130821e+02
        1.266941e+02	        1.100399e+02
        1.281131e+02	        1.069637e+02
        1.295480e+02	        1.038530e+02
        1.309990e+02	        1.009525e+02
        1.324663e+02	        9.823934e+01
        1.339500e+02	        9.549662e+01
        1.354503e+02	        9.272319e+01
        1.369674e+02	        8.991869e+01
        1.385015e+02	        8.708277e+01
        1.400528e+02	        8.424339e+01
        1.416214e+02	        8.225556e+01
        1.432077e+02	        8.024547e+01
        1.448117e+02	        7.821287e+01
        1.464336e+02	        7.615751e+01
        1.480737e+02	        7.407944e+01
        1.497322e+02	        7.197809e+01
        1.514093e+02	        6.985321e+01
        1.531052e+02	        6.800189e+01
        1.548200e+02	        6.619070e+01
        1.565541e+02	        6.435923e+01
        1.583076e+02	        6.250725e+01
        1.600807e+02	        6.063454e+01
        1.618737e+02	        5.874149e+01
        1.636867e+02	        5.694051e+01
        1.655201e+02	        5.543411e+01
        1.673740e+02	        5.391084e+01
        1.692487e+02	        5.237045e+01
        1.711444e+02	        5.081281e+01
        1.730613e+02	        4.923774e+01
        1.749996e+02	        4.764504e+01
        1.769597e+02	        4.640335e+01
        1.789418e+02	        4.522854e+01
        1.809460e+02	        4.404057e+01
        1.829727e+02	        4.283930e+01
        1.850221e+02	        4.162457e+01
        1.870944e+02	        4.039624e+01
        1.891900e+02	        3.915560e+01
        1.913090e+02	        3.803832e+01
        1.934517e+02	        3.690853e+01
        1.956185e+02	        3.576636e+01
        1.978095e+02	        3.461148e+01
        2.000251e+02	        3.344366e+01
        2.022655e+02	        3.230275e+01
        2.045309e+02	        3.141550e+01
        2.068218e+02	        3.051830e+01
        2.091383e+02	        2.961107e+01
        2.114807e+02	        2.869367e+01
        2.138494e+02	        2.776604e+01
        2.162446e+02	        2.682904e+01
        2.186667e+02	        2.609747e+01
        2.211159e+02	        2.535771e+01
        2.235925e+02	        2.460966e+01
        2.260968e+02	        2.385323e+01
        2.286292e+02	        2.308833e+01
        2.311900e+02	        2.231486e+01
        2.337794e+02	        2.167427e+01
        2.363979e+02	        2.104895e+01
        2.390456e+02	        2.041661e+01
        2.417231e+02	        1.977720e+01
        2.444305e+02	        1.913052e+01
        2.471682e+02	        1.847664e+01
        2.499366e+02	        1.791204e+01
        2.527360e+02	        1.735860e+01
        2.555668e+02	        1.679896e+01
        2.584293e+02	        1.623319e+01
        2.613238e+02	        1.566112e+01
        2.642508e+02	        1.510796e+01
        2.672105e+02	        1.466992e+01
        2.702034e+02	        1.422698e+01
        2.732298e+02	        1.377908e+01
        2.762901e+02	        1.332616e+01
        2.793847e+02	        1.286821e+01
        2.825139e+02	        1.242529e+01
        2.856782e+02	        1.204066e+01
        2.888780e+02	        1.165172e+01
        2.921136e+02	        1.125842e+01
        2.953854e+02	        1.086073e+01
        2.986938e+02	        1.045858e+01
        3.020393e+02	        1.010867e+01
        3.054223e+02	        9.796908e+00
        3.088432e+02	        9.481647e+00
        3.123024e+02	        9.162890e+00
        3.158004e+02	        8.840563e+00
        3.193375e+02	        8.514626e+00
        3.229142e+02	        8.196410e+00
        3.265310e+02	        7.879608e+00
        3.301883e+02	        7.559260e+00
        3.338866e+02	        7.235285e+00
        3.376263e+02	        6.907762e+00
        3.414079e+02	        6.660670e+00
        3.452318e+02	        6.432582e+00
        3.490986e+02	        6.201942e+00
        3.530086e+02	        5.968724e+00
        3.569625e+02	        5.732903e+00
        3.609607e+02	        5.496790e+00
        3.650036e+02	        5.294995e+00
        3.690918e+02	        5.090971e+00
        3.732258e+02	        4.884712e+00
        3.774062e+02	        4.676145e+00
        3.816333e+02	        4.465243e+00
        3.859078e+02	        4.271580e+00
        3.902301e+02	        4.088582e+00
        3.946009e+02	        3.903537e+00
        3.990206e+02	        3.716420e+00
        4.034898e+02	        3.527238e+00
        4.080091e+02	        3.352194e+00
        4.125790e+02	        3.194017e+00
        4.172001e+02	        3.034069e+00
        4.218730e+02	        2.872329e+00
        4.265982e+02	        2.708778e+00
        4.313763e+02	        2.550595e+00
        4.362079e+02	        2.400842e+00
        4.410936e+02	        2.249455e+00
        4.460341e+02	        2.096397e+00
        4.510299e+02	        1.941628e+00
        4.560817e+02	        1.792812e+00
        4.611900e+02	        1.643566e+00
        4.663556e+02	        1.492650e+00
        4.715790e+02	        1.340044e+00
        4.768609e+02	        1.197121e+00
        4.822020e+02	        1.053527e+00
        4.876029e+02	        9.083333e-01
        4.930643e+02	        7.587763e-01
        4.985868e+02	        6.036728e-01
        5.041712e+02	        4.468333e-01
        5.098182e+02	        2.820907e-01
        5.155284e+02	        1.118643e-01
        5.213026e+02	        1.455048e-02
        5.271414e+02	        1.431172e-02
        5.330457e+02	        1.407176e-02
        5.390161e+02	        1.382927e-02
        5.450533e+02	        1.358415e-02
        5.511582e+02	        1.333461e-02
        5.573314e+02	        1.307743e-02
        5.635738e+02	        1.285682e-02
        5.698861e+02	        1.265004e-02
        5.762691e+02	        1.244381e-02
        5.827236e+02	        1.223970e-02
        5.892504e+02	        1.203597e-02
        5.958503e+02	        1.182993e-02
        6.025241e+02	        1.162180e-02
        6.092727e+02	        1.141971e-02
        6.160968e+02	        1.122421e-02
        6.229974e+02	        1.102680e-02
        6.299753e+02	        1.082990e-02
        6.370313e+02	        1.064699e-02
        6.441664e+02	        1.046299e-02
        6.513814e+02	        1.027752e-02
        6.586772e+02	        1.010842e-02
        6.660547e+02	        9.943447e-03
        6.735148e+02	        9.776673e-03
        6.810585e+02	        9.603750e-03
        6.886867e+02	        9.424432e-03
        6.964003e+02	        9.249501e-03
        7.042004e+02	        9.081977e-03
        7.120878e+02	        8.932725e-03
        7.200635e+02	        8.783120e-03
        7.281286e+02	        8.632611e-03
        7.362840e+02	        8.480835e-03
        7.445307e+02	        8.327543e-03
        7.528698e+02	        8.171379e-03
        7.613023e+02	        8.018425e-03
        7.698293e+02	        7.885330e-03
        7.784518e+02	        7.753221e-03
        7.871708e+02	        7.620863e-03
        7.959875e+02	        7.487455e-03
        8.049030e+02	        7.352872e-03
        8.139183e+02	        7.227662e-03
        8.230346e+02	        7.107019e-03
        8.322529e+02	        6.979419e-03
        8.415746e+02	        6.851888e-03
        8.510006e+02	        6.725033e-03
        8.605323e+02	        6.598797e-03
        8.701706e+02	        6.479142e-03
        8.799170e+02	        6.362410e-03
        8.897725e+02	        6.244668e-03
        8.997384e+02	        6.125826e-03
        9.098159e+02	        6.002674e-03
        9.200063e+02	        5.884409e-03
        9.303108e+02	        5.780061e-03
        9.407307e+02	        5.680118e-03
        9.512674e+02	        5.579337e-03
        9.619221e+02	        5.477703e-03
        9.726961e+02	        5.375168e-03
        9.835907e+02	        5.273693e-03
        9.946074e+02	        5.168995e-03
        1.005748e+03	        5.067011e-03
        1.017012e+03	        4.968498e-03
        1.028403e+03	        4.874052e-03
        1.039922e+03	        4.781259e-03
        1.051570e+03	        4.694451e-03
        1.063348e+03	        4.606885e-03
        1.075258e+03	        4.514266e-03
        1.087301e+03	        4.422154e-03
        1.099480e+03	        4.330424e-03
        1.111794e+03	        4.245454e-03
        1.124247e+03	        4.166692e-03
        1.136839e+03	        4.087670e-03
        1.149572e+03	        4.008369e-03
        1.162448e+03	        3.886771e-03
        1.175468e+03	        3.774456e-03
        1.188634e+03	        3.671821e-03
        1.201947e+03	        3.577428e-03
        1.215409e+03	        3.484891e-03
        1.229023e+03	        3.400473e-03
        1.242788e+03	        3.319999e-03
        1.256708e+03	        3.240120e-03
        1.270784e+03	        3.160280e-03
        1.285017e+03	        3.085274e-03
        1.299410e+03	        3.011361e-03
        1.313964e+03	        2.937923e-03
        1.328681e+03	        2.864879e-03
        1.343563e+03	        2.794347e-03
        1.358612e+03	        2.728335e-03
        1.373829e+03	        2.664358e-03
        1.389216e+03	        2.600933e-03
        1.404776e+03	        2.537898e-03
        1.420510e+03	        2.474995e-03
        1.436421e+03	        2.413014e-03
        1.452509e+03	        2.350903e-03
        1.468778e+03	        2.290585e-03
        1.485229e+03	        2.230586e-03
        1.501865e+03	        2.171244e-03
        1.518686e+03	        2.110694e-03
        1.535696e+03	        2.046924e-03
        1.552897e+03	        1.974133e-03
        1.570290e+03	        1.860305e-03
        1.587878e+03	        1.821908e-03
        1.605663e+03	        1.784890e-03
        1.623647e+03	        1.754024e-03
        1.641833e+03	        1.723205e-03
        1.660222e+03	        1.692405e-03
        1.678818e+03	        1.661341e-03
        1.697621e+03	        1.629959e-03
        1.716635e+03	        1.598874e-03
        1.735863e+03	        1.569200e-03
        1.755305e+03	        1.540965e-03
        1.774965e+03	        1.512743e-03
        1.794846e+03	        1.485820e-03
        1.814949e+03	        1.458834e-03
        1.835277e+03	        1.431587e-03
        1.855833e+03	        1.404065e-03
        1.876620e+03	        1.376255e-03
        1.897639e+03	        1.348219e-03
        1.918893e+03	        1.321459e-03
        1.940386e+03	        1.295325e-03
        1.962119e+03	        1.271796e-03
        1.984096e+03	        1.248261e-03
        2.006319e+03	        1.224486e-03
        2.028790e+03	        1.200517e-03
        2.051514e+03	        1.176333e-03
        2.074492e+03	        1.152648e-03
        2.097727e+03	        1.130137e-03
        2.121223e+03	        1.108089e-03
        2.144981e+03	        1.087997e-03
        2.169006e+03	        1.068028e-03
        2.193300e+03	        1.047858e-03
        2.217866e+03	        1.027673e-03
        2.242707e+03	        1.007567e-03
        2.267827e+03	        9.873253e-04
        2.293228e+03	        9.679430e-04
        2.318913e+03	        9.489924e-04
        2.344886e+03	        9.305685e-04
        2.371150e+03	        9.124380e-04
        2.397708e+03	        8.943213e-04
        2.424563e+03	        8.764579e-04
        2.451720e+03	        8.584263e-04
        2.479180e+03	        8.402248e-04
        2.506948e+03	        8.232113e-04
        2.535027e+03	        8.068523e-04
        2.563421e+03	        7.918690e-04
        2.592132e+03	        7.768223e-04
        2.621165e+03	        7.616957e-04
        2.650524e+03	        7.464159e-04
        2.680211e+03	        7.309734e-04
        2.710231e+03	        7.153755e-04
        2.740587e+03	        7.010708e-04
        2.771282e+03	        6.879542e-04
        2.802322e+03	        6.753847e-04
        2.833710e+03	        6.626480e-04
        2.865449e+03	        6.497690e-04
        2.897543e+03	        6.367543e-04
        2.929997e+03	        6.236410e-04
        2.962814e+03	        6.104834e-04
        2.995999e+03	        5.979205e-04
        3.029556e+03	        5.870857e-04
        3.063488e+03	        5.761313e-04
        3.097801e+03	        5.650546e-04
        3.132498e+03	        5.538567e-04
        3.167583e+03	        5.427093e-04
        3.203062e+03	        5.316286e-04
        3.238938e+03	        5.204387e-04
        3.275216e+03	        5.097404e-04
        3.311900e+03	        4.997120e-04
        3.348994e+03	        4.896104e-04
        3.386505e+03	        4.795400e-04
        3.424435e+03	        4.693801e-04
        3.462791e+03	        4.591175e-04
        3.501576e+03	        4.490560e-04
        3.540795e+03	        4.394566e-04
        3.580454e+03	        4.305257e-04
        3.620557e+03	        4.220357e-04
        3.661109e+03	        4.136017e-04
        3.702115e+03	        4.050733e-04
        3.743580e+03	        3.964641e-04
        3.785510e+03	        3.881303e-04
        3.827910e+03	        3.798015e-04
        3.870784e+03	        3.714670e-04
        3.914139e+03	        3.633557e-04
        3.957979e+03	        3.556726e-04
        4.002311e+03	        3.480038e-04
        4.047138e+03	        3.408458e-04
        4.092468e+03	        3.337148e-04
        4.138306e+03	        3.265878e-04
        4.184657e+03	        3.194161e-04
        4.231527e+03	        3.122972e-04
        4.278923e+03	        3.054418e-04
        4.326849e+03	        2.986713e-04
        4.375311e+03	        2.919735e-04
        4.424317e+03	        2.852226e-04
        4.473872e+03	        2.784180e-04
        4.523981e+03	        2.715596e-04
        4.574652e+03	        2.649245e-04
        4.625890e+03	        2.587307e-04
        4.677703e+03	        2.529016e-04
        4.730095e+03	        2.472141e-04
        4.783075e+03	        2.414632e-04
        4.836647e+03	        2.356107e-04
        4.890820e+03	        2.298548e-04
        4.945600e+03	        2.241423e-04
        5.000993e+03	        2.184492e-04
        5.057007e+03	        2.126413e-04
        5.113648e+03	        2.062891e-04
        5.170923e+03	        2.004457e-04
        5.228840e+03	        1.958181e-04
        5.287405e+03	        1.912236e-04
        5.346627e+03	        1.865893e-04
        5.406512e+03	        1.819663e-04
        5.467067e+03	        1.777242e-04
        5.528301e+03	        1.735614e-04
        5.590221e+03	        1.694840e-04
        5.652834e+03	        1.654017e-04
        5.716149e+03	        1.613166e-04
        5.780172e+03	        1.572197e-04
        5.844913e+03	        1.531020e-04
        5.910379e+03	        1.491011e-04
        5.976578e+03	        1.452440e-04
        6.043519e+03	        1.415261e-04
        6.111209e+03	        1.377271e-04
        6.179658e+03	        1.338449e-04
        6.248873e+03	        1.296519e-04
        6.318863e+03	        1.261717e-04
        6.389638e+03	        1.227645e-04
        6.461205e+03	        1.195319e-04
        6.533574e+03	        1.163401e-04
        6.606753e+03	        1.131105e-04
        6.680752e+03	        1.099031e-04
        6.755579e+03	        1.066906e-04
        6.831245e+03	        1.034756e-04
        6.907759e+03	        1.002037e-04
        6.985129e+03	        9.698199e-05
        7.063366e+03	        9.372828e-05
        7.142479e+03	        9.029286e-05
        7.222478e+03	        8.666403e-05
        7.303374e+03	        8.220862e-05
        7.385175e+03	        7.700284e-05
        7.467893e+03	        7.500730e-05
        7.551537e+03	        7.318145e-05
        7.636118e+03	        7.149979e-05
        7.721646e+03	        6.984179e-05
        7.808132e+03	        6.819519e-05
        7.895587e+03	        6.653251e-05
        7.984022e+03	        6.485159e-05
        8.073446e+03	        6.324686e-05
        8.163873e+03	        6.169857e-05
        8.255312e+03	        6.014288e-05
        8.347776e+03	        5.857886e-05
        8.441275e+03	        5.699934e-05
        8.535822e+03	        5.540413e-05
        8.631427e+03	        5.383344e-05
        8.728103e+03	        5.226542e-05
        8.825862e+03	        5.069497e-05
        8.924716e+03	        4.922089e-05
        9.024678e+03	        4.784476e-05
        9.125758e+03	        4.650155e-05
        9.227971e+03	        4.516058e-05
        9.331329e+03	        4.378357e-05
        9.435845e+03	        4.237197e-05
        9.541531e+03	        4.091838e-05
        9.648401e+03	        3.910287e-05
        9.756468e+03	        3.806232e-05
        9.865745e+03	        3.703099e-05
        9.976246e+03	        3.599482e-05
        1.008798e+04	        3.494921e-05
        1.020098e+04	        3.392481e-05
        1.031523e+04	        3.292772e-05
        1.043077e+04	        3.194525e-05
        1.054760e+04	        3.104360e-05
        1.066573e+04	        3.014105e-05
        1.078520e+04	        2.923167e-05
        1.090600e+04	        2.831787e-05
        1.102815e+04	        2.741347e-05
        1.115167e+04	        2.650170e-05
        1.127657e+04	        2.560580e-05
        1.140288e+04	        2.476665e-05
        1.153059e+04	        2.390994e-05
        1.165974e+04	        2.303229e-05
        1.179034e+04	        2.212007e-05
        1.192240e+04	        2.110146e-05
        1.205593e+04	        1.981570e-05
        1.219096e+04	        1.919628e-05
        1.232751e+04	        1.865092e-05
        1.246558e+04	        1.810542e-05
        1.260520e+04	        1.755274e-05
        1.274639e+04	        1.699414e-05
        1.288915e+04	        1.642871e-05
        1.303352e+04	        1.586284e-05
        1.317950e+04	        1.527826e-05
        1.332712e+04	        1.471151e-05
        1.347639e+04	        1.416148e-05
        1.362733e+04	        1.359264e-05
        1.377996e+04	        1.298779e-05
        1.393431e+04	        1.234577e-05
        1.409038e+04	        1.161112e-05
        1.424820e+04	        1.092212e-05
        1.440778e+04	        1.064646e-05
        1.456916e+04	        1.036912e-05
        1.473234e+04	        1.008897e-05
        1.489735e+04	        9.806783e-06
        1.506421e+04	        9.522720e-06
        1.523293e+04	        9.249711e-06
        1.540355e+04	        8.983705e-06
        1.557608e+04	        8.716993e-06
        1.575054e+04	        8.446867e-06
        1.592695e+04	        8.172408e-06
        1.610534e+04	        7.897274e-06
        1.628573e+04	        7.651144e-06
        1.646814e+04	        7.402663e-06
        1.665259e+04	        7.124179e-06
        1.683910e+04	        6.913300e-06
        1.702771e+04	        6.700737e-06
        1.721843e+04	        6.489623e-06
        1.741128e+04	        6.307737e-06
        1.760630e+04	        6.124504e-06
        1.780350e+04	        5.938871e-06
        1.800291e+04	        5.751359e-06
        1.820455e+04	        5.562607e-06
        1.840845e+04	        5.381757e-06
        1.861463e+04	        5.204837e-06
        1.882312e+04	        5.023455e-06
        1.903395e+04	        4.828385e-06
        1.924714e+04	        4.645340e-06
        1.946272e+04	        4.492524e-06
        1.968071e+04	        4.348478e-06
        1.990114e+04	        4.202579e-06
        2.012405e+04	        4.055053e-06
        2.034945e+04	        3.904873e-06
        2.057737e+04	        3.769448e-06
        2.080785e+04	        3.634999e-06
        2.104091e+04	        3.498209e-06
        2.127657e+04	        3.357167e-06
        2.151488e+04	        3.214040e-06
        2.175586e+04	        3.082790e-06
        2.199954e+04	        2.965194e-06
        2.224594e+04	        2.846384e-06
        2.249511e+04	        2.729128e-06
        2.274706e+04	        2.617312e-06
        2.300184e+04	        2.504101e-06
        2.325947e+04	        2.389903e-06
        2.351999e+04	        2.279770e-06
        2.378343e+04	        2.174679e-06
        2.404981e+04	        2.068758e-06
        2.431918e+04	        1.962262e-06
        2.459157e+04	        1.856832e-06
        2.486701e+04	        1.750190e-06
        2.514553e+04	        1.643696e-06
        2.542717e+04	        1.542326e-06
        2.571197e+04	        1.438888e-06
        2.599996e+04	        1.330084e-06
        2.629117e+04	        1.228085e-06
        2.658564e+04	        1.122351e-06
        2.688341e+04	        1.012073e-06
        2.718452e+04	        8.927982e-07
        2.748900e+04	        7.668379e-07
        2.779689e+04	        6.331721e-07
        2.810823e+04	        4.661230e-07
        2.842306e+04	        1.678276e-07
        2.874141e+04	        5.485063e-08
        2.906333e+04	        4.984416e-08
        2.938885e+04	        4.436648e-08
        2.971802e+04	        3.821266e-08
        3.005088e+04	        3.248744e-08
        3.038746e+04	        2.605075e-08
        3.072782e+04	        1.732231e-08
        3.107198e+04	        2.779378e-09
        3.142000e+04	        2.550584e-09
        3.177192e+04	        2.303351e-09
        3.212779e+04	        2.010841e-09
        3.248763e+04	        1.728335e-09
        3.285151e+04	        1.508695e-09
        3.321946e+04	        1.241896e-09
        3.359154e+04	        7.848341e-10
        3.396778e+04	        7.259682e-10
        3.434823e+04	        6.818120e-10
        3.473295e+04	        6.342274e-10
        3.512198e+04	        5.574112e-10
        3.551536e+04	        5.315384e-10
        3.591315e+04	        5.047237e-10
        3.631540e+04	        4.766604e-10
        3.672215e+04	        4.492087e-10
        3.713345e+04	        4.203242e-10
        3.754937e+04	        3.826083e-10
        3.796994e+04	        3.539773e-10
        3.839522e+04	        3.362035e-10
        3.882526e+04	        3.162128e-10
        3.926013e+04	        2.980939e-10
        3.969986e+04	        2.800077e-10
        4.014452e+04	        2.536907e-10
        4.059416e+04	        2.417138e-10
        4.104883e+04	        2.304135e-10
        4.150860e+04	        2.179249e-10
        4.197351e+04	        2.077822e-10
        4.244364e+04	        1.956630e-10
        4.291903e+04	        1.831425e-10
        4.339974e+04	        1.758850e-10
        4.388584e+04	        1.681255e-10
        4.437738e+04	        1.611094e-10
        4.487443e+04	        1.539711e-10
        4.537705e+04	        1.459977e-10
        4.588529e+04	        1.407936e-10
        4.639923e+04	        1.355067e-10
        4.691893e+04	        1.304132e-10
        4.744444e+04	        1.252631e-10
        4.797584e+04	        1.199453e-10
        4.851319e+04	        1.155472e-10
        4.905657e+04	        1.111428e-10
        4.960602e+04	        1.066911e-10
        5.016164e+04	        1.019814e-10
        5.072347e+04	        9.769596e-11
        5.129160e+04	        9.336353e-11
        5.186609e+04	        8.957700e-11
        5.244702e+04	        8.570146e-11
        5.303445e+04	        8.188605e-11
        5.362846e+04	        7.793150e-11
        5.422913e+04	        7.414367e-11
        5.483652e+04	        7.049549e-11
        5.545071e+04	        6.678488e-11
        5.607179e+04	        6.263470e-11
        5.669982e+04	        5.890326e-11
        5.733489e+04	        5.562746e-11
        5.797707e+04	        5.221757e-11
        5.862644e+04	        4.803874e-11
        5.928308e+04	        4.501260e-11
        5.994708e+04	        4.225007e-11
        6.061852e+04	        3.970156e-11
        6.129748e+04	        3.643175e-11
        6.198404e+04	        3.461245e-11
        6.267829e+04	        3.264779e-11
        6.338032e+04	        3.042331e-11
        6.409021e+04	        2.838285e-11
        6.480805e+04	        2.707577e-11
        6.553393e+04	        2.583442e-11
        6.626795e+04	        2.448218e-11
        6.701018e+04	        2.343448e-11
        6.776073e+04	        2.235531e-11
        6.851968e+04	        2.118894e-11
        6.928713e+04	        2.023471e-11
        7.006318e+04	        1.930194e-11
        7.084793e+04	        1.834252e-11
        7.164146e+04	        1.739941e-11
        7.244388e+04	        1.651259e-11
        7.325529e+04	        1.562137e-11
        7.407578e+04	        1.473381e-11
        7.490547e+04	        1.390875e-11
        7.574444e+04	        1.307095e-11
        7.659282e+04	        1.223959e-11
        7.745070e+04	        1.146202e-11
        7.831818e+04	        1.069777e-11
        7.919539e+04	        9.960917e-12
        8.008241e+04	        9.233241e-12
        8.097938e+04	        8.443143e-12
        8.188638e+04	        7.701742e-12
        8.280355e+04	        6.922741e-12
        8.373099e+04	        6.109769e-12
        8.466882e+04	        5.366455e-12
        8.561715e+04	        4.464059e-12
        8.657611e+04	        3.751093e-12
        8.754580e+04	        2.983630e-12
        8.852636e+04	        2.313705e-12
        8.951790e+04	        1.895940e-12
        9.052054e+04	        1.467544e-12
        9.153442e+04	        1.019602e-12
        9.255965e+04	        4.722665e-13
        9.359636e+04	        1.243668e-13
        9.464469e+04	        9.255264e-14
        9.570475e+04	        8.476830e-14
        9.677669e+04	        7.689261e-14
        9.786064e+04	        6.853072e-14
        9.895673e+04	        5.987219e-14
        1.000651e+05	        4.998954e-14
        1.011859e+05	        3.776079e-14
        1.023192e+05	        1.910590e-14
        1.034652e+05	        1.073769e-14
        1.046241e+05	        3.193129e-15
        1.057959e+05	        0.000000e+00
        1.069809e+05	        0.000000e+00
        1.081791e+05	        0.000000e+00
        1.093908e+05	        0.000000e+00

