# -------------------------------------------------------------------------------
#		C:/Users/ASAT 02/Documents/OMERE 5.4/CDR CLOSE-OUT/SSO 500 - 1.5 years/Integral LET spectrum.txt
# -------------------------------------------------------------------------------
# ID: 1 2 1

# Graph: Integral LET spectrum 
# min: 0.000160896 1e-06 max: 1.09391e+09 3.93485e+08
# X-axis L: LET (MeV.cm^2.g^{-1})
# Y-axis L: Flux (cm^{-2}.s^{-1})
# -------------------------------------------------------------------------------
# Curve 0: LET spectrum without Flares
# Params: 0 5 #169ced 2 1
#	LET (MeV.cm^2.g^{-1})		Flux (cm^{-2}.s^{-1})
# -------------------------------------------------------------------------------
        1.608960e+00	        1.441327e+02
        1.626982e+00	        1.441327e+02
        1.645205e+00	        1.441327e+02
        1.663632e+00	        1.441327e+02
        1.682265e+00	        1.440228e+02
        1.701107e+00	        1.438855e+02
        1.720161e+00	        1.437970e+02
        1.739427e+00	        1.437357e+02
        1.758910e+00	        1.436816e+02
        1.778610e+00	        1.436379e+02
        1.798532e+00	        1.436009e+02
        1.818676e+00	        1.435682e+02
        1.839046e+00	        1.435382e+02
        1.859644e+00	        1.435099e+02
        1.880473e+00	        1.434844e+02
        1.901536e+00	        1.434605e+02
        1.922834e+00	        1.434392e+02
        1.944370e+00	        1.434231e+02
        1.966148e+00	        1.434115e+02
        1.988170e+00	        1.434039e+02
        2.010439e+00	        1.433968e+02
        2.032956e+00	        1.433897e+02
        2.055727e+00	        1.433830e+02
        2.078752e+00	        1.433774e+02
        2.102035e+00	        1.433717e+02
        2.125579e+00	        1.433659e+02
        2.149386e+00	        1.433608e+02
        2.173460e+00	        1.433563e+02
        2.197804e+00	        1.433517e+02
        2.222421e+00	        1.433470e+02
        2.247313e+00	        1.433431e+02
        2.272484e+00	        1.433398e+02
        2.297937e+00	        1.433364e+02
        2.323675e+00	        1.433331e+02
        2.349701e+00	        1.433297e+02
        2.376019e+00	        1.433264e+02
        2.402632e+00	        1.433233e+02
        2.429542e+00	        1.433202e+02
        2.456754e+00	        1.433170e+02
        2.484271e+00	        1.433139e+02
        2.512096e+00	        1.433120e+02
        2.540233e+00	        1.433101e+02
        2.568685e+00	        1.433081e+02
        2.597455e+00	        1.433062e+02
        2.626548e+00	        1.433042e+02
        2.655967e+00	        1.433021e+02
        2.685715e+00	        1.433002e+02
        2.715796e+00	        1.432983e+02
        2.746214e+00	        1.432963e+02
        2.776973e+00	        1.432943e+02
        2.808077e+00	        1.432923e+02
        2.839529e+00	        1.432529e+02
        2.871333e+00	        1.431992e+02
        2.903493e+00	        1.431450e+02
        2.936014e+00	        1.430902e+02
        2.968899e+00	        1.430347e+02
        3.002152e+00	        1.429787e+02
        3.035777e+00	        1.428769e+02
        3.069779e+00	        1.427669e+02
        3.104162e+00	        1.426557e+02
        3.138931e+00	        1.425432e+02
        3.174088e+00	        1.424294e+02
        3.209640e+00	        1.423144e+02
        3.245589e+00	        1.421987e+02
        3.281941e+00	        1.420818e+02
        3.318701e+00	        1.419635e+02
        3.355872e+00	        1.418440e+02
        3.393459e+00	        1.417231e+02
        3.431468e+00	        1.416008e+02
        3.469902e+00	        1.414772e+02
        3.508766e+00	        1.413325e+02
        3.548066e+00	        1.411802e+02
        3.587806e+00	        1.410262e+02
        3.627992e+00	        1.408705e+02
        3.668627e+00	        1.407130e+02
        3.709717e+00	        1.405538e+02
        3.751268e+00	        1.403928e+02
        3.793284e+00	        1.402342e+02
        3.835771e+00	        1.400738e+02
        3.878733e+00	        1.399116e+02
        3.922177e+00	        1.397476e+02
        3.966107e+00	        1.395818e+02
        4.010530e+00	        1.394141e+02
        4.055449e+00	        1.392445e+02
        4.100872e+00	        1.390557e+02
        4.146804e+00	        1.388235e+02
        4.193250e+00	        1.385887e+02
        4.240217e+00	        1.383513e+02
        4.287709e+00	        1.381113e+02
        4.335734e+00	        1.378685e+02
        4.384296e+00	        1.376230e+02
        4.433403e+00	        1.374135e+02
        4.483059e+00	        1.372029e+02
        4.533271e+00	        1.369898e+02
        4.584046e+00	        1.367744e+02
        4.635390e+00	        1.365566e+02
        4.687308e+00	        1.363363e+02
        4.739809e+00	        1.361136e+02
        4.792897e+00	        1.358883e+02
        4.846580e+00	        1.356196e+02
        4.900864e+00	        1.353416e+02
        4.955756e+00	        1.350605e+02
        5.011263e+00	        1.347763e+02
        5.067391e+00	        1.344888e+02
        5.124149e+00	        1.341982e+02
        5.181542e+00	        1.339043e+02
        5.239577e+00	        1.336270e+02
        5.298263e+00	        1.333522e+02
        5.357606e+00	        1.330744e+02
        5.417614e+00	        1.327934e+02
        5.478294e+00	        1.325093e+02
        5.539654e+00	        1.322219e+02
        5.601701e+00	        1.319314e+02
        5.664442e+00	        1.316376e+02
        5.727887e+00	        1.313384e+02
        5.792042e+00	        1.310348e+02
        5.856916e+00	        1.307277e+02
        5.922516e+00	        1.304172e+02
        5.988851e+00	        1.301032e+02
        6.055929e+00	        1.297857e+02
        6.123759e+00	        1.294647e+02
        6.192348e+00	        1.291400e+02
        6.261705e+00	        1.287993e+02
        6.331839e+00	        1.284324e+02
        6.402759e+00	        1.280614e+02
        6.474473e+00	        1.276863e+02
        6.546991e+00	        1.273069e+02
        6.620320e+00	        1.269233e+02
        6.694471e+00	        1.265354e+02
        6.769452e+00	        1.261237e+02
        6.845274e+00	        1.257218e+02
        6.921944e+00	        1.253225e+02
        6.999473e+00	        1.249203e+02
        7.077871e+00	        1.245141e+02
        7.157146e+00	        1.241050e+02
        7.237310e+00	        1.236917e+02
        7.318371e+00	        1.232741e+02
        7.400341e+00	        1.228519e+02
        7.483228e+00	        1.224303e+02
        7.567044e+00	        1.220097e+02
        7.651799e+00	        1.215847e+02
        7.737503e+00	        1.211553e+02
        7.824166e+00	        1.207216e+02
        7.911801e+00	        1.202835e+02
        8.000417e+00	        1.198407e+02
        8.090026e+00	        1.193930e+02
        8.180638e+00	        1.189403e+02
        8.272265e+00	        1.184793e+02
        8.364918e+00	        1.180133e+02
        8.458610e+00	        1.175420e+02
        8.553350e+00	        1.170655e+02
        8.649152e+00	        1.165838e+02
        8.746027e+00	        1.160967e+02
        8.843987e+00	        1.156041e+02
        8.943044e+00	        1.151061e+02
        9.043210e+00	        1.145883e+02
        9.144499e+00	        1.140531e+02
        9.246921e+00	        1.135118e+02
        9.350492e+00	        1.129645e+02
        9.455222e+00	        1.124110e+02
        9.561125e+00	        1.118514e+02
        9.668214e+00	        1.112856e+02
        9.776503e+00	        1.107134e+02
        9.886005e+00	        1.101648e+02
        9.996733e+00	        1.096532e+02
        1.010870e+01	        1.091360e+02
        1.022192e+01	        1.086130e+02
        1.033641e+01	        1.080842e+02
        1.045219e+01	        1.075494e+02
        1.056926e+01	        1.070086e+02
        1.068764e+01	        1.064618e+02
        1.080734e+01	        1.059088e+02
        1.092839e+01	        1.053301e+02
        1.105080e+01	        1.046809e+02
        1.117457e+01	        1.040244e+02
        1.129973e+01	        1.033607e+02
        1.142629e+01	        1.026895e+02
        1.155427e+01	        1.020109e+02
        1.168369e+01	        1.013247e+02
        1.181455e+01	        1.006307e+02
        1.194688e+01	        9.996846e+01
        1.208069e+01	        9.940310e+01
        1.221600e+01	        9.883146e+01
        1.235282e+01	        9.825341e+01
        1.249118e+01	        9.766889e+01
        1.263109e+01	        9.707783e+01
        1.277256e+01	        9.648014e+01
        1.291562e+01	        9.587579e+01
        1.306028e+01	        9.526473e+01
        1.320657e+01	        9.464682e+01
        1.335449e+01	        9.394516e+01
        1.350406e+01	        9.317938e+01
        1.365531e+01	        9.240503e+01
        1.380826e+01	        9.162200e+01
        1.396292e+01	        9.083021e+01
        1.411931e+01	        9.002958e+01
        1.427746e+01	        8.921998e+01
        1.443737e+01	        8.840131e+01
        1.459908e+01	        8.764929e+01
        1.476259e+01	        8.690898e+01
        1.492794e+01	        8.616037e+01
        1.509514e+01	        8.540341e+01
        1.526421e+01	        8.463790e+01
        1.543518e+01	        8.386387e+01
        1.560806e+01	        8.308118e+01
        1.578288e+01	        8.228974e+01
        1.595966e+01	        8.149369e+01
        1.613841e+01	        8.071332e+01
        1.631917e+01	        7.992420e+01
        1.650195e+01	        7.912625e+01
        1.668678e+01	        7.831936e+01
        1.687368e+01	        7.750343e+01
        1.706268e+01	        7.667837e+01
        1.725379e+01	        7.584406e+01
        1.744704e+01	        7.500041e+01
        1.764245e+01	        7.422076e+01
        1.784006e+01	        7.345940e+01
        1.803988e+01	        7.268951e+01
        1.824193e+01	        7.191100e+01
        1.844625e+01	        7.112377e+01
        1.865286e+01	        7.032773e+01
        1.886178e+01	        6.952276e+01
        1.907304e+01	        6.870879e+01
        1.928667e+01	        6.788568e+01
        1.950269e+01	        6.712076e+01
        1.972113e+01	        6.634833e+01
        1.994201e+01	        6.556725e+01
        2.016537e+01	        6.477741e+01
        2.039124e+01	        6.397874e+01
        2.061963e+01	        6.317111e+01
        2.085058e+01	        6.235444e+01
        2.108411e+01	        6.152862e+01
        2.132027e+01	        6.073908e+01
        2.155906e+01	        6.001254e+01
        2.180054e+01	        5.927787e+01
        2.204471e+01	        5.853497e+01
        2.229162e+01	        5.778374e+01
        2.254130e+01	        5.702410e+01
        2.279378e+01	        5.625595e+01
        2.304908e+01	        5.547915e+01
        2.330724e+01	        5.469366e+01
        2.356829e+01	        5.387256e+01
        2.383227e+01	        5.301930e+01
        2.409920e+01	        5.215649e+01
        2.436912e+01	        5.128401e+01
        2.464207e+01	        5.040177e+01
        2.491807e+01	        4.950964e+01
        2.519717e+01	        4.860741e+01
        2.547939e+01	        4.774727e+01
        2.576477e+01	        4.711480e+01
        2.605335e+01	        4.647524e+01
        2.634516e+01	        4.582852e+01
        2.664024e+01	        4.517456e+01
        2.693862e+01	        4.451327e+01
        2.724035e+01	        4.384451e+01
        2.754545e+01	        4.316818e+01
        2.785397e+01	        4.248428e+01
        2.816595e+01	        4.179272e+01
        2.848142e+01	        4.113064e+01
        2.880043e+01	        4.046198e+01
        2.912301e+01	        3.978584e+01
        2.944920e+01	        3.910212e+01
        2.977905e+01	        3.841074e+01
        3.011259e+01	        3.771145e+01
        3.044986e+01	        3.700433e+01
        3.079092e+01	        3.628929e+01
        3.113579e+01	        3.570491e+01
        3.148453e+01	        3.513204e+01
        3.183717e+01	        3.455275e+01
        3.219376e+01	        3.396698e+01
        3.255435e+01	        3.337464e+01
        3.291897e+01	        3.277554e+01
        3.328768e+01	        3.216960e+01
        3.366052e+01	        3.155688e+01
        3.403753e+01	        3.097547e+01
        3.441877e+01	        3.048961e+01
        3.480428e+01	        2.999830e+01
        3.519410e+01	        2.950150e+01
        3.558829e+01	        2.899912e+01
        3.598690e+01	        2.849111e+01
        3.638997e+01	        2.797700e+01
        3.679756e+01	        2.745713e+01
        3.720971e+01	        2.693144e+01
        3.762647e+01	        2.641178e+01
        3.804791e+01	        2.592541e+01
        3.847406e+01	        2.543359e+01
        3.890499e+01	        2.493626e+01
        3.934075e+01	        2.443337e+01
        3.978138e+01	        2.392470e+01
        4.022696e+01	        2.341032e+01
        4.067752e+01	        2.289019e+01
        4.113313e+01	        2.240184e+01
        4.159384e+01	        2.200673e+01
        4.205971e+01	        2.160719e+01
        4.253080e+01	        2.120301e+01
        4.300716e+01	        2.079438e+01
        4.348887e+01	        2.038121e+01
        4.397596e+01	        1.996281e+01
        4.446851e+01	        1.953947e+01
        4.496658e+01	        1.911140e+01
        4.547023e+01	        1.875400e+01
        4.597952e+01	        1.841508e+01
        4.649451e+01	        1.807238e+01
        4.701528e+01	        1.772583e+01
        4.754187e+01	        1.737541e+01
        4.807436e+01	        1.702120e+01
        4.861282e+01	        1.666308e+01
        4.915731e+01	        1.630096e+01
        4.970789e+01	        1.594803e+01
        5.026464e+01	        1.565830e+01
        5.082763e+01	        1.536533e+01
        5.139693e+01	        1.506908e+01
        5.197260e+01	        1.476951e+01
        5.255472e+01	        1.446658e+01
        5.314336e+01	        1.416021e+01
        5.373859e+01	        1.384904e+01
        5.434049e+01	        1.353438e+01
        5.494913e+01	        1.325110e+01
        5.556458e+01	        1.298244e+01
        5.618694e+01	        1.271077e+01
        5.681626e+01	        1.243607e+01
        5.745263e+01	        1.215828e+01
        5.809612e+01	        1.187736e+01
        5.874683e+01	        1.159322e+01
        5.940482e+01	        1.130590e+01
        6.007019e+01	        1.107265e+01
        6.074300e+01	        1.085255e+01
        6.142335e+01	        1.062980e+01
        6.211133e+01	        1.040472e+01
        6.280700e+01	        1.017722e+01
        6.351047e+01	        9.947183e+00
        6.422182e+01	        9.714234e+00
        6.494114e+01	        9.478542e+00
        6.566851e+01	        9.268382e+00
        6.640403e+01	        9.069995e+00
        6.714779e+01	        8.869393e+00
        6.789988e+01	        8.666559e+00
        6.866039e+01	        8.461460e+00
        6.942942e+01	        8.254072e+00
        7.020706e+01	        8.044408e+00
        7.099342e+01	        7.842466e+00
        7.178858e+01	        7.703486e+00
        7.259264e+01	        7.562953e+00
        7.340572e+01	        7.420845e+00
        7.422790e+01	        7.277148e+00
        7.505929e+01	        7.131845e+00
        7.589999e+01	        6.984916e+00
        7.675011e+01	        6.836341e+00
        7.760974e+01	        6.686034e+00
        7.847901e+01	        6.535796e+00
        7.935802e+01	        6.391493e+00
        8.024686e+01	        6.245574e+00
        8.114567e+01	        6.098024e+00
        8.205454e+01	        5.948826e+00
        8.297359e+01	        5.797845e+00
        8.390294e+01	        5.645190e+00
        8.484269e+01	        5.491242e+00
        8.579297e+01	        5.380933e+00
        8.675389e+01	        5.271712e+00
        8.772558e+01	        5.161279e+00
        8.870815e+01	        5.049615e+00
        8.970173e+01	        4.936705e+00
        9.070643e+01	        4.822536e+00
        9.172239e+01	        4.707092e+00
        9.274972e+01	        4.590031e+00
        9.378856e+01	        4.491296e+00
        9.483904e+01	        4.394580e+00
        9.590129e+01	        4.296785e+00
        9.697543e+01	        4.197897e+00
        9.806160e+01	        4.097904e+00
        9.915994e+01	        3.996792e+00
        1.002706e+02	        3.895312e+00
        1.013937e+02	        3.797745e+00
        1.025293e+02	        3.718157e+00
        1.036777e+02	        3.637678e+00
        1.048389e+02	        3.556298e+00
        1.060132e+02	        3.474008e+00
        1.072006e+02	        3.390796e+00
        1.084013e+02	        3.306250e+00
        1.096154e+02	        3.220838e+00
        1.108432e+02	        3.145005e+00
        1.120847e+02	        3.077915e+00
        1.133401e+02	        3.010091e+00
        1.146095e+02	        2.941546e+00
        1.158932e+02	        2.872254e+00
        1.171913e+02	        2.802199e+00
        1.185039e+02	        2.731360e+00
        1.198312e+02	        2.659737e+00
        1.211734e+02	        2.599636e+00
        1.225306e+02	        2.541687e+00
        1.239030e+02	        2.483101e+00
        1.252907e+02	        2.423875e+00
        1.266941e+02	        2.363997e+00
        1.281131e+02	        2.303461e+00
        1.295480e+02	        2.242248e+00
        1.309990e+02	        2.184459e+00
        1.324663e+02	        2.129726e+00
        1.339500e+02	        2.076046e+00
        1.354503e+02	        2.021765e+00
        1.369674e+02	        1.966869e+00
        1.385015e+02	        1.911360e+00
        1.400528e+02	        1.855722e+00
        1.416214e+02	        1.814700e+00
        1.432077e+02	        1.773218e+00
        1.448117e+02	        1.731278e+00
        1.464336e+02	        1.688869e+00
        1.480737e+02	        1.646519e+00
        1.497322e+02	        1.603701e+00
        1.514093e+02	        1.560403e+00
        1.531052e+02	        1.521771e+00
        1.548200e+02	        1.483760e+00
        1.565541e+02	        1.445324e+00
        1.583076e+02	        1.406458e+00
        1.600807e+02	        1.367206e+00
        1.618737e+02	        1.329214e+00
        1.636867e+02	        1.292762e+00
        1.655201e+02	        1.261358e+00
        1.673740e+02	        1.229603e+00
        1.692487e+02	        1.197434e+00
        1.711444e+02	        1.164905e+00
        1.730613e+02	        1.132031e+00
        1.749996e+02	        1.098800e+00
        1.769597e+02	        1.072126e+00
        1.789418e+02	        1.047216e+00
        1.809460e+02	        1.022031e+00
        1.829727e+02	        9.965685e-01
        1.850221e+02	        9.708215e-01
        1.870944e+02	        9.447878e-01
        1.891900e+02	        9.184896e-01
        1.913090e+02	        8.942520e-01
        1.934517e+02	        8.697447e-01
        1.956185e+02	        8.458145e-01
        1.978095e+02	        8.218479e-01
        2.000251e+02	        7.976147e-01
        2.022655e+02	        7.738038e-01
        2.045309e+02	        7.543377e-01
        2.068218e+02	        7.346490e-01
        2.091383e+02	        7.147477e-01
        2.114807e+02	        6.946266e-01
        2.138494e+02	        6.744073e-01
        2.162446e+02	        6.545548e-01
        2.186667e+02	        6.381894e-01
        2.211159e+02	        6.216410e-01
        2.235925e+02	        6.049074e-01
        2.260968e+02	        5.879876e-01
        2.286292e+02	        5.708785e-01
        2.311900e+02	        5.535781e-01
        2.337794e+02	        5.387052e-01
        2.363979e+02	        5.249073e-01
        2.390456e+02	        5.109552e-01
        2.417231e+02	        4.968477e-01
        2.444305e+02	        4.824812e-01
        2.471682e+02	        4.679917e-01
        2.499366e+02	        4.550209e-01
        2.527360e+02	        4.422164e-01
        2.555668e+02	        4.292729e-01
        2.584293e+02	        4.166700e-01
        2.613238e+02	        4.040242e-01
        2.642508e+02	        3.916769e-01
        2.672105e+02	        3.812879e-01
        2.702034e+02	        3.707847e-01
        2.732298e+02	        3.601655e-01
        2.762901e+02	        3.494292e-01
        2.793847e+02	        3.386961e-01
        2.825139e+02	        3.291154e-01
        2.856782e+02	        3.205122e-01
        2.888780e+02	        3.118096e-01
        2.921136e+02	        3.030154e-01
        2.953854e+02	        2.941256e-01
        2.986938e+02	        2.851363e-01
        3.020393e+02	        2.770302e-01
        3.054223e+02	        2.695628e-01
        3.088432e+02	        2.620130e-01
        3.123024e+02	        2.544995e-01
        3.158004e+02	        2.469022e-01
        3.193375e+02	        2.392202e-01
        3.229142e+02	        2.316492e-01
        3.265310e+02	        2.240796e-01
        3.301883e+02	        2.164251e-01
        3.338866e+02	        2.086445e-01
        3.376263e+02	        2.012033e-01
        3.414079e+02	        1.954034e-01
        3.452318e+02	        1.899312e-01
        3.490986e+02	        1.844006e-01
        3.530086e+02	        1.788133e-01
        3.569625e+02	        1.731686e-01
        3.609607e+02	        1.675039e-01
        3.650036e+02	        1.624162e-01
        3.690918e+02	        1.574026e-01
        3.732258e+02	        1.525422e-01
        3.774062e+02	        1.476287e-01
        3.816333e+02	        1.426620e-01
        3.859078e+02	        1.379764e-01
        3.902301e+02	        1.334646e-01
        3.946009e+02	        1.289037e-01
        3.990206e+02	        1.242899e-01
        4.034898e+02	        1.197721e-01
        4.080091e+02	        1.156493e-01
        4.125790e+02	        1.118069e-01
        4.172001e+02	        1.079214e-01
        4.218730e+02	        1.039925e-01
        4.265982e+02	        1.000204e-01
        4.313763e+02	        9.613071e-02
        4.362079e+02	        9.236775e-02
        4.410936e+02	        8.876545e-02
        4.460341e+02	        8.521000e-02
        4.510299e+02	        8.161808e-02
        4.560817e+02	        7.812116e-02
        4.611900e+02	        7.460785e-02
        4.663556e+02	        7.105628e-02
        4.715790e+02	        6.746578e-02
        4.768609e+02	        6.403428e-02
        4.822020e+02	        6.074336e-02
        4.876029e+02	        5.744208e-02
        4.930643e+02	        5.405436e-02
        4.985868e+02	        5.056248e-02
        5.041712e+02	        4.703289e-02
        5.098182e+02	        4.335815e-02
        5.155284e+02	        3.957970e-02
        5.213026e+02	        3.709521e-02
        5.271414e+02	        3.635921e-02
        5.330457e+02	        3.561414e-02
        5.390161e+02	        3.485941e-02
        5.450533e+02	        3.409601e-02
        5.511582e+02	        3.332243e-02
        5.573314e+02	        3.253513e-02
        5.635738e+02	        3.190360e-02
        5.698861e+02	        3.133271e-02
        5.762691e+02	        3.075621e-02
        5.827236e+02	        3.017150e-02
        5.892504e+02	        2.958255e-02
        5.958503e+02	        2.898743e-02
        6.025241e+02	        2.838605e-02
        6.092727e+02	        2.781479e-02
        6.160968e+02	        2.728761e-02
        6.229974e+02	        2.675483e-02
        6.299753e+02	        2.621850e-02
        6.370313e+02	        2.567968e-02
        6.441664e+02	        2.513561e-02
        6.513814e+02	        2.458546e-02
        6.586772e+02	        2.411089e-02
        6.660547e+02	        2.365782e-02
        6.735148e+02	        2.319973e-02
        6.810585e+02	        2.273204e-02
        6.886867e+02	        2.225412e-02
        6.964003e+02	        2.177718e-02
        7.042004e+02	        2.131984e-02
        7.120878e+02	        2.094093e-02
        7.200635e+02	        2.055913e-02
        7.281286e+02	        2.017385e-02
        7.362840e+02	        1.978470e-02
        7.445307e+02	        1.939145e-02
        7.528698e+02	        1.899215e-02
        7.613023e+02	        1.860604e-02
        7.698293e+02	        1.824057e-02
        7.784518e+02	        1.787213e-02
        7.871708e+02	        1.750063e-02
        7.959875e+02	        1.712541e-02
        8.049030e+02	        1.674633e-02
        8.139183e+02	        1.641463e-02
        8.230346e+02	        1.610557e-02
        8.322529e+02	        1.578688e-02
        8.415746e+02	        1.546565e-02
        8.510006e+02	        1.514012e-02
        8.605323e+02	        1.481037e-02
        8.701706e+02	        1.451203e-02
        8.799170e+02	        1.422748e-02
        8.897725e+02	        1.394005e-02
        8.997384e+02	        1.364963e-02
        9.098159e+02	        1.335232e-02
        9.200063e+02	        1.306141e-02
        9.303108e+02	        1.280431e-02
        9.407307e+02	        1.255259e-02
        9.512674e+02	        1.229909e-02
        9.619221e+02	        1.204321e-02
        9.726961e+02	        1.178473e-02
        9.835907e+02	        1.153209e-02
        9.946074e+02	        1.128800e-02
        1.005748e+03	        1.104509e-02
        1.017012e+03	        1.080313e-02
        1.028403e+03	        1.056046e-02
        1.039922e+03	        1.032397e-02
        1.051570e+03	        1.011464e-02
        1.063348e+03	        9.903251e-03
        1.075258e+03	        9.685149e-03
        1.087301e+03	        9.465651e-03
        1.099480e+03	        9.245307e-03
        1.111794e+03	        9.044798e-03
        1.124247e+03	        8.847325e-03
        1.136839e+03	        8.648354e-03
        1.149572e+03	        8.447883e-03
        1.162448e+03	        8.208300e-03
        1.175468e+03	        7.989018e-03
        1.188634e+03	        7.778263e-03
        1.201947e+03	        7.573946e-03
        1.215409e+03	        7.370716e-03
        1.229023e+03	        7.178152e-03
        1.242788e+03	        6.990485e-03
        1.256708e+03	        6.802968e-03
        1.270784e+03	        6.614305e-03
        1.285017e+03	        6.445714e-03
        1.299410e+03	        6.278753e-03
        1.313964e+03	        6.110736e-03
        1.328681e+03	        5.941901e-03
        1.343563e+03	        5.778833e-03
        1.358612e+03	        5.620178e-03
        1.373829e+03	        5.462953e-03
        1.389216e+03	        5.307148e-03
        1.404776e+03	        5.153708e-03
        1.420510e+03	        4.999247e-03
        1.436421e+03	        4.843524e-03
        1.452509e+03	        4.684528e-03
        1.468778e+03	        4.527432e-03
        1.485229e+03	        4.369061e-03
        1.501865e+03	        4.209833e-03
        1.518686e+03	        4.045664e-03
        1.535696e+03	        3.867287e-03
        1.552897e+03	        3.645849e-03
        1.570290e+03	        3.235294e-03
        1.587878e+03	        3.175529e-03
        1.605663e+03	        3.117524e-03
        1.623647e+03	        3.069368e-03
        1.641833e+03	        3.021492e-03
        1.660222e+03	        2.974185e-03
        1.678818e+03	        2.926396e-03
        1.697621e+03	        2.878091e-03
        1.716635e+03	        2.829877e-03
        1.735863e+03	        2.782264e-03
        1.755305e+03	        2.736474e-03
        1.774965e+03	        2.690567e-03
        1.794846e+03	        2.646311e-03
        1.814949e+03	        2.602224e-03
        1.835277e+03	        2.557775e-03
        1.855833e+03	        2.512845e-03
        1.876620e+03	        2.467422e-03
        1.897639e+03	        2.421623e-03
        1.918893e+03	        2.376721e-03
        1.940386e+03	        2.332165e-03
        1.962119e+03	        2.292337e-03
        1.984096e+03	        2.253008e-03
        2.006319e+03	        2.213263e-03
        2.028790e+03	        2.173137e-03
        2.051514e+03	        2.132617e-03
        2.074492e+03	        2.093391e-03
        2.097727e+03	        2.054891e-03
        2.121223e+03	        2.016506e-03
        2.144981e+03	        1.981950e-03
        2.169006e+03	        1.947870e-03
        2.193300e+03	        1.913431e-03
        2.217866e+03	        1.878836e-03
        2.242707e+03	        1.844546e-03
        2.267827e+03	        1.810060e-03
        2.293228e+03	        1.775646e-03
        2.318913e+03	        1.741110e-03
        2.344886e+03	        1.707778e-03
        2.371150e+03	        1.674988e-03
        2.397708e+03	        1.642352e-03
        2.424563e+03	        1.610484e-03
        2.451720e+03	        1.578287e-03
        2.479180e+03	        1.545758e-03
        2.506948e+03	        1.514554e-03
        2.535027e+03	        1.484339e-03
        2.563421e+03	        1.457087e-03
        2.592132e+03	        1.429692e-03
        2.621165e+03	        1.402202e-03
        2.650524e+03	        1.374405e-03
        2.680211e+03	        1.346299e-03
        2.710231e+03	        1.317882e-03
        2.740587e+03	        1.290603e-03
        2.771282e+03	        1.265542e-03
        2.802322e+03	        1.241961e-03
        2.833710e+03	        1.218106e-03
        2.865449e+03	        1.193983e-03
        2.897543e+03	        1.169590e-03
        2.929997e+03	        1.144973e-03
        2.962814e+03	        1.120424e-03
        2.995999e+03	        1.096860e-03
        3.029556e+03	        1.076070e-03
        3.063488e+03	        1.055051e-03
        3.097801e+03	        1.033797e-03
        3.132498e+03	        1.012306e-03
        3.167583e+03	        9.910885e-04
        3.203062e+03	        9.702189e-04
        3.238938e+03	        9.491354e-04
        3.275216e+03	        9.292857e-04
        3.311900e+03	        9.100689e-04
        3.348994e+03	        8.906821e-04
        3.386505e+03	        8.714591e-04
        3.424435e+03	        8.521174e-04
        3.462791e+03	        8.325930e-04
        3.501576e+03	        8.135712e-04
        3.540795e+03	        7.955840e-04
        3.580454e+03	        7.786995e-04
        3.620557e+03	        7.622770e-04
        3.661109e+03	        7.460826e-04
        3.702115e+03	        7.297069e-04
        3.743580e+03	        7.131883e-04
        3.785510e+03	        6.973181e-04
        3.827910e+03	        6.814663e-04
        3.870784e+03	        6.656193e-04
        3.914139e+03	        6.502296e-04
        3.957979e+03	        6.354090e-04
        4.002311e+03	        6.205190e-04
        4.047138e+03	        6.069341e-04
        4.092468e+03	        5.934618e-04
        4.138306e+03	        5.801381e-04
        4.184657e+03	        5.667432e-04
        4.231527e+03	        5.534921e-04
        4.278923e+03	        5.406400e-04
        4.326849e+03	        5.278827e-04
        4.375311e+03	        5.152933e-04
        4.424317e+03	        5.026353e-04
        4.473872e+03	        4.898981e-04
        4.523981e+03	        4.770071e-04
        4.574652e+03	        4.644396e-04
        4.625890e+03	        4.529659e-04
        4.677703e+03	        4.419310e-04
        4.730095e+03	        4.310322e-04
        4.783075e+03	        4.200115e-04
        4.836647e+03	        4.087794e-04
        4.890820e+03	        3.978111e-04
        4.945600e+03	        3.868400e-04
        5.000993e+03	        3.756825e-04
        5.057007e+03	        3.642031e-04
        5.113648e+03	        3.510398e-04
        5.170923e+03	        3.392088e-04
        5.228840e+03	        3.307983e-04
        5.287405e+03	        3.225022e-04
        5.346627e+03	        3.141156e-04
        5.406512e+03	        3.056804e-04
        5.467067e+03	        2.979827e-04
        5.528301e+03	        2.903564e-04
        5.590221e+03	        2.828088e-04
        5.652834e+03	        2.752723e-04
        5.716149e+03	        2.677448e-04
        5.780172e+03	        2.602057e-04
        5.844913e+03	        2.526167e-04
        5.910379e+03	        2.451245e-04
        5.976578e+03	        2.378622e-04
        6.043519e+03	        2.307354e-04
        6.111209e+03	        2.233258e-04
        6.179658e+03	        2.155972e-04
        6.248873e+03	        2.062928e-04
        6.318863e+03	        2.003311e-04
        6.389638e+03	        1.944294e-04
        6.461205e+03	        1.886757e-04
        6.533574e+03	        1.829364e-04
        6.606753e+03	        1.770962e-04
        6.680752e+03	        1.713614e-04
        6.755579e+03	        1.656158e-04
        6.831245e+03	        1.598656e-04
        6.907759e+03	        1.539923e-04
        6.985129e+03	        1.481444e-04
        7.063366e+03	        1.420853e-04
        7.142479e+03	        1.355361e-04
        7.222478e+03	        1.284539e-04
        7.303374e+03	        1.191643e-04
        7.385175e+03	        1.078629e-04
        7.467893e+03	        1.051766e-04
        7.551537e+03	        1.026382e-04
        7.636118e+03	        1.001981e-04
        7.721646e+03	        9.780397e-05
        7.808132e+03	        9.544018e-05
        7.895587e+03	        9.305387e-05
        7.984022e+03	        9.064112e-05
        8.073446e+03	        8.835863e-05
        8.163873e+03	        8.619690e-05
        8.255312e+03	        8.401626e-05
        8.347776e+03	        8.179814e-05
        8.441275e+03	        7.955662e-05
        8.535822e+03	        7.728968e-05
        8.631427e+03	        7.506077e-05
        8.728103e+03	        7.283804e-05
        8.825862e+03	        7.060641e-05
        8.924716e+03	        6.842310e-05
        9.024678e+03	        6.635915e-05
        9.125758e+03	        6.434080e-05
        9.227971e+03	        6.232448e-05
        9.331329e+03	        6.023546e-05
        9.435845e+03	        5.805620e-05
        9.541531e+03	        5.577411e-05
        9.648401e+03	        5.254426e-05
        9.756468e+03	        5.109823e-05
        9.865745e+03	        4.967176e-05
        9.976246e+03	        4.824218e-05
        1.008798e+04	        4.679826e-05
        1.020098e+04	        4.538805e-05
        1.031523e+04	        4.402347e-05
        1.043077e+04	        4.265933e-05
        1.054760e+04	        4.135663e-05
        1.066573e+04	        4.005285e-05
        1.078520e+04	        3.872647e-05
        1.090600e+04	        3.739100e-05
        1.102815e+04	        3.608855e-05
        1.115167e+04	        3.477277e-05
        1.127657e+04	        3.348903e-05
        1.140288e+04	        3.223798e-05
        1.153059e+04	        3.094259e-05
        1.165974e+04	        2.960788e-05
        1.179034e+04	        2.819768e-05
        1.192240e+04	        2.656225e-05
        1.205593e+04	        2.434591e-05
        1.219096e+04	        2.357955e-05
        1.232751e+04	        2.287838e-05
        1.246558e+04	        2.217403e-05
        1.260520e+04	        2.146060e-05
        1.274639e+04	        2.073786e-05
        1.288915e+04	        2.000510e-05
        1.303352e+04	        1.926676e-05
        1.317950e+04	        1.849084e-05
        1.332712e+04	        1.773026e-05
        1.347639e+04	        1.701920e-05
        1.362733e+04	        1.627887e-05
        1.377996e+04	        1.547975e-05
        1.393431e+04	        1.462350e-05
        1.409038e+04	        1.361081e-05
        1.424820e+04	        1.262970e-05
        1.440778e+04	        1.231916e-05
        1.456916e+04	        1.200666e-05
        1.473234e+04	        1.169114e-05
        1.489735e+04	        1.137372e-05
        1.506421e+04	        1.105312e-05
        1.523293e+04	        1.074102e-05
        1.540355e+04	        1.043439e-05
        1.557608e+04	        1.012713e-05
        1.575054e+04	        9.815221e-06
        1.592695e+04	        9.497141e-06
        1.610534e+04	        9.177073e-06
        1.628573e+04	        8.882403e-06
        1.646814e+04	        8.576294e-06
        1.665259e+04	        8.215484e-06
        1.683910e+04	        7.985580e-06
        1.702771e+04	        7.753762e-06
        1.721843e+04	        7.523394e-06
        1.741128e+04	        7.322976e-06
        1.760630e+04	        7.121310e-06
        1.780350e+04	        6.917519e-06
        1.800291e+04	        6.711636e-06
        1.820455e+04	        6.504300e-06
        1.840845e+04	        6.304941e-06
        1.861463e+04	        6.109690e-06
        1.882312e+04	        5.910864e-06
        1.903395e+04	        5.704167e-06
        1.924714e+04	        5.502942e-06
        1.946272e+04	        5.326158e-06
        1.968071e+04	        5.158660e-06
        1.990114e+04	        4.988912e-06
        2.012405e+04	        4.817098e-06
        2.034945e+04	        4.641717e-06
        2.057737e+04	        4.482845e-06
        2.080785e+04	        4.324514e-06
        2.104091e+04	        4.163093e-06
        2.127657e+04	        3.995996e-06
        2.151488e+04	        3.823693e-06
        2.175586e+04	        3.666281e-06
        2.199954e+04	        3.529765e-06
        2.224594e+04	        3.391811e-06
        2.249511e+04	        3.255499e-06
        2.274706e+04	        3.125098e-06
        2.300184e+04	        2.992986e-06
        2.325947e+04	        2.859665e-06
        2.351999e+04	        2.730842e-06
        2.378343e+04	        2.607437e-06
        2.404981e+04	        2.482977e-06
        2.431918e+04	        2.357676e-06
        2.459157e+04	        2.233001e-06
        2.486701e+04	        2.106869e-06
        2.514553e+04	        1.980780e-06
        2.542717e+04	        1.860398e-06
        2.571197e+04	        1.737459e-06
        2.599996e+04	        1.607711e-06
        2.629117e+04	        1.486723e-06
        2.658564e+04	        1.361218e-06
        2.688341e+04	        1.229817e-06
        2.718452e+04	        1.087824e-06
        2.748900e+04	        9.358584e-07
        2.779689e+04	        7.736546e-07
        2.810823e+04	        5.696188e-07
        2.842306e+04	        2.021170e-07
        2.874141e+04	        6.272971e-08
        2.906333e+04	        5.706408e-08
        2.938885e+04	        5.083661e-08
        2.971802e+04	        4.376107e-08
        3.005088e+04	        3.724236e-08
        3.038746e+04	        2.988183e-08
        3.072782e+04	        1.979876e-08
        3.107198e+04	        2.830092e-09
        3.142000e+04	        2.611058e-09
        3.177192e+04	        2.370262e-09
        3.212779e+04	        2.071852e-09
        3.248763e+04	        1.788526e-09
        3.285151e+04	        1.606772e-09
        3.321946e+04	        1.387225e-09
        3.359154e+04	        1.016359e-09
        3.396778e+04	        9.592410e-10
        3.434823e+04	        9.119802e-10
        3.473295e+04	        8.613898e-10
        3.512198e+04	        7.824759e-10
        3.551536e+04	        7.527312e-10
        3.591315e+04	        7.221451e-10
        3.631540e+04	        6.904417e-10
        3.672215e+04	        6.593404e-10
        3.713345e+04	        6.268800e-10
        3.754937e+04	        5.863808e-10
        3.796994e+04	        5.540816e-10
        3.839522e+04	        5.317551e-10
        3.882526e+04	        5.075280e-10
        3.926013e+04	        4.848611e-10
        3.969986e+04	        4.624558e-10
        4.014452e+04	        4.338627e-10
        4.059416e+04	        4.153962e-10
        4.104883e+04	        3.963433e-10
        4.150860e+04	        3.745223e-10
        4.197351e+04	        3.581784e-10
        4.244364e+04	        3.380870e-10
        4.291903e+04	        3.171994e-10
        4.339974e+04	        3.059691e-10
        4.388584e+04	        2.938279e-10
        4.437738e+04	        2.829303e-10
        4.487443e+04	        2.718091e-10
        4.537705e+04	        2.592715e-10
        4.588529e+04	        2.513808e-10
        4.639923e+04	        2.433531e-10
        4.691893e+04	        2.356368e-10
        4.744444e+04	        2.279130e-10
        4.797584e+04	        2.200075e-10
        4.851319e+04	        2.129845e-10
        4.905657e+04	        2.059026e-10
        4.960602e+04	        1.987254e-10
        5.016164e+04	        1.911062e-10
        5.072347e+04	        1.841510e-10
        5.129160e+04	        1.771240e-10
        5.186609e+04	        1.710181e-10
        5.244702e+04	        1.647766e-10
        5.303445e+04	        1.585515e-10
        5.362846e+04	        1.520862e-10
        5.422913e+04	        1.458391e-10
        5.483652e+04	        1.396136e-10
        5.545071e+04	        1.334887e-10
        5.607179e+04	        1.270308e-10
        5.669982e+04	        1.211774e-10
        5.733489e+04	        1.159809e-10
        5.797707e+04	        1.106618e-10
        5.862644e+04	        1.044974e-10
        5.928308e+04	        9.972934e-11
        5.994708e+04	        9.539019e-11
        6.061852e+04	        9.120034e-11
        6.129748e+04	        8.652953e-11
        6.198404e+04	        8.271203e-11
        6.267829e+04	        7.861950e-11
        6.338032e+04	        7.403086e-11
        6.409021e+04	        6.977422e-11
        6.480805e+04	        6.685185e-11
        6.553393e+04	        6.406234e-11
        6.626795e+04	        6.103620e-11
        6.701018e+04	        5.864395e-11
        6.776073e+04	        5.617980e-11
        6.851968e+04	        5.350675e-11
        6.928713e+04	        5.130106e-11
        7.006318e+04	        4.914496e-11
        7.084793e+04	        4.692808e-11
        7.164146e+04	        4.473564e-11
        7.244388e+04	        4.264957e-11
        7.325529e+04	        4.056178e-11
        7.407578e+04	        3.847747e-11
        7.490547e+04	        3.650074e-11
        7.574444e+04	        3.447334e-11
        7.659282e+04	        3.245220e-11
        7.745070e+04	        3.052446e-11
        7.831818e+04	        2.859036e-11
        7.919539e+04	        2.670511e-11
        8.008241e+04	        2.482262e-11
        8.097938e+04	        2.274462e-11
        8.188638e+04	        2.070472e-11
        8.280355e+04	        1.872527e-11
        8.373099e+04	        1.667830e-11
        8.466882e+04	        1.481809e-11
        8.561715e+04	        1.258130e-11
        8.657611e+04	        1.079229e-11
        8.754580e+04	        8.803130e-12
        8.852636e+04	        6.986296e-12
        8.951790e+04	        5.791668e-12
        9.052054e+04	        4.550324e-12
        9.153442e+04	        3.125551e-12
        9.255965e+04	        1.373123e-12
        9.359636e+04	        2.607835e-13
        9.464469e+04	        1.672736e-13
        9.570475e+04	        1.530490e-13
        9.677669e+04	        1.385501e-13
        9.786064e+04	        1.230929e-13
        9.895673e+04	        1.070311e-13
        1.000651e+05	        8.846028e-14
        1.011859e+05	        6.487680e-14
        1.023192e+05	        2.773559e-14
        1.034652e+05	        1.390670e-14
        1.046241e+05	        4.136716e-15
        1.057959e+05	        0.000000e+00
        1.069809e+05	        0.000000e+00
        1.081791e+05	        0.000000e+00
        1.093908e+05	        0.000000e+00

# -------------------------------------------------------------------------------
# Curve 1: LET spectrum with Flares
# Params: 0 5 #fe1448 2 1
#	LET (MeV.cm^2.g^{-1})		Flux (cm^{-2}.s^{-1})
# -------------------------------------------------------------------------------
        1.608960e+00	        3.934846e+04
        1.626982e+00	        3.934846e+04
        1.645205e+00	        3.934846e+04
        1.663632e+00	        3.934846e+04
        1.682265e+00	        3.934835e+04
        1.701107e+00	        3.934821e+04
        1.720161e+00	        3.934812e+04
        1.739427e+00	        3.934806e+04
        1.758910e+00	        3.934800e+04
        1.778610e+00	        3.934796e+04
        1.798532e+00	        3.934792e+04
        1.818676e+00	        3.934766e+04
        1.839046e+00	        3.934721e+04
        1.859644e+00	        3.934667e+04
        1.880473e+00	        3.934580e+04
        1.901536e+00	        3.934492e+04
        1.922834e+00	        3.934394e+04
        1.944370e+00	        3.934289e+04
        1.966148e+00	        3.934183e+04
        1.988170e+00	        3.934067e+04
        2.010439e+00	        3.933947e+04
        2.032956e+00	        3.933826e+04
        2.055727e+00	        3.933695e+04
        2.078752e+00	        3.933546e+04
        2.102035e+00	        3.933396e+04
        2.125579e+00	        3.933244e+04
        2.149386e+00	        3.933071e+04
        2.173460e+00	        3.932884e+04
        2.197804e+00	        3.932694e+04
        2.222421e+00	        3.932503e+04
        2.247313e+00	        3.932300e+04
        2.272484e+00	        3.932087e+04
        2.297937e+00	        3.931871e+04
        2.323675e+00	        3.931653e+04
        2.349701e+00	        3.931433e+04
        2.376019e+00	        3.931151e+04
        2.402632e+00	        3.930831e+04
        2.429542e+00	        3.930507e+04
        2.456754e+00	        3.930180e+04
        2.484271e+00	        3.929852e+04
        2.512096e+00	        3.929540e+04
        2.540233e+00	        3.929225e+04
        2.568685e+00	        3.928905e+04
        2.597455e+00	        3.928583e+04
        2.626548e+00	        3.928256e+04
        2.655967e+00	        3.927926e+04
        2.685715e+00	        3.927429e+04
        2.715796e+00	        3.926923e+04
        2.746214e+00	        3.926410e+04
        2.776973e+00	        3.925892e+04
        2.808077e+00	        3.925368e+04
        2.839529e+00	        3.924781e+04
        2.871333e+00	        3.924167e+04
        2.903493e+00	        3.923546e+04
        2.936014e+00	        3.922918e+04
        2.968899e+00	        3.922283e+04
        3.002152e+00	        3.921641e+04
        3.035777e+00	        3.920866e+04
        3.069779e+00	        3.920062e+04
        3.104162e+00	        3.919249e+04
        3.138931e+00	        3.918426e+04
        3.174088e+00	        3.917595e+04
        3.209640e+00	        3.916754e+04
        3.245589e+00	        3.915918e+04
        3.281941e+00	        3.915075e+04
        3.318701e+00	        3.914223e+04
        3.355872e+00	        3.913362e+04
        3.393459e+00	        3.912491e+04
        3.431468e+00	        3.911610e+04
        3.469902e+00	        3.910719e+04
        3.508766e+00	        3.909751e+04
        3.548066e+00	        3.908752e+04
        3.587806e+00	        3.907742e+04
        3.627992e+00	        3.906721e+04
        3.668627e+00	        3.905688e+04
        3.709717e+00	        3.904644e+04
        3.751268e+00	        3.903591e+04
        3.793284e+00	        3.902641e+04
        3.835771e+00	        3.901681e+04
        3.878733e+00	        3.900710e+04
        3.922177e+00	        3.899729e+04
        3.966107e+00	        3.898736e+04
        4.010530e+00	        3.897732e+04
        4.055449e+00	        3.896717e+04
        4.100872e+00	        3.895605e+04
        4.146804e+00	        3.894278e+04
        4.193250e+00	        3.892935e+04
        4.240217e+00	        3.891578e+04
        4.287709e+00	        3.890205e+04
        4.335734e+00	        3.888817e+04
        4.384296e+00	        3.887413e+04
        4.433403e+00	        3.886207e+04
        4.483059e+00	        3.884993e+04
        4.533271e+00	        3.883766e+04
        4.584046e+00	        3.882525e+04
        4.635390e+00	        3.881271e+04
        4.687308e+00	        3.880002e+04
        4.739809e+00	        3.878719e+04
        4.792897e+00	        3.877422e+04
        4.846580e+00	        3.875815e+04
        4.900864e+00	        3.874146e+04
        4.955756e+00	        3.872458e+04
        5.011263e+00	        3.870751e+04
        5.067391e+00	        3.869024e+04
        5.124149e+00	        3.867279e+04
        5.181542e+00	        3.865514e+04
        5.239577e+00	        3.863745e+04
        5.298263e+00	        3.861960e+04
        5.357606e+00	        3.860155e+04
        5.417614e+00	        3.858331e+04
        5.478294e+00	        3.856485e+04
        5.539654e+00	        3.854619e+04
        5.601701e+00	        3.852733e+04
        5.664442e+00	        3.850825e+04
        5.727887e+00	        3.848713e+04
        5.792042e+00	        3.846484e+04
        5.856916e+00	        3.844229e+04
        5.922516e+00	        3.841949e+04
        5.988851e+00	        3.839644e+04
        6.055929e+00	        3.837313e+04
        6.123759e+00	        3.834955e+04
        6.192348e+00	        3.832572e+04
        6.261705e+00	        3.829920e+04
        6.331839e+00	        3.826804e+04
        6.402759e+00	        3.823654e+04
        6.474473e+00	        3.820468e+04
        6.546991e+00	        3.817246e+04
        6.620320e+00	        3.813988e+04
        6.694471e+00	        3.810694e+04
        6.769452e+00	        3.807361e+04
        6.845274e+00	        3.803663e+04
        6.921944e+00	        3.799714e+04
        6.999473e+00	        3.795720e+04
        7.077871e+00	        3.791681e+04
        7.157146e+00	        3.787598e+04
        7.237310e+00	        3.783469e+04
        7.318371e+00	        3.779293e+04
        7.400341e+00	        3.775071e+04
        7.483228e+00	        3.770405e+04
        7.567044e+00	        3.765237e+04
        7.651799e+00	        3.760010e+04
        7.737503e+00	        3.754725e+04
        7.824166e+00	        3.749381e+04
        7.911801e+00	        3.743978e+04
        8.000417e+00	        3.738513e+04
        8.090026e+00	        3.732988e+04
        8.180638e+00	        3.727386e+04
        8.272265e+00	        3.720332e+04
        8.364918e+00	        3.713199e+04
        8.458610e+00	        3.705986e+04
        8.553350e+00	        3.698692e+04
        8.649152e+00	        3.691317e+04
        8.746027e+00	        3.683859e+04
        8.843987e+00	        3.676317e+04
        8.943044e+00	        3.668691e+04
        9.043210e+00	        3.659675e+04
        9.144499e+00	        3.649495e+04
        9.246921e+00	        3.639201e+04
        9.350492e+00	        3.628792e+04
        9.455222e+00	        3.618267e+04
        9.561125e+00	        3.607623e+04
        9.668214e+00	        3.596860e+04
        9.776503e+00	        3.585977e+04
        9.886005e+00	        3.574900e+04
        9.996733e+00	        3.563596e+04
        1.010870e+01	        3.552165e+04
        1.022192e+01	        3.540607e+04
        1.033641e+01	        3.528918e+04
        1.045219e+01	        3.517099e+04
        1.056926e+01	        3.505148e+04
        1.068764e+01	        3.493063e+04
        1.080734e+01	        3.480842e+04
        1.092839e+01	        3.467667e+04
        1.105080e+01	        3.451683e+04
        1.117457e+01	        3.435520e+04
        1.129973e+01	        3.419176e+04
        1.142629e+01	        3.402649e+04
        1.155427e+01	        3.385937e+04
        1.168369e+01	        3.369037e+04
        1.181455e+01	        3.351949e+04
        1.194688e+01	        3.335282e+04
        1.208069e+01	        3.320051e+04
        1.221600e+01	        3.304650e+04
        1.235282e+01	        3.289077e+04
        1.249118e+01	        3.273328e+04
        1.263109e+01	        3.257404e+04
        1.277256e+01	        3.241301e+04
        1.291562e+01	        3.225018e+04
        1.306028e+01	        3.208552e+04
        1.320657e+01	        3.191902e+04
        1.335449e+01	        3.172248e+04
        1.350406e+01	        3.150310e+04
        1.365531e+01	        3.128127e+04
        1.380826e+01	        3.105695e+04
        1.396292e+01	        3.083012e+04
        1.411931e+01	        3.060074e+04
        1.427746e+01	        3.036880e+04
        1.443737e+01	        3.013426e+04
        1.459908e+01	        2.991030e+04
        1.476259e+01	        2.968733e+04
        1.492794e+01	        2.946187e+04
        1.509514e+01	        2.923388e+04
        1.526421e+01	        2.900334e+04
        1.543518e+01	        2.877021e+04
        1.560806e+01	        2.853448e+04
        1.578288e+01	        2.829610e+04
        1.595966e+01	        2.805506e+04
        1.613841e+01	        2.781138e+04
        1.631917e+01	        2.756497e+04
        1.650195e+01	        2.731580e+04
        1.668678e+01	        2.706383e+04
        1.687368e+01	        2.680905e+04
        1.706268e+01	        2.655141e+04
        1.725379e+01	        2.629089e+04
        1.744704e+01	        2.602744e+04
        1.764245e+01	        2.578130e+04
        1.784006e+01	        2.553984e+04
        1.803988e+01	        2.529567e+04
        1.824193e+01	        2.504877e+04
        1.844625e+01	        2.479910e+04
        1.865286e+01	        2.454664e+04
        1.886178e+01	        2.429135e+04
        1.907304e+01	        2.403320e+04
        1.928667e+01	        2.377216e+04
        1.950269e+01	        2.352377e+04
        1.972113e+01	        2.327283e+04
        1.994201e+01	        2.301909e+04
        2.016537e+01	        2.276250e+04
        2.039124e+01	        2.250304e+04
        2.061963e+01	        2.224067e+04
        2.085058e+01	        2.197536e+04
        2.108411e+01	        2.170709e+04
        2.132027e+01	        2.144854e+04
        2.155906e+01	        2.120718e+04
        2.180054e+01	        2.096312e+04
        2.204471e+01	        2.071633e+04
        2.229162e+01	        2.046677e+04
        2.254130e+01	        2.021442e+04
        2.279378e+01	        1.995924e+04
        2.304908e+01	        1.970120e+04
        2.330724e+01	        1.944027e+04
        2.356829e+01	        1.916553e+04
        2.383227e+01	        1.887837e+04
        2.409920e+01	        1.858800e+04
        2.436912e+01	        1.829438e+04
        2.464207e+01	        1.799747e+04
        2.491807e+01	        1.769723e+04
        2.519717e+01	        1.739363e+04
        2.547939e+01	        1.710289e+04
        2.576477e+01	        1.688281e+04
        2.605335e+01	        1.666027e+04
        2.634516e+01	        1.643524e+04
        2.664024e+01	        1.620769e+04
        2.693862e+01	        1.597759e+04
        2.724035e+01	        1.574491e+04
        2.754545e+01	        1.550963e+04
        2.785397e+01	        1.527171e+04
        2.816595e+01	        1.503112e+04
        2.848142e+01	        1.479212e+04
        2.880043e+01	        1.455054e+04
        2.912301e+01	        1.430626e+04
        2.944920e+01	        1.405924e+04
        2.977905e+01	        1.380945e+04
        3.011259e+01	        1.355686e+04
        3.044986e+01	        1.330144e+04
        3.079092e+01	        1.304317e+04
        3.113579e+01	        1.283091e+04
        3.148453e+01	        1.262264e+04
        3.183717e+01	        1.241204e+04
        3.219376e+01	        1.219908e+04
        3.255435e+01	        1.198373e+04
        3.291897e+01	        1.176597e+04
        3.328768e+01	        1.154577e+04
        3.366052e+01	        1.132311e+04
        3.403753e+01	        1.111213e+04
        3.441877e+01	        1.093667e+04
        3.480428e+01	        1.075926e+04
        3.519410e+01	        1.057985e+04
        3.558829e+01	        1.039843e+04
        3.598690e+01	        1.021499e+04
        3.638997e+01	        1.002948e+04
        3.679756e+01	        9.841904e+03
        3.720971e+01	        9.652223e+03
        3.762647e+01	        9.464368e+03
        3.804791e+01	        9.287369e+03
        3.847406e+01	        9.108387e+03
        3.890499e+01	        8.927401e+03
        3.934075e+01	        8.744388e+03
        3.978138e+01	        8.559325e+03
        4.022696e+01	        8.372190e+03
        4.067752e+01	        8.182959e+03
        4.113313e+01	        8.004851e+03
        4.159384e+01	        7.859490e+03
        4.205971e+01	        7.712501e+03
        4.253080e+01	        7.563866e+03
        4.300716e+01	        7.413565e+03
        4.348887e+01	        7.261582e+03
        4.397596e+01	        7.107895e+03
        4.446851e+01	        6.952486e+03
        4.496658e+01	        6.795337e+03
        4.547023e+01	        6.663588e+03
        4.597952e+01	        6.538454e+03
        4.649451e+01	        6.411919e+03
        4.701528e+01	        6.283967e+03
        4.754187e+01	        6.154582e+03
        4.807436e+01	        6.023749e+03
        4.861282e+01	        5.891451e+03
        4.915731e+01	        5.757672e+03
        4.970789e+01	        5.627213e+03
        5.026464e+01	        5.519711e+03
        5.082763e+01	        5.411004e+03
        5.139693e+01	        5.301080e+03
        5.197260e+01	        5.189925e+03
        5.255472e+01	        5.077524e+03
        5.314336e+01	        4.963865e+03
        5.373859e+01	        4.848930e+03
        5.434049e+01	        4.732708e+03
        5.494913e+01	        4.628019e+03
        5.556458e+01	        4.528706e+03
        5.618694e+01	        4.428281e+03
        5.681626e+01	        4.326730e+03
        5.745263e+01	        4.224042e+03
        5.809612e+01	        4.120205e+03
        5.874683e+01	        4.015205e+03
        5.940482e+01	        3.909029e+03
        6.007019e+01	        3.822819e+03
        6.074300e+01	        3.741558e+03
        6.142335e+01	        3.659386e+03
        6.211133e+01	        3.576294e+03
        6.280700e+01	        3.492272e+03
        6.351047e+01	        3.407309e+03
        6.422182e+01	        3.321394e+03
        6.494114e+01	        3.234516e+03
        6.566851e+01	        3.156861e+03
        6.640403e+01	        3.083448e+03
        6.714779e+01	        3.009214e+03
        6.789988e+01	        2.934147e+03
        6.866039e+01	        2.858240e+03
        6.942942e+01	        2.781483e+03
        7.020706e+01	        2.703866e+03
        7.099342e+01	        2.629234e+03
        7.178858e+01	        2.578850e+03
        7.259264e+01	        2.527902e+03
        7.340572e+01	        2.476383e+03
        7.422790e+01	        2.424288e+03
        7.505929e+01	        2.371609e+03
        7.589999e+01	        2.318339e+03
        7.675011e+01	        2.264474e+03
        7.760974e+01	        2.210005e+03
        7.847901e+01	        2.155695e+03
        7.935802e+01	        2.104117e+03
        8.024686e+01	        2.051962e+03
        8.114567e+01	        1.999222e+03
        8.205454e+01	        1.945892e+03
        8.297359e+01	        1.891964e+03
        8.390294e+01	        1.837433e+03
        8.484269e+01	        1.782291e+03
        8.579297e+01	        1.743636e+03
        8.675389e+01	        1.705426e+03
        8.772558e+01	        1.666788e+03
        8.870815e+01	        1.627717e+03
        8.970173e+01	        1.588209e+03
        9.070643e+01	        1.548258e+03
        9.172239e+01	        1.507859e+03
        9.274972e+01	        1.467008e+03
        9.378856e+01	        1.433394e+03
        9.483904e+01	        1.400578e+03
        9.590129e+01	        1.367395e+03
        9.697543e+01	        1.333840e+03
        9.806160e+01	        1.299909e+03
        9.915994e+01	        1.265598e+03
        1.002706e+02	        1.230904e+03
        1.013937e+02	        1.196870e+03
        1.025293e+02	        1.169708e+03
        1.036777e+02	        1.142242e+03
        1.048389e+02	        1.114469e+03
        1.060132e+02	        1.086384e+03
        1.072006e+02	        1.057985e+03
        1.084013e+02	        1.029268e+03
        1.096154e+02	        1.000229e+03
        1.108432e+02	        9.748271e+02
        1.120847e+02	        9.527356e+02
        1.133401e+02	        9.303968e+02
        1.146095e+02	        9.078077e+02
        1.158932e+02	        8.849656e+02
        1.171913e+02	        8.618678e+02
        1.185039e+02	        8.385112e+02
        1.198312e+02	        8.148930e+02
        1.211734e+02	        7.953811e+02
        1.225306e+02	        7.763844e+02
        1.239030e+02	        7.571749e+02
        1.252907e+02	        7.377503e+02
        1.266941e+02	        7.181081e+02
        1.281131e+02	        6.982459e+02
        1.295480e+02	        6.781613e+02
        1.309990e+02	        6.594008e+02
        1.324663e+02	        6.418203e+02
        1.339500e+02	        6.240465e+02
        1.354503e+02	        6.060736e+02
        1.369674e+02	        5.878993e+02
        1.385015e+02	        5.695215e+02
        1.400528e+02	        5.511200e+02
        1.416214e+02	        5.382000e+02
        1.432077e+02	        5.251352e+02
        1.448117e+02	        5.119242e+02
        1.464336e+02	        4.985652e+02
        1.480737e+02	        4.850575e+02
        1.497322e+02	        4.713985e+02
        1.514093e+02	        4.575866e+02
        1.531052e+02	        4.455290e+02
        1.548200e+02	        4.337272e+02
        1.565541e+02	        4.217932e+02
        1.583076e+02	        4.097255e+02
        1.600807e+02	        3.975227e+02
        1.618737e+02	        3.851868e+02
        1.636867e+02	        3.734455e+02
        1.655201e+02	        3.636090e+02
        1.673740e+02	        3.536624e+02
        1.692487e+02	        3.436044e+02
        1.711444e+02	        3.334336e+02
        1.730613e+02	        3.231490e+02
        1.749996e+02	        3.127492e+02
        1.769597e+02	        3.046310e+02
        1.789418e+02	        2.969469e+02
        1.809460e+02	        2.891767e+02
        1.829727e+02	        2.813195e+02
        1.850221e+02	        2.733743e+02
        1.870944e+02	        2.653401e+02
        1.891900e+02	        2.572253e+02
        1.913090e+02	        2.499076e+02
        1.934517e+02	        2.425079e+02
        1.956185e+02	        2.350271e+02
        1.978095e+02	        2.274630e+02
        2.000251e+02	        2.198142e+02
        2.022655e+02	        2.123407e+02
        2.045309e+02	        2.065227e+02
        2.068218e+02	        2.006396e+02
        2.091383e+02	        1.946905e+02
        2.114807e+02	        1.886749e+02
        2.138494e+02	        1.825921e+02
        2.162446e+02	        1.764479e+02
        2.186667e+02	        1.716460e+02
        2.211159e+02	        1.667904e+02
        2.235925e+02	        1.618804e+02
        2.260968e+02	        1.569154e+02
        2.286292e+02	        1.518948e+02
        2.311900e+02	        1.468179e+02
        2.337794e+02	        1.426104e+02
        2.363979e+02	        1.385029e+02
        2.390456e+02	        1.343493e+02
        2.417231e+02	        1.301492e+02
        2.444305e+02	        1.259020e+02
        2.471682e+02	        1.216072e+02
        2.499366e+02	        1.178966e+02
        2.527360e+02	        1.142589e+02
        2.555668e+02	        1.105805e+02
        2.584293e+02	        1.068618e+02
        2.613238e+02	        1.031018e+02
        2.642508e+02	        9.946571e+01
        2.672105e+02	        9.658480e+01
        2.702034e+02	        9.367162e+01
        2.732298e+02	        9.072582e+01
        2.762901e+02	        8.774702e+01
        2.793847e+02	        8.473514e+01
        2.825139e+02	        8.182231e+01
        2.856782e+02	        7.929186e+01
        2.888780e+02	        7.673308e+01
        2.921136e+02	        7.414563e+01
        2.953854e+02	        7.152921e+01
        2.986938e+02	        6.888349e+01
        3.020393e+02	        6.658086e+01
        3.054223e+02	        6.452874e+01
        3.088432e+02	        6.245362e+01
        3.123024e+02	        6.035553e+01
        3.158004e+02	        5.823394e+01
        3.193375e+02	        5.608858e+01
        3.229142e+02	        5.399356e+01
        3.265310e+02	        5.190762e+01
        3.301883e+02	        4.979833e+01
        3.338866e+02	        4.766536e+01
        3.376263e+02	        4.550948e+01
        3.414079e+02	        4.388261e+01
        3.452318e+02	        4.238064e+01
        3.490986e+02	        4.086185e+01
        3.530086e+02	        3.932605e+01
        3.569625e+02	        3.777306e+01
        3.609607e+02	        3.621809e+01
        3.650036e+02	        3.488874e+01
        3.690918e+02	        3.354479e+01
        3.732258e+02	        3.218625e+01
        3.774062e+02	        3.081250e+01
        3.816333e+02	        2.942336e+01
        3.859078e+02	        2.814759e+01
        3.902301e+02	        2.694193e+01
        3.946009e+02	        2.572275e+01
        3.990206e+02	        2.448992e+01
        4.034898e+02	        2.324360e+01
        4.080091e+02	        2.209041e+01
        4.125790e+02	        2.104820e+01
        4.172001e+02	        1.999432e+01
        4.218730e+02	        1.892864e+01
        4.265982e+02	        1.785102e+01
        4.313763e+02	        1.680867e+01
        4.362079e+02	        1.582178e+01
        4.410936e+02	        1.482429e+01
        4.460341e+02	        1.381582e+01
        4.510299e+02	        1.279605e+01
        4.560817e+02	        1.181539e+01
        4.611900e+02	        1.083188e+01
        4.663556e+02	        9.837355e+00
        4.715790e+02	        8.831691e+00
        4.768609e+02	        7.889727e+00
        4.822020e+02	        6.943437e+00
        4.876029e+02	        5.986608e+00
        4.930643e+02	        5.001005e+00
        4.985868e+02	        3.978802e+00
        5.041712e+02	        2.945152e+00
        5.098182e+02	        1.859367e+00
        5.155284e+02	        7.374113e-01
        5.213026e+02	        9.594075e-02
        5.271414e+02	        9.416316e-02
        5.330457e+02	        9.236544e-02
        5.390161e+02	        9.054567e-02
        5.450533e+02	        8.870491e-02
        5.511582e+02	        8.684165e-02
        5.573314e+02	        8.495247e-02
        5.635738e+02	        8.340437e-02
        5.698861e+02	        8.198787e-02
        5.762691e+02	        8.056059e-02
        5.827236e+02	        7.911867e-02
        5.892504e+02	        7.766688e-02
        5.958503e+02	        7.619867e-02
        6.025241e+02	        7.471402e-02
        6.092727e+02	        7.329485e-02
        6.160968e+02	        7.197666e-02
        6.229974e+02	        7.064400e-02
        6.299753e+02	        6.930189e-02
        6.370313e+02	        6.798002e-02
        6.441664e+02	        6.664442e-02
        6.513814e+02	        6.529357e-02
        6.586772e+02	        6.410977e-02
        6.660547e+02	        6.297210e-02
        6.735148e+02	        6.182172e-02
        6.810585e+02	        6.065401e-02
        6.886867e+02	        5.946757e-02
        6.964003e+02	        5.827997e-02
        7.042004e+02	        5.713418e-02
        7.120878e+02	        5.616381e-02
        7.200635e+02	        5.518514e-02
        7.281286e+02	        5.419632e-02
        7.362840e+02	        5.319685e-02
        7.445307e+02	        5.218625e-02
        7.528698e+02	        5.116239e-02
        7.613023e+02	        5.016653e-02
        7.698293e+02	        4.924838e-02
        7.784518e+02	        4.832570e-02
        7.871708e+02	        4.739518e-02
        7.959875e+02	        4.645468e-02
        8.049030e+02	        4.550398e-02
        8.139183e+02	        4.465685e-02
        8.230346e+02	        4.385881e-02
        8.322529e+02	        4.304478e-02
        8.415746e+02	        4.222303e-02
        8.510006e+02	        4.139029e-02
        8.605323e+02	        4.054627e-02
        8.701706e+02	        3.977110e-02
        8.799170e+02	        3.902486e-02
        8.897725e+02	        3.827054e-02
        8.997384e+02	        3.750798e-02
        9.098159e+02	        3.673120e-02
        9.200063e+02	        3.597056e-02
        9.303108e+02	        3.530056e-02
        9.407307e+02	        3.464856e-02
        9.512674e+02	        3.398999e-02
        9.619221e+02	        3.332391e-02
        9.726961e+02	        3.265055e-02
        9.835907e+02	        3.198878e-02
        9.946074e+02	        3.135783e-02
        1.005748e+03	        3.072409e-02
        1.017012e+03	        3.009442e-02
        1.028403e+03	        2.947097e-02
        1.039922e+03	        2.885944e-02
        1.051570e+03	        2.830774e-02
        1.063348e+03	        2.774991e-02
        1.075258e+03	        2.718145e-02
        1.087301e+03	        2.660789e-02
        1.099480e+03	        2.603034e-02
        1.111794e+03	        2.549952e-02
        1.124247e+03	        2.498802e-02
        1.136839e+03	        2.447138e-02
        1.149572e+03	        2.395016e-02
        1.162448e+03	        2.339668e-02
        1.175468e+03	        2.287901e-02
        1.188634e+03	        2.236691e-02
        1.201947e+03	        2.186245e-02
        1.215409e+03	        2.135853e-02
        1.229023e+03	        2.087851e-02
        1.242788e+03	        2.040983e-02
        1.256708e+03	        1.993891e-02
        1.270784e+03	        1.946368e-02
        1.285017e+03	        1.903226e-02
        1.299410e+03	        1.860244e-02
        1.313964e+03	        1.816889e-02
        1.328681e+03	        1.773133e-02
        1.343563e+03	        1.730772e-02
        1.358612e+03	        1.690426e-02
        1.373829e+03	        1.649995e-02
        1.389216e+03	        1.609781e-02
        1.404776e+03	        1.570097e-02
        1.420510e+03	        1.530103e-02
        1.436421e+03	        1.490002e-02
        1.452509e+03	        1.449348e-02
        1.468778e+03	        1.409228e-02
        1.485229e+03	        1.368807e-02
        1.501865e+03	        1.328325e-02
        1.518686e+03	        1.286647e-02
        1.535696e+03	        1.241737e-02
        1.552897e+03	        1.187081e-02
        1.570290e+03	        1.089691e-02
        1.587878e+03	        1.070706e-02
        1.605663e+03	        1.052245e-02
        1.623647e+03	        1.037033e-02
        1.641833e+03	        1.021818e-02
        1.660222e+03	        1.006618e-02
        1.678818e+03	        9.912686e-03
        1.697621e+03	        9.757516e-03
        1.716635e+03	        9.601685e-03
        1.735863e+03	        9.450552e-03
        1.755305e+03	        9.305411e-03
        1.774965e+03	        9.159750e-03
        1.794846e+03	        9.020244e-03
        1.814949e+03	        8.880405e-03
        1.835277e+03	        8.739214e-03
        1.855833e+03	        8.596417e-03
        1.876620e+03	        8.452008e-03
        1.897639e+03	        8.306233e-03
        1.918893e+03	        8.164867e-03
        1.940386e+03	        8.025185e-03
        1.962119e+03	        7.899617e-03
        1.984096e+03	        7.774243e-03
        2.006319e+03	        7.647489e-03
        2.028790e+03	        7.519542e-03
        2.051514e+03	        7.390252e-03
        2.074492e+03	        7.263429e-03
        2.097727e+03	        7.140966e-03
        2.121223e+03	        7.019608e-03
        2.144981e+03	        6.909510e-03
        2.169006e+03	        6.800217e-03
        2.193300e+03	        6.689728e-03
        2.217866e+03	        6.578161e-03
        2.242707e+03	        6.466903e-03
        2.267827e+03	        6.354834e-03
        2.293228e+03	        6.245795e-03
        2.318913e+03	        6.137901e-03
        2.344886e+03	        6.032909e-03
        2.371150e+03	        5.929443e-03
        2.397708e+03	        5.825757e-03
        2.424563e+03	        5.723556e-03
        2.451720e+03	        5.620345e-03
        2.479180e+03	        5.516113e-03
        2.506948e+03	        5.417866e-03
        2.535027e+03	        5.322415e-03
        2.563421e+03	        5.234921e-03
        2.592132e+03	        5.146525e-03
        2.621165e+03	        5.057650e-03
        2.650524e+03	        4.967806e-03
        2.680211e+03	        4.876970e-03
        2.710231e+03	        4.785162e-03
        2.740587e+03	        4.700037e-03
        2.771282e+03	        4.621597e-03
        2.802322e+03	        4.546603e-03
        2.833710e+03	        4.470639e-03
        2.865449e+03	        4.393824e-03
        2.897543e+03	        4.316163e-03
        2.929997e+03	        4.237850e-03
        2.962814e+03	        4.159327e-03
        2.995999e+03	        4.083529e-03
        3.029556e+03	        4.017190e-03
        3.063488e+03	        3.950119e-03
        3.097801e+03	        3.882297e-03
        3.132498e+03	        3.813726e-03
        3.167583e+03	        3.745501e-03
        3.203062e+03	        3.677749e-03
        3.238938e+03	        3.609306e-03
        3.275216e+03	        3.543799e-03
        3.311900e+03	        3.481756e-03
        3.348994e+03	        3.419202e-03
        3.386505e+03	        3.356849e-03
        3.424435e+03	        3.293960e-03
        3.462791e+03	        3.230421e-03
        3.501576e+03	        3.168155e-03
        3.540795e+03	        3.108243e-03
        3.580454e+03	        3.052290e-03
        3.620557e+03	        2.998793e-03
        3.661109e+03	        2.945686e-03
        3.702115e+03	        2.891984e-03
        3.743580e+03	        2.837772e-03
        3.785510e+03	        2.785313e-03
        3.827910e+03	        2.732789e-03
        3.870784e+03	        2.679739e-03
        3.914139e+03	        2.627994e-03
        3.957979e+03	        2.578786e-03
        4.002311e+03	        2.529632e-03
        4.047138e+03	        2.483929e-03
        4.092468e+03	        2.438415e-03
        4.138306e+03	        2.392959e-03
        4.184657e+03	        2.347052e-03
        4.231527e+03	        2.301002e-03
        4.278923e+03	        2.256566e-03
        4.326849e+03	        2.212559e-03
        4.375311e+03	        2.168971e-03
        4.424317e+03	        2.125044e-03
        4.473872e+03	        2.080744e-03
        4.523981e+03	        2.036056e-03
        4.574652e+03	        1.992092e-03
        4.625890e+03	        1.950951e-03
        4.677703e+03	        1.912154e-03
        4.730095e+03	        1.874292e-03
        4.783075e+03	        1.836009e-03
        4.836647e+03	        1.797066e-03
        4.890820e+03	        1.758750e-03
        4.945600e+03	        1.720571e-03
        5.000993e+03	        1.681979e-03
        5.057007e+03	        1.642584e-03
        5.113648e+03	        1.599624e-03
        5.170923e+03	        1.559969e-03
        5.228840e+03	        1.528175e-03
        5.287405e+03	        1.496581e-03
        5.346627e+03	        1.464690e-03
        5.406512e+03	        1.432688e-03
        5.467067e+03	        1.402890e-03
        5.528301e+03	        1.373599e-03
        5.590221e+03	        1.344872e-03
        5.652834e+03	        1.316092e-03
        5.716149e+03	        1.287274e-03
        5.780172e+03	        1.258333e-03
        5.844913e+03	        1.229229e-03
        5.910379e+03	        1.200608e-03
        5.976578e+03	        1.172740e-03
        6.043519e+03	        1.145820e-03
        6.111209e+03	        1.118283e-03
        6.179658e+03	        1.090106e-03
        6.248873e+03	        1.059452e-03
        6.318863e+03	        1.034295e-03
        6.389638e+03	        1.009560e-03
        6.461205e+03	        9.858394e-04
        6.533574e+03	        9.623660e-04
        6.606753e+03	        9.386141e-04
        6.680752e+03	        9.150162e-04
        6.755579e+03	        8.913568e-04
        6.831245e+03	        8.676566e-04
        6.907759e+03	        8.435257e-04
        6.985129e+03	        8.196437e-04
        7.063366e+03	        7.953172e-04
        7.142479e+03	        7.696853e-04
        7.222478e+03	        7.426745e-04
        7.303374e+03	        7.098113e-04
        7.385175e+03	        6.716166e-04
        7.467893e+03	        6.560918e-04
        7.551537e+03	        6.418211e-04
        7.636118e+03	        6.286353e-04
        7.721646e+03	        6.155890e-04
        7.808132e+03	        6.026113e-04
        7.895587e+03	        5.895035e-04
        7.984022e+03	        5.762515e-04
        8.073446e+03	        5.635337e-04
        8.163873e+03	        5.511978e-04
        8.255312e+03	        5.387390e-04
        8.347776e+03	        5.260522e-04
        8.441275e+03	        5.132326e-04
        8.535822e+03	        5.002815e-04
        8.631427e+03	        4.874876e-04
        8.728103e+03	        4.747067e-04
        8.825862e+03	        4.619020e-04
        8.924716e+03	        4.498763e-04
        9.024678e+03	        4.385933e-04
        9.125758e+03	        4.275520e-04
        9.227971e+03	        4.165187e-04
        9.331329e+03	        4.052157e-04
        9.435845e+03	        3.936612e-04
        9.541531e+03	        3.817950e-04
        9.648401e+03	        3.674164e-04
        9.756468e+03	        3.584951e-04
        9.865745e+03	        3.496218e-04
        9.976246e+03	        3.406968e-04
        1.008798e+04	        3.316916e-04
        1.020098e+04	        3.228359e-04
        1.031523e+04	        3.141801e-04
        1.043077e+04	        3.056601e-04
        1.054760e+04	        2.978513e-04
        1.066573e+04	        2.900218e-04
        1.078520e+04	        2.821356e-04
        1.090600e+04	        2.742031e-04
        1.102815e+04	        2.663202e-04
        1.115167e+04	        2.583764e-04
        1.127657e+04	        2.505415e-04
        1.140288e+04	        2.432210e-04
        1.153059e+04	        2.357660e-04
        1.165974e+04	        2.281438e-04
        1.179034e+04	        2.202545e-04
        1.192240e+04	        2.115683e-04
        1.205593e+04	        2.009060e-04
        1.219096e+04	        1.951606e-04
        1.232751e+04	        1.901004e-04
        1.246558e+04	        1.850381e-04
        1.260520e+04	        1.799133e-04
        1.274639e+04	        1.747310e-04
        1.288915e+04	        1.694835e-04
        1.303352e+04	        1.642304e-04
        1.317950e+04	        1.588240e-04
        1.332712e+04	        1.535507e-04
        1.347639e+04	        1.483898e-04
        1.362733e+04	        1.430733e-04
        1.377996e+04	        1.374730e-04
        1.393431e+04	        1.315775e-04
        1.409038e+04	        1.250007e-04
        1.424820e+04	        1.189628e-04
        1.440778e+04	        1.161076e-04
        1.456916e+04	        1.132331e-04
        1.473234e+04	        1.103293e-04
        1.489735e+04	        1.074013e-04
        1.506421e+04	        1.044506e-04
        1.523293e+04	        1.016023e-04
        1.540355e+04	        9.882229e-05
        1.557608e+04	        9.602734e-05
        1.575054e+04	        9.319610e-05
        1.592695e+04	        9.032013e-05
        1.610534e+04	        8.744071e-05
        1.628573e+04	        8.486950e-05
        1.646814e+04	        8.228608e-05
        1.665259e+04	        7.943212e-05
        1.683910e+04	        7.717303e-05
        1.702771e+04	        7.489424e-05
        1.721843e+04	        7.262909e-05
        1.741128e+04	        7.067030e-05
        1.760630e+04	        6.869588e-05
        1.780350e+04	        6.669726e-05
        1.800291e+04	        6.467691e-05
        1.820455e+04	        6.264088e-05
        1.840845e+04	        6.068666e-05
        1.861463e+04	        5.877296e-05
        1.882312e+04	        5.681705e-05
        1.903395e+04	        5.474457e-05
        1.924714e+04	        5.276493e-05
        1.946272e+04	        5.107277e-05
        1.968071e+04	        4.947535e-05
        1.990114e+04	        4.785759e-05
        2.012405e+04	        4.622146e-05
        2.034945e+04	        4.455798e-05
        2.057737e+04	        4.304896e-05
        2.080785e+04	        4.155095e-05
        2.104091e+04	        4.002715e-05
        2.127657e+04	        3.845755e-05
        2.151488e+04	        3.687143e-05
        2.175586e+04	        3.540991e-05
        2.199954e+04	        3.408275e-05
        2.224594e+04	        3.274168e-05
        2.249511e+04	        3.141743e-05
        2.274706e+04	        3.015189e-05
        2.300184e+04	        2.887190e-05
        2.325947e+04	        2.757984e-05
        2.351999e+04	        2.633774e-05
        2.378343e+04	        2.513909e-05
        2.404981e+04	        2.393136e-05
        2.431918e+04	        2.271725e-05
        2.459157e+04	        2.151423e-05
        2.486701e+04	        2.029767e-05
        2.514553e+04	        1.907832e-05
        2.542717e+04	        1.791630e-05
        2.571197e+04	        1.673310e-05
        2.599996e+04	        1.549553e-05
        2.629117e+04	        1.431696e-05
        2.658564e+04	        1.309517e-05
        2.688341e+04	        1.182001e-05
        2.718452e+04	        1.044435e-05
        2.748900e+04	        8.982927e-06
        2.779689e+04	        7.429030e-06
        2.810823e+04	        5.486638e-06
        2.842306e+04	        2.018589e-06
        2.874141e+04	        7.011664e-07
        2.906333e+04	        6.378459e-07
        2.938885e+04	        5.686004e-07
        2.971802e+04	        4.912288e-07
        3.005088e+04	        4.183639e-07
        3.038746e+04	        3.362717e-07
        3.072782e+04	        2.249044e-07
        3.107198e+04	        3.930875e-08
        3.142000e+04	        3.630035e-08
        3.177192e+04	        3.305711e-08
        3.212779e+04	        2.924662e-08
        3.248763e+04	        2.555255e-08
        3.285151e+04	        2.260009e-08
        3.321946e+04	        1.902111e-08
        3.359154e+04	        1.291845e-08
        3.396778e+04	        1.209486e-08
        3.434823e+04	        1.146043e-08
        3.473295e+04	        1.077810e-08
        3.512198e+04	        9.701491e-09
        3.551536e+04	        9.310000e-09
        3.591315e+04	        8.904293e-09
        3.631540e+04	        8.480141e-09
        3.672215e+04	        8.063553e-09
        3.713345e+04	        7.625698e-09
        3.754937e+04	        7.060793e-09
        3.796994e+04	        6.625624e-09
        3.839522e+04	        6.345857e-09
        3.882526e+04	        6.039868e-09
        3.926013e+04	        5.751666e-09
        3.969986e+04	        5.454534e-09
        4.014452e+04	        5.029626e-09
        4.059416e+04	        4.825899e-09
        4.104883e+04	        4.632045e-09
        4.150860e+04	        4.419342e-09
        4.197351e+04	        4.242155e-09
        4.244364e+04	        4.033193e-09
        4.291903e+04	        3.817280e-09
        4.339974e+04	        3.684719e-09
        4.388584e+04	        3.543121e-09
        4.437738e+04	        3.413755e-09
        4.487443e+04	        3.281934e-09
        4.537705e+04	        3.135593e-09
        4.588529e+04	        3.035957e-09
        4.639923e+04	        2.934972e-09
        4.691893e+04	        2.836755e-09
        4.744444e+04	        2.736916e-09
        4.797584e+04	        2.633873e-09
        4.851319e+04	        2.546589e-09
        4.905657e+04	        2.459163e-09
        4.960602e+04	        2.370114e-09
        5.016164e+04	        2.276239e-09
        5.072347e+04	        2.189674e-09
        5.129160e+04	        2.102279e-09
        5.186609e+04	        2.023929e-09
        5.244702e+04	        1.943722e-09
        5.303445e+04	        1.864198e-09
        5.362846e+04	        1.781693e-09
        5.422913e+04	        1.701869e-09
        5.483652e+04	        1.624190e-09
        5.545071e+04	        1.544470e-09
        5.607179e+04	        1.454567e-09
        5.669982e+04	        1.373363e-09
        5.733489e+04	        1.301921e-09
        5.797707e+04	        1.226923e-09
        5.862644e+04	        1.134147e-09
        5.928308e+04	        1.066701e-09
        5.994708e+04	        1.004315e-09
        6.061852e+04	        9.467777e-10
        6.129748e+04	        8.707636e-10
        6.198404e+04	        8.315190e-10
        6.267829e+04	        7.889972e-10
        6.338032e+04	        7.406992e-10
        6.409021e+04	        6.962042e-10
        6.480805e+04	        6.675069e-10
        6.553393e+04	        6.402296e-10
        6.626795e+04	        6.105024e-10
        6.701018e+04	        5.873693e-10
        6.776073e+04	        5.635208e-10
        6.851968e+04	        5.376553e-10
        6.928713e+04	        5.164091e-10
        7.006318e+04	        4.957712e-10
        7.084793e+04	        4.746897e-10
        7.164146e+04	        4.536280e-10
        7.244388e+04	        4.331606e-10
        7.325529e+04	        4.125772e-10
        7.407578e+04	        3.920345e-10
        7.490547e+04	        3.725885e-10
        7.574444e+04	        3.527265e-10
        7.659282e+04	        3.329284e-10
        7.745070e+04	        3.140858e-10
        7.831818e+04	        2.953551e-10
        7.919539e+04	        2.770176e-10
        8.008241e+04	        2.587126e-10
        8.097938e+04	        2.392433e-10
        8.188638e+04	        2.201483e-10
        8.280355e+04	        2.001729e-10
        8.373099e+04	        1.794096e-10
        8.466882e+04	        1.590819e-10
        8.561715e+04	        1.343571e-10
        8.657611e+04	        1.137682e-10
        8.754580e+04	        9.156366e-11
        8.852636e+04	        7.203525e-11
        8.951790e+04	        5.947557e-11
        9.052054e+04	        4.658499e-11
        9.153442e+04	        3.227772e-11
        9.255965e+04	        1.461132e-11
        9.359636e+04	        3.367002e-12
        9.464469e+04	        2.356091e-12
        9.570475e+04	        2.163411e-12
        9.677669e+04	        1.966786e-12
        9.786064e+04	        1.757070e-12
        9.895673e+04	        1.538508e-12
        1.000651e+05	        1.287754e-12
        1.011859e+05	        9.751355e-13
        1.023192e+05	        4.959582e-13
        1.034652e+05	        2.798111e-13
        1.046241e+05	        8.336652e-14
        1.057959e+05	        0.000000e+00
        1.069809e+05	        0.000000e+00
        1.081791e+05	        0.000000e+00
        1.093908e+05	        0.000000e+00

