# -------------------------------------------------------------------------------
#		C:/Users/Michael Chadolias/Documents/CubeSat/Radiation Analysis/Scenarios/CDR CLOSE-OUT/SSO 450/SSO 450 - 1 year/LET/Vessel/Integral LET spectrum.txt
# -------------------------------------------------------------------------------
# ID: 1 2 1

# Graph: Integral LET spectrum 
# min: 0.000160896 1e-06 max: 1.09391e+09 1.34256e+08
# X-axis L: LET (MeV.cm^2.g^{-1})
# Y-axis L: Flux (cm^{-2}.s^{-1})
# -------------------------------------------------------------------------------
# Curve 0: LET spectrum with Flares
# Params: 0 5 #7def21 2 1
#	LET (MeV.cm^2.g^{-1})		Flux (cm^{-2}.s^{-1})
# -------------------------------------------------------------------------------
        1.608960e+00	        1.342564e+04
        1.626982e+00	        1.342564e+04
        1.645205e+00	        1.342564e+04
        1.663632e+00	        1.342564e+04
        1.682265e+00	        1.342553e+04
        1.701107e+00	        1.342540e+04
        1.720161e+00	        1.342531e+04
        1.739427e+00	        1.342525e+04
        1.758910e+00	        1.342520e+04
        1.778610e+00	        1.342515e+04
        1.798532e+00	        1.342512e+04
        1.818676e+00	        1.342486e+04
        1.839046e+00	        1.342442e+04
        1.859644e+00	        1.342389e+04
        1.880473e+00	        1.342304e+04
        1.901536e+00	        1.342218e+04
        1.922834e+00	        1.342122e+04
        1.944370e+00	        1.342019e+04
        1.966148e+00	        1.341915e+04
        1.988170e+00	        1.341802e+04
        2.010439e+00	        1.341684e+04
        2.032956e+00	        1.341566e+04
        2.055727e+00	        1.341438e+04
        2.078752e+00	        1.341293e+04
        2.102035e+00	        1.341147e+04
        2.125579e+00	        1.340998e+04
        2.149386e+00	        1.340830e+04
        2.173460e+00	        1.340647e+04
        2.197804e+00	        1.340463e+04
        2.222421e+00	        1.340276e+04
        2.247313e+00	        1.340078e+04
        2.272484e+00	        1.339870e+04
        2.297937e+00	        1.339660e+04
        2.323675e+00	        1.339448e+04
        2.349701e+00	        1.339233e+04
        2.376019e+00	        1.338959e+04
        2.402632e+00	        1.338647e+04
        2.429542e+00	        1.338333e+04
        2.456754e+00	        1.338014e+04
        2.484271e+00	        1.337696e+04
        2.512096e+00	        1.337394e+04
        2.540233e+00	        1.337088e+04
        2.568685e+00	        1.336779e+04
        2.597455e+00	        1.336467e+04
        2.626548e+00	        1.336151e+04
        2.655967e+00	        1.335832e+04
        2.685715e+00	        1.335353e+04
        2.715796e+00	        1.334866e+04
        2.746214e+00	        1.334372e+04
        2.776973e+00	        1.333874e+04
        2.808077e+00	        1.333369e+04
        2.839529e+00	        1.332811e+04
        2.871333e+00	        1.332229e+04
        2.903493e+00	        1.331640e+04
        2.936014e+00	        1.331045e+04
        2.968899e+00	        1.330443e+04
        3.002152e+00	        1.329835e+04
        3.035777e+00	        1.329100e+04
        3.069779e+00	        1.328339e+04
        3.104162e+00	        1.327570e+04
        3.138931e+00	        1.326792e+04
        3.174088e+00	        1.326005e+04
        3.209640e+00	        1.325209e+04
        3.245589e+00	        1.324414e+04
        3.281941e+00	        1.323612e+04
        3.318701e+00	        1.322801e+04
        3.355872e+00	        1.321980e+04
        3.393459e+00	        1.321151e+04
        3.431468e+00	        1.320312e+04
        3.469902e+00	        1.319464e+04
        3.508766e+00	        1.318543e+04
        3.548066e+00	        1.317593e+04
        3.587806e+00	        1.316632e+04
        3.627992e+00	        1.315660e+04
        3.668627e+00	        1.314677e+04
        3.709717e+00	        1.313683e+04
        3.751268e+00	        1.312681e+04
        3.793284e+00	        1.311786e+04
        3.835771e+00	        1.310881e+04
        3.878733e+00	        1.309965e+04
        3.922177e+00	        1.309040e+04
        3.966107e+00	        1.308104e+04
        4.010530e+00	        1.307157e+04
        4.055449e+00	        1.306200e+04
        4.100872e+00	        1.305158e+04
        4.146804e+00	        1.303926e+04
        4.193250e+00	        1.302680e+04
        4.240217e+00	        1.301421e+04
        4.287709e+00	        1.300147e+04
        4.335734e+00	        1.298859e+04
        4.384296e+00	        1.297557e+04
        4.433403e+00	        1.296460e+04
        4.483059e+00	        1.295357e+04
        4.533271e+00	        1.294242e+04
        4.584046e+00	        1.293114e+04
        4.635390e+00	        1.291974e+04
        4.687308e+00	        1.290821e+04
        4.739809e+00	        1.289655e+04
        4.792897e+00	        1.288476e+04
        4.846580e+00	        1.287036e+04
        4.900864e+00	        1.285542e+04
        4.955756e+00	        1.284032e+04
        5.011263e+00	        1.282505e+04
        5.067391e+00	        1.280960e+04
        5.124149e+00	        1.279398e+04
        5.181542e+00	        1.277819e+04
        5.239577e+00	        1.276278e+04
        5.298263e+00	        1.274735e+04
        5.357606e+00	        1.273174e+04
        5.417614e+00	        1.271597e+04
        5.478294e+00	        1.270001e+04
        5.539654e+00	        1.268388e+04
        5.601701e+00	        1.266756e+04
        5.664442e+00	        1.265106e+04
        5.727887e+00	        1.263342e+04
        5.792042e+00	        1.261508e+04
        5.856916e+00	        1.259653e+04
        5.922516e+00	        1.257778e+04
        5.988851e+00	        1.255881e+04
        6.055929e+00	        1.253963e+04
        6.123759e+00	        1.252024e+04
        6.192348e+00	        1.250063e+04
        6.261705e+00	        1.247914e+04
        6.331839e+00	        1.245443e+04
        6.402759e+00	        1.242943e+04
        6.474473e+00	        1.240416e+04
        6.546991e+00	        1.237860e+04
        6.620320e+00	        1.235276e+04
        6.694471e+00	        1.232663e+04
        6.769452e+00	        1.230019e+04
        6.845274e+00	        1.227217e+04
        6.921944e+00	        1.224301e+04
        6.999473e+00	        1.221353e+04
        7.077871e+00	        1.218372e+04
        7.157146e+00	        1.215357e+04
        7.237310e+00	        1.212309e+04
        7.318371e+00	        1.209227e+04
        7.400341e+00	        1.206110e+04
        7.483228e+00	        1.202818e+04
        7.567044e+00	        1.199330e+04
        7.651799e+00	        1.195804e+04
        7.737503e+00	        1.192238e+04
        7.824166e+00	        1.188632e+04
        7.911801e+00	        1.184985e+04
        8.000417e+00	        1.181298e+04
        8.090026e+00	        1.177569e+04
        8.180638e+00	        1.173793e+04
        8.272265e+00	        1.169376e+04
        8.364918e+00	        1.164910e+04
        8.458610e+00	        1.160393e+04
        8.553350e+00	        1.155826e+04
        8.649152e+00	        1.151208e+04
        8.746027e+00	        1.146538e+04
        8.843987e+00	        1.141816e+04
        8.943044e+00	        1.137041e+04
        9.043210e+00	        1.131685e+04
        9.144499e+00	        1.125840e+04
        9.246921e+00	        1.119929e+04
        9.350492e+00	        1.113951e+04
        9.455222e+00	        1.107907e+04
        9.561125e+00	        1.101796e+04
        9.668214e+00	        1.095615e+04
        9.776503e+00	        1.089366e+04
        9.886005e+00	        1.083092e+04
        9.996733e+00	        1.076812e+04
        1.010870e+01	        1.070462e+04
        1.022192e+01	        1.064041e+04
        1.033641e+01	        1.057547e+04
        1.045219e+01	        1.050981e+04
        1.056926e+01	        1.044342e+04
        1.068764e+01	        1.037628e+04
        1.080734e+01	        1.030839e+04
        1.092839e+01	        1.023612e+04
        1.105080e+01	        1.015126e+04
        1.117457e+01	        1.006546e+04
        1.129973e+01	        9.978686e+03
        1.142629e+01	        9.890945e+03
        1.155427e+01	        9.802221e+03
        1.168369e+01	        9.712503e+03
        1.181455e+01	        9.621780e+03
        1.194688e+01	        9.535053e+03
        1.208069e+01	        9.460612e+03
        1.221600e+01	        9.385337e+03
        1.235282e+01	        9.309219e+03
        1.249118e+01	        9.232249e+03
        1.263109e+01	        9.154416e+03
        1.277256e+01	        9.075712e+03
        1.291562e+01	        8.996126e+03
        1.306028e+01	        8.915649e+03
        1.320657e+01	        8.834271e+03
        1.335449e+01	        8.743303e+03
        1.350406e+01	        8.644963e+03
        1.365531e+01	        8.545522e+03
        1.380826e+01	        8.444967e+03
        1.396292e+01	        8.343285e+03
        1.411931e+01	        8.240465e+03
        1.427746e+01	        8.136493e+03
        1.443737e+01	        8.031357e+03
        1.459908e+01	        7.937267e+03
        1.476259e+01	        7.845367e+03
        1.492794e+01	        7.752439e+03
        1.509514e+01	        7.658469e+03
        1.526421e+01	        7.563447e+03
        1.543518e+01	        7.467361e+03
        1.560806e+01	        7.370199e+03
        1.578288e+01	        7.271948e+03
        1.595966e+01	        7.173615e+03
        1.613841e+01	        7.080050e+03
        1.631917e+01	        6.985437e+03
        1.650195e+01	        6.889764e+03
        1.668678e+01	        6.793020e+03
        1.687368e+01	        6.695192e+03
        1.706268e+01	        6.596268e+03
        1.725379e+01	        6.496237e+03
        1.744704e+01	        6.395085e+03
        1.764245e+01	        6.304785e+03
        1.784006e+01	        6.217882e+03
        1.803988e+01	        6.130005e+03
        1.824193e+01	        6.041144e+03
        1.844625e+01	        5.951287e+03
        1.865286e+01	        5.860424e+03
        1.886178e+01	        5.768544e+03
        1.907304e+01	        5.675634e+03
        1.928667e+01	        5.581683e+03
        1.950269e+01	        5.498464e+03
        1.972113e+01	        5.414497e+03
        1.994201e+01	        5.329589e+03
        2.016537e+01	        5.243731e+03
        2.039124e+01	        5.156910e+03
        2.061963e+01	        5.069118e+03
        2.085058e+01	        4.980342e+03
        2.108411e+01	        4.890571e+03
        2.132027e+01	        4.806203e+03
        2.155906e+01	        4.731001e+03
        2.180054e+01	        4.654958e+03
        2.204471e+01	        4.578062e+03
        2.229162e+01	        4.500306e+03
        2.254130e+01	        4.421678e+03
        2.279378e+01	        4.342170e+03
        2.304908e+01	        4.261771e+03
        2.330724e+01	        4.180471e+03
        2.356829e+01	        4.098320e+03
        2.383227e+01	        4.015301e+03
        2.409920e+01	        3.931352e+03
        2.436912e+01	        3.846462e+03
        2.464207e+01	        3.760622e+03
        2.491807e+01	        3.673821e+03
        2.519717e+01	        3.586046e+03
        2.547939e+01	        3.502917e+03
        2.576477e+01	        3.444447e+03
        2.605335e+01	        3.385322e+03
        2.634516e+01	        3.325535e+03
        2.664024e+01	        3.265079e+03
        2.693862e+01	        3.203945e+03
        2.724035e+01	        3.142126e+03
        2.754545e+01	        3.079615e+03
        2.785397e+01	        3.016404e+03
        2.816595e+01	        2.952484e+03
        2.848142e+01	        2.893884e+03
        2.880043e+01	        2.834762e+03
        2.912301e+01	        2.774978e+03
        2.944920e+01	        2.714524e+03
        2.977905e+01	        2.653392e+03
        3.011259e+01	        2.591576e+03
        3.044986e+01	        2.529068e+03
        3.079092e+01	        2.465859e+03
        3.113579e+01	        2.416915e+03
        3.148453e+01	        2.369370e+03
        3.183717e+01	        2.321293e+03
        3.219376e+01	        2.272677e+03
        3.255435e+01	        2.223517e+03
        3.291897e+01	        2.173806e+03
        3.328768e+01	        2.123539e+03
        3.366052e+01	        2.072708e+03
        3.403753e+01	        2.025141e+03
        3.441877e+01	        1.987286e+03
        3.480428e+01	        1.949008e+03
        3.519410e+01	        1.910300e+03
        3.558829e+01	        1.871159e+03
        3.598690e+01	        1.831580e+03
        3.638997e+01	        1.791557e+03
        3.679756e+01	        1.751086e+03
        3.720971e+01	        1.710161e+03
        3.762647e+01	        1.670085e+03
        3.804791e+01	        1.633845e+03
        3.847406e+01	        1.597200e+03
        3.890499e+01	        1.560144e+03
        3.934075e+01	        1.522673e+03
        3.978138e+01	        1.484783e+03
        4.022696e+01	        1.446469e+03
        4.067752e+01	        1.407726e+03
        4.113313e+01	        1.371687e+03
        4.159384e+01	        1.343477e+03
        4.205971e+01	        1.314952e+03
        4.253080e+01	        1.286107e+03
        4.300716e+01	        1.256939e+03
        4.348887e+01	        1.227444e+03
        4.397596e+01	        1.197618e+03
        4.446851e+01	        1.167459e+03
        4.496658e+01	        1.136961e+03
        4.547023e+01	        1.112287e+03
        4.597952e+01	        1.089174e+03
        4.649451e+01	        1.065801e+03
        4.701528e+01	        1.042166e+03
        4.754187e+01	        1.018267e+03
        4.807436e+01	        9.941018e+02
        4.861282e+01	        9.696660e+02
        4.915731e+01	        9.449565e+02
        4.970789e+01	        9.209904e+02
        5.026464e+01	        9.019241e+02
        5.082763e+01	        8.826442e+02
        5.139693e+01	        8.631485e+02
        5.197260e+01	        8.434343e+02
        5.255472e+01	        8.234994e+02
        5.314336e+01	        8.033411e+02
        5.373859e+01	        7.829564e+02
        5.434049e+01	        7.623433e+02
        5.494913e+01	        7.441605e+02
        5.556458e+01	        7.271316e+02
        5.618694e+01	        7.099120e+02
        5.681626e+01	        6.924994e+02
        5.745263e+01	        6.748919e+02
        5.809612e+01	        6.570875e+02
        5.874683e+01	        6.390846e+02
        5.940482e+01	        6.208800e+02
        6.007019e+01	        6.063900e+02
        6.074300e+01	        5.928329e+02
        6.142335e+01	        5.791238e+02
        6.211133e+01	        5.652613e+02
        6.280700e+01	        5.512437e+02
        6.351047e+01	        5.370690e+02
        6.422182e+01	        5.227361e+02
        6.494114e+01	        5.082428e+02
        6.566851e+01	        4.954615e+02
        6.640403e+01	        4.834767e+02
        6.714779e+01	        4.713577e+02
        6.789988e+01	        4.591030e+02
        6.866039e+01	        4.467110e+02
        6.942942e+01	        4.341803e+02
        7.020706e+01	        4.215096e+02
        7.099342e+01	        4.093443e+02
        7.178858e+01	        4.012531e+02
        7.259264e+01	        3.930713e+02
        7.340572e+01	        3.847978e+02
        7.422790e+01	        3.764317e+02
        7.505929e+01	        3.679718e+02
        7.589999e+01	        3.594172e+02
        7.675011e+01	        3.507668e+02
        7.760974e+01	        3.420202e+02
        7.847901e+01	        3.333182e+02
        7.935802e+01	        3.251373e+02
        8.024686e+01	        3.168648e+02
        8.114567e+01	        3.084996e+02
        8.205454e+01	        3.000407e+02
        8.297359e+01	        2.914870e+02
        8.390294e+01	        2.828375e+02
        8.484269e+01	        2.740918e+02
        8.579297e+01	        2.680192e+02
        8.675389e+01	        2.620207e+02
        8.772558e+01	        2.559550e+02
        8.870815e+01	        2.498213e+02
        8.970173e+01	        2.436190e+02
        9.070643e+01	        2.373472e+02
        9.172239e+01	        2.310052e+02
        9.274972e+01	        2.245921e+02
        9.378856e+01	        2.193520e+02
        9.483904e+01	        2.142431e+02
        9.590129e+01	        2.090770e+02
        9.697543e+01	        2.038530e+02
        9.806160e+01	        1.985705e+02
        9.915994e+01	        1.932288e+02
        1.002706e+02	        1.878278e+02
        1.013937e+02	        1.825335e+02
        1.025293e+02	        1.783334e+02
        1.036777e+02	        1.740863e+02
        1.048389e+02	        1.697916e+02
        1.060132e+02	        1.654488e+02
        1.072006e+02	        1.610573e+02
        1.084013e+02	        1.566163e+02
        1.096154e+02	        1.521256e+02
        1.108432e+02	        1.482070e+02
        1.120847e+02	        1.448092e+02
        1.133401e+02	        1.413734e+02
        1.146095e+02	        1.378992e+02
        1.158932e+02	        1.343860e+02
        1.171913e+02	        1.308335e+02
        1.185039e+02	        1.272413e+02
        1.198312e+02	        1.236088e+02
        1.211734e+02	        1.206187e+02
        1.225306e+02	        1.177100e+02
        1.239030e+02	        1.147687e+02
        1.252907e+02	        1.117944e+02
        1.266941e+02	        1.087869e+02
        1.281131e+02	        1.057457e+02
        1.295480e+02	        1.026704e+02
        1.309990e+02	        9.980295e+01
        1.324663e+02	        9.712073e+01
        1.339500e+02	        9.440926e+01
        1.354503e+02	        9.166742e+01
        1.369674e+02	        8.889486e+01
        1.385015e+02	        8.609125e+01
        1.400528e+02	        8.328420e+01
        1.416214e+02	        8.131902e+01
        1.432077e+02	        7.933182e+01
        1.448117e+02	        7.732237e+01
        1.464336e+02	        7.529042e+01
        1.480737e+02	        7.323601e+01
        1.497322e+02	        7.115860e+01
        1.514093e+02	        6.905792e+01
        1.531052e+02	        6.722768e+01
        1.548200e+02	        6.543712e+01
        1.565541e+02	        6.362650e+01
        1.583076e+02	        6.179561e+01
        1.600807e+02	        5.994423e+01
        1.618737e+02	        5.807273e+01
        1.636867e+02	        5.629226e+01
        1.655201e+02	        5.480302e+01
        1.673740e+02	        5.329709e+01
        1.692487e+02	        5.177424e+01
        1.711444e+02	        5.023434e+01
        1.730613e+02	        4.867720e+01
        1.749996e+02	        4.710263e+01
        1.769597e+02	        4.587509e+01
        1.789418e+02	        4.471365e+01
        1.809460e+02	        4.353920e+01
        1.829727e+02	        4.235161e+01
        1.850221e+02	        4.115071e+01
        1.870944e+02	        3.993636e+01
        1.891900e+02	        3.870984e+01
        1.913090e+02	        3.760529e+01
        1.934517e+02	        3.648836e+01
        1.956185e+02	        3.535920e+01
        1.978095e+02	        3.421746e+01
        2.000251e+02	        3.306294e+01
        2.022655e+02	        3.193501e+01
        2.045309e+02	        3.105786e+01
        2.068218e+02	        3.017088e+01
        2.091383e+02	        2.927397e+01
        2.114807e+02	        2.836702e+01
        2.138494e+02	        2.744995e+01
        2.162446e+02	        2.652362e+01
        2.186667e+02	        2.580038e+01
        2.211159e+02	        2.506904e+01
        2.235925e+02	        2.432950e+01
        2.260968e+02	        2.358168e+01
        2.286292e+02	        2.282549e+01
        2.311900e+02	        2.206082e+01
        2.337794e+02	        2.142753e+01
        2.363979e+02	        2.080932e+01
        2.390456e+02	        2.018419e+01
        2.417231e+02	        1.955205e+01
        2.444305e+02	        1.891274e+01
        2.471682e+02	        1.826630e+01
        2.499366e+02	        1.770812e+01
        2.527360e+02	        1.716098e+01
        2.555668e+02	        1.660772e+01
        2.584293e+02	        1.604839e+01
        2.613238e+02	        1.548283e+01
        2.642508e+02	        1.493597e+01
        2.672105e+02	        1.450291e+01
        2.702034e+02	        1.406501e+01
        2.732298e+02	        1.362221e+01
        2.762901e+02	        1.317445e+01
        2.793847e+02	        1.272171e+01
        2.825139e+02	        1.228383e+01
        2.856782e+02	        1.190358e+01
        2.888780e+02	        1.151906e+01
        2.921136e+02	        1.113025e+01
        2.953854e+02	        1.073708e+01
        2.986938e+02	        1.033951e+01
        3.020393e+02	        9.993587e+00
        3.054223e+02	        9.685369e+00
        3.088432e+02	        9.373698e+00
        3.123024e+02	        9.058569e+00
        3.158004e+02	        8.739911e+00
        3.193375e+02	        8.417685e+00
        3.229142e+02	        8.103090e+00
        3.265310e+02	        7.789896e+00
        3.301883e+02	        7.473194e+00
        3.338866e+02	        7.152907e+00
        3.376263e+02	        6.829113e+00
        3.414079e+02	        6.584834e+00
        3.452318e+02	        6.359343e+00
        3.490986e+02	        6.131329e+00
        3.530086e+02	        5.900765e+00
        3.569625e+02	        5.667628e+00
        3.609607e+02	        5.434203e+00
        3.650036e+02	        5.234705e+00
        3.690918e+02	        5.033003e+00
        3.732258e+02	        4.829092e+00
        3.774062e+02	        4.622899e+00
        3.816333e+02	        4.414398e+00
        3.859078e+02	        4.222939e+00
        3.902301e+02	        4.042024e+00
        3.946009e+02	        3.859086e+00
        3.990206e+02	        3.674098e+00
        4.034898e+02	        3.487070e+00
        4.080091e+02	        3.314018e+00
        4.125790e+02	        3.157642e+00
        4.172001e+02	        2.999514e+00
        4.218730e+02	        2.839615e+00
        4.265982e+02	        2.677926e+00
        4.313763e+02	        2.521544e+00
        4.362079e+02	        2.373495e+00
        4.410936e+02	        2.223832e+00
        4.460341e+02	        2.072516e+00
        4.510299e+02	        1.919509e+00
        4.560817e+02	        1.772387e+00
        4.611900e+02	        1.624840e+00
        4.663556e+02	        1.475642e+00
        4.715790e+02	        1.324773e+00
        4.768609e+02	        1.183476e+00
        4.822020e+02	        1.041517e+00
        4.876029e+02	        8.979761e-01
        4.930643e+02	        7.501213e-01
        4.985868e+02	        5.967831e-01
        5.041712e+02	        4.417288e-01
        5.098182e+02	        2.788611e-01
        5.155284e+02	        1.105721e-01
        5.213026e+02	        1.436599e-02
        5.271414e+02	        1.413022e-02
        5.330457e+02	        1.389328e-02
        5.390161e+02	        1.365385e-02
        5.450533e+02	        1.341181e-02
        5.511582e+02	        1.316543e-02
        5.573314e+02	        1.291153e-02
        5.635738e+02	        1.269372e-02
        5.698861e+02	        1.248955e-02
        5.762691e+02	        1.228591e-02
        5.827236e+02	        1.208442e-02
        5.892504e+02	        1.188328e-02
        5.958503e+02	        1.167985e-02
        6.025241e+02	        1.147437e-02
        6.092727e+02	        1.127485e-02
        6.160968e+02	        1.108185e-02
        6.229974e+02	        1.088698e-02
        6.299753e+02	        1.069260e-02
        6.370313e+02	        1.051206e-02
        6.441664e+02	        1.033044e-02
        6.513814e+02	        1.014736e-02
        6.586772e+02	        9.980432e-03
        6.660547e+02	        9.817580e-03
        6.735148e+02	        9.652947e-03
        6.810585e+02	        9.482272e-03
        6.886867e+02	        9.305319e-03
        6.964003e+02	        9.132691e-03
        7.042004e+02	        8.967379e-03
        7.120878e+02	        8.820098e-03
        7.200635e+02	        8.672458e-03
        7.281286e+02	        8.523920e-03
        7.362840e+02	        8.374124e-03
        7.445307e+02	        8.222825e-03
        7.528698e+02	        8.068698e-03
        7.613023e+02	        7.917741e-03
        7.698293e+02	        7.786366e-03
        7.784518e+02	        7.655958e-03
        7.871708e+02	        7.525303e-03
        7.959875e+02	        7.393611e-03
        8.049030e+02	        7.260757e-03
        8.139183e+02	        7.137159e-03
        8.230346e+02	        7.018069e-03
        8.322529e+02	        6.892148e-03
        8.415746e+02	        6.766299e-03
        8.510006e+02	        6.641106e-03
        8.605323e+02	        6.516492e-03
        8.701706e+02	        6.398365e-03
        8.799170e+02	        6.283118e-03
        8.897725e+02	        6.166869e-03
        8.997384e+02	        6.049531e-03
        9.098159e+02	        5.927962e-03
        9.200063e+02	        5.811235e-03
        9.303108e+02	        5.708220e-03
        9.407307e+02	        5.609537e-03
        9.512674e+02	        5.510020e-03
        9.619221e+02	        5.409657e-03
        9.726961e+02	        5.308403e-03
        9.835907e+02	        5.208194e-03
        9.946074e+02	        5.104864e-03
        1.005748e+03	        5.004200e-03
        1.017012e+03	        4.906948e-03
        1.028403e+03	        4.813684e-03
        1.039922e+03	        4.722041e-03
        1.051570e+03	        4.636298e-03
        1.063348e+03	        4.549806e-03
        1.075258e+03	        4.458352e-03
        1.087301e+03	        4.367400e-03
        1.099480e+03	        4.276820e-03
        1.111794e+03	        4.192909e-03
        1.124247e+03	        4.115114e-03
        1.136839e+03	        4.037055e-03
        1.149572e+03	        3.958720e-03
        1.162448e+03	        3.838896e-03
        1.175468e+03	        3.728290e-03
        1.188634e+03	        3.627202e-03
        1.201947e+03	        3.534156e-03
        1.215409e+03	        3.442858e-03
        1.229023e+03	        3.359512e-03
        1.242788e+03	        3.280012e-03
        1.256708e+03	        3.201072e-03
        1.270784e+03	        3.122169e-03
        1.285017e+03	        3.048039e-03
        1.299410e+03	        2.974989e-03
        1.313964e+03	        2.902417e-03
        1.328681e+03	        2.830238e-03
        1.343563e+03	        2.760565e-03
        1.358612e+03	        2.695387e-03
        1.373829e+03	        2.632218e-03
        1.389216e+03	        2.569592e-03
        1.404776e+03	        2.507344e-03
        1.420510e+03	        2.445218e-03
        1.436421e+03	        2.384001e-03
        1.452509e+03	        2.322653e-03
        1.468778e+03	        2.263077e-03
        1.485229e+03	        2.203810e-03
        1.501865e+03	        2.145192e-03
        1.518686e+03	        2.085381e-03
        1.535696e+03	        2.022392e-03
        1.552897e+03	        1.950495e-03
        1.570290e+03	        1.838090e-03
        1.587878e+03	        1.800148e-03
        1.605663e+03	        1.763568e-03
        1.623647e+03	        1.733070e-03
        1.641833e+03	        1.702618e-03
        1.660222e+03	        1.672184e-03
        1.678818e+03	        1.641489e-03
        1.697621e+03	        1.610479e-03
        1.716635e+03	        1.579761e-03
        1.735863e+03	        1.550439e-03
        1.755305e+03	        1.522537e-03
        1.774965e+03	        1.494648e-03
        1.794846e+03	        1.468043e-03
        1.814949e+03	        1.441375e-03
        1.835277e+03	        1.414450e-03
        1.855833e+03	        1.387252e-03
        1.876620e+03	        1.359770e-03
        1.897639e+03	        1.332064e-03
        1.918893e+03	        1.305622e-03
        1.940386e+03	        1.279795e-03
        1.962119e+03	        1.256543e-03
        1.984096e+03	        1.233286e-03
        2.006319e+03	        1.209791e-03
        2.028790e+03	        1.186105e-03
        2.051514e+03	        1.162206e-03
        2.074492e+03	        1.138799e-03
        2.097727e+03	        1.116551e-03
        2.121223e+03	        1.094761e-03
        2.144981e+03	        1.074904e-03
        2.169006e+03	        1.055170e-03
        2.193300e+03	        1.035237e-03
        2.217866e+03	        1.015290e-03
        2.242707e+03	        9.954207e-04
        2.267827e+03	        9.754178e-04
        2.293228e+03	        9.562647e-04
        2.318913e+03	        9.375378e-04
        2.344886e+03	        9.193321e-04
        2.371150e+03	        9.014167e-04
        2.397708e+03	        8.835146e-04
        2.424563e+03	        8.658628e-04
        2.451720e+03	        8.480447e-04
        2.479180e+03	        8.300588e-04
        2.506948e+03	        8.132446e-04
        2.535027e+03	        7.970773e-04
        2.563421e+03	        7.822710e-04
        2.592132e+03	        7.674012e-04
        2.621165e+03	        7.524525e-04
        2.650524e+03	        7.373524e-04
        2.680211e+03	        7.220914e-04
        2.710231e+03	        7.066768e-04
        2.740587e+03	        6.925407e-04
        2.771282e+03	        6.795790e-04
        2.802322e+03	        6.671578e-04
        2.833710e+03	        6.545712e-04
        2.865449e+03	        6.418438e-04
        2.897543e+03	        6.289825e-04
        2.929997e+03	        6.160236e-04
        2.962814e+03	        6.030212e-04
        2.995999e+03	        5.906061e-04
        3.029556e+03	        5.798986e-04
        3.063488e+03	        5.690731e-04
        3.097801e+03	        5.581265e-04
        3.132498e+03	        5.470603e-04
        3.167583e+03	        5.360442e-04
        3.203062e+03	        5.250942e-04
        3.238938e+03	        5.140362e-04
        3.275216e+03	        5.034657e-04
        3.311900e+03	        4.935570e-04
        3.348994e+03	        4.835760e-04
        3.386505e+03	        4.736259e-04
        3.424435e+03	        4.635874e-04
        3.462791e+03	        4.534475e-04
        3.501576e+03	        4.435068e-04
        3.540795e+03	        4.340247e-04
        3.580454e+03	        4.252020e-04
        3.620557e+03	        4.168148e-04
        3.661109e+03	        4.084830e-04
        3.702115e+03	        4.000580e-04
        3.743580e+03	        3.915533e-04
        3.785510e+03	        3.833211e-04
        3.827910e+03	        3.750944e-04
        3.870784e+03	        3.668629e-04
        3.914139e+03	        3.588517e-04
        3.957979e+03	        3.512634e-04
        4.002311e+03	        3.436892e-04
        4.047138e+03	        3.366208e-04
        4.092468e+03	        3.295794e-04
        4.138306e+03	        3.225422e-04
        4.184657e+03	        3.154611e-04
        4.231527e+03	        3.084328e-04
        4.278923e+03	        3.016644e-04
        4.326849e+03	        2.949799e-04
        4.375311e+03	        2.883674e-04
        4.424317e+03	        2.817027e-04
        4.473872e+03	        2.749850e-04
        4.523981e+03	        2.682142e-04
        4.574652e+03	        2.616637e-04
        4.625890e+03	        2.555500e-04
        4.677703e+03	        2.497960e-04
        4.730095e+03	        2.441819e-04
        4.783075e+03	        2.385052e-04
        4.836647e+03	        2.327282e-04
        4.890820e+03	        2.270470e-04
        4.945600e+03	        2.214085e-04
        5.000993e+03	        2.157878e-04
        5.057007e+03	        2.100534e-04
        5.113648e+03	        2.037809e-04
        5.170923e+03	        1.980117e-04
        5.228840e+03	        1.934445e-04
        5.287405e+03	        1.889099e-04
        5.346627e+03	        1.843360e-04
        5.406512e+03	        1.797728e-04
        5.467067e+03	        1.755847e-04
        5.528301e+03	        1.714748e-04
        5.590221e+03	        1.674492e-04
        5.652834e+03	        1.634187e-04
        5.716149e+03	        1.593857e-04
        5.780172e+03	        1.553409e-04
        5.844913e+03	        1.512756e-04
        5.910379e+03	        1.473246e-04
        5.976578e+03	        1.435151e-04
        6.043519e+03	        1.398430e-04
        6.111209e+03	        1.360906e-04
        6.179658e+03	        1.322560e-04
        6.248873e+03	        1.281138e-04
        6.318863e+03	        1.246771e-04
        6.389638e+03	        1.213120e-04
        6.461205e+03	        1.181186e-04
        6.533574e+03	        1.149656e-04
        6.606753e+03	        1.117751e-04
        6.680752e+03	        1.086066e-04
        6.755579e+03	        1.054329e-04
        6.831245e+03	        1.022567e-04
        6.907759e+03	        9.902399e-05
        6.985129e+03	        9.584068e-05
        7.063366e+03	        9.262497e-05
        7.142479e+03	        8.922933e-05
        7.222478e+03	        8.564200e-05
        7.303374e+03	        8.123617e-05
        7.385175e+03	        7.608741e-05
        7.467893e+03	        7.411704e-05
        7.551537e+03	        7.231412e-05
        7.636118e+03	        7.065350e-05
        7.721646e+03	        6.901619e-05
        7.808132e+03	        6.739014e-05
        7.895587e+03	        6.574819e-05
        7.984022e+03	        6.408824e-05
        8.073446e+03	        6.250341e-05
        8.163873e+03	        6.097417e-05
        8.255312e+03	        5.943753e-05
        8.347776e+03	        5.789246e-05
        8.441275e+03	        5.633208e-05
        8.535822e+03	        5.475619e-05
        8.631427e+03	        5.320449e-05
        8.728103e+03	        5.165539e-05
        8.825862e+03	        5.010391e-05
        8.924716e+03	        4.864778e-05
        9.024678e+03	        4.728837e-05
        9.125758e+03	        4.596146e-05
        9.227971e+03	        4.463674e-05
        9.331329e+03	        4.327645e-05
        9.435845e+03	        4.188203e-05
        9.541531e+03	        4.044617e-05
        9.648401e+03	        3.865340e-05
        9.756468e+03	        3.762526e-05
        9.865745e+03	        3.660621e-05
        9.976246e+03	        3.558236e-05
        1.008798e+04	        3.454918e-05
        1.020098e+04	        3.353692e-05
        1.031523e+04	        3.255159e-05
        1.043077e+04	        3.158076e-05
        1.054760e+04	        3.068995e-05
        1.066573e+04	        2.979826e-05
        1.078520e+04	        2.889985e-05
        1.090600e+04	        2.799706e-05
        1.102815e+04	        2.710352e-05
        1.115167e+04	        2.620270e-05
        1.127657e+04	        2.531752e-05
        1.140288e+04	        2.448856e-05
        1.153059e+04	        2.364233e-05
        1.165974e+04	        2.277543e-05
        1.179034e+04	        2.187446e-05
        1.192240e+04	        2.086861e-05
        1.205593e+04	        1.959950e-05
        1.219096e+04	        1.898706e-05
        1.232751e+04	        1.844793e-05
        1.246558e+04	        1.790866e-05
        1.260520e+04	        1.736230e-05
        1.274639e+04	        1.681010e-05
        1.288915e+04	        1.625114e-05
        1.303352e+04	        1.569176e-05
        1.317950e+04	        1.511389e-05
        1.332712e+04	        1.455369e-05
        1.347639e+04	        1.400998e-05
        1.362733e+04	        1.344770e-05
        1.377996e+04	        1.284991e-05
        1.393431e+04	        1.221543e-05
        1.409038e+04	        1.148963e-05
        1.424820e+04	        1.080911e-05
        1.440778e+04	        1.053632e-05
        1.456916e+04	        1.026187e-05
        1.473234e+04	        9.984638e-06
        1.489735e+04	        9.705383e-06
        1.506421e+04	        9.424276e-06
        1.523293e+04	        9.154112e-06
        1.540355e+04	        8.890884e-06
        1.557608e+04	        8.626953e-06
        1.575054e+04	        8.359645e-06
        1.592695e+04	        8.088050e-06
        1.610534e+04	        7.815791e-06
        1.628573e+04	        7.572250e-06
        1.646814e+04	        7.326400e-06
        1.665259e+04	        7.050905e-06
        1.683910e+04	        6.842193e-06
        1.702771e+04	        6.631816e-06
        1.721843e+04	        6.422873e-06
        1.741128e+04	        6.242860e-06
        1.760630e+04	        6.061513e-06
        1.780350e+04	        5.877792e-06
        1.800291e+04	        5.692210e-06
        1.820455e+04	        5.505401e-06
        1.840845e+04	        5.326413e-06
        1.861463e+04	        5.151316e-06
        1.882312e+04	        4.971804e-06
        1.903395e+04	        4.778749e-06
        1.924714e+04	        4.597590e-06
        1.946272e+04	        4.446346e-06
        1.968071e+04	        4.303782e-06
        1.990114e+04	        4.159384e-06
        2.012405e+04	        4.013376e-06
        2.034945e+04	        3.864742e-06
        2.057737e+04	        3.730711e-06
        2.080785e+04	        3.597648e-06
        2.104091e+04	        3.462267e-06
        2.127657e+04	        3.322680e-06
        2.151488e+04	        3.181034e-06
        2.175586e+04	        3.051140e-06
        2.199954e+04	        2.934750e-06
        2.224594e+04	        2.817158e-06
        2.249511e+04	        2.701105e-06
        2.274706e+04	        2.590436e-06
        2.300184e+04	        2.478386e-06
        2.325947e+04	        2.365360e-06
        2.351999e+04	        2.256357e-06
        2.378343e+04	        2.152344e-06
        2.404981e+04	        2.047510e-06
        2.431918e+04	        1.942106e-06
        2.459157e+04	        1.837758e-06
        2.486701e+04	        1.732211e-06
        2.514553e+04	        1.626809e-06
        2.542717e+04	        1.526480e-06
        2.571197e+04	        1.424104e-06
        2.599996e+04	        1.316417e-06
        2.629117e+04	        1.215465e-06
        2.658564e+04	        1.110816e-06
        2.688341e+04	        1.001669e-06
        2.718452e+04	        8.836181e-07
        2.748900e+04	        7.589511e-07
        2.779689e+04	        6.266580e-07
        2.810823e+04	        4.613247e-07
        2.842306e+04	        1.660938e-07
        2.874141e+04	        5.427775e-08
        2.906333e+04	        4.932293e-08
        2.938885e+04	        4.390169e-08
        2.971802e+04	        3.781118e-08
        3.005088e+04	        3.214498e-08
        3.038746e+04	        2.577457e-08
        3.072782e+04	        1.713585e-08
        3.107198e+04	        2.742077e-09
        3.142000e+04	        2.516199e-09
        3.177192e+04	        2.272096e-09
        3.212779e+04	        1.983240e-09
        3.248763e+04	        1.704278e-09
        3.285151e+04	        1.487475e-09
        3.321946e+04	        1.224089e-09
        3.359154e+04	        7.727577e-10
        3.396778e+04	        7.147960e-10
        3.434823e+04	        6.713418e-10
        3.473295e+04	        6.245134e-10
        3.512198e+04	        5.489116e-10
        3.551536e+04	        5.234566e-10
        3.591315e+04	        4.970766e-10
        3.631540e+04	        4.694692e-10
        3.672215e+04	        4.424644e-10
        3.713345e+04	        4.140536e-10
        3.754937e+04	        3.769701e-10
        3.796994e+04	        3.488105e-10
        3.839522e+04	        3.313147e-10
        3.882526e+04	        3.116417e-10
        3.926013e+04	        2.938065e-10
        3.969986e+04	        2.760020e-10
        4.014452e+04	        2.501062e-10
        4.059416e+04	        2.383083e-10
        4.104883e+04	        2.271751e-10
        4.150860e+04	        2.148727e-10
        4.197351e+04	        2.048787e-10
        4.244364e+04	        1.929404e-10
        4.291903e+04	        1.806069e-10
        4.339974e+04	        1.734523e-10
        4.388584e+04	        1.658039e-10
        4.437738e+04	        1.588872e-10
        4.487443e+04	        1.518502e-10
        4.537705e+04	        1.439912e-10
        4.588529e+04	        1.388581e-10
        4.639923e+04	        1.336436e-10
        4.691893e+04	        1.286197e-10
        4.744444e+04	        1.235400e-10
        4.797584e+04	        1.182951e-10
        4.851319e+04	        1.139561e-10
        4.905657e+04	        1.096111e-10
        4.960602e+04	        1.052192e-10
        5.016164e+04	        1.005731e-10
        5.072347e+04	        9.634513e-11
        5.129160e+04	        9.207075e-11
        5.186609e+04	        8.833449e-11
        5.244702e+04	        8.451040e-11
        5.303445e+04	        8.074545e-11
        5.362846e+04	        7.684305e-11
        5.422913e+04	        7.310500e-11
        5.483652e+04	        6.950466e-11
        5.545071e+04	        6.584250e-11
        5.607179e+04	        6.174588e-11
        5.669982e+04	        5.806284e-11
        5.733489e+04	        5.482984e-11
        5.797707e+04	        5.146419e-11
        5.862644e+04	        4.733799e-11
        5.928308e+04	        4.435146e-11
        5.994708e+04	        4.162552e-11
        6.061852e+04	        3.911142e-11
        6.129748e+04	        3.588428e-11
        6.198404e+04	        3.409085e-11
        6.267829e+04	        3.215385e-11
        6.338032e+04	        2.996039e-11
        6.409021e+04	        2.794860e-11
        6.480805e+04	        2.666085e-11
        6.553393e+04	        2.543794e-11
        6.626795e+04	        2.410554e-11
        6.701018e+04	        2.307374e-11
        6.776073e+04	        2.201086e-11
        6.851968e+04	        2.086196e-11
        6.928713e+04	        1.992236e-11
        7.006318e+04	        1.900395e-11
        7.084793e+04	        1.805926e-11
        7.164146e+04	        1.713066e-11
        7.244388e+04	        1.625752e-11
        7.325529e+04	        1.538005e-11
        7.407578e+04	        1.450619e-11
        7.490547e+04	        1.369389e-11
        7.574444e+04	        1.286904e-11
        7.659282e+04	        1.205053e-11
        7.745070e+04	        1.128499e-11
        7.831818e+04	        1.053256e-11
        7.919539e+04	        9.807087e-12
        8.008241e+04	        9.090641e-12
        8.097938e+04	        8.312736e-12
        8.188638e+04	        7.582708e-12
        8.280355e+04	        6.815673e-12
        8.373099e+04	        6.015196e-12
        8.466882e+04	        5.283286e-12
        8.561715e+04	        4.394694e-12
        8.657611e+04	        3.692706e-12
        8.754580e+04	        2.937055e-12
        8.852636e+04	        2.277468e-12
        8.951790e+04	        1.866228e-12
        9.052054e+04	        1.444543e-12
        9.153442e+04	        1.003616e-12
        9.255965e+04	        4.648586e-13
        9.359636e+04	        1.224104e-13
        9.464469e+04	        9.109627e-14
        9.570475e+04	        8.343419e-14
        9.677669e+04	        7.568227e-14
        9.786064e+04	        6.745183e-14
        9.895673e+04	        5.892946e-14
        1.000651e+05	        4.920226e-14
        1.011859e+05	        3.716593e-14
        1.023192e+05	        1.880462e-14
        1.034652e+05	        1.056826e-14
        1.046241e+05	        3.142739e-15
        1.057959e+05	        0.000000e+00
        1.069809e+05	        0.000000e+00
        1.081791e+05	        0.000000e+00
        1.093908e+05	        0.000000e+00

# -------------------------------------------------------------------------------
# Curve 1: LET spectrum without Flares
# Params: 0 5 #c967d0 2 1
#	LET (MeV.cm^2.g^{-1})		Flux (cm^{-2}.s^{-1})
# -------------------------------------------------------------------------------
        1.608960e+00	        6.279932e+01
        1.626982e+00	        6.279932e+01
        1.645205e+00	        6.279932e+01
        1.663632e+00	        6.279932e+01
        1.682265e+00	        6.269172e+01
        1.701107e+00	        6.255720e+01
        1.720161e+00	        6.247040e+01
        1.739427e+00	        6.241023e+01
        1.758910e+00	        6.235718e+01
        1.778610e+00	        6.231431e+01
        1.798532e+00	        6.227796e+01
        1.818676e+00	        6.224583e+01
        1.839046e+00	        6.221650e+01
        1.859644e+00	        6.218875e+01
        1.880473e+00	        6.216383e+01
        1.901536e+00	        6.214032e+01
        1.922834e+00	        6.211938e+01
        1.944370e+00	        6.210346e+01
        1.966148e+00	        6.209201e+01
        1.988170e+00	        6.208448e+01
        2.010439e+00	        6.207753e+01
        2.032956e+00	        6.207050e+01
        2.055727e+00	        6.206395e+01
        2.078752e+00	        6.205839e+01
        2.102035e+00	        6.205276e+01
        2.125579e+00	        6.204708e+01
        2.149386e+00	        6.204212e+01
        2.173460e+00	        6.203763e+01
        2.197804e+00	        6.203310e+01
        2.222421e+00	        6.202851e+01
        2.247313e+00	        6.202461e+01
        2.272484e+00	        6.202136e+01
        2.297937e+00	        6.201806e+01
        2.323675e+00	        6.201473e+01
        2.349701e+00	        6.201136e+01
        2.376019e+00	        6.200818e+01
        2.402632e+00	        6.200509e+01
        2.429542e+00	        6.200197e+01
        2.456754e+00	        6.199881e+01
        2.484271e+00	        6.199582e+01
        2.512096e+00	        6.199392e+01
        2.540233e+00	        6.199201e+01
        2.568685e+00	        6.199008e+01
        2.597455e+00	        6.198812e+01
        2.626548e+00	        6.198615e+01
        2.655967e+00	        6.198415e+01
        2.685715e+00	        6.198225e+01
        2.715796e+00	        6.198033e+01
        2.746214e+00	        6.197840e+01
        2.776973e+00	        6.197644e+01
        2.808077e+00	        6.197446e+01
        2.839529e+00	        6.197289e+01
        2.871333e+00	        6.197146e+01
        2.903493e+00	        6.197002e+01
        2.936014e+00	        6.196855e+01
        2.968899e+00	        6.196708e+01
        3.002152e+00	        6.196558e+01
        3.035777e+00	        6.192588e+01
        3.069779e+00	        6.187972e+01
        3.104162e+00	        6.183304e+01
        3.138931e+00	        6.178584e+01
        3.174088e+00	        6.173811e+01
        3.209640e+00	        6.168985e+01
        3.245589e+00	        6.161359e+01
        3.281941e+00	        6.153078e+01
        3.318701e+00	        6.144703e+01
        3.355872e+00	        6.136235e+01
        3.393459e+00	        6.127672e+01
        3.431468e+00	        6.119014e+01
        3.469902e+00	        6.110258e+01
        3.508766e+00	        6.099966e+01
        3.548066e+00	        6.089121e+01
        3.587806e+00	        6.078155e+01
        3.627992e+00	        6.067066e+01
        3.668627e+00	        6.055853e+01
        3.709717e+00	        6.044514e+01
        3.751268e+00	        6.033054e+01
        3.793284e+00	        6.021685e+01
        3.835771e+00	        6.010189e+01
        3.878733e+00	        5.998564e+01
        3.922177e+00	        5.986809e+01
        3.966107e+00	        5.974922e+01
        4.010530e+00	        5.962902e+01
        4.055449e+00	        5.950747e+01
        4.100872e+00	        5.937156e+01
        4.146804e+00	        5.920318e+01
        4.193250e+00	        5.903292e+01
        4.240217e+00	        5.886075e+01
        4.287709e+00	        5.868666e+01
        4.335734e+00	        5.851061e+01
        4.384296e+00	        5.833259e+01
        4.433403e+00	        5.817942e+01
        4.483059e+00	        5.802534e+01
        4.533271e+00	        5.786953e+01
        4.584046e+00	        5.771198e+01
        4.635390e+00	        5.755267e+01
        4.687308e+00	        5.739157e+01
        4.739809e+00	        5.722867e+01
        4.792897e+00	        5.706394e+01
        4.846580e+00	        5.686693e+01
        4.900864e+00	        5.666308e+01
        4.955756e+00	        5.645694e+01
        5.011263e+00	        5.624850e+01
        5.067391e+00	        5.603772e+01
        5.124149e+00	        5.582458e+01
        5.181542e+00	        5.560905e+01
        5.239577e+00	        5.540548e+01
        5.298263e+00	        5.520363e+01
        5.357606e+00	        5.499952e+01
        5.417614e+00	        5.479313e+01
        5.478294e+00	        5.458442e+01
        5.539654e+00	        5.437338e+01
        5.601701e+00	        5.415998e+01
        5.664442e+00	        5.394418e+01
        5.727887e+00	        5.372532e+01
        5.792042e+00	        5.350368e+01
        5.856916e+00	        5.327956e+01
        5.922516e+00	        5.305292e+01
        5.988851e+00	        5.282375e+01
        6.055929e+00	        5.259201e+01
        6.123759e+00	        5.235768e+01
        6.192348e+00	        5.212072e+01
        6.261705e+00	        5.187241e+01
        6.331839e+00	        5.160565e+01
        6.402759e+00	        5.133589e+01
        6.474473e+00	        5.106312e+01
        6.546991e+00	        5.078730e+01
        6.620320e+00	        5.050838e+01
        6.694471e+00	        5.022634e+01
        6.769452e+00	        4.992242e+01
        6.845274e+00	        4.962930e+01
        6.921944e+00	        4.933999e+01
        6.999473e+00	        4.904884e+01
        7.077871e+00	        4.875501e+01
        7.157146e+00	        4.845943e+01
        7.237310e+00	        4.816087e+01
        7.318371e+00	        4.785937e+01
        7.400341e+00	        4.755451e+01
        7.483228e+00	        4.725404e+01
        7.567044e+00	        4.695879e+01
        7.651799e+00	        4.666049e+01
        7.737503e+00	        4.635929e+01
        7.824166e+00	        4.605518e+01
        7.911801e+00	        4.574812e+01
        8.000417e+00	        4.543787e+01
        8.090026e+00	        4.512414e+01
        8.180638e+00	        4.480698e+01
        8.272265e+00	        4.449412e+01
        8.364918e+00	        4.417780e+01
        8.458610e+00	        4.385793e+01
        8.553350e+00	        4.353450e+01
        8.649152e+00	        4.320763e+01
        8.746027e+00	        4.287709e+01
        8.843987e+00	        4.254284e+01
        8.943044e+00	        4.220486e+01
        9.043210e+00	        4.186153e+01
        9.144499e+00	        4.151292e+01
        9.246921e+00	        4.116040e+01
        9.350492e+00	        4.080393e+01
        9.455222e+00	        4.044347e+01
        9.561125e+00	        4.007901e+01
        9.668214e+00	        3.971047e+01
        9.776503e+00	        3.933780e+01
        9.886005e+00	        3.898595e+01
        9.996733e+00	        3.866604e+01
        1.010870e+01	        3.834264e+01
        1.022192e+01	        3.801561e+01
        1.033641e+01	        3.768493e+01
        1.045219e+01	        3.735054e+01
        1.056926e+01	        3.701240e+01
        1.068764e+01	        3.667049e+01
        1.080734e+01	        3.632474e+01
        1.092839e+01	        3.596864e+01
        1.105080e+01	        3.558743e+01
        1.117457e+01	        3.520195e+01
        1.129973e+01	        3.481218e+01
        1.142629e+01	        3.441813e+01
        1.155427e+01	        3.401966e+01
        1.168369e+01	        3.361674e+01
        1.181455e+01	        3.320930e+01
        1.194688e+01	        3.282667e+01
        1.208069e+01	        3.251752e+01
        1.221600e+01	        3.220494e+01
        1.235282e+01	        3.188887e+01
        1.249118e+01	        3.156925e+01
        1.263109e+01	        3.124606e+01
        1.277256e+01	        3.091925e+01
        1.291562e+01	        3.058880e+01
        1.306028e+01	        3.025471e+01
        1.320657e+01	        2.991688e+01
        1.335449e+01	        2.955180e+01
        1.350406e+01	        2.916547e+01
        1.365531e+01	        2.877480e+01
        1.380826e+01	        2.837976e+01
        1.396292e+01	        2.798030e+01
        1.411931e+01	        2.757640e+01
        1.427746e+01	        2.716797e+01
        1.443737e+01	        2.675497e+01
        1.459908e+01	        2.640042e+01
        1.476259e+01	        2.605864e+01
        1.492794e+01	        2.571304e+01
        1.509514e+01	        2.536359e+01
        1.526421e+01	        2.501017e+01
        1.543518e+01	        2.465284e+01
        1.560806e+01	        2.429152e+01
        1.578288e+01	        2.392615e+01
        1.595966e+01	        2.356290e+01
        1.613841e+01	        2.323134e+01
        1.631917e+01	        2.289607e+01
        1.650195e+01	        2.255704e+01
        1.668678e+01	        2.221421e+01
        1.687368e+01	        2.186755e+01
        1.706268e+01	        2.151700e+01
        1.725379e+01	        2.116253e+01
        1.744704e+01	        2.080409e+01
        1.764245e+01	        2.049070e+01
        1.784006e+01	        2.019185e+01
        1.803988e+01	        1.988965e+01
        1.824193e+01	        1.958407e+01
        1.844625e+01	        1.927507e+01
        1.865286e+01	        1.896260e+01
        1.886178e+01	        1.864664e+01
        1.907304e+01	        1.832714e+01
        1.928667e+01	        1.800405e+01
        1.950269e+01	        1.772539e+01
        1.972113e+01	        1.744437e+01
        1.994201e+01	        1.716019e+01
        2.016537e+01	        1.687284e+01
        2.039124e+01	        1.658227e+01
        2.061963e+01	        1.628844e+01
        2.085058e+01	        1.599132e+01
        2.108411e+01	        1.569088e+01
        2.132027e+01	        1.541078e+01
        2.155906e+01	        1.516494e+01
        2.180054e+01	        1.491635e+01
        2.204471e+01	        1.466498e+01
        2.229162e+01	        1.441079e+01
        2.254130e+01	        1.415375e+01
        2.279378e+01	        1.389383e+01
        2.304908e+01	        1.363098e+01
        2.330724e+01	        1.336519e+01
        2.356829e+01	        1.309804e+01
        2.383227e+01	        1.282931e+01
        2.409920e+01	        1.255756e+01
        2.436912e+01	        1.228278e+01
        2.464207e+01	        1.200491e+01
        2.491807e+01	        1.172393e+01
        2.519717e+01	        1.143974e+01
        2.547939e+01	        1.117115e+01
        2.576477e+01	        1.098499e+01
        2.605335e+01	        1.079674e+01
        2.634516e+01	        1.060638e+01
        2.664024e+01	        1.041389e+01
        2.693862e+01	        1.021923e+01
        2.724035e+01	        1.002236e+01
        2.754545e+01	        9.823231e+00
        2.785397e+01	        9.621885e+00
        2.816595e+01	        9.418286e+00
        2.848142e+01	        9.235407e+00
        2.880043e+01	        9.050994e+00
        2.912301e+01	        8.864516e+00
        2.944920e+01	        8.675950e+00
        2.977905e+01	        8.485273e+00
        3.011259e+01	        8.292384e+00
        3.044986e+01	        8.097333e+00
        3.079092e+01	        7.900098e+00
        3.113579e+01	        7.747544e+00
        3.148453e+01	        7.599385e+00
        3.183717e+01	        7.449566e+00
        3.219376e+01	        7.298070e+00
        3.255435e+01	        7.144878e+00
        3.291897e+01	        6.989911e+00
        3.328768e+01	        6.833151e+00
        3.366052e+01	        6.674636e+00
        3.403753e+01	        6.526096e+00
        3.441877e+01	        6.407300e+00
        3.480428e+01	        6.287174e+00
        3.519410e+01	        6.165703e+00
        3.558829e+01	        6.042871e+00
        3.598690e+01	        5.918656e+00
        3.638997e+01	        5.792886e+00
        3.679756e+01	        5.665708e+00
        3.720971e+01	        5.537106e+00
        3.762647e+01	        5.411265e+00
        3.804791e+01	        5.297800e+00
        3.847406e+01	        5.183064e+00
        3.890499e+01	        5.067042e+00
        3.934075e+01	        4.949721e+00
        3.978138e+01	        4.831079e+00
        4.022696e+01	        4.711109e+00
        4.067752e+01	        4.589794e+00
        4.113313e+01	        4.476982e+00
        4.159384e+01	        4.388776e+00
        4.205971e+01	        4.299583e+00
        4.253080e+01	        4.209221e+00
        4.300716e+01	        4.117934e+00
        4.348887e+01	        4.025654e+00
        4.397596e+01	        3.932143e+00
        4.446851e+01	        3.837502e+00
        4.496658e+01	        3.741810e+00
        4.547023e+01	        3.664046e+00
        4.597952e+01	        3.591074e+00
        4.649451e+01	        3.517287e+00
        4.701528e+01	        3.442677e+00
        4.754187e+01	        3.367234e+00
        4.807436e+01	        3.291103e+00
        4.861282e+01	        3.214184e+00
        4.915731e+01	        3.136407e+00
        4.970789e+01	        3.060917e+00
        5.026464e+01	        3.000574e+00
        5.082763e+01	        2.939556e+00
        5.139693e+01	        2.877854e+00
        5.197260e+01	        2.815463e+00
        5.255472e+01	        2.752374e+00
        5.314336e+01	        2.688563e+00
        5.373859e+01	        2.623673e+00
        5.434049e+01	        2.558057e+00
        5.494913e+01	        2.500007e+00
        5.556458e+01	        2.445542e+00
        5.618694e+01	        2.390466e+00
        5.681626e+01	        2.334776e+00
        5.745263e+01	        2.278461e+00
        5.809612e+01	        2.221565e+00
        5.874683e+01	        2.164167e+00
        5.940482e+01	        2.106126e+00
        6.007019e+01	        2.059646e+00
        6.074300e+01	        2.015816e+00
        6.142335e+01	        1.971320e+00
        6.211133e+01	        1.926483e+00
        6.280700e+01	        1.881236e+00
        6.351047e+01	        1.835498e+00
        6.422182e+01	        1.789311e+00
        6.494114e+01	        1.742648e+00
        6.566851e+01	        1.701353e+00
        6.640403e+01	        1.662551e+00
        6.714779e+01	        1.623320e+00
        6.789988e+01	        1.583664e+00
        6.866039e+01	        1.543570e+00
        6.942942e+01	        1.503037e+00
        7.020706e+01	        1.462156e+00
        7.099342e+01	        1.422934e+00
        7.178858e+01	        1.396132e+00
        7.259264e+01	        1.369034e+00
        7.340572e+01	        1.341632e+00
        7.422790e+01	        1.313925e+00
        7.505929e+01	        1.285912e+00
        7.589999e+01	        1.257586e+00
        7.675011e+01	        1.228942e+00
        7.760974e+01	        1.200143e+00
        7.847901e+01	        1.171438e+00
        7.935802e+01	        1.144179e+00
        8.024686e+01	        1.116615e+00
        8.114567e+01	        1.088745e+00
        8.205454e+01	        1.060566e+00
        8.297359e+01	        1.031966e+00
        8.390294e+01	        1.003062e+00
        8.484269e+01	        9.740721e-01
        8.579297e+01	        9.534508e-01
        8.675389e+01	        9.330443e-01
        8.772558e+01	        9.124198e-01
        8.870815e+01	        8.915701e-01
        8.970173e+01	        8.704908e-01
        9.070643e+01	        8.491818e-01
        9.172239e+01	        8.276365e-01
        9.274972e+01	        8.058330e-01
        9.378856e+01	        7.875678e-01
        9.483904e+01	        7.696855e-01
        9.590129e+01	        7.516067e-01
        9.697543e+01	        7.333281e-01
        9.806160e+01	        7.148477e-01
        9.915994e+01	        6.961608e-01
        1.002706e+02	        6.774493e-01
        1.013937e+02	        6.595953e-01
        1.025293e+02	        6.450798e-01
        1.036777e+02	        6.304027e-01
        1.048389e+02	        6.155613e-01
        1.060132e+02	        6.005546e-01
        1.072006e+02	        5.853803e-01
        1.084013e+02	        5.696513e-01
        1.096154e+02	        5.538250e-01
        1.108432e+02	        5.398756e-01
        1.120847e+02	        5.276588e-01
        1.133401e+02	        5.153224e-01
        1.146095e+02	        5.028836e-01
        1.158932e+02	        4.903250e-01
        1.171913e+02	        4.776381e-01
        1.185039e+02	        4.648098e-01
        1.198312e+02	        4.518469e-01
        1.211734e+02	        4.410511e-01
        1.225306e+02	        4.306988e-01
        1.239030e+02	        4.202416e-01
        1.252907e+02	        4.096829e-01
        1.266941e+02	        3.990182e-01
        1.281131e+02	        3.882448e-01
        1.295480e+02	        3.773519e-01
        1.309990e+02	        3.670968e-01
        1.324663e+02	        3.574137e-01
        1.339500e+02	        3.479569e-01
        1.354503e+02	        3.383942e-01
        1.369674e+02	        3.287186e-01
        1.385015e+02	        3.189358e-01
        1.400528e+02	        3.091370e-01
        1.416214e+02	        3.019883e-01
        1.432077e+02	        2.947600e-01
        1.448117e+02	        2.874557e-01
        1.464336e+02	        2.800719e-01
        1.480737e+02	        2.727379e-01
        1.497322e+02	        2.653238e-01
        1.514093e+02	        2.578268e-01
        1.531052e+02	        2.511863e-01
        1.548200e+02	        2.446641e-01
        1.565541e+02	        2.380692e-01
        1.583076e+02	        2.314008e-01
        1.600807e+02	        2.246692e-01
        1.618737e+02	        2.181435e-01
        1.636867e+02	        2.118991e-01
        1.655201e+02	        2.065696e-01
        1.673740e+02	        2.011804e-01
        1.692487e+02	        1.956749e-01
        1.711444e+02	        1.901086e-01
        1.730613e+02	        1.844982e-01
        1.749996e+02	        1.788356e-01
        1.769597e+02	        1.743340e-01
        1.789418e+02	        1.701392e-01
        1.809460e+02	        1.659009e-01
        1.829727e+02	        1.616197e-01
        1.850221e+02	        1.572910e-01
        1.870944e+02	        1.529155e-01
        1.891900e+02	        1.484978e-01
        1.913090e+02	        1.444521e-01
        1.934517e+02	        1.403630e-01
        1.956185e+02	        1.363548e-01
        1.978095e+02	        1.323368e-01
        2.000251e+02	        1.282756e-01
        2.022655e+02	        1.242917e-01
        2.045309e+02	        1.210701e-01
        2.068218e+02	        1.178085e-01
        2.091383e+02	        1.145180e-01
        2.114807e+02	        1.111936e-01
        2.138494e+02	        1.078509e-01
        2.162446e+02	        1.045591e-01
        2.186667e+02	        1.018858e-01
        2.211159e+02	        9.918303e-02
        2.235925e+02	        9.645012e-02
        2.260968e+02	        9.368817e-02
        2.286292e+02	        9.089599e-02
        2.311900e+02	        8.807282e-02
        2.337794e+02	        8.567074e-02
        2.363979e+02	        8.341870e-02
        2.390456e+02	        8.114188e-02
        2.417231e+02	        7.884039e-02
        2.444305e+02	        7.641726e-02
        2.471682e+02	        7.400367e-02
        2.499366e+02	        7.187339e-02
        2.527360e+02	        6.978239e-02
        2.555668e+02	        6.767201e-02
        2.584293e+02	        6.560637e-02
        2.613238e+02	        6.353220e-02
        2.642508e+02	        6.151413e-02
        2.672105e+02	        5.984154e-02
        2.702034e+02	        5.815285e-02
        2.732298e+02	        5.644736e-02
        2.762901e+02	        5.472455e-02
        2.793847e+02	        5.299882e-02
        2.825139e+02	        5.142591e-02
        2.856782e+02	        5.002078e-02
        2.888780e+02	        4.859698e-02
        2.921136e+02	        4.716277e-02
        2.953854e+02	        4.571549e-02
        2.986938e+02	        4.425337e-02
        3.020393e+02	        4.294891e-02
        3.054223e+02	        4.175908e-02
        3.088432e+02	        4.055645e-02
        3.123024e+02	        3.935871e-02
        3.158004e+02	        3.814783e-02
        3.193375e+02	        3.692387e-02
        3.229142e+02	        3.572114e-02
        3.265310e+02	        3.452178e-02
        3.301883e+02	        3.330960e-02
        3.338866e+02	        3.204566e-02
        3.376263e+02	        3.079262e-02
        3.414079e+02	        2.983301e-02
        3.452318e+02	        2.894280e-02
        3.490986e+02	        2.804521e-02
        3.530086e+02	        2.714255e-02
        3.569625e+02	        2.623482e-02
        3.609607e+02	        2.532667e-02
        3.650036e+02	        2.452152e-02
        3.690918e+02	        2.372277e-02
        3.732258e+02	        2.293996e-02
        3.774062e+02	        2.214960e-02
        3.816333e+02	        2.135224e-02
        3.859078e+02	        2.060343e-02
        3.902301e+02	        1.988944e-02
        3.946009e+02	        1.917017e-02
        3.990206e+02	        1.844331e-02
        4.034898e+02	        1.772458e-02
        4.080091e+02	        1.706553e-02
        4.125790e+02	        1.645715e-02
        4.172001e+02	        1.584204e-02
        4.218730e+02	        1.522006e-02
        4.265982e+02	        1.459198e-02
        4.313763e+02	        1.397963e-02
        4.362079e+02	        1.338391e-02
        4.410936e+02	        1.279986e-02
        4.460341e+02	        1.222373e-02
        4.510299e+02	        1.164432e-02
        4.560817e+02	        1.108261e-02
        4.611900e+02	        1.051944e-02
        4.663556e+02	        9.950997e-03
        4.715790e+02	        9.376983e-03
        4.768609e+02	        8.831547e-03
        4.822020e+02	        8.300924e-03
        4.876029e+02	        7.767964e-03
        4.930643e+02	        7.218858e-03
        4.985868e+02	        6.652794e-03
        5.041712e+02	        6.081732e-03
        5.098182e+02	        5.486726e-03
        5.155284e+02	        4.874646e-03
        5.213026e+02	        4.487211e-03
        5.271414e+02	        4.402228e-03
        5.330457e+02	        4.316501e-03
        5.390161e+02	        4.229910e-03
        5.450533e+02	        4.142495e-03
        5.511582e+02	        4.052577e-03
        5.573314e+02	        3.956899e-03
        5.635738e+02	        3.880685e-03
        5.698861e+02	        3.812130e-03
        5.762691e+02	        3.743504e-03
        5.827236e+02	        3.674894e-03
        5.892504e+02	        3.606520e-03
        5.958503e+02	        3.537633e-03
        6.025241e+02	        3.468375e-03
        6.092727e+02	        3.402381e-03
        6.160968e+02	        3.338187e-03
        6.229974e+02	        3.273558e-03
        6.299753e+02	        3.209635e-03
        6.370313e+02	        3.147054e-03
        6.441664e+02	        3.084564e-03
        6.513814e+02	        3.021970e-03
        6.586772e+02	        2.967610e-03
        6.660547e+02	        2.915579e-03
        6.735148e+02	        2.863008e-03
        6.810585e+02	        2.805650e-03
        6.886867e+02	        2.743212e-03
        6.964003e+02	        2.684290e-03
        7.042004e+02	        2.629503e-03
        7.120878e+02	        2.583444e-03
        7.200635e+02	        2.537693e-03
        7.281286e+02	        2.492185e-03
        7.362840e+02	        2.446575e-03
        7.445307e+02	        2.400711e-03
        7.528698e+02	        2.353018e-03
        7.613023e+02	        2.307218e-03
        7.698293e+02	        2.264609e-03
        7.784518e+02	        2.222196e-03
        7.871708e+02	        2.179950e-03
        7.959875e+02	        2.137659e-03
        8.049030e+02	        2.095208e-03
        8.139183e+02	        2.057691e-03
        8.230346e+02	        2.022648e-03
        8.322529e+02	        1.981705e-03
        8.415746e+02	        1.941516e-03
        8.510006e+02	        1.902325e-03
        8.605323e+02	        1.863983e-03
        8.701706e+02	        1.829245e-03
        8.799170e+02	        1.796494e-03
        8.897725e+02	        1.763670e-03
        8.997384e+02	        1.730696e-03
        9.098159e+02	        1.694583e-03
        9.200063e+02	        1.659926e-03
        9.303108e+02	        1.629588e-03
        9.407307e+02	        1.600415e-03
        9.512674e+02	        1.571302e-03
        9.619221e+02	        1.542320e-03
        9.726961e+02	        1.513271e-03
        9.835907e+02	        1.485082e-03
        9.946074e+02	        1.451059e-03
        1.005748e+03	        1.420339e-03
        1.017012e+03	        1.391265e-03
        1.028403e+03	        1.362877e-03
        1.039922e+03	        1.335472e-03
        1.051570e+03	        1.311372e-03
        1.063348e+03	        1.287282e-03
        1.075258e+03	        1.258892e-03
        1.087301e+03	        1.231357e-03
        1.099480e+03	        1.204687e-03
        1.111794e+03	        1.180869e-03
        1.124247e+03	        1.157669e-03
        1.136839e+03	        1.134815e-03
        1.149572e+03	        1.112141e-03
        1.162448e+03	        1.047651e-03
        1.175468e+03	        9.912903e-04
        1.188634e+03	        9.447643e-04
        1.201947e+03	        9.053749e-04
        1.215409e+03	        8.675572e-04
        1.229023e+03	        8.343348e-04
        1.242788e+03	        8.029320e-04
        1.256708e+03	        7.724211e-04
        1.270784e+03	        7.424744e-04
        1.285017e+03	        7.154321e-04
        1.299410e+03	        6.896356e-04
        1.313964e+03	        6.645405e-04
        1.328681e+03	        6.403593e-04
        1.343563e+03	        6.174569e-04
        1.358612e+03	        5.946864e-04
        1.373829e+03	        5.742613e-04
        1.389216e+03	        5.544798e-04
        1.404776e+03	        5.350357e-04
        1.420510e+03	        5.159801e-04
        1.436421e+03	        4.972535e-04
        1.452509e+03	        4.782953e-04
        1.468778e+03	        4.597031e-04
        1.485229e+03	        4.414652e-04
        1.501865e+03	        4.232708e-04
        1.518686e+03	        4.046337e-04
        1.535696e+03	        3.846230e-04
        1.552897e+03	        3.607578e-04
        1.570290e+03	        3.178190e-04
        1.587878e+03	        3.106938e-04
        1.605663e+03	        3.038423e-04
        1.623647e+03	        2.975654e-04
        1.641833e+03	        2.913976e-04
        1.660222e+03	        2.853330e-04
        1.678818e+03	        2.792292e-04
        1.697621e+03	        2.730727e-04
        1.716635e+03	        2.673673e-04
        1.735863e+03	        2.619612e-04
        1.755305e+03	        2.567945e-04
        1.774965e+03	        2.516662e-04
        1.794846e+03	        2.466639e-04
        1.814949e+03	        2.416978e-04
        1.835277e+03	        2.366959e-04
        1.855833e+03	        2.316644e-04
        1.876620e+03	        2.265957e-04
        1.897639e+03	        2.215234e-04
        1.918893e+03	        2.166295e-04
        1.940386e+03	        2.119151e-04
        1.962119e+03	        2.075918e-04
        1.984096e+03	        2.033199e-04
        2.006319e+03	        1.990233e-04
        2.028790e+03	        1.947060e-04
        2.051514e+03	        1.903801e-04
        2.074492e+03	        1.862778e-04
        2.097727e+03	        1.823571e-04
        2.121223e+03	        1.784916e-04
        2.144981e+03	        1.748387e-04
        2.169006e+03	        1.712177e-04
        2.193300e+03	        1.675777e-04
        2.217866e+03	        1.641168e-04
        2.242707e+03	        1.607196e-04
        2.267827e+03	        1.573124e-04
        2.293228e+03	        1.539819e-04
        2.318913e+03	        1.506910e-04
        2.344886e+03	        1.474885e-04
        2.371150e+03	        1.443163e-04
        2.397708e+03	        1.412367e-04
        2.424563e+03	        1.382275e-04
        2.451720e+03	        1.351906e-04
        2.479180e+03	        1.321270e-04
        2.506948e+03	        1.292105e-04
        2.535027e+03	        1.263935e-04
        2.563421e+03	        1.238002e-04
        2.592132e+03	        1.213002e-04
        2.621165e+03	        1.187908e-04
        2.650524e+03	        1.162552e-04
        2.680211e+03	        1.136931e-04
        2.710231e+03	        1.111064e-04
        2.740587e+03	        1.086695e-04
        2.771282e+03	        1.064040e-04
        2.802322e+03	        1.042276e-04
        2.833710e+03	        1.020259e-04
        2.865449e+03	        9.979986e-05
        2.897543e+03	        9.754988e-05
        2.929997e+03	        9.528228e-05
        2.962814e+03	        9.301990e-05
        2.995999e+03	        9.095211e-05
        3.029556e+03	        8.914940e-05
        3.063488e+03	        8.732702e-05
        3.097801e+03	        8.548439e-05
        3.132498e+03	        8.362192e-05
        3.167583e+03	        8.178102e-05
        3.203062e+03	        7.996746e-05
        3.238938e+03	        7.813779e-05
        3.275216e+03	        7.639797e-05
        3.311900e+03	        7.474250e-05
        3.348994e+03	        7.307416e-05
        3.386505e+03	        7.141707e-05
        3.424435e+03	        6.974978e-05
        3.462791e+03	        6.806916e-05
        3.501576e+03	        6.640750e-05
        3.540795e+03	        6.487549e-05
        3.580454e+03	        6.344910e-05
        3.620557e+03	        6.207460e-05
        3.661109e+03	        6.071974e-05
        3.702115e+03	        5.934976e-05
        3.743580e+03	        5.796776e-05
        3.785510e+03	        5.661293e-05
        3.827910e+03	        5.526148e-05
        3.870784e+03	        5.395800e-05
        3.914139e+03	        5.270398e-05
        3.957979e+03	        5.150394e-05
        4.002311e+03	        5.030045e-05
        4.047138e+03	        4.914614e-05
        4.092468e+03	        4.799292e-05
        4.138306e+03	        4.685186e-05
        4.184657e+03	        4.571416e-05
        4.231527e+03	        4.461799e-05
        4.278923e+03	        4.355691e-05
        4.326849e+03	        4.250357e-05
        4.375311e+03	        4.146067e-05
        4.424317e+03	        4.041183e-05
        4.473872e+03	        3.935781e-05
        4.523981e+03	        3.829253e-05
        4.574652e+03	        3.729134e-05
        4.625890e+03	        3.635481e-05
        4.677703e+03	        3.545787e-05
        4.730095e+03	        3.457288e-05
        4.783075e+03	        3.367801e-05
        4.836647e+03	        3.276677e-05
        4.890820e+03	        3.186382e-05
        4.945600e+03	        3.096342e-05
        5.000993e+03	        3.008407e-05
        5.057007e+03	        2.918554e-05
        5.113648e+03	        2.816281e-05
        5.170923e+03	        2.723013e-05
        5.228840e+03	        2.654873e-05
        5.287405e+03	        2.587591e-05
        5.346627e+03	        2.519700e-05
        5.406512e+03	        2.452453e-05
        5.467067e+03	        2.391602e-05
        5.528301e+03	        2.331680e-05
        5.590221e+03	        2.272493e-05
        5.652834e+03	        2.213378e-05
        5.716149e+03	        2.153912e-05
        5.780172e+03	        2.094277e-05
        5.844913e+03	        2.034264e-05
        5.910379e+03	        1.976231e-05
        5.976578e+03	        1.920659e-05
        6.043519e+03	        1.866215e-05
        6.111209e+03	        1.809683e-05
        6.179658e+03	        1.750530e-05
        6.248873e+03	        1.678362e-05
        6.318863e+03	        1.631778e-05
        6.389638e+03	        1.586361e-05
        6.461205e+03	        1.544193e-05
        6.533574e+03	        1.502675e-05
        6.606753e+03	        1.460733e-05
        6.680752e+03	        1.419161e-05
        6.755579e+03	        1.377704e-05
        6.831245e+03	        1.336302e-05
        6.907759e+03	        1.294273e-05
        6.985129e+03	        1.252883e-05
        7.063366e+03	        1.211692e-05
        7.142479e+03	        1.168655e-05
        7.222478e+03	        1.123648e-05
        7.303374e+03	        1.069816e-05
        7.385175e+03	        1.007881e-05
        7.467893e+03	        9.804484e-06
        7.551537e+03	        9.552311e-06
        7.636118e+03	        9.322926e-06
        7.721646e+03	        9.098208e-06
        7.808132e+03	        8.875617e-06
        7.895587e+03	        8.650991e-06
        7.984022e+03	        8.423904e-06
        8.073446e+03	        8.204993e-06
        8.163873e+03	        7.993130e-06
        8.255312e+03	        7.780990e-06
        8.347776e+03	        7.570883e-06
        8.441275e+03	        7.359246e-06
        8.535822e+03	        7.145513e-06
        8.631427e+03	        6.934188e-06
        8.728103e+03	        6.723432e-06
        8.825862e+03	        6.511817e-06
        8.924716e+03	        6.314255e-06
        9.024678e+03	        6.130876e-06
        9.125758e+03	        5.951550e-06
        9.227971e+03	        5.771954e-06
        9.331329e+03	        5.587197e-06
        9.435845e+03	        5.395977e-06
        9.541531e+03	        5.197575e-06
        9.648401e+03	        4.940133e-06
        9.756468e+03	        4.806294e-06
        9.865745e+03	        4.674258e-06
        9.976246e+03	        4.541779e-06
        1.008798e+04	        4.407959e-06
        1.020098e+04	        4.276103e-06
        1.031523e+04	        4.147285e-06
        1.043077e+04	        4.020599e-06
        1.054760e+04	        3.905329e-06
        1.066573e+04	        3.790596e-06
        1.078520e+04	        3.674307e-06
        1.090600e+04	        3.557216e-06
        1.102815e+04	        3.442222e-06
        1.115167e+04	        3.326459e-06
        1.127657e+04	        3.212461e-06
        1.140288e+04	        3.106122e-06
        1.153059e+04	        2.998107e-06
        1.165974e+04	        2.887426e-06
        1.179034e+04	        2.772115e-06
        1.192240e+04	        2.643291e-06
        1.205593e+04	        2.480210e-06
        1.219096e+04	        2.402545e-06
        1.232751e+04	        2.334755e-06
        1.246558e+04	        2.267226e-06
        1.260520e+04	        2.198917e-06
        1.274639e+04	        2.129772e-06
        1.288915e+04	        2.059645e-06
        1.303352e+04	        1.989192e-06
        1.317950e+04	        1.916221e-06
        1.332712e+04	        1.846449e-06
        1.347639e+04	        1.780203e-06
        1.362733e+04	        1.711930e-06
        1.377996e+04	        1.639846e-06
        1.393431e+04	        1.564001e-06
        1.409038e+04	        1.479371e-06
        1.424820e+04	        1.401877e-06
        1.440778e+04	        1.366306e-06
        1.456916e+04	        1.330498e-06
        1.473234e+04	        1.294328e-06
        1.489735e+04	        1.257950e-06
        1.506421e+04	        1.221297e-06
        1.523293e+04	        1.186261e-06
        1.540355e+04	        1.152174e-06
        1.557608e+04	        1.118035e-06
        1.575054e+04	        1.083491e-06
        1.592695e+04	        1.048458e-06
        1.610534e+04	        1.013421e-06
        1.628573e+04	        9.823001e-07
        1.646814e+04	        9.510002e-07
        1.665259e+04	        9.163954e-07
        1.683910e+04	        8.892859e-07
        1.702771e+04	        8.619781e-07
        1.721843e+04	        8.349790e-07
        1.741128e+04	        8.116985e-07
        1.760630e+04	        7.882669e-07
        1.780350e+04	        7.645538e-07
        1.800291e+04	        7.407037e-07
        1.820455e+04	        7.168074e-07
        1.840845e+04	        6.940224e-07
        1.861463e+04	        6.718485e-07
        1.882312e+04	        6.493414e-07
        1.903395e+04	        6.262160e-07
        1.924714e+04	        6.034827e-07
        1.946272e+04	        5.833031e-07
        1.968071e+04	        5.642169e-07
        1.990114e+04	        5.448919e-07
        2.012405e+04	        5.253869e-07
        2.034945e+04	        5.054343e-07
        2.057737e+04	        4.875965e-07
        2.080785e+04	        4.698763e-07
        2.104091e+04	        4.518939e-07
        2.127657e+04	        4.333855e-07
        2.151488e+04	        4.146047e-07
        2.175586e+04	        3.973140e-07
        2.199954e+04	        3.817564e-07
        2.224594e+04	        3.660459e-07
        2.249511e+04	        3.504893e-07
        2.274706e+04	        3.355776e-07
        2.300184e+04	        3.203986e-07
        2.325947e+04	        3.051798e-07
        2.351999e+04	        2.900503e-07
        2.378343e+04	        2.764203e-07
        2.404981e+04	        2.626576e-07
        2.431918e+04	        2.487702e-07
        2.459157e+04	        2.348650e-07
        2.486701e+04	        2.207745e-07
        2.514553e+04	        2.070603e-07
        2.542717e+04	        1.939418e-07
        2.571197e+04	        1.803884e-07
        2.599996e+04	        1.656062e-07
        2.629117e+04	        1.529120e-07
        2.658564e+04	        1.397399e-07
        2.688341e+04	        1.259346e-07
        2.718452e+04	        1.107713e-07
        2.748900e+04	        9.510491e-08
        2.779689e+04	        7.859350e-08
        2.810823e+04	        5.788317e-08
        2.842306e+04	        2.070835e-08
        2.874141e+04	        6.614957e-09
        2.906333e+04	        6.017700e-09
        2.938885e+04	        5.361971e-09
        2.971802e+04	        4.611681e-09
        3.005088e+04	        3.935157e-09
        3.038746e+04	        3.176038e-09
        3.072782e+04	        2.141506e-09
        3.107198e+04	        4.093200e-10
        3.142000e+04	        3.808707e-10
        3.177192e+04	        3.500235e-10
        3.212779e+04	        3.126860e-10
        3.248763e+04	        2.772170e-10
        3.285151e+04	        2.537946e-10
        3.321946e+04	        2.262825e-10
        3.359154e+04	        1.819754e-10
        3.396778e+04	        1.725591e-10
        3.434823e+04	        1.646855e-10
        3.473295e+04	        1.565029e-10
        3.512198e+04	        1.449935e-10
        3.551536e+04	        1.394856e-10
        3.591315e+04	        1.339317e-10
        3.631540e+04	        1.282574e-10
        3.672215e+04	        1.227279e-10
        3.713345e+04	        1.170740e-10
        3.754937e+04	        1.106303e-10
        3.796994e+04	        1.051107e-10
        3.839522e+04	        1.005958e-10
        3.882526e+04	        9.538124e-11
        3.926013e+04	        9.098734e-11
        3.969986e+04	        8.719525e-11
        4.014452e+04	        8.272849e-11
        4.059416e+04	        7.950180e-11
        4.104883e+04	        7.624897e-11
        4.150860e+04	        7.273374e-11
        4.197351e+04	        6.980110e-11
        4.244364e+04	        6.647946e-11
        4.291903e+04	        6.307838e-11
        4.339974e+04	        6.079056e-11
        4.388584e+04	        5.844105e-11
        4.437738e+04	        5.625753e-11
        4.487443e+04	        5.405587e-11
        4.537705e+04	        5.168365e-11
        4.588529e+04	        4.992320e-11
        4.639923e+04	        4.814101e-11
        4.691893e+04	        4.644308e-11
        4.744444e+04	        4.476388e-11
        4.797584e+04	        4.305351e-11
        4.851319e+04	        4.153931e-11
        4.905657e+04	        4.002239e-11
        4.960602e+04	        3.851966e-11
        5.016164e+04	        3.695128e-11
        5.072347e+04	        3.550562e-11
        5.129160e+04	        3.404395e-11
        5.186609e+04	        3.277659e-11
        5.244702e+04	        3.148637e-11
        5.303445e+04	        3.022437e-11
        5.362846e+04	        2.892895e-11
        5.422913e+04	        2.769921e-11
        5.483652e+04	        2.651041e-11
        5.545071e+04	        2.533749e-11
        5.607179e+04	        2.410551e-11
        5.669982e+04	        2.297096e-11
        5.733489e+04	        2.192848e-11
        5.797707e+04	        2.088042e-11
        5.862644e+04	        1.972684e-11
        5.928308e+04	        1.878357e-11
        5.994708e+04	        1.789606e-11
        6.061852e+04	        1.704808e-11
        6.129748e+04	        1.612656e-11
        6.198404e+04	        1.535643e-11
        6.267829e+04	        1.454326e-11
        6.338032e+04	        1.365090e-11
        6.409021e+04	        1.281863e-11
        6.480805e+04	        1.221442e-11
        6.553393e+04	        1.163295e-11
        6.626795e+04	        1.100931e-11
        6.701018e+04	        1.050006e-11
        6.776073e+04	        9.977535e-12
        6.851968e+04	        9.419462e-12
        6.928713e+04	        8.950692e-12
        7.006318e+04	        8.485789e-12
        7.084793e+04	        8.003864e-12
        7.164146e+04	        7.537034e-12
        7.244388e+04	        7.111687e-12
        7.325529e+04	        6.684437e-12
        7.407578e+04	        6.258804e-12
        7.490547e+04	        5.866906e-12
        7.574444e+04	        5.470200e-12
        7.659282e+04	        5.077384e-12
        7.745070e+04	        4.714748e-12
        7.831818e+04	        4.361406e-12
        7.919539e+04	        4.026677e-12
        8.008241e+04	        3.699944e-12
        8.097938e+04	        3.333299e-12
        8.188638e+04	        3.009128e-12
        8.280355e+04	        2.670888e-12
        8.373099e+04	        2.315442e-12
        8.466882e+04	        2.022417e-12
        8.561715e+04	        1.673346e-12
        8.657611e+04	        1.410863e-12
        8.754580e+04	        1.125698e-12
        8.852636e+04	        8.729350e-13
        8.951790e+04	        7.121554e-13
        9.052054e+04	        5.454195e-13
        9.153442e+04	        3.844694e-13
        9.255965e+04	        1.896112e-13
        9.359636e+04	        6.531886e-14
        9.464469e+04	        5.253117e-14
        9.570475e+04	        4.805467e-14
        9.677669e+04	        4.354446e-14
        9.786064e+04	        3.876562e-14
        9.895673e+04	        3.383224e-14
        1.000651e+05	        2.821514e-14
        1.011859e+05	        2.128928e-14
        1.023192e+05	        1.074735e-14
        1.034652e+05	        6.029635e-15
        1.046241e+05	        1.791429e-15
        1.057959e+05	        0.000000e+00
        1.069809e+05	        0.000000e+00
        1.081791e+05	        0.000000e+00
        1.093908e+05	        0.000000e+00

