# -------------------------------------------------------------------------------
#		C:/Users/ASAT 02/Documents/OMERE 5.4/CDR CLOSE-OUT/SSO 500 - 1.5 years/dose/muscle/Dose  Muscle_new.txt
# -------------------------------------------------------------------------------
# ID: 1 2 1

# Graph: Dose - Muscle 
# min: -1.12139 0.00838539 max: 41.0074 1.07171e+06
# X-axis: Thickness  (mm Al)
# Y-axis L: Dose (rad)
# -------------------------------------------------------------------------------
# Curve 0: Trapped electrons
# Params: 2 5 #1bcdff 1 1
#	Thickness  (mm Al)		Dose (rad)
# -------------------------------------------------------------------------------
            0.010000	        8.524213e+05
            0.100000	        1.991118e+05
            0.200000	        9.090718e+04
            0.300000	        5.225082e+04
            0.400000	        3.455245e+04
            0.500000	        2.497966e+04
            0.600000	        1.918460e+04
            0.700000	        1.536954e+04
            0.800000	        1.269855e+04
            0.900000	        1.073890e+04
            1.000000	        9.244897e+03
            1.100000	        8.069260e+03
            1.200000	        7.121088e+03
            1.300000	        6.339962e+03
            1.400000	        5.681430e+03
            1.500000	        5.115976e+03
            1.600000	        4.624851e+03
            1.700000	        4.193300e+03
            1.800000	        3.810057e+03
            1.900000	        3.467338e+03
            2.000000	        3.159416e+03
            2.250000	        2.514574e+03
            2.500000	        2.011298e+03
            2.750000	        1.615779e+03
            3.000000	        1.302672e+03
            3.250000	        1.052965e+03
            3.500000	        8.519851e+02
            3.750000	        6.888415e+02
            4.000000	        5.557861e+02
            4.250000	        4.471604e+02
            4.500000	        3.586407e+02
            4.750000	        2.867454e+02
            5.000000	        2.285791e+02
            5.250000	        1.816968e+02
            5.500000	        1.440340e+02
            5.750000	        1.138590e+02
            6.000000	        8.973594e+01
            6.250000	        7.048920e+01
            6.500000	        5.516572e+01
            6.750000	        4.299674e+01
            7.000000	        3.336291e+01
            7.250000	        2.576477e+01
            7.500000	        1.979819e+01
            7.750000	        1.513544e+01
            8.000000	        1.151066e+01
            8.250000	        8.708280e+00
            8.500000	        6.553616e+00
            8.750000	        4.905965e+00
            9.000000	        3.652459e+00
            9.500000	        1.989643e+00
           10.000000	        1.055238e+00
           10.500000	        5.419281e-01
           11.000000	        2.679136e-01
           11.500000	        1.269130e-01
           12.000000	        5.741234e-02
           12.500000	        2.472312e-02
           13.000000	        1.007227e-02
           13.500000	        3.831478e-03
           14.000000	        1.330057e-03
           14.500000	        4.127528e-04
           15.000000	        1.126036e-04
           16.000000	        8.781200e-06
           17.000000	        9.091901e-07
           18.000000	        5.014010e-08
           19.000000	        1.353613e-09
           20.000000	        0.000000e+00
           30.000000	        0.000000e+00
           40.000000	        0.000000e+00
           50.000000	        0.000000e+00
          100.000000	        0.000000e+00

# -------------------------------------------------------------------------------
# Curve 1: Trapped protons
# Params: 2 5 #c314fe 1 1
#	Thickness  (mm Al)		Dose (rad)
# -------------------------------------------------------------------------------
            0.010000	        3.484505e+04
            0.100000	        3.177031e+03
            0.200000	        1.514363e+03
            0.300000	        9.956565e+02
            0.400000	        7.522752e+02
            0.500000	        6.136748e+02
            0.600000	        5.260493e+02
            0.700000	        4.711924e+02
            0.800000	        4.304062e+02
            0.900000	        4.012919e+02
            1.000000	        3.754053e+02
            1.100000	        3.582179e+02
            1.200000	        3.394788e+02
            1.300000	        3.253628e+02
            1.400000	        3.122732e+02
            1.500000	        3.010753e+02
            1.600000	        2.919300e+02
            1.700000	        2.809100e+02
            1.800000	        2.738442e+02
            1.900000	        2.670797e+02
            2.000000	        2.599881e+02
            2.250000	        2.458121e+02
            2.500000	        2.345792e+02
            2.750000	        2.250391e+02
            3.000000	        2.191265e+02
            3.250000	        2.120325e+02
            3.500000	        2.069383e+02
            3.750000	        2.028588e+02
            4.000000	        1.975664e+02
            4.250000	        1.934188e+02
            4.500000	        1.904206e+02
            4.750000	        1.860330e+02
            5.000000	        1.837539e+02
            5.250000	        1.797425e+02
            5.500000	        1.764864e+02
            5.750000	        1.739845e+02
            6.000000	        1.714535e+02
            6.250000	        1.696359e+02
            6.500000	        1.646853e+02
            6.750000	        1.644970e+02
            7.000000	        1.618613e+02
            7.250000	        1.588640e+02
            7.500000	        1.576526e+02
            7.750000	        1.536836e+02
            8.000000	        1.552153e+02
            8.250000	        1.531181e+02
            8.500000	        1.487350e+02
            8.750000	        1.482881e+02
            9.000000	        1.454945e+02
            9.500000	        1.427334e+02
           10.000000	        1.406330e+02
           10.500000	        1.385093e+02
           11.000000	        1.351005e+02
           11.500000	        1.321300e+02
           12.000000	        1.305102e+02
           12.500000	        1.259103e+02
           13.000000	        1.251729e+02
           13.500000	        1.240434e+02
           14.000000	        1.199321e+02
           14.500000	        1.172267e+02
           15.000000	        1.163339e+02
           16.000000	        1.126449e+02
           17.000000	        1.080307e+02
           18.000000	        1.050291e+02
           19.000000	        1.019894e+02
           20.000000	        9.889073e+01
           30.000000	        7.429845e+01
           40.000000	        5.759069e+01
           50.000000	        4.665868e+01
          100.000000	        1.561410e+01

# -------------------------------------------------------------------------------
# Curve 2: Solar protons
# Params: 2 5 #14ce57 1 1
#	Thickness  (mm Al)		Dose (rad)
# -------------------------------------------------------------------------------
            0.010000	        2.210883e+05
            0.100000	        5.004290e+04
            0.200000	        2.756608e+04
            0.300000	        1.898191e+04
            0.400000	        1.451197e+04
            0.500000	        1.173364e+04
            0.600000	        9.765739e+03
            0.700000	        8.402266e+03
            0.800000	        7.296590e+03
            0.900000	        6.483816e+03
            1.000000	        5.744345e+03
            1.100000	        5.255447e+03
            1.200000	        4.729789e+03
            1.300000	        4.349382e+03
            1.400000	        3.995308e+03
            1.500000	        3.708987e+03
            1.600000	        3.469788e+03
            1.700000	        3.202952e+03
            1.800000	        3.024466e+03
            1.900000	        2.857193e+03
            2.000000	        2.683255e+03
            2.250000	        2.337090e+03
            2.500000	        2.056845e+03
            2.750000	        1.824760e+03
            3.000000	        1.667696e+03
            3.250000	        1.498365e+03
            3.500000	        1.373999e+03
            3.750000	        1.272400e+03
            4.000000	        1.161476e+03
            4.250000	        1.075360e+03
            4.500000	        1.010030e+03
            4.750000	        9.328065e+02
            5.000000	        8.854433e+02
            5.250000	        8.221583e+02
            5.500000	        7.719062e+02
            5.750000	        7.319538e+02
            6.000000	        6.943539e+02
            6.250000	        6.649441e+02
            6.500000	        6.106186e+02
            6.750000	        5.992524e+02
            7.000000	        5.679879e+02
            7.250000	        5.360840e+02
            7.500000	        5.187358e+02
            7.750000	        4.825173e+02
            8.000000	        4.861245e+02
            8.250000	        4.639997e+02
            8.500000	        4.284851e+02
            8.750000	        4.194699e+02
            9.000000	        3.963609e+02
            9.500000	        3.697463e+02
           10.000000	        3.484987e+02
           10.500000	        3.283418e+02
           11.000000	        3.039091e+02
           11.500000	        2.836060e+02
           12.000000	        2.705817e+02
           12.500000	        2.466427e+02
           13.000000	        2.394011e+02
           13.500000	        2.307570e+02
           14.000000	        2.122907e+02
           14.500000	        2.000272e+02
           15.000000	        1.941918e+02
           16.000000	        1.773966e+02
           17.000000	        1.597330e+02
           18.000000	        1.479341e+02
           19.000000	        1.368204e+02
           20.000000	        1.264878e+02
           30.000000	        6.522043e+01
           40.000000	        3.989836e+01
           50.000000	        2.722962e+01
          100.000000	        6.422991e+00

# -------------------------------------------------------------------------------
# Curve 3: Secondary photons
# Params: 2 5 #ff5b17 1 1
#	Thickness  (mm Al)		Dose (rad)
# -------------------------------------------------------------------------------
            0.010000	        1.775975e+03
            0.100000	        3.935001e+02
            0.200000	        2.050815e+02
            0.300000	        1.288427e+02
            0.400000	        9.251934e+01
            0.500000	        6.857809e+01
            0.600000	        5.281417e+01
            0.700000	        4.295613e+01
            0.800000	        3.620226e+01
            0.900000	        3.138860e+01
            1.000000	        2.757707e+01
            1.100000	        2.467758e+01
            1.200000	        2.230203e+01
            1.300000	        2.018416e+01
            1.400000	        1.838119e+01
            1.500000	        1.667930e+01
            1.600000	        1.525986e+01
            1.700000	        1.414779e+01
            1.800000	        1.304180e+01
            1.900000	        1.194541e+01
            2.000000	        1.111599e+01
            2.250000	        9.302184e+00
            2.500000	        7.948021e+00
            2.750000	        7.078807e+00
            3.000000	        6.111309e+00
            3.250000	        5.403613e+00
            3.500000	        4.974192e+00
            3.750000	        4.402779e+00
            4.000000	        3.986065e+00
            4.250000	        3.753243e+00
            4.500000	        3.516293e+00
            4.750000	        3.317076e+00
            5.000000	        3.132012e+00
            5.250000	        2.990757e+00
            5.500000	        2.784659e+00
            5.750000	        2.584231e+00
            6.000000	        2.481249e+00
            6.250000	        2.391567e+00
            6.500000	        2.309678e+00
            6.750000	        2.235606e+00
            7.000000	        2.168102e+00
            7.250000	        2.106520e+00
            7.500000	        2.051621e+00
            7.750000	        2.001439e+00
            8.000000	        1.954276e+00
            8.250000	        1.910671e+00
            8.500000	        1.870144e+00
            8.750000	        1.832454e+00
            9.000000	        1.797492e+00
            9.500000	        1.734314e+00
           10.000000	        1.680737e+00
           10.500000	        1.629042e+00
           11.000000	        1.600487e+00
           11.500000	        1.578898e+00
           12.000000	        1.542602e+00
           12.500000	        1.508935e+00
           13.000000	        1.478344e+00
           13.500000	        1.450308e+00
           14.000000	        1.423764e+00
           14.500000	        1.401185e+00
           15.000000	        1.384400e+00
           16.000000	        1.347246e+00
           17.000000	        1.307064e+00
           18.000000	        1.272897e+00
           19.000000	        1.242937e+00
           20.000000	        1.211926e+00
           30.000000	        9.744302e-01
           40.000000	        8.017670e-01
           50.000000	        7.023863e-01
          100.000000	        2.561839e-01

# -------------------------------------------------------------------------------
# Curve 4: Total dose
# Params: 2 5 #3690cb 1 1
#	Thickness  (mm Al)		Dose (rad)
# -------------------------------------------------------------------------------
            0.010000	        1.110131e+06
            0.100000	        2.527252e+05
            0.200000	        1.201927e+05
            0.300000	        7.235723e+04
            0.400000	        4.990921e+04
            0.500000	        3.739556e+04
            0.600000	        2.952920e+04
            0.700000	        2.428595e+04
            0.800000	        2.046175e+04
            0.900000	        1.765540e+04
            1.000000	        1.539222e+04
            1.100000	        1.370760e+04
            1.200000	        1.221266e+04
            1.300000	        1.103489e+04
            1.400000	        1.000739e+04
            1.500000	        9.142717e+03
            1.600000	        8.401829e+03
            1.700000	        7.691310e+03
            1.800000	        7.121409e+03
            1.900000	        6.603556e+03
            2.000000	        6.113774e+03
            2.250000	        5.106778e+03
            2.500000	        4.310671e+03
            2.750000	        3.672657e+03
            3.000000	        3.195605e+03
            3.250000	        2.768766e+03
            3.500000	        2.437896e+03
            3.750000	        2.168503e+03
            4.000000	        1.918815e+03
            4.250000	        1.719693e+03
            4.500000	        1.562608e+03
            4.750000	        1.408902e+03
            5.000000	        1.300908e+03
            5.250000	        1.186588e+03
            5.500000	        1.095211e+03
            5.750000	        1.022381e+03
            6.000000	        9.580246e+02
            6.250000	        9.074607e+02
            6.500000	        8.327794e+02
            6.750000	        8.089818e+02
            7.000000	        7.653802e+02
            7.250000	        7.228193e+02
            7.500000	        6.982382e+02
            7.750000	        6.533378e+02
            8.000000	        6.548047e+02
            8.250000	        6.277368e+02
            8.500000	        5.856438e+02
            8.750000	        5.744965e+02
            9.000000	        5.473053e+02
            9.500000	        5.162037e+02
           10.000000	        4.918676e+02
           10.500000	        4.690221e+02
           11.000000	        4.408780e+02
           11.500000	        4.174419e+02
           12.000000	        4.026919e+02
           12.500000	        3.740866e+02
           13.000000	        3.660624e+02
           13.500000	        3.562545e+02
           14.000000	        3.336479e+02
           14.500000	        3.186555e+02
           15.000000	        3.119102e+02
           16.000000	        2.913887e+02
           17.000000	        2.690708e+02
           18.000000	        2.542361e+02
           19.000000	        2.400528e+02
           20.000000	        2.265905e+02
           30.000000	        1.404933e+02
           40.000000	        9.829081e+01
           50.000000	        7.459069e+01
          100.000000	        2.229327e+01

