# -------------------------------------------------------------------------------
#		C:/Users/ASAT 02/Documents/OMERE 5.4/CDR CLOSE-OUT/SSO 500 - 1.5 years/dose/muscle/Dose  Muscle.txt
# -------------------------------------------------------------------------------
# ID: 1 2 1

# Graph: Dose - Muscle 
# min: -4.9895 0.01 max: 104.999 761102
# X-axis: Thickness  (mm Al)
# Y-axis L: Dose (rad)
# -------------------------------------------------------------------------------
# Curve 0: Trapped electrons
# Params: 2 5 #c967d0 1 1
#	Thickness  (mm Al)		Dose (rad)
# -------------------------------------------------------------------------------
            0.010000	        5.682809e+05
            0.100000	        1.327412e+05
            0.200000	        6.060479e+04
            0.300000	        3.483388e+04
            0.400000	        2.303497e+04
            0.500000	        1.665311e+04
            0.600000	        1.278973e+04
            0.700000	        1.024636e+04
            0.800000	        8.465699e+03
            0.900000	        7.159268e+03
            1.000000	        6.163265e+03
            1.100000	        5.379507e+03
            1.200000	        4.747392e+03
            1.300000	        4.226642e+03
            1.400000	        3.787620e+03
            1.500000	        3.410650e+03
            1.600000	        3.083234e+03
            1.700000	        2.795534e+03
            1.800000	        2.540038e+03
            1.900000	        2.311559e+03
            2.000000	        2.106277e+03
            2.250000	        1.676383e+03
            2.500000	        1.340866e+03
            2.750000	        1.077186e+03
            3.000000	        8.684477e+02
            3.250000	        7.019766e+02
            3.500000	        5.679900e+02
            3.750000	        4.592276e+02
            4.000000	        3.705240e+02
            4.250000	        2.981069e+02
            4.500000	        2.390938e+02
            4.750000	        1.911636e+02
            5.000000	        1.523861e+02
            5.250000	        1.211312e+02
            5.500000	        9.602268e+01
            5.750000	        7.590601e+01
            6.000000	        5.982396e+01
            6.250000	        4.699280e+01
            6.500000	        3.677715e+01
            6.750000	        2.866449e+01
            7.000000	        2.224194e+01
            7.250000	        1.717652e+01
            7.500000	        1.319880e+01
            7.750000	        1.009029e+01
            8.000000	        7.673775e+00
            8.250000	        5.805520e+00
            8.500000	        4.369077e+00
            8.750000	        3.270643e+00
            9.000000	        2.434973e+00
            9.500000	        1.326428e+00
           10.000000	        7.034919e-01
           10.500000	        3.612854e-01
           11.000000	        1.786090e-01
           11.500000	        8.460867e-02
           12.000000	        3.827489e-02
           12.500000	        1.648208e-02
           13.000000	        6.714847e-03
           13.500000	        2.554318e-03
           14.000000	        8.867047e-04
           14.500000	        2.751685e-04
           15.000000	        7.506905e-05
           16.000000	        5.854134e-06
           17.000000	        6.061268e-07
           18.000000	        3.342674e-08
           19.000000	        9.024089e-10
           20.000000	        0.000000e+00
           30.000000	        0.000000e+00
           40.000000	        0.000000e+00
           50.000000	        0.000000e+00
          100.000000	        0.000000e+00

# -------------------------------------------------------------------------------
# Curve 1: Trapped protons
# Params: 2 5 #7def21 1 1
#	Thickness  (mm Al)		Dose (rad)
# -------------------------------------------------------------------------------
            0.010000	        2.323003e+04
            0.100000	        2.118021e+03
            0.200000	        1.009576e+03
            0.300000	        6.637710e+02
            0.400000	        5.015168e+02
            0.500000	        4.091165e+02
            0.600000	        3.506995e+02
            0.700000	        3.141283e+02
            0.800000	        2.869375e+02
            0.900000	        2.675280e+02
            1.000000	        2.502702e+02
            1.100000	        2.388120e+02
            1.200000	        2.263192e+02
            1.300000	        2.169085e+02
            1.400000	        2.081821e+02
            1.500000	        2.007169e+02
            1.600000	        1.946200e+02
            1.700000	        1.872733e+02
            1.800000	        1.825628e+02
            1.900000	        1.780531e+02
            2.000000	        1.733254e+02
            2.250000	        1.638747e+02
            2.500000	        1.563862e+02
            2.750000	        1.500261e+02
            3.000000	        1.460843e+02
            3.250000	        1.413550e+02
            3.500000	        1.379588e+02
            3.750000	        1.352392e+02
            4.000000	        1.317110e+02
            4.250000	        1.289459e+02
            4.500000	        1.269470e+02
            4.750000	        1.240220e+02
            5.000000	        1.225026e+02
            5.250000	        1.198284e+02
            5.500000	        1.176576e+02
            5.750000	        1.159897e+02
            6.000000	        1.143023e+02
            6.250000	        1.130906e+02
            6.500000	        1.097902e+02
            6.750000	        1.096647e+02
            7.000000	        1.079075e+02
            7.250000	        1.059093e+02
            7.500000	        1.051017e+02
            7.750000	        1.024557e+02
            8.000000	        1.034768e+02
            8.250000	        1.020788e+02
            8.500000	        9.915666e+01
            8.750000	        9.885874e+01
            9.000000	        9.699632e+01
            9.500000	        9.515559e+01
           10.000000	        9.375531e+01
           10.500000	        9.233956e+01
           11.000000	        9.006703e+01
           11.500000	        8.808669e+01
           12.000000	        8.700682e+01
           12.500000	        8.394021e+01
           13.000000	        8.344858e+01
           13.500000	        8.269559e+01
           14.000000	        7.995474e+01
           14.500000	        7.815116e+01
           15.000000	        7.755593e+01
           16.000000	        7.509660e+01
           17.000000	        7.202046e+01
           18.000000	        7.001942e+01
           19.000000	        6.799295e+01
           20.000000	        6.592715e+01
           30.000000	        4.953230e+01
           40.000000	        3.839379e+01
           50.000000	        3.110579e+01
          100.000000	        1.040940e+01

# -------------------------------------------------------------------------------
# Curve 2: Solar protons
# Params: 2 5 #ff963e 1 1
#	Thickness  (mm Al)		Dose (rad)
# -------------------------------------------------------------------------------
            0.010000	        1.684076e+05
            0.100000	        3.656007e+04
            0.200000	        1.971707e+04
            0.300000	        1.339361e+04
            0.400000	        1.014461e+04
            0.500000	        8.145654e+03
            0.600000	        6.741235e+03
            0.700000	        5.773688e+03
            0.800000	        4.993763e+03
            0.900000	        4.422663e+03
            1.000000	        3.905902e+03
            1.100000	        3.564661e+03
            1.200000	        3.199866e+03
            1.300000	        2.936313e+03
            1.400000	        2.691848e+03
            1.500000	        2.494529e+03
            1.600000	        2.329952e+03
            1.700000	        2.147136e+03
            1.800000	        2.024822e+03
            1.900000	        1.910400e+03
            2.000000	        1.791782e+03
            2.250000	        1.556267e+03
            2.500000	        1.366294e+03
            2.750000	        1.209500e+03
            3.000000	        1.103495e+03
            3.250000	        9.896703e+02
            3.500000	        9.061857e+02
            3.750000	        8.380755e+02
            4.000000	        7.639574e+02
            4.250000	        7.064868e+02
            4.500000	        6.629037e+02
            4.750000	        6.115469e+02
            5.000000	        5.800166e+02
            5.250000	        5.380341e+02
            5.500000	        5.047216e+02
            5.750000	        4.782458e+02
            6.000000	        4.533555e+02
            6.250000	        4.338828e+02
            6.500000	        3.980700e+02
            6.750000	        3.905111e+02
            7.000000	        3.698998e+02
            7.250000	        3.488959e+02
            7.500000	        3.374527e+02
            7.750000	        3.136675e+02
            8.000000	        3.159660e+02
            8.250000	        3.014263e+02
            8.500000	        2.781544e+02
            8.750000	        2.722173e+02
            9.000000	        2.570826e+02
            9.500000	        2.396417e+02
           10.000000	        2.257216e+02
           10.500000	        2.125275e+02
           11.000000	        1.965699e+02
           11.500000	        1.833191e+02
           12.000000	        1.748130e+02
           12.500000	        1.592302e+02
           13.000000	        1.545008e+02
           13.500000	        1.488630e+02
           14.000000	        1.368642e+02
           14.500000	        1.288971e+02
           15.000000	        1.250981e+02
           16.000000	        1.141912e+02
           17.000000	        1.027397e+02
           18.000000	        9.509200e+01
           19.000000	        8.789441e+01
           20.000000	        8.121059e+01
           30.000000	        4.169266e+01
           40.000000	        2.544103e+01
           50.000000	        1.734716e+01
          100.000000	        4.091216e+00

# -------------------------------------------------------------------------------
# Curve 3: Secondary photons
# Params: 2 5 #1bcdff 1 1
#	Thickness  (mm Al)		Dose (rad)
# -------------------------------------------------------------------------------
            0.010000	        1.183984e+03
            0.100000	        2.623334e+02
            0.200000	        1.367210e+02
            0.300000	        8.589517e+01
            0.400000	        6.167956e+01
            0.500000	        4.571873e+01
            0.600000	        3.520945e+01
            0.700000	        2.863742e+01
            0.800000	        2.413484e+01
            0.900000	        2.092574e+01
            1.000000	        1.838471e+01
            1.100000	        1.645172e+01
            1.200000	        1.486802e+01
            1.300000	        1.345610e+01
            1.400000	        1.225413e+01
            1.500000	        1.111953e+01
            1.600000	        1.017324e+01
            1.700000	        9.431862e+00
            1.800000	        8.694537e+00
            1.900000	        7.963605e+00
            2.000000	        7.410658e+00
            2.250000	        6.201456e+00
            2.500000	        5.298680e+00
            2.750000	        4.719204e+00
            3.000000	        4.074206e+00
            3.250000	        3.602409e+00
            3.500000	        3.316128e+00
            3.750000	        2.935186e+00
            4.000000	        2.657377e+00
            4.250000	        2.502162e+00
            4.500000	        2.344195e+00
            4.750000	        2.211384e+00
            5.000000	        2.088008e+00
            5.250000	        1.993838e+00
            5.500000	        1.856439e+00
            5.750000	        1.722821e+00
            6.000000	        1.654166e+00
            6.250000	        1.594378e+00
            6.500000	        1.539785e+00
            6.750000	        1.490404e+00
            7.000000	        1.445401e+00
            7.250000	        1.404347e+00
            7.500000	        1.367748e+00
            7.750000	        1.334293e+00
            8.000000	        1.302851e+00
            8.250000	        1.273781e+00
            8.500000	        1.246763e+00
            8.750000	        1.221636e+00
            9.000000	        1.198328e+00
            9.500000	        1.156210e+00
           10.000000	        1.120491e+00
           10.500000	        1.086028e+00
           11.000000	        1.066991e+00
           11.500000	        1.052599e+00
           12.000000	        1.028401e+00
           12.500000	        1.005957e+00
           13.000000	        9.855629e-01
           13.500000	        9.668723e-01
           14.000000	        9.491758e-01
           14.500000	        9.341234e-01
           15.000000	        9.229335e-01
           16.000000	        8.981640e-01
           17.000000	        8.713762e-01
           18.000000	        8.485983e-01
           19.000000	        8.286249e-01
           20.000000	        8.079505e-01
           30.000000	        6.496201e-01
           40.000000	        5.345114e-01
           50.000000	        4.682575e-01
          100.000000	        1.707893e-01

# -------------------------------------------------------------------------------
# Curve 4: Total dose
# Params: 2 5 #c314fe 1 1
#	Thickness  (mm Al)		Dose (rad)
# -------------------------------------------------------------------------------
            0.010000	        7.611025e+05
            0.100000	        1.716816e+05
            0.200000	        8.146815e+04
            0.300000	        4.897716e+04
            0.400000	        3.374277e+04
            0.500000	        2.525360e+04
            0.600000	        1.991688e+04
            0.700000	        1.636281e+04
            0.800000	        1.377053e+04
            0.900000	        1.187038e+04
            1.000000	        1.033782e+04
            1.100000	        9.199432e+03
            1.200000	        8.188445e+03
            1.300000	        7.393319e+03
            1.400000	        6.699904e+03
            1.500000	        6.117016e+03
            1.600000	        5.617980e+03
            1.700000	        5.139375e+03
            1.800000	        4.756117e+03
            1.900000	        4.407976e+03
            2.000000	        4.078795e+03
            2.250000	        3.402725e+03
            2.500000	        2.868845e+03
            2.750000	        2.441431e+03
            3.000000	        2.122101e+03
            3.250000	        1.836604e+03
            3.500000	        1.615451e+03
            3.750000	        1.435478e+03
            4.000000	        1.268850e+03
            4.250000	        1.136042e+03
            4.500000	        1.031289e+03
            4.750000	        9.289438e+02
            5.000000	        8.569932e+02
            5.250000	        7.809875e+02
            5.500000	        7.202583e+02
            5.750000	        6.718643e+02
            6.000000	        6.291360e+02
            6.250000	        5.955605e+02
            6.500000	        5.461771e+02
            6.750000	        5.303307e+02
            7.000000	        5.014947e+02
            7.250000	        4.733861e+02
            7.500000	        4.571209e+02
            7.750000	        4.275478e+02
            8.000000	        4.284195e+02
            8.250000	        4.105844e+02
            8.500000	        3.829269e+02
            8.750000	        3.755683e+02
            9.000000	        3.577122e+02
            9.500000	        3.372800e+02
           10.000000	        3.213009e+02
           10.500000	        3.063144e+02
           11.000000	        2.878825e+02
           11.500000	        2.725430e+02
           12.000000	        2.628865e+02
           12.500000	        2.441928e+02
           13.000000	        2.389416e+02
           13.500000	        2.325280e+02
           14.000000	        2.177690e+02
           14.500000	        2.079827e+02
           15.000000	        2.035771e+02
           16.000000	        1.901860e+02
           17.000000	        1.756315e+02
           18.000000	        1.659600e+02
           19.000000	        1.567160e+02
           20.000000	        1.479457e+02
           30.000000	        9.187458e+01
           40.000000	        6.436934e+01
           50.000000	        4.892121e+01
          100.000000	        1.467140e+01

