# -------------------------------------------------------------------------------
#		C:/Users/ASAT 02/Documents/OMERE 5.4/CDR CLOSE-OUT/SSO 550/LET/Satellite/Integral LET spectrum.txt
# -------------------------------------------------------------------------------
# ID: 1 2 1

# Graph: Integral LET spectrum 
# min: 0.000160896 1e-06 max: 1.09391e+09 3.96915e+08
# X-axis L: LET (MeV.cm^2.g^{-1})
# Y-axis L: Flux (cm^{-2}.s^{-1})
# -------------------------------------------------------------------------------
# Curve 0: LET spectrum without  Flares
# Params: 0 5 #c967d0 2 1
#	LET (MeV.cm^2.g^{-1})		Flux (cm^{-2}.s^{-1})
# -------------------------------------------------------------------------------
        1.608960e+00	        1.550140e+02
        1.626982e+00	        1.550140e+02
        1.645205e+00	        1.550140e+02
        1.663632e+00	        1.550140e+02
        1.682265e+00	        1.549030e+02
        1.701107e+00	        1.547643e+02
        1.720161e+00	        1.546748e+02
        1.739427e+00	        1.546129e+02
        1.758910e+00	        1.545582e+02
        1.778610e+00	        1.545140e+02
        1.798532e+00	        1.544764e+02
        1.818676e+00	        1.544432e+02
        1.839046e+00	        1.544128e+02
        1.859644e+00	        1.543839e+02
        1.880473e+00	        1.543581e+02
        1.901536e+00	        1.543338e+02
        1.922834e+00	        1.543123e+02
        1.944370e+00	        1.542960e+02
        1.966148e+00	        1.542843e+02
        1.988170e+00	        1.542766e+02
        2.010439e+00	        1.542695e+02
        2.032956e+00	        1.542623e+02
        2.055727e+00	        1.542556e+02
        2.078752e+00	        1.542499e+02
        2.102035e+00	        1.542441e+02
        2.125579e+00	        1.542382e+02
        2.149386e+00	        1.542331e+02
        2.173460e+00	        1.542285e+02
        2.197804e+00	        1.542238e+02
        2.222421e+00	        1.542191e+02
        2.247313e+00	        1.542151e+02
        2.272484e+00	        1.542118e+02
        2.297937e+00	        1.542084e+02
        2.323675e+00	        1.542050e+02
        2.349701e+00	        1.542016e+02
        2.376019e+00	        1.541983e+02
        2.402632e+00	        1.541952e+02
        2.429542e+00	        1.541920e+02
        2.456754e+00	        1.541888e+02
        2.484271e+00	        1.541857e+02
        2.512096e+00	        1.541838e+02
        2.540233e+00	        1.541819e+02
        2.568685e+00	        1.541799e+02
        2.597455e+00	        1.541779e+02
        2.626548e+00	        1.541759e+02
        2.655967e+00	        1.541738e+02
        2.685715e+00	        1.541719e+02
        2.715796e+00	        1.541699e+02
        2.746214e+00	        1.541680e+02
        2.776973e+00	        1.541660e+02
        2.808077e+00	        1.541639e+02
        2.839529e+00	        1.541111e+02
        2.871333e+00	        1.540391e+02
        2.903493e+00	        1.539663e+02
        2.936014e+00	        1.538927e+02
        2.968899e+00	        1.538183e+02
        3.002152e+00	        1.537430e+02
        3.035777e+00	        1.536067e+02
        3.069779e+00	        1.534593e+02
        3.104162e+00	        1.533103e+02
        3.138931e+00	        1.531596e+02
        3.174088e+00	        1.530073e+02
        3.209640e+00	        1.528532e+02
        3.245589e+00	        1.526993e+02
        3.281941e+00	        1.525441e+02
        3.318701e+00	        1.523872e+02
        3.355872e+00	        1.522285e+02
        3.393459e+00	        1.520680e+02
        3.431468e+00	        1.519058e+02
        3.469902e+00	        1.517417e+02
        3.508766e+00	        1.515511e+02
        3.548066e+00	        1.513509e+02
        3.587806e+00	        1.511485e+02
        3.627992e+00	        1.509437e+02
        3.668627e+00	        1.507367e+02
        3.709717e+00	        1.505274e+02
        3.751268e+00	        1.503159e+02
        3.793284e+00	        1.501099e+02
        3.835771e+00	        1.499016e+02
        3.878733e+00	        1.496909e+02
        3.922177e+00	        1.494778e+02
        3.966107e+00	        1.492624e+02
        4.010530e+00	        1.490446e+02
        4.055449e+00	        1.488243e+02
        4.100872e+00	        1.485803e+02
        4.146804e+00	        1.482830e+02
        4.193250e+00	        1.479823e+02
        4.240217e+00	        1.476783e+02
        4.287709e+00	        1.473709e+02
        4.335734e+00	        1.470600e+02
        4.384296e+00	        1.467456e+02
        4.433403e+00	        1.464813e+02
        4.483059e+00	        1.462157e+02
        4.533271e+00	        1.459471e+02
        4.584046e+00	        1.456755e+02
        4.635390e+00	        1.454008e+02
        4.687308e+00	        1.451231e+02
        4.739809e+00	        1.448422e+02
        4.792897e+00	        1.445582e+02
        4.846580e+00	        1.442243e+02
        4.900864e+00	        1.438795e+02
        4.955756e+00	        1.435308e+02
        5.011263e+00	        1.431783e+02
        5.067391e+00	        1.428218e+02
        5.124149e+00	        1.424613e+02
        5.181542e+00	        1.420967e+02
        5.239577e+00	        1.417574e+02
        5.298263e+00	        1.414225e+02
        5.357606e+00	        1.410838e+02
        5.417614e+00	        1.407413e+02
        5.478294e+00	        1.403950e+02
        5.539654e+00	        1.400448e+02
        5.601701e+00	        1.396907e+02
        5.664442e+00	        1.393326e+02
        5.727887e+00	        1.389722e+02
        5.792042e+00	        1.386087e+02
        5.856916e+00	        1.382411e+02
        5.922516e+00	        1.378694e+02
        5.988851e+00	        1.374935e+02
        6.055929e+00	        1.371134e+02
        6.123759e+00	        1.367290e+02
        6.192348e+00	        1.363403e+02
        6.261705e+00	        1.359353e+02
        6.331839e+00	        1.355042e+02
        6.402759e+00	        1.350683e+02
        6.474473e+00	        1.346274e+02
        6.546991e+00	        1.341817e+02
        6.620320e+00	        1.337309e+02
        6.694471e+00	        1.332751e+02
        6.769452e+00	        1.327945e+02
        6.845274e+00	        1.323292e+02
        6.921944e+00	        1.318698e+02
        6.999473e+00	        1.314068e+02
        7.077871e+00	        1.309392e+02
        7.157146e+00	        1.304680e+02
        7.237310e+00	        1.299919e+02
        7.318371e+00	        1.295109e+02
        7.400341e+00	        1.290245e+02
        7.483228e+00	        1.285426e+02
        7.567044e+00	        1.280663e+02
        7.651799e+00	        1.275849e+02
        7.737503e+00	        1.270986e+02
        7.824166e+00	        1.266073e+02
        7.911801e+00	        1.261110e+02
        8.000417e+00	        1.256094e+02
        8.090026e+00	        1.251021e+02
        8.180638e+00	        1.245893e+02
        8.272265e+00	        1.240750e+02
        8.364918e+00	        1.235550e+02
        8.458610e+00	        1.230291e+02
        8.553350e+00	        1.224974e+02
        8.649152e+00	        1.219600e+02
        8.746027e+00	        1.214165e+02
        8.843987e+00	        1.208669e+02
        8.943044e+00	        1.203112e+02
        9.043210e+00	        1.197381e+02
        9.144499e+00	        1.191493e+02
        9.246921e+00	        1.185539e+02
        9.350492e+00	        1.179518e+02
        9.455222e+00	        1.173430e+02
        9.561125e+00	        1.167274e+02
        9.668214e+00	        1.161049e+02
        9.776503e+00	        1.154755e+02
        9.886005e+00	        1.148748e+02
        9.996733e+00	        1.143189e+02
        1.010870e+01	        1.137568e+02
        1.022192e+01	        1.131885e+02
        1.033641e+01	        1.126138e+02
        1.045219e+01	        1.120326e+02
        1.056926e+01	        1.114450e+02
        1.068764e+01	        1.108507e+02
        1.080734e+01	        1.102499e+02
        1.092839e+01	        1.096227e+02
        1.105080e+01	        1.089249e+02
        1.117457e+01	        1.082192e+02
        1.129973e+01	        1.075057e+02
        1.142629e+01	        1.067843e+02
        1.155427e+01	        1.060548e+02
        1.168369e+01	        1.053171e+02
        1.181455e+01	        1.045711e+02
        1.194688e+01	        1.038606e+02
        1.208069e+01	        1.032581e+02
        1.221600e+01	        1.026489e+02
        1.235282e+01	        1.020329e+02
        1.249118e+01	        1.014099e+02
        1.263109e+01	        1.007800e+02
        1.277256e+01	        1.001430e+02
        1.291562e+01	        9.949893e+01
        1.306028e+01	        9.884769e+01
        1.320657e+01	        9.818917e+01
        1.335449e+01	        9.744486e+01
        1.350406e+01	        9.663482e+01
        1.365531e+01	        9.581572e+01
        1.380826e+01	        9.498743e+01
        1.396292e+01	        9.414988e+01
        1.411931e+01	        9.330297e+01
        1.427746e+01	        9.244658e+01
        1.443737e+01	        9.158060e+01
        1.459908e+01	        9.078891e+01
        1.476259e+01	        9.001065e+01
        1.492794e+01	        8.922367e+01
        1.509514e+01	        8.842791e+01
        1.526421e+01	        8.762317e+01
        1.543518e+01	        8.680946e+01
        1.560806e+01	        8.598666e+01
        1.578288e+01	        8.515465e+01
        1.595966e+01	        8.431837e+01
        1.613841e+01	        8.350192e+01
        1.631917e+01	        8.267633e+01
        1.650195e+01	        8.184148e+01
        1.668678e+01	        8.099728e+01
        1.687368e+01	        8.014363e+01
        1.706268e+01	        7.928042e+01
        1.725379e+01	        7.840755e+01
        1.744704e+01	        7.752489e+01
        1.764245e+01	        7.671136e+01
        1.784006e+01	        7.591777e+01
        1.803988e+01	        7.511531e+01
        1.824193e+01	        7.430385e+01
        1.844625e+01	        7.348330e+01
        1.865286e+01	        7.265357e+01
        1.886178e+01	        7.181454e+01
        1.907304e+01	        7.096611e+01
        1.928667e+01	        7.010818e+01
        1.950269e+01	        6.931327e+01
        1.972113e+01	        6.851060e+01
        1.994201e+01	        6.769893e+01
        2.016537e+01	        6.687818e+01
        2.039124e+01	        6.604823e+01
        2.061963e+01	        6.520899e+01
        2.085058e+01	        6.436035e+01
        2.108411e+01	        6.350220e+01
        2.132027e+01	        6.268248e+01
        2.155906e+01	        6.192942e+01
        2.180054e+01	        6.116791e+01
        2.204471e+01	        6.039788e+01
        2.229162e+01	        5.961923e+01
        2.254130e+01	        5.883185e+01
        2.279378e+01	        5.803565e+01
        2.304908e+01	        5.723049e+01
        2.330724e+01	        5.641631e+01
        2.356829e+01	        5.556603e+01
        2.383227e+01	        5.468311e+01
        2.409920e+01	        5.379030e+01
        2.436912e+01	        5.288750e+01
        2.464207e+01	        5.197458e+01
        2.491807e+01	        5.105143e+01
        2.519717e+01	        5.011785e+01
        2.547939e+01	        4.922790e+01
        2.576477e+01	        4.857397e+01
        2.605335e+01	        4.791271e+01
        2.634516e+01	        4.724405e+01
        2.664024e+01	        4.656789e+01
        2.693862e+01	        4.588417e+01
        2.724035e+01	        4.519272e+01
        2.754545e+01	        4.449344e+01
        2.785397e+01	        4.378634e+01
        2.816595e+01	        4.307132e+01
        2.848142e+01	        4.238716e+01
        2.880043e+01	        4.169620e+01
        2.912301e+01	        4.099750e+01
        2.944920e+01	        4.029098e+01
        2.977905e+01	        3.957655e+01
        3.011259e+01	        3.885395e+01
        3.044986e+01	        3.812325e+01
        3.079092e+01	        3.738436e+01
        3.113579e+01	        3.678094e+01
        3.148453e+01	        3.618946e+01
        3.183717e+01	        3.559135e+01
        3.219376e+01	        3.498655e+01
        3.255435e+01	        3.437498e+01
        3.291897e+01	        3.375642e+01
        3.328768e+01	        3.313080e+01
        3.366052e+01	        3.249818e+01
        3.403753e+01	        3.189800e+01
        3.441877e+01	        3.139675e+01
        3.480428e+01	        3.088989e+01
        3.519410e+01	        3.037735e+01
        3.558829e+01	        2.985907e+01
        3.598690e+01	        2.933497e+01
        3.638997e+01	        2.880459e+01
        3.679756e+01	        2.826827e+01
        3.720971e+01	        2.772594e+01
        3.762647e+01	        2.718989e+01
        3.804791e+01	        2.668835e+01
        3.847406e+01	        2.618119e+01
        3.890499e+01	        2.566836e+01
        3.934075e+01	        2.514978e+01
        3.978138e+01	        2.462525e+01
        4.022696e+01	        2.409483e+01
        4.067752e+01	        2.355848e+01
        4.113313e+01	        2.305495e+01
        4.159384e+01	        2.264769e+01
        4.205971e+01	        2.223586e+01
        4.253080e+01	        2.181925e+01
        4.300716e+01	        2.139805e+01
        4.348887e+01	        2.097218e+01
        4.397596e+01	        2.054093e+01
        4.446851e+01	        2.010459e+01
        4.496658e+01	        1.966337e+01
        4.547023e+01	        1.929507e+01
        4.597952e+01	        1.894585e+01
        4.649451e+01	        1.859272e+01
        4.701528e+01	        1.823563e+01
        4.754187e+01	        1.787455e+01
        4.807436e+01	        1.750956e+01
        4.861282e+01	        1.714055e+01
        4.915731e+01	        1.676740e+01
        4.970789e+01	        1.640374e+01
        5.026464e+01	        1.610523e+01
        5.082763e+01	        1.580338e+01
        5.139693e+01	        1.549815e+01
        5.197260e+01	        1.518951e+01
        5.255472e+01	        1.487741e+01
        5.314336e+01	        1.456175e+01
        5.373859e+01	        1.424119e+01
        5.434049e+01	        1.391703e+01
        5.494913e+01	        1.362524e+01
        5.556458e+01	        1.334853e+01
        5.618694e+01	        1.306873e+01
        5.681626e+01	        1.278580e+01
        5.745263e+01	        1.249969e+01
        5.809612e+01	        1.221036e+01
        5.874683e+01	        1.191771e+01
        5.940482e+01	        1.162179e+01
        6.007019e+01	        1.138159e+01
        6.074300e+01	        1.115496e+01
        6.142335e+01	        1.092560e+01
        6.211133e+01	        1.069384e+01
        6.280700e+01	        1.045958e+01
        6.351047e+01	        1.022271e+01
        6.422182e+01	        9.982850e+00
        6.494114e+01	        9.740170e+00
        6.566851e+01	        9.523793e+00
        6.640403e+01	        9.319546e+00
        6.714779e+01	        9.113017e+00
        6.789988e+01	        8.904190e+00
        6.866039e+01	        8.693031e+00
        6.942942e+01	        8.479516e+00
        7.020706e+01	        8.263656e+00
        7.099342e+01	        8.055755e+00
        7.178858e+01	        7.912740e+00
        7.259264e+01	        7.768126e+00
        7.340572e+01	        7.621893e+00
        7.422790e+01	        7.474023e+00
        7.505929e+01	        7.324502e+00
        7.589999e+01	        7.173306e+00
        7.675011e+01	        7.020418e+00
        7.760974e+01	        6.865748e+00
        7.847901e+01	        6.711157e+00
        7.935802e+01	        6.562705e+00
        8.024686e+01	        6.412589e+00
        8.114567e+01	        6.260796e+00
        8.205454e+01	        6.107307e+00
        8.297359e+01	        5.951986e+00
        8.390294e+01	        5.794943e+00
        8.484269e+01	        5.636559e+00
        8.579297e+01	        5.523139e+00
        8.675389e+01	        5.410843e+00
        8.772558e+01	        5.297300e+00
        8.870815e+01	        5.182492e+00
        8.970173e+01	        5.066402e+00
        9.070643e+01	        4.949019e+00
        9.172239e+01	        4.830323e+00
        9.274972e+01	        4.709973e+00
        9.378856e+01	        4.608525e+00
        9.483904e+01	        4.509159e+00
        9.590129e+01	        4.408685e+00
        9.697543e+01	        4.307087e+00
        9.806160e+01	        4.204355e+00
        9.915994e+01	        4.100473e+00
        1.002706e+02	        3.996196e+00
        1.013937e+02	        3.895897e+00
        1.025293e+02	        3.814119e+00
        1.036777e+02	        3.731427e+00
        1.048389e+02	        3.647808e+00
        1.060132e+02	        3.563254e+00
        1.072006e+02	        3.477754e+00
        1.084013e+02	        3.390888e+00
        1.096154e+02	        3.303132e+00
        1.108432e+02	        3.225239e+00
        1.120847e+02	        3.156350e+00
        1.133401e+02	        3.086708e+00
        1.146095e+02	        3.016325e+00
        1.158932e+02	        2.945175e+00
        1.171913e+02	        2.873241e+00
        1.185039e+02	        2.800504e+00
        1.198312e+02	        2.726960e+00
        1.211734e+02	        2.665264e+00
        1.225306e+02	        2.605766e+00
        1.239030e+02	        2.545613e+00
        1.252907e+02	        2.484802e+00
        1.266941e+02	        2.423323e+00
        1.281131e+02	        2.361166e+00
        1.295480e+02	        2.298315e+00
        1.309990e+02	        2.238992e+00
        1.324663e+02	        2.182818e+00
        1.339500e+02	        2.127690e+00
        1.354503e+02	        2.071945e+00
        1.369674e+02	        2.015570e+00
        1.385015e+02	        1.958564e+00
        1.400528e+02	        1.901428e+00
        1.416214e+02	        1.859344e+00
        1.432077e+02	        1.816789e+00
        1.448117e+02	        1.773763e+00
        1.464336e+02	        1.730257e+00
        1.480737e+02	        1.686801e+00
        1.497322e+02	        1.642864e+00
        1.514093e+02	        1.598434e+00
        1.531052e+02	        1.558812e+00
        1.548200e+02	        1.519831e+00
        1.565541e+02	        1.480414e+00
        1.583076e+02	        1.440556e+00
        1.600807e+02	        1.400301e+00
        1.618737e+02	        1.361306e+00
        1.636867e+02	        1.323896e+00
        1.655201e+02	        1.291688e+00
        1.673740e+02	        1.259120e+00
        1.692487e+02	        1.226127e+00
        1.711444e+02	        1.192765e+00
        1.730613e+02	        1.159049e+00
        1.749996e+02	        1.124967e+00
        1.769597e+02	        1.097624e+00
        1.789418e+02	        1.072083e+00
        1.809460e+02	        1.046260e+00
        1.829727e+02	        1.020153e+00
        1.850221e+02	        9.937543e-01
        1.870944e+02	        9.670613e-01
        1.891900e+02	        9.400973e-01
        1.913090e+02	        9.152565e-01
        1.934517e+02	        8.901394e-01
        1.956185e+02	        8.655976e-01
        1.978095e+02	        8.410139e-01
        2.000251e+02	        8.161566e-01
        2.022655e+02	        7.917353e-01
        2.045309e+02	        7.717895e-01
        2.068218e+02	        7.516156e-01
        2.091383e+02	        7.312238e-01
        2.114807e+02	        7.106067e-01
        2.138494e+02	        6.898866e-01
        2.162446e+02	        6.695317e-01
        2.186667e+02	        6.527681e-01
        2.211159e+02	        6.358172e-01
        2.235925e+02	        6.186766e-01
        2.260968e+02	        6.013453e-01
        2.286292e+02	        5.838200e-01
        2.311900e+02	        5.660987e-01
        2.337794e+02	        5.508737e-01
        2.363979e+02	        5.367361e-01
        2.390456e+02	        5.224405e-01
        2.417231e+02	        5.079856e-01
        2.444305e+02	        4.932667e-01
        2.471682e+02	        4.784212e-01
        2.499366e+02	        4.651402e-01
        2.527360e+02	        4.520313e-01
        2.555668e+02	        4.387801e-01
        2.584293e+02	        4.258691e-01
        2.613238e+02	        4.129122e-01
        2.642508e+02	        4.002637e-01
        2.672105e+02	        3.896322e-01
        2.702034e+02	        3.788838e-01
        2.732298e+02	        3.680167e-01
        2.762901e+02	        3.570297e-01
        2.793847e+02	        3.460439e-01
        2.825139e+02	        3.362232e-01
        2.856782e+02	        3.274095e-01
        2.888780e+02	        3.184939e-01
        2.921136e+02	        3.094843e-01
        2.953854e+02	        3.003768e-01
        2.986938e+02	        2.911674e-01
        3.020393e+02	        2.828679e-01
        3.054223e+02	        2.752267e-01
        3.088432e+02	        2.675011e-01
        3.123024e+02	        2.598107e-01
        3.158004e+02	        2.520344e-01
        3.193375e+02	        2.441715e-01
        3.229142e+02	        2.364234e-01
        3.265310e+02	        2.286774e-01
        3.301883e+02	        2.208444e-01
        3.338866e+02	        2.128830e-01
        3.376263e+02	        2.052612e-01
        3.414079e+02	        1.993241e-01
        3.452318e+02	        1.937248e-01
        3.490986e+02	        1.880657e-01
        3.530086e+02	        1.823487e-01
        3.569625e+02	        1.765729e-01
        3.609607e+02	        1.707769e-01
        3.650036e+02	        1.655756e-01
        3.690918e+02	        1.604481e-01
        3.732258e+02	        1.554737e-01
        3.774062e+02	        1.504449e-01
        3.816333e+02	        1.453617e-01
        3.859078e+02	        1.405683e-01
        3.902301e+02	        1.359540e-01
        3.946009e+02	        1.312894e-01
        3.990206e+02	        1.265707e-01
        4.034898e+02	        1.219478e-01
        4.080091e+02	        1.177279e-01
        4.125790e+02	        1.137969e-01
        4.172001e+02	        1.098219e-01
        4.218730e+02	        1.058024e-01
        4.265982e+02	        1.017388e-01
        4.313763e+02	        9.776020e-02
        4.362079e+02	        9.391248e-02
        4.410936e+02	        9.022561e-02
        4.460341e+02	        8.658519e-02
        4.510299e+02	        8.290738e-02
        4.560817e+02	        7.932762e-02
        4.611900e+02	        7.573122e-02
        4.663556e+02	        7.209564e-02
        4.715790e+02	        6.842021e-02
        4.768609e+02	        6.490888e-02
        4.822020e+02	        6.153868e-02
        4.876029e+02	        5.815738e-02
        4.930643e+02	        5.468738e-02
        4.985868e+02	        5.111039e-02
        5.041712e+02	        4.749476e-02
        5.098182e+02	        4.373001e-02
        5.155284e+02	        3.985879e-02
        5.213026e+02	        3.731939e-02
        5.271414e+02	        3.657900e-02
        5.330457e+02	        3.582948e-02
        5.390161e+02	        3.507026e-02
        5.450533e+02	        3.430231e-02
        5.511582e+02	        3.352410e-02
        5.573314e+02	        3.273207e-02
        5.635738e+02	        3.209674e-02
        5.698861e+02	        3.152241e-02
        5.762691e+02	        3.094245e-02
        5.827236e+02	        3.035425e-02
        5.892504e+02	        2.976179e-02
        5.958503e+02	        2.916312e-02
        6.025241e+02	        2.855816e-02
        6.092727e+02	        2.798350e-02
        6.160968e+02	        2.745316e-02
        6.229974e+02	        2.691718e-02
        6.299753e+02	        2.637764e-02
        6.370313e+02	        2.583559e-02
        6.441664e+02	        2.528827e-02
        6.513814e+02	        2.473484e-02
        6.586772e+02	        2.425744e-02
        6.660547e+02	        2.380167e-02
        6.735148e+02	        2.334085e-02
        6.810585e+02	        2.287035e-02
        6.886867e+02	        2.238952e-02
        6.964003e+02	        2.190969e-02
        7.042004e+02	        2.144958e-02
        7.120878e+02	        2.106837e-02
        7.200635e+02	        2.068427e-02
        7.281286e+02	        2.029669e-02
        7.362840e+02	        1.990521e-02
        7.445307e+02	        1.950962e-02
        7.528698e+02	        1.910792e-02
        7.613023e+02	        1.871951e-02
        7.698293e+02	        1.835186e-02
        7.784518e+02	        1.798121e-02
        7.871708e+02	        1.760749e-02
        7.959875e+02	        1.723005e-02
        8.049030e+02	        1.684871e-02
        8.139183e+02	        1.651502e-02
        8.230346e+02	        1.620412e-02
        8.322529e+02	        1.588349e-02
        8.415746e+02	        1.556032e-02
        8.510006e+02	        1.523281e-02
        8.605323e+02	        1.490107e-02
        8.701706e+02	        1.460093e-02
        8.799170e+02	        1.431467e-02
        8.897725e+02	        1.402552e-02
        8.997384e+02	        1.373337e-02
        9.098159e+02	        1.343427e-02
        9.200063e+02	        1.314160e-02
        9.303108e+02	        1.288295e-02
        9.407307e+02	        1.262972e-02
        9.512674e+02	        1.237470e-02
        9.619221e+02	        1.211728e-02
        9.726961e+02	        1.185725e-02
        9.835907e+02	        1.160311e-02
        9.946074e+02	        1.135750e-02
        1.005748e+03	        1.111311e-02
        1.017012e+03	        1.086967e-02
        1.028403e+03	        1.062553e-02
        1.039922e+03	        1.038761e-02
        1.051570e+03	        1.017703e-02
        1.063348e+03	        9.964374e-03
        1.075258e+03	        9.744943e-03
        1.087301e+03	        9.524106e-03
        1.099480e+03	        9.302418e-03
        1.111794e+03	        9.100690e-03
        1.124247e+03	        8.902025e-03
        1.136839e+03	        8.701858e-03
        1.149572e+03	        8.500187e-03
        1.162448e+03	        8.258843e-03
        1.175468e+03	        8.037960e-03
        1.188634e+03	        7.825675e-03
        1.201947e+03	        7.619926e-03
        1.215409e+03	        7.415340e-03
        1.229023e+03	        7.221549e-03
        1.242788e+03	        7.032735e-03
        1.256708e+03	        6.844103e-03
        1.270784e+03	        6.654317e-03
        1.285017e+03	        6.484720e-03
        1.299410e+03	        6.316762e-03
        1.313964e+03	        6.147738e-03
        1.328681e+03	        5.977896e-03
        1.343563e+03	        5.813841e-03
        1.358612e+03	        5.654202e-03
        1.373829e+03	        5.496015e-03
        1.389216e+03	        5.339259e-03
        1.404776e+03	        5.184886e-03
        1.420510e+03	        5.029489e-03
        1.436421e+03	        4.872825e-03
        1.452509e+03	        4.712868e-03
        1.468778e+03	        4.554826e-03
        1.485229e+03	        4.395498e-03
        1.501865e+03	        4.235309e-03
        1.518686e+03	        4.070149e-03
        1.535696e+03	        3.890696e-03
        1.552897e+03	        3.667931e-03
        1.570290e+03	        3.254928e-03
        1.587878e+03	        3.194794e-03
        1.605663e+03	        3.136431e-03
        1.623647e+03	        3.087975e-03
        1.641833e+03	        3.039803e-03
        1.660222e+03	        2.992204e-03
        1.678818e+03	        2.944119e-03
        1.697621e+03	        2.895516e-03
        1.716635e+03	        2.847005e-03
        1.735863e+03	        2.799100e-03
        1.755305e+03	        2.753029e-03
        1.774965e+03	        2.706840e-03
        1.794846e+03	        2.662312e-03
        1.814949e+03	        2.617955e-03
        1.835277e+03	        2.573232e-03
        1.855833e+03	        2.528024e-03
        1.876620e+03	        2.482321e-03
        1.897639e+03	        2.436239e-03
        1.918893e+03	        2.391060e-03
        1.940386e+03	        2.346231e-03
        1.962119e+03	        2.306158e-03
        1.984096e+03	        2.266586e-03
        2.006319e+03	        2.226596e-03
        2.028790e+03	        2.186223e-03
        2.051514e+03	        2.145454e-03
        2.074492e+03	        2.105989e-03
        2.097727e+03	        2.067254e-03
        2.121223e+03	        2.028635e-03
        2.144981e+03	        1.993868e-03
        2.169006e+03	        1.959579e-03
        2.193300e+03	        1.924930e-03
        2.217866e+03	        1.890125e-03
        2.242707e+03	        1.855628e-03
        2.267827e+03	        1.820934e-03
        2.293228e+03	        1.786312e-03
        2.318913e+03	        1.751568e-03
        2.344886e+03	        1.718034e-03
        2.371150e+03	        1.685046e-03
        2.397708e+03	        1.652213e-03
        2.424563e+03	        1.620154e-03
        2.451720e+03	        1.587763e-03
        2.479180e+03	        1.555039e-03
        2.506948e+03	        1.523647e-03
        2.535027e+03	        1.493251e-03
        2.563421e+03	        1.465834e-03
        2.592132e+03	        1.438275e-03
        2.621165e+03	        1.410619e-03
        2.650524e+03	        1.382656e-03
        2.680211e+03	        1.354381e-03
        2.710231e+03	        1.325793e-03
        2.740587e+03	        1.298350e-03
        2.771282e+03	        1.273138e-03
        2.802322e+03	        1.249415e-03
        2.833710e+03	        1.225415e-03
        2.865449e+03	        1.201147e-03
        2.897543e+03	        1.176607e-03
        2.929997e+03	        1.151842e-03
        2.962814e+03	        1.127145e-03
        2.995999e+03	        1.103439e-03
        3.029556e+03	        1.082524e-03
        3.063488e+03	        1.061378e-03
        3.097801e+03	        1.039996e-03
        3.132498e+03	        1.018376e-03
        3.167583e+03	        9.970300e-04
        3.203062e+03	        9.760347e-04
        3.238938e+03	        9.548242e-04
        3.275216e+03	        9.348547e-04
        3.311900e+03	        9.155221e-04
        3.348994e+03	        8.960183e-04
        3.386505e+03	        8.766793e-04
        3.424435e+03	        8.572210e-04
        3.462791e+03	        8.375788e-04
        3.501576e+03	        8.184421e-04
        3.540795e+03	        8.003465e-04
        3.580454e+03	        7.833601e-04
        3.620557e+03	        7.668385e-04
        3.661109e+03	        7.505464e-04
        3.702115e+03	        7.340719e-04
        3.743580e+03	        7.174536e-04
        3.785510e+03	        7.014876e-04
        3.827910e+03	        6.855400e-04
        3.870784e+03	        6.695978e-04
        3.914139e+03	        6.541155e-04
        3.957979e+03	        6.392058e-04
        4.002311e+03	        6.242262e-04
        4.047138e+03	        6.105595e-04
        4.092468e+03	        5.970061e-04
        4.138306e+03	        5.836021e-04
        4.184657e+03	        5.701266e-04
        4.231527e+03	        5.567962e-04
        4.278923e+03	        5.438672e-04
        4.326849e+03	        5.310336e-04
        4.375311e+03	        5.183689e-04
        4.424317e+03	        5.056351e-04
        4.473872e+03	        4.928216e-04
        4.523981e+03	        4.798535e-04
        4.574652e+03	        4.672111e-04
        4.625890e+03	        4.556690e-04
        4.677703e+03	        4.445684e-04
        4.730095e+03	        4.336047e-04
        4.783075e+03	        4.225183e-04
        4.836647e+03	        4.112193e-04
        4.890820e+03	        4.001856e-04
        4.945600e+03	        3.891491e-04
        5.000993e+03	        3.779253e-04
        5.057007e+03	        3.663776e-04
        5.113648e+03	        3.531360e-04
        5.170923e+03	        3.412347e-04
        5.228840e+03	        3.327740e-04
        5.287405e+03	        3.244286e-04
        5.346627e+03	        3.159920e-04
        5.406512e+03	        3.075066e-04
        5.467067e+03	        2.997631e-04
        5.528301e+03	        2.920914e-04
        5.590221e+03	        2.844988e-04
        5.652834e+03	        2.769175e-04
        5.716149e+03	        2.693452e-04
        5.780172e+03	        2.617612e-04
        5.844913e+03	        2.541270e-04
        5.910379e+03	        2.465902e-04
        5.976578e+03	        2.392846e-04
        6.043519e+03	        2.321154e-04
        6.111209e+03	        2.246617e-04
        6.179658e+03	        2.168871e-04
        6.248873e+03	        2.075274e-04
        6.318863e+03	        2.015302e-04
        6.389638e+03	        1.955932e-04
        6.461205e+03	        1.898053e-04
        6.533574e+03	        1.840318e-04
        6.606753e+03	        1.781568e-04
        6.680752e+03	        1.723879e-04
        6.755579e+03	        1.666081e-04
        6.831245e+03	        1.608235e-04
        6.907759e+03	        1.549153e-04
        6.985129e+03	        1.490325e-04
        7.063366e+03	        1.429373e-04
        7.142479e+03	        1.363491e-04
        7.222478e+03	        1.292247e-04
        7.303374e+03	        1.198798e-04
        7.385175e+03	        1.085113e-04
        7.467893e+03	        1.058089e-04
        7.551537e+03	        1.032552e-04
        7.636118e+03	        1.008005e-04
        7.721646e+03	        9.839206e-05
        7.808132e+03	        9.601412e-05
        7.895587e+03	        9.361351e-05
        7.984022e+03	        9.118631e-05
        8.073446e+03	        8.889014e-05
        8.163873e+03	        8.671544e-05
        8.255312e+03	        8.452171e-05
        8.347776e+03	        8.229029e-05
        8.441275e+03	        8.003532e-05
        8.535822e+03	        7.775479e-05
        8.631427e+03	        7.551252e-05
        8.728103e+03	        7.327645e-05
        8.825862e+03	        7.103143e-05
        8.924716e+03	        6.883504e-05
        9.024678e+03	        6.675871e-05
        9.125758e+03	        6.472828e-05
        9.227971e+03	        6.269988e-05
        9.331329e+03	        6.059833e-05
        9.435845e+03	        5.840602e-05
        9.541531e+03	        5.611028e-05
        9.648401e+03	        5.286115e-05
        9.756468e+03	        5.140643e-05
        9.865745e+03	        4.997139e-05
        9.976246e+03	        4.853321e-05
        1.008798e+04	        4.708061e-05
        1.020098e+04	        4.566193e-05
        1.031523e+04	        4.428914e-05
        1.043077e+04	        4.291679e-05
        1.054760e+04	        4.160627e-05
        1.066573e+04	        4.029466e-05
        1.078520e+04	        3.896032e-05
        1.090600e+04	        3.761683e-05
        1.102815e+04	        3.630657e-05
        1.115167e+04	        3.498288e-05
        1.127657e+04	        3.369143e-05
        1.140288e+04	        3.243287e-05
        1.153059e+04	        3.112971e-05
        1.165974e+04	        2.978701e-05
        1.179034e+04	        2.836836e-05
        1.192240e+04	        2.672314e-05
        1.205593e+04	        2.449358e-05
        1.219096e+04	        2.372258e-05
        1.232751e+04	        2.301718e-05
        1.246558e+04	        2.230858e-05
        1.260520e+04	        2.159084e-05
        1.274639e+04	        2.086373e-05
        1.288915e+04	        2.012656e-05
        1.303352e+04	        1.938376e-05
        1.317950e+04	        1.860316e-05
        1.332712e+04	        1.783800e-05
        1.347639e+04	        1.712266e-05
        1.362733e+04	        1.637786e-05
        1.377996e+04	        1.557392e-05
        1.393431e+04	        1.471253e-05
        1.409038e+04	        1.369376e-05
        1.424820e+04	        1.270678e-05
        1.440778e+04	        1.239434e-05
        1.456916e+04	        1.207994e-05
        1.473234e+04	        1.176249e-05
        1.489735e+04	        1.144312e-05
        1.506421e+04	        1.112056e-05
        1.523293e+04	        1.080656e-05
        1.540355e+04	        1.049806e-05
        1.557608e+04	        1.018893e-05
        1.575054e+04	        9.875117e-06
        1.592695e+04	        9.555098e-06
        1.610534e+04	        9.233080e-06
        1.628573e+04	        8.936617e-06
        1.646814e+04	        8.628647e-06
        1.665259e+04	        8.265651e-06
        1.683910e+04	        8.034340e-06
        1.702771e+04	        7.801103e-06
        1.721843e+04	        7.569325e-06
        1.741128e+04	        7.367679e-06
        1.760630e+04	        7.164779e-06
        1.780350e+04	        6.959740e-06
        1.800291e+04	        6.752597e-06
        1.820455e+04	        6.543993e-06
        1.840845e+04	        6.343415e-06
        1.861463e+04	        6.146970e-06
        1.882312e+04	        5.946928e-06
        1.903395e+04	        5.738967e-06
        1.924714e+04	        5.536513e-06
        1.946272e+04	        5.358647e-06
        1.968071e+04	        5.190124e-06
        1.990114e+04	        5.019337e-06
        2.012405e+04	        4.846472e-06
        2.034945e+04	        4.670018e-06
        2.057737e+04	        4.510174e-06
        2.080785e+04	        4.350874e-06
        2.104091e+04	        4.188467e-06
        2.127657e+04	        4.020348e-06
        2.151488e+04	        3.846991e-06
        2.175586e+04	        3.688616e-06
        2.199954e+04	        3.551265e-06
        2.224594e+04	        3.412468e-06
        2.249511e+04	        3.275321e-06
        2.274706e+04	        3.144122e-06
        2.300184e+04	        3.011201e-06
        2.325947e+04	        2.877064e-06
        2.351999e+04	        2.747450e-06
        2.378343e+04	        2.623292e-06
        2.404981e+04	        2.498072e-06
        2.431918e+04	        2.372006e-06
        2.459157e+04	        2.246571e-06
        2.486701e+04	        2.119667e-06
        2.514553e+04	        1.992810e-06
        2.542717e+04	        1.871694e-06
        2.571197e+04	        1.748003e-06
        2.599996e+04	        1.617460e-06
        2.629117e+04	        1.495737e-06
        2.658564e+04	        1.369470e-06
        2.688341e+04	        1.237271e-06
        2.718452e+04	        1.094414e-06
        2.748900e+04	        9.415261e-07
        2.779689e+04	        7.783396e-07
        2.810823e+04	        5.730680e-07
        2.842306e+04	        2.033405e-07
        2.874141e+04	        6.310919e-08
        2.906333e+04	        5.740931e-08
        2.938885e+04	        5.114418e-08
        2.971802e+04	        4.402585e-08
        3.005088e+04	        3.746775e-08
        3.038746e+04	        3.006278e-08
        3.072782e+04	        1.991883e-08
        3.107198e+04	        2.847759e-09
        3.142000e+04	        2.627375e-09
        3.177192e+04	        2.385096e-09
        3.212779e+04	        2.084853e-09
        3.248763e+04	        1.799786e-09
        3.285151e+04	        1.616913e-09
        3.321946e+04	        1.396017e-09
        3.359154e+04	        1.022883e-09
        3.396778e+04	        9.654048e-10
        3.434823e+04	        9.178460e-10
        3.473295e+04	        8.669376e-10
        3.512198e+04	        7.875329e-10
        3.551536e+04	        7.575985e-10
        3.591315e+04	        7.268179e-10
        3.631540e+04	        6.949132e-10
        3.672215e+04	        6.636146e-10
        3.713345e+04	        6.309489e-10
        3.754937e+04	        5.901964e-10
        3.796994e+04	        5.576935e-10
        3.839522e+04	        5.352232e-10
        3.882526e+04	        5.108393e-10
        3.926013e+04	        4.880271e-10
        3.969986e+04	        4.654800e-10
        4.014452e+04	        4.367083e-10
        4.059416e+04	        4.181242e-10
        4.104883e+04	        3.989503e-10
        4.150860e+04	        3.769919e-10
        4.197351e+04	        3.605435e-10
        4.244364e+04	        3.403253e-10
        4.291903e+04	        3.193062e-10
        4.339974e+04	        3.080024e-10
        4.388584e+04	        2.957825e-10
        4.437738e+04	        2.848138e-10
        4.487443e+04	        2.736203e-10
        4.537705e+04	        2.610018e-10
        4.588529e+04	        2.530584e-10
        4.639923e+04	        2.449771e-10
        4.691893e+04	        2.372094e-10
        4.744444e+04	        2.294343e-10
        4.797584e+04	        2.214763e-10
        4.851319e+04	        2.144064e-10
        4.905657e+04	        2.072773e-10
        4.960602e+04	        2.000524e-10
        5.016164e+04	        1.923830e-10
        5.072347e+04	        1.853817e-10
        5.129160e+04	        1.783080e-10
        5.186609e+04	        1.721614e-10
        5.244702e+04	        1.658783e-10
        5.303445e+04	        1.596118e-10
        5.362846e+04	        1.531038e-10
        5.422913e+04	        1.468154e-10
        5.483652e+04	        1.405489e-10
        5.545071e+04	        1.343836e-10
        5.607179e+04	        1.278833e-10
        5.669982e+04	        1.219912e-10
        5.733489e+04	        1.167602e-10
        5.797707e+04	        1.114058e-10
        5.862644e+04	        1.052011e-10
        5.928308e+04	        1.004012e-10
        5.994708e+04	        9.603285e-11
        6.061852e+04	        9.181475e-11
        6.129748e+04	        8.711285e-11
        6.198404e+04	        8.326949e-11
        6.267829e+04	        7.914944e-11
        6.338032e+04	        7.453022e-11
        6.409021e+04	        7.024513e-11
        6.480805e+04	        6.730264e-11
        6.553393e+04	        6.449387e-11
        6.626795e+04	        6.144702e-11
        6.701018e+04	        5.903807e-11
        6.776073e+04	        5.655679e-11
        6.851968e+04	        5.386530e-11
        6.928713e+04	        5.164417e-11
        7.006318e+04	        4.947292e-11
        7.084793e+04	        4.724047e-11
        7.164146e+04	        4.503269e-11
        7.244388e+04	        4.293209e-11
        7.325529e+04	        4.082974e-11
        7.407578e+04	        3.873089e-11
        7.490547e+04	        3.674047e-11
        7.574444e+04	        3.469905e-11
        7.659282e+04	        3.266396e-11
        7.745070e+04	        3.072304e-11
        7.831818e+04	        2.877581e-11
        7.919539e+04	        2.687789e-11
        8.008241e+04	        2.498284e-11
        8.097938e+04	        2.289090e-11
        8.188638e+04	        2.083774e-11
        8.280355e+04	        1.884531e-11
        8.373099e+04	        1.678486e-11
        8.466882e+04	        1.491266e-11
        8.561715e+04	        1.266151e-11
        8.657611e+04	        1.086103e-11
        8.754580e+04	        8.859165e-12
        8.852636e+04	        7.030746e-12
        8.951790e+04	        5.828471e-12
        9.052054e+04	        4.579170e-12
        9.153442e+04	        3.145443e-12
        9.255965e+04	        1.382021e-12
        9.359636e+04	        2.626993e-13
        9.464469e+04	        1.685845e-13
        9.570475e+04	        1.542492e-13
        9.677669e+04	        1.396376e-13
        9.786064e+04	        1.240603e-13
        9.895673e+04	        1.078736e-13
        1.000651e+05	        8.915880e-14
        1.011859e+05	        6.539350e-14
        1.023192e+05	        2.796805e-14
        1.034652e+05	        1.402780e-14
        1.046241e+05	        4.172749e-15
        1.057959e+05	        0.000000e+00
        1.069809e+05	        0.000000e+00
        1.081791e+05	        0.000000e+00
        1.093908e+05	        0.000000e+00

# -------------------------------------------------------------------------------
# Curve 1: LET spectrum with Flares
# Params: 0 5 #169ced 2 1
#	LET (MeV.cm^2.g^{-1})		Flux (cm^{-2}.s^{-1})
# -------------------------------------------------------------------------------
        1.608960e+00	        3.969146e+04
        1.626982e+00	        3.969146e+04
        1.645205e+00	        3.969146e+04
        1.663632e+00	        3.969146e+04
        1.682265e+00	        3.969135e+04
        1.701107e+00	        3.969121e+04
        1.720161e+00	        3.969112e+04
        1.739427e+00	        3.969106e+04
        1.758910e+00	        3.969100e+04
        1.778610e+00	        3.969096e+04
        1.798532e+00	        3.969092e+04
        1.818676e+00	        3.969065e+04
        1.839046e+00	        3.969020e+04
        1.859644e+00	        3.968965e+04
        1.880473e+00	        3.968877e+04
        1.901536e+00	        3.968789e+04
        1.922834e+00	        3.968689e+04
        1.944370e+00	        3.968583e+04
        1.966148e+00	        3.968476e+04
        1.988170e+00	        3.968360e+04
        2.010439e+00	        3.968238e+04
        2.032956e+00	        3.968116e+04
        2.055727e+00	        3.967984e+04
        2.078752e+00	        3.967833e+04
        2.102035e+00	        3.967681e+04
        2.125579e+00	        3.967528e+04
        2.149386e+00	        3.967353e+04
        2.173460e+00	        3.967163e+04
        2.197804e+00	        3.966971e+04
        2.222421e+00	        3.966777e+04
        2.247313e+00	        3.966572e+04
        2.272484e+00	        3.966357e+04
        2.297937e+00	        3.966139e+04
        2.323675e+00	        3.965919e+04
        2.349701e+00	        3.965696e+04
        2.376019e+00	        3.965411e+04
        2.402632e+00	        3.965089e+04
        2.429542e+00	        3.964763e+04
        2.456754e+00	        3.964433e+04
        2.484271e+00	        3.964103e+04
        2.512096e+00	        3.963788e+04
        2.540233e+00	        3.963470e+04
        2.568685e+00	        3.963149e+04
        2.597455e+00	        3.962824e+04
        2.626548e+00	        3.962495e+04
        2.655967e+00	        3.962162e+04
        2.685715e+00	        3.961661e+04
        2.715796e+00	        3.961149e+04
        2.746214e+00	        3.960632e+04
        2.776973e+00	        3.960109e+04
        2.808077e+00	        3.959580e+04
        2.839529e+00	        3.958986e+04
        2.871333e+00	        3.958364e+04
        2.903493e+00	        3.957735e+04
        2.936014e+00	        3.957098e+04
        2.968899e+00	        3.956455e+04
        3.002152e+00	        3.955804e+04
        3.035777e+00	        3.955017e+04
        3.069779e+00	        3.954200e+04
        3.104162e+00	        3.953374e+04
        3.138931e+00	        3.952538e+04
        3.174088e+00	        3.951694e+04
        3.209640e+00	        3.950840e+04
        3.245589e+00	        3.949991e+04
        3.281941e+00	        3.949136e+04
        3.318701e+00	        3.948271e+04
        3.355872e+00	        3.947396e+04
        3.393459e+00	        3.946512e+04
        3.431468e+00	        3.945617e+04
        3.469902e+00	        3.944713e+04
        3.508766e+00	        3.943732e+04
        3.548066e+00	        3.942720e+04
        3.587806e+00	        3.941696e+04
        3.627992e+00	        3.940661e+04
        3.668627e+00	        3.939614e+04
        3.709717e+00	        3.938556e+04
        3.751268e+00	        3.937489e+04
        3.793284e+00	        3.936528e+04
        3.835771e+00	        3.935556e+04
        3.878733e+00	        3.934573e+04
        3.922177e+00	        3.933580e+04
        3.966107e+00	        3.932575e+04
        4.010530e+00	        3.931559e+04
        4.055449e+00	        3.930532e+04
        4.100872e+00	        3.929406e+04
        4.146804e+00	        3.928061e+04
        4.193250e+00	        3.926701e+04
        4.240217e+00	        3.925326e+04
        4.287709e+00	        3.923936e+04
        4.335734e+00	        3.922530e+04
        4.384296e+00	        3.921108e+04
        4.433403e+00	        3.919884e+04
        4.483059e+00	        3.918653e+04
        4.533271e+00	        3.917407e+04
        4.584046e+00	        3.916148e+04
        4.635390e+00	        3.914875e+04
        4.687308e+00	        3.913588e+04
        4.739809e+00	        3.912286e+04
        4.792897e+00	        3.910970e+04
        4.846580e+00	        3.909338e+04
        4.900864e+00	        3.907642e+04
        4.955756e+00	        3.905927e+04
        5.011263e+00	        3.904193e+04
        5.067391e+00	        3.902439e+04
        5.124149e+00	        3.900666e+04
        5.181542e+00	        3.898873e+04
        5.239577e+00	        3.897076e+04
        5.298263e+00	        3.895265e+04
        5.357606e+00	        3.893433e+04
        5.417614e+00	        3.891580e+04
        5.478294e+00	        3.889707e+04
        5.539654e+00	        3.887813e+04
        5.601701e+00	        3.885897e+04
        5.664442e+00	        3.883960e+04
        5.727887e+00	        3.881819e+04
        5.792042e+00	        3.879560e+04
        5.856916e+00	        3.877275e+04
        5.922516e+00	        3.874964e+04
        5.988851e+00	        3.872628e+04
        6.055929e+00	        3.870266e+04
        6.123759e+00	        3.867877e+04
        6.192348e+00	        3.865461e+04
        6.261705e+00	        3.862776e+04
        6.331839e+00	        3.859623e+04
        6.402759e+00	        3.856435e+04
        6.474473e+00	        3.853211e+04
        6.546991e+00	        3.849952e+04
        6.620320e+00	        3.846656e+04
        6.694471e+00	        3.843322e+04
        6.769452e+00	        3.839950e+04
        6.845274e+00	        3.836211e+04
        6.921944e+00	        3.832220e+04
        6.999473e+00	        3.828184e+04
        7.077871e+00	        3.824102e+04
        7.157146e+00	        3.819975e+04
        7.237310e+00	        3.815802e+04
        7.318371e+00	        3.811583e+04
        7.400341e+00	        3.807316e+04
        7.483228e+00	        3.802601e+04
        7.567044e+00	        3.797381e+04
        7.651799e+00	        3.792103e+04
        7.737503e+00	        3.786765e+04
        7.824166e+00	        3.781368e+04
        7.911801e+00	        3.775910e+04
        8.000417e+00	        3.770392e+04
        8.090026e+00	        3.764811e+04
        8.180638e+00	        3.759154e+04
        8.272265e+00	        3.752032e+04
        8.364918e+00	        3.744830e+04
        8.458610e+00	        3.737548e+04
        8.553350e+00	        3.730185e+04
        8.649152e+00	        3.722739e+04
        8.746027e+00	        3.715209e+04
        8.843987e+00	        3.707595e+04
        8.943044e+00	        3.699896e+04
        9.043210e+00	        3.690795e+04
        9.144499e+00	        3.680520e+04
        9.246921e+00	        3.670131e+04
        9.350492e+00	        3.659625e+04
        9.455222e+00	        3.649001e+04
        9.561125e+00	        3.638258e+04
        9.668214e+00	        3.627395e+04
        9.776503e+00	        3.616411e+04
        9.886005e+00	        3.605231e+04
        9.996733e+00	        3.593824e+04
        1.010870e+01	        3.582289e+04
        1.022192e+01	        3.570624e+04
        1.033641e+01	        3.558829e+04
        1.045219e+01	        3.546902e+04
        1.056926e+01	        3.534842e+04
        1.068764e+01	        3.522646e+04
        1.080734e+01	        3.510314e+04
        1.092839e+01	        3.497019e+04
        1.105080e+01	        3.480891e+04
        1.117457e+01	        3.464582e+04
        1.129973e+01	        3.448091e+04
        1.142629e+01	        3.431415e+04
        1.155427e+01	        3.414552e+04
        1.168369e+01	        3.397501e+04
        1.181455e+01	        3.380258e+04
        1.194688e+01	        3.363442e+04
        1.208069e+01	        3.348076e+04
        1.221600e+01	        3.332537e+04
        1.235282e+01	        3.316825e+04
        1.249118e+01	        3.300937e+04
        1.263109e+01	        3.284871e+04
        1.277256e+01	        3.268624e+04
        1.291562e+01	        3.252196e+04
        1.306028e+01	        3.235584e+04
        1.320657e+01	        3.218786e+04
        1.335449e+01	        3.198958e+04
        1.350406e+01	        3.176827e+04
        1.365531e+01	        3.154448e+04
        1.380826e+01	        3.131818e+04
        1.396292e+01	        3.108935e+04
        1.411931e+01	        3.085796e+04
        1.427746e+01	        3.062397e+04
        1.443737e+01	        3.038737e+04
        1.459908e+01	        3.016144e+04
        1.476259e+01	        2.993653e+04
        1.492794e+01	        2.970910e+04
        1.509514e+01	        2.947912e+04
        1.526421e+01	        2.924656e+04
        1.543518e+01	        2.901140e+04
        1.560806e+01	        2.877360e+04
        1.578288e+01	        2.853315e+04
        1.595966e+01	        2.829000e+04
        1.613841e+01	        2.804421e+04
        1.631917e+01	        2.779566e+04
        1.650195e+01	        2.754432e+04
        1.668678e+01	        2.729017e+04
        1.687368e+01	        2.703318e+04
        1.706268e+01	        2.677330e+04
        1.725379e+01	        2.651052e+04
        1.744704e+01	        2.624479e+04
        1.764245e+01	        2.599651e+04
        1.784006e+01	        2.575297e+04
        1.803988e+01	        2.550670e+04
        1.824193e+01	        2.525767e+04
        1.844625e+01	        2.500584e+04
        1.865286e+01	        2.475120e+04
        1.886178e+01	        2.449371e+04
        1.907304e+01	        2.423333e+04
        1.928667e+01	        2.397004e+04
        1.950269e+01	        2.371951e+04
        1.972113e+01	        2.346642e+04
        1.994201e+01	        2.321049e+04
        2.016537e+01	        2.295170e+04
        2.039124e+01	        2.269001e+04
        2.061963e+01	        2.242539e+04
        2.085058e+01	        2.215780e+04
        2.108411e+01	        2.188722e+04
        2.132027e+01	        2.162645e+04
        2.155906e+01	        2.138302e+04
        2.180054e+01	        2.113688e+04
        2.204471e+01	        2.088797e+04
        2.229162e+01	        2.063628e+04
        2.254130e+01	        2.038177e+04
        2.279378e+01	        2.012440e+04
        2.304908e+01	        1.986416e+04
        2.330724e+01	        1.960100e+04
        2.356829e+01	        1.932390e+04
        2.383227e+01	        1.903430e+04
        2.409920e+01	        1.874145e+04
        2.436912e+01	        1.844532e+04
        2.464207e+01	        1.814587e+04
        2.491807e+01	        1.784308e+04
        2.519717e+01	        1.753688e+04
        2.547939e+01	        1.724366e+04
        2.576477e+01	        1.702171e+04
        2.605335e+01	        1.679728e+04
        2.634516e+01	        1.657034e+04
        2.664024e+01	        1.634085e+04
        2.693862e+01	        1.610879e+04
        2.724035e+01	        1.587413e+04
        2.754545e+01	        1.563684e+04
        2.785397e+01	        1.539690e+04
        2.816595e+01	        1.515427e+04
        2.848142e+01	        1.491324e+04
        2.880043e+01	        1.466961e+04
        2.912301e+01	        1.442325e+04
        2.944920e+01	        1.417414e+04
        2.977905e+01	        1.392223e+04
        3.011259e+01	        1.366750e+04
        3.044986e+01	        1.340992e+04
        3.079092e+01	        1.314945e+04
        3.113579e+01	        1.293540e+04
        3.148453e+01	        1.272538e+04
        3.183717e+01	        1.251300e+04
        3.219376e+01	        1.229825e+04
        3.255435e+01	        1.208109e+04
        3.291897e+01	        1.186150e+04
        3.328768e+01	        1.163945e+04
        3.366052e+01	        1.141491e+04
        3.403753e+01	        1.120215e+04
        3.441877e+01	        1.102523e+04
        3.480428e+01	        1.084633e+04
        3.519410e+01	        1.066543e+04
        3.558829e+01	        1.048250e+04
        3.598690e+01	        1.029752e+04
        3.638997e+01	        1.011047e+04
        3.679756e+01	        9.921324e+03
        3.720971e+01	        9.730059e+03
        3.762647e+01	        9.540639e+03
        3.804791e+01	        9.362175e+03
        3.847406e+01	        9.181712e+03
        3.890499e+01	        8.999227e+03
        3.934075e+01	        8.814699e+03
        3.978138e+01	        8.628105e+03
        4.022696e+01	        8.439421e+03
        4.067752e+01	        8.248624e+03
        4.113313e+01	        8.069044e+03
        4.159384e+01	        7.922491e+03
        4.205971e+01	        7.774296e+03
        4.253080e+01	        7.624442e+03
        4.300716e+01	        7.472909e+03
        4.348887e+01	        7.319678e+03
        4.397596e+01	        7.164731e+03
        4.446851e+01	        7.008047e+03
        4.496658e+01	        6.849609e+03
        4.547023e+01	        6.716786e+03
        4.597952e+01	        6.590635e+03
        4.649451e+01	        6.463071e+03
        4.701528e+01	        6.334078e+03
        4.754187e+01	        6.203641e+03
        4.807436e+01	        6.071744e+03
        4.861282e+01	        5.938370e+03
        4.915731e+01	        5.803502e+03
        4.970789e+01	        5.671984e+03
        5.026464e+01	        5.563613e+03
        5.082763e+01	        5.454029e+03
        5.139693e+01	        5.343217e+03
        5.197260e+01	        5.231164e+03
        5.255472e+01	        5.117856e+03
        5.314336e+01	        5.003279e+03
        5.373859e+01	        4.887416e+03
        5.434049e+01	        4.770256e+03
        5.494913e+01	        4.664725e+03
        5.556458e+01	        4.564614e+03
        5.618694e+01	        4.463383e+03
        5.681626e+01	        4.361017e+03
        5.745263e+01	        4.257505e+03
        5.809612e+01	        4.152834e+03
        5.874683e+01	        4.046991e+03
        5.940482e+01	        3.939963e+03
        6.007019e+01	        3.853063e+03
        6.074300e+01	        3.771153e+03
        6.142335e+01	        3.688325e+03
        6.211133e+01	        3.604570e+03
        6.280700e+01	        3.519876e+03
        6.351047e+01	        3.434234e+03
        6.422182e+01	        3.347633e+03
        6.494114e+01	        3.260061e+03
        6.566851e+01	        3.181787e+03
        6.640403e+01	        3.107791e+03
        6.714779e+01	        3.032965e+03
        6.789988e+01	        2.957302e+03
        6.866039e+01	        2.880791e+03
        6.942942e+01	        2.803423e+03
        7.020706e+01	        2.725188e+03
        7.099342e+01	        2.649962e+03
        7.178858e+01	        2.599179e+03
        7.259264e+01	        2.547827e+03
        7.340572e+01	        2.495899e+03
        7.422790e+01	        2.443391e+03
        7.505929e+01	        2.390294e+03
        7.589999e+01	        2.336602e+03
        7.675011e+01	        2.282309e+03
        7.760974e+01	        2.227408e+03
        7.847901e+01	        2.172667e+03
        7.935802e+01	        2.120682e+03
        8.024686e+01	        2.068113e+03
        8.114567e+01	        2.014957e+03
        8.205454e+01	        1.961204e+03
        8.297359e+01	        1.906850e+03
        8.390294e+01	        1.851887e+03
        8.484269e+01	        1.796309e+03
        8.579297e+01	        1.757349e+03
        8.675389e+01	        1.718837e+03
        8.772558e+01	        1.679894e+03
        8.870815e+01	        1.640514e+03
        8.970173e+01	        1.600694e+03
        9.070643e+01	        1.560427e+03
        9.172239e+01	        1.519710e+03
        9.274972e+01	        1.478536e+03
        9.378856e+01	        1.444657e+03
        9.483904e+01	        1.411582e+03
        9.590129e+01	        1.378137e+03
        9.697543e+01	        1.344318e+03
        9.806160e+01	        1.310119e+03
        9.915994e+01	        1.275538e+03
        1.002706e+02	        1.240571e+03
        1.013937e+02	        1.206268e+03
        1.025293e+02	        1.178892e+03
        1.036777e+02	        1.151210e+03
        1.048389e+02	        1.123218e+03
        1.060132e+02	        1.094913e+03
        1.072006e+02	        1.066290e+03
        1.084013e+02	        1.037346e+03
        1.096154e+02	        1.008079e+03
        1.108432e+02	        9.824771e+02
        1.120847e+02	        9.602119e+02
        1.133401e+02	        9.376973e+02
        1.146095e+02	        9.149305e+02
        1.158932e+02	        8.919088e+02
        1.171913e+02	        8.686293e+02
        1.185039e+02	        8.450890e+02
        1.198312e+02	        8.212851e+02
        1.211734e+02	        8.016198e+02
        1.225306e+02	        7.824738e+02
        1.239030e+02	        7.631133e+02
        1.252907e+02	        7.435361e+02
        1.266941e+02	        7.237395e+02
        1.281131e+02	        7.037213e+02
        1.295480e+02	        6.834788e+02
        1.309990e+02	        6.645709e+02
        1.324663e+02	        6.468524e+02
        1.339500e+02	        6.289390e+02
        1.354503e+02	        6.108249e+02
        1.369674e+02	        5.925079e+02
        1.385015e+02	        5.739858e+02
        1.400528e+02	        5.554398e+02
        1.416214e+02	        5.424184e+02
        1.432077e+02	        5.292511e+02
        1.448117e+02	        5.159364e+02
        1.464336e+02	        5.024725e+02
        1.480737e+02	        4.888588e+02
        1.497322e+02	        4.750927e+02
        1.514093e+02	        4.611723e+02
        1.531052e+02	        4.490201e+02
        1.548200e+02	        4.371257e+02
        1.565541e+02	        4.250981e+02
        1.583076e+02	        4.129358e+02
        1.600807e+02	        4.006373e+02
        1.618737e+02	        3.882046e+02
        1.636867e+02	        3.763712e+02
        1.655201e+02	        3.664576e+02
        1.673740e+02	        3.564330e+02
        1.692487e+02	        3.462961e+02
        1.711444e+02	        3.360456e+02
        1.730613e+02	        3.256803e+02
        1.749996e+02	        3.151990e+02
        1.769597e+02	        3.070172e+02
        1.789418e+02	        2.992728e+02
        1.809460e+02	        2.914417e+02
        1.829727e+02	        2.835230e+02
        1.850221e+02	        2.755155e+02
        1.870944e+02	        2.674183e+02
        1.891900e+02	        2.592399e+02
        1.913090e+02	        2.518648e+02
        1.934517e+02	        2.444072e+02
        1.956185e+02	        2.368677e+02
        1.978095e+02	        2.292444e+02
        2.000251e+02	        2.215356e+02
        2.022655e+02	        2.140035e+02
        2.045309e+02	        2.081400e+02
        2.068218e+02	        2.022107e+02
        2.091383e+02	        1.962151e+02
        2.114807e+02	        1.901523e+02
        2.138494e+02	        1.840219e+02
        2.162446e+02	        1.778295e+02
        2.186667e+02	        1.729901e+02
        2.211159e+02	        1.680964e+02
        2.235925e+02	        1.631479e+02
        2.260968e+02	        1.581441e+02
        2.286292e+02	        1.530841e+02
        2.311900e+02	        1.479675e+02
        2.337794e+02	        1.437270e+02
        2.363979e+02	        1.395873e+02
        2.390456e+02	        1.354012e+02
        2.417231e+02	        1.311682e+02
        2.444305e+02	        1.268877e+02
        2.471682e+02	        1.225593e+02
        2.499366e+02	        1.188197e+02
        2.527360e+02	        1.151535e+02
        2.555668e+02	        1.114462e+02
        2.584293e+02	        1.076985e+02
        2.613238e+02	        1.039089e+02
        2.642508e+02	        1.002444e+02
        2.672105e+02	        9.734095e+01
        2.702034e+02	        9.440497e+01
        2.732298e+02	        9.143610e+01
        2.762901e+02	        8.843398e+01
        2.793847e+02	        8.539850e+01
        2.825139e+02	        8.246287e+01
        2.856782e+02	        7.991261e+01
        2.888780e+02	        7.733379e+01
        2.921136e+02	        7.472608e+01
        2.953854e+02	        7.208918e+01
        2.986938e+02	        6.942274e+01
        3.020393e+02	        6.710208e+01
        3.054223e+02	        6.503389e+01
        3.088432e+02	        6.294253e+01
        3.123024e+02	        6.082801e+01
        3.158004e+02	        5.868980e+01
        3.193375e+02	        5.652765e+01
        3.229142e+02	        5.441623e+01
        3.265310e+02	        5.231396e+01
        3.301883e+02	        5.018815e+01
        3.338866e+02	        4.803849e+01
        3.376263e+02	        4.586573e+01
        3.414079e+02	        4.422612e+01
        3.452318e+02	        4.271239e+01
        3.490986e+02	        4.118171e+01
        3.530086e+02	        3.963388e+01
        3.569625e+02	        3.806874e+01
        3.609607e+02	        3.650160e+01
        3.650036e+02	        3.516185e+01
        3.690918e+02	        3.380738e+01
        3.732258e+02	        3.243820e+01
        3.774062e+02	        3.105369e+01
        3.816333e+02	        2.965368e+01
        3.859078e+02	        2.836793e+01
        3.902301e+02	        2.715282e+01
        3.946009e+02	        2.592411e+01
        3.990206e+02	        2.468162e+01
        4.034898e+02	        2.342555e+01
        4.080091e+02	        2.226333e+01
        4.125790e+02	        2.121297e+01
        4.172001e+02	        2.015084e+01
        4.218730e+02	        1.907681e+01
        4.265982e+02	        1.799075e+01
        4.313763e+02	        1.694025e+01
        4.362079e+02	        1.594563e+01
        4.410936e+02	        1.494033e+01
        4.460341e+02	        1.392396e+01
        4.510299e+02	        1.289622e+01
        4.560817e+02	        1.190788e+01
        4.611900e+02	        1.091667e+01
        4.663556e+02	        9.914363e+00
        4.715790e+02	        8.900827e+00
        4.768609e+02	        7.951489e+00
        4.822020e+02	        6.997792e+00
        4.876029e+02	        6.033474e+00
        4.930643e+02	        5.040157e+00
        4.985868e+02	        4.009953e+00
        5.041712e+02	        2.968212e+00
        5.098182e+02	        1.873928e+00
        5.155284e+02	        7.431918e-01
        5.213026e+02	        9.670066e-02
        5.271414e+02	        9.490928e-02
        5.330457e+02	        9.309759e-02
        5.390161e+02	        9.126370e-02
        5.450533e+02	        8.940867e-02
        5.511582e+02	        8.753095e-02
        5.573314e+02	        8.562709e-02
        5.635738e+02	        8.406689e-02
        5.698861e+02	        8.263930e-02
        5.762691e+02	        8.120081e-02
        5.827236e+02	        7.974750e-02
        5.892504e+02	        7.828427e-02
        5.958503e+02	        7.680450e-02
        6.025241e+02	        7.530815e-02
        6.092727e+02	        7.387778e-02
        6.160968e+02	        7.254913e-02
        6.229974e+02	        7.120590e-02
        6.299753e+02	        6.985311e-02
        6.370313e+02	        6.852079e-02
        6.441664e+02	        6.717464e-02
        6.513814e+02	        6.581313e-02
        6.586772e+02	        6.461995e-02
        6.660547e+02	        6.347324e-02
        6.735148e+02	        6.231373e-02
        6.810585e+02	        6.113672e-02
        6.886867e+02	        5.994080e-02
        6.964003e+02	        5.874369e-02
        7.042004e+02	        5.758879e-02
        7.120878e+02	        5.661068e-02
        7.200635e+02	        5.562422e-02
        7.281286e+02	        5.462753e-02
        7.362840e+02	        5.362012e-02
        7.445307e+02	        5.260148e-02
        7.528698e+02	        5.156948e-02
        7.613023e+02	        5.056568e-02
        7.698293e+02	        4.964038e-02
        7.784518e+02	        4.871052e-02
        7.871708e+02	        4.777276e-02
        7.959875e+02	        4.682495e-02
        8.049030e+02	        4.586686e-02
        8.139183e+02	        4.501312e-02
        8.230346e+02	        4.420882e-02
        8.322529e+02	        4.338840e-02
        8.415746e+02	        4.256017e-02
        8.510006e+02	        4.172091e-02
        8.605323e+02	        4.087035e-02
        8.701706e+02	        4.008916e-02
        8.799170e+02	        3.933713e-02
        8.897725e+02	        3.857696e-02
        8.997384e+02	        3.780850e-02
        9.098159e+02	        3.702568e-02
        9.200063e+02	        3.625914e-02
        9.303108e+02	        3.558399e-02
        9.407307e+02	        3.492702e-02
        9.512674e+02	        3.426341e-02
        9.619221e+02	        3.359225e-02
        9.726961e+02	        3.291375e-02
        9.835907e+02	        3.224694e-02
        9.946074e+02	        3.161113e-02
        1.005748e+03	        3.097251e-02
        1.017012e+03	        3.033801e-02
        1.028403e+03	        2.970985e-02
        1.039922e+03	        2.909369e-02
        1.051570e+03	        2.853783e-02
        1.063348e+03	        2.797579e-02
        1.075258e+03	        2.740303e-02
        1.087301e+03	        2.682509e-02
        1.099480e+03	        2.624315e-02
        1.111794e+03	        2.570830e-02
        1.124247e+03	        2.519289e-02
        1.136839e+03	        2.467231e-02
        1.149572e+03	        2.414712e-02
        1.162448e+03	        2.358917e-02
        1.175468e+03	        2.306732e-02
        1.188634e+03	        2.255108e-02
        1.201947e+03	        2.204261e-02
        1.215409e+03	        2.153474e-02
        1.229023e+03	        2.105100e-02
        1.242788e+03	        2.057868e-02
        1.256708e+03	        2.010414e-02
        1.270784e+03	        1.962524e-02
        1.285017e+03	        1.919049e-02
        1.299410e+03	        1.875734e-02
        1.313964e+03	        1.832043e-02
        1.328681e+03	        1.787948e-02
        1.343563e+03	        1.745257e-02
        1.358612e+03	        1.704590e-02
        1.373829e+03	        1.663837e-02
        1.389216e+03	        1.623302e-02
        1.404776e+03	        1.583303e-02
        1.420510e+03	        1.542991e-02
        1.436421e+03	        1.502572e-02
        1.452509e+03	        1.461597e-02
        1.468778e+03	        1.421161e-02
        1.485229e+03	        1.380420e-02
        1.501865e+03	        1.339616e-02
        1.518686e+03	        1.297606e-02
        1.535696e+03	        1.252340e-02
        1.552897e+03	        1.197254e-02
        1.570290e+03	        1.099109e-02
        1.587878e+03	        1.079964e-02
        1.605663e+03	        1.061347e-02
        1.623647e+03	        1.046001e-02
        1.641833e+03	        1.030653e-02
        1.660222e+03	        1.015319e-02
        1.678818e+03	        9.998345e-03
        1.697621e+03	        9.841809e-03
        1.716635e+03	        9.684609e-03
        1.735863e+03	        9.532159e-03
        1.755305e+03	        9.385754e-03
        1.774965e+03	        9.238824e-03
        1.794846e+03	        9.098083e-03
        1.814949e+03	        8.957005e-03
        1.835277e+03	        8.814560e-03
        1.855833e+03	        8.670496e-03
        1.876620e+03	        8.524805e-03
        1.897639e+03	        8.377736e-03
        1.918893e+03	        8.235126e-03
        1.940386e+03	        8.094217e-03
        1.962119e+03	        7.967526e-03
        1.984096e+03	        7.841030e-03
        2.006319e+03	        7.713141e-03
        2.028790e+03	        7.584050e-03
        2.051514e+03	        7.453605e-03
        2.074492e+03	        7.325654e-03
        2.097727e+03	        7.202116e-03
        2.121223e+03	        7.079692e-03
        2.144981e+03	        6.968613e-03
        2.169006e+03	        6.858345e-03
        2.193300e+03	        6.746869e-03
        2.217866e+03	        6.634309e-03
        2.242707e+03	        6.522063e-03
        2.267827e+03	        6.408999e-03
        2.293228e+03	        6.299003e-03
        2.318913e+03	        6.190172e-03
        2.344886e+03	        6.084264e-03
        2.371150e+03	        5.979892e-03
        2.397708e+03	        5.875300e-03
        2.424563e+03	        5.772211e-03
        2.451720e+03	        5.668102e-03
        2.479180e+03	        5.562964e-03
        2.506948e+03	        5.463862e-03
        2.535027e+03	        5.367576e-03
        2.563421e+03	        5.279310e-03
        2.592132e+03	        5.190134e-03
        2.621165e+03	        5.100475e-03
        2.650524e+03	        5.009839e-03
        2.680211e+03	        4.918202e-03
        2.710231e+03	        4.825585e-03
        2.740587e+03	        4.739726e-03
        2.771282e+03	        4.660609e-03
        2.802322e+03	        4.584967e-03
        2.833710e+03	        4.508346e-03
        2.865449e+03	        4.430867e-03
        2.897543e+03	        4.352534e-03
        2.929997e+03	        4.273544e-03
        2.962814e+03	        4.194342e-03
        2.995999e+03	        4.117889e-03
        3.029556e+03	        4.050979e-03
        3.063488e+03	        3.983329e-03
        3.097801e+03	        3.914922e-03
        3.132498e+03	        3.845761e-03
        3.167583e+03	        3.776947e-03
        3.203062e+03	        3.708612e-03
        3.238938e+03	        3.639580e-03
        3.275216e+03	        3.573504e-03
        3.311900e+03	        3.510927e-03
        3.348994e+03	        3.447834e-03
        3.386505e+03	        3.384945e-03
        3.424435e+03	        3.321517e-03
        3.462791e+03	        3.257432e-03
        3.501576e+03	        3.194630e-03
        3.540795e+03	        3.134198e-03
        3.580454e+03	        3.077755e-03
        3.620557e+03	        3.023791e-03
        3.661109e+03	        2.970221e-03
        3.702115e+03	        2.916051e-03
        3.743580e+03	        2.861367e-03
        3.785510e+03	        2.808450e-03
        3.827910e+03	        2.755468e-03
        3.870784e+03	        2.701956e-03
        3.914139e+03	        2.649759e-03
        3.957979e+03	        2.600125e-03
        4.002311e+03	        2.550544e-03
        4.047138e+03	        2.504445e-03
        4.092468e+03	        2.458536e-03
        4.138306e+03	        2.412686e-03
        4.184657e+03	        2.366384e-03
        4.231527e+03	        2.319946e-03
        4.278923e+03	        2.275134e-03
        4.326849e+03	        2.230755e-03
        4.375311e+03	        2.186800e-03
        4.424317e+03	        2.142503e-03
        4.473872e+03	        2.097831e-03
        4.523981e+03	        2.052767e-03
        4.574652e+03	        2.008442e-03
        4.625890e+03	        1.966965e-03
        4.677703e+03	        1.927851e-03
        4.730095e+03	        1.889682e-03
        4.783075e+03	        1.851087e-03
        4.836647e+03	        1.811827e-03
        4.890820e+03	        1.773200e-03
        4.945600e+03	        1.734710e-03
        5.000993e+03	        1.695805e-03
        5.057007e+03	        1.656090e-03
        5.113648e+03	        1.612773e-03
        5.170923e+03	        1.572794e-03
        5.228840e+03	        1.540753e-03
        5.287405e+03	        1.508915e-03
        5.346627e+03	        1.476777e-03
        5.406512e+03	        1.444527e-03
        5.467067e+03	        1.414498e-03
        5.528301e+03	        1.384979e-03
        5.590221e+03	        1.356030e-03
        5.652834e+03	        1.327027e-03
        5.716149e+03	        1.297986e-03
        5.780172e+03	        1.268822e-03
        5.844913e+03	        1.239492e-03
        5.910379e+03	        1.210649e-03
        5.976578e+03	        1.182564e-03
        6.043519e+03	        1.155434e-03
        6.111209e+03	        1.127683e-03
        6.179658e+03	        1.099286e-03
        6.248873e+03	        1.068391e-03
        6.318863e+03	        1.043040e-03
        6.389638e+03	        1.018113e-03
        6.461205e+03	        9.942071e-04
        6.533574e+03	        9.705496e-04
        6.606753e+03	        9.466117e-04
        6.680752e+03	        9.228290e-04
        6.755579e+03	        8.989837e-04
        6.831245e+03	        8.750969e-04
        6.907759e+03	        8.507756e-04
        6.985129e+03	        8.267039e-04
        7.063366e+03	        8.021806e-04
        7.142479e+03	        7.763404e-04
        7.222478e+03	        7.491081e-04
        7.303374e+03	        7.159707e-04
        7.385175e+03	        6.774542e-04
        7.467893e+03	        6.618100e-04
        7.551537e+03	        6.474291e-04
        7.636118e+03	        6.341406e-04
        7.721646e+03	        6.209926e-04
        7.808132e+03	        6.079136e-04
        7.895587e+03	        5.947037e-04
        7.984022e+03	        5.813484e-04
        8.073446e+03	        5.685308e-04
        8.163873e+03	        5.560973e-04
        8.255312e+03	        5.435392e-04
        8.347776e+03	        5.307497e-04
        8.441275e+03	        5.178263e-04
        8.535822e+03	        5.047704e-04
        8.631427e+03	        4.918727e-04
        8.728103e+03	        4.789882e-04
        8.825862e+03	        4.660796e-04
        8.924716e+03	        4.539564e-04
        9.024678e+03	        4.425811e-04
        9.125758e+03	        4.314494e-04
        9.227971e+03	        4.203254e-04
        9.331329e+03	        4.089299e-04
        9.435845e+03	        3.972811e-04
        9.541531e+03	        3.853182e-04
        9.648401e+03	        3.708252e-04
        9.756468e+03	        3.618281e-04
        9.865745e+03	        3.528794e-04
        9.976246e+03	        3.438784e-04
        1.008798e+04	        3.347966e-04
        1.020098e+04	        3.258653e-04
        1.031523e+04	        3.171351e-04
        1.043077e+04	        3.085419e-04
        1.054760e+04	        3.006664e-04
        1.066573e+04	        2.927701e-04
        1.078520e+04	        2.848167e-04
        1.090600e+04	        2.768167e-04
        1.102815e+04	        2.688663e-04
        1.115167e+04	        2.608545e-04
        1.127657e+04	        2.529523e-04
        1.140288e+04	        2.455693e-04
        1.153059e+04	        2.380511e-04
        1.165974e+04	        2.303644e-04
        1.179034e+04	        2.224090e-04
        1.192240e+04	        2.136516e-04
        1.205593e+04	        2.029062e-04
        1.219096e+04	        1.971073e-04
        1.232751e+04	        1.920001e-04
        1.246558e+04	        1.868909e-04
        1.260520e+04	        1.817187e-04
        1.274639e+04	        1.764884e-04
        1.288915e+04	        1.711923e-04
        1.303352e+04	        1.658906e-04
        1.317950e+04	        1.604344e-04
        1.332712e+04	        1.551125e-04
        1.347639e+04	        1.499036e-04
        1.362733e+04	        1.445380e-04
        1.377996e+04	        1.388868e-04
        1.393431e+04	        1.329382e-04
        1.409038e+04	        1.263043e-04
        1.424820e+04	        1.202157e-04
        1.440778e+04	        1.173308e-04
        1.456916e+04	        1.144265e-04
        1.473234e+04	        1.114926e-04
        1.489735e+04	        1.085341e-04
        1.506421e+04	        1.055528e-04
        1.523293e+04	        1.026750e-04
        1.540355e+04	        9.986612e-05
        1.557608e+04	        9.704216e-05
        1.575054e+04	        9.418155e-05
        1.592695e+04	        9.127578e-05
        1.610534e+04	        8.836654e-05
        1.628573e+04	        8.576887e-05
        1.646814e+04	        8.315910e-05
        1.665259e+04	        8.027660e-05
        1.683910e+04	        7.799357e-05
        1.702771e+04	        7.569062e-05
        1.721843e+04	        7.340146e-05
        1.741128e+04	        7.142187e-05
        1.760630e+04	        6.942648e-05
        1.780350e+04	        6.740665e-05
        1.800291e+04	        6.536485e-05
        1.820455e+04	        6.330719e-05
        1.840845e+04	        6.133220e-05
        1.861463e+04	        5.939814e-05
        1.882312e+04	        5.742140e-05
        1.903395e+04	        5.532680e-05
        1.924714e+04	        5.332609e-05
        1.946272e+04	        5.161598e-05
        1.968071e+04	        5.000161e-05
        1.990114e+04	        4.836668e-05
        2.012405e+04	        4.671319e-05
        2.034945e+04	        4.503206e-05
        2.057737e+04	        4.350703e-05
        2.080785e+04	        4.199311e-05
        2.104091e+04	        4.045314e-05
        2.127657e+04	        3.886688e-05
        2.151488e+04	        3.726394e-05
        2.175586e+04	        3.578690e-05
        2.199954e+04	        3.444563e-05
        2.224594e+04	        3.309030e-05
        2.249511e+04	        3.175196e-05
        2.274706e+04	        3.047297e-05
        2.300184e+04	        2.917936e-05
        2.325947e+04	        2.787354e-05
        2.351999e+04	        2.661823e-05
        2.378343e+04	        2.540681e-05
        2.404981e+04	        2.418623e-05
        2.431918e+04	        2.295920e-05
        2.459157e+04	        2.174337e-05
        2.486701e+04	        2.051386e-05
        2.514553e+04	        1.928152e-05
        2.542717e+04	        1.810713e-05
        2.571197e+04	        1.691132e-05
        2.599996e+04	        1.566056e-05
        2.629117e+04	        1.446944e-05
        2.658564e+04	        1.323463e-05
        2.688341e+04	        1.194588e-05
        2.718452e+04	        1.055555e-05
        2.748900e+04	        9.078560e-06
        2.779689e+04	        7.508109e-06
        2.810823e+04	        5.545026e-06
        2.842306e+04	        2.040041e-06
        2.874141e+04	        7.085885e-07
        2.906333e+04	        6.445947e-07
        2.938885e+04	        5.746128e-07
        2.971802e+04	        4.964188e-07
        3.005088e+04	        4.227781e-07
        3.038746e+04	        3.398114e-07
        3.072782e+04	        2.272568e-07
        3.107198e+04	        3.968135e-08
        3.142000e+04	        3.664361e-08
        3.177192e+04	        3.336863e-08
        3.212779e+04	        2.952071e-08
        3.248763e+04	        2.579036e-08
        3.285151e+04	        2.280902e-08
        3.321946e+04	        1.919489e-08
        3.359154e+04	        1.303169e-08
        3.396778e+04	        1.220068e-08
        3.434823e+04	        1.156071e-08
        3.473295e+04	        1.087238e-08
        3.512198e+04	        9.786111e-09
        3.551536e+04	        9.391346e-09
        3.591315e+04	        8.982250e-09
        3.631540e+04	        8.554544e-09
        3.672215e+04	        8.134471e-09
        3.713345e+04	        7.692966e-09
        3.754937e+04	        7.123370e-09
        3.796994e+04	        6.684601e-09
        3.839522e+04	        6.402523e-09
        3.882526e+04	        6.094006e-09
        3.926013e+04	        5.803428e-09
        3.969986e+04	        5.503865e-09
        4.014452e+04	        5.075563e-09
        4.059416e+04	        4.870144e-09
        4.104883e+04	        4.674680e-09
        4.150860e+04	        4.460227e-09
        4.197351e+04	        4.281557e-09
        4.244364e+04	        4.070897e-09
        4.291903e+04	        3.853234e-09
        4.339974e+04	        3.719530e-09
        4.388584e+04	        3.576723e-09
        4.437738e+04	        3.446246e-09
        4.487443e+04	        3.313303e-09
        4.537705e+04	        3.165735e-09
        4.588529e+04	        3.065209e-09
        4.639923e+04	        2.963327e-09
        4.691893e+04	        2.864244e-09
        4.744444e+04	        2.763527e-09
        4.797584e+04	        2.659583e-09
        4.851319e+04	        2.571512e-09
        4.905657e+04	        2.483302e-09
        4.960602e+04	        2.393460e-09
        5.016164e+04	        2.298758e-09
        5.072347e+04	        2.211418e-09
        5.129160e+04	        2.123247e-09
        5.186609e+04	        2.044188e-09
        5.244702e+04	        1.963259e-09
        5.303445e+04	        1.883021e-09
        5.362846e+04	        1.799783e-09
        5.422913e+04	        1.719248e-09
        5.483652e+04	        1.640873e-09
        5.545071e+04	        1.560442e-09
        5.607179e+04	        1.469760e-09
        5.669982e+04	        1.387840e-09
        5.733489e+04	        1.315751e-09
        5.797707e+04	        1.240083e-09
        5.862644e+04	        1.146522e-09
        5.928308e+04	        1.078461e-09
        5.994708e+04	        1.015496e-09
        6.061852e+04	        9.574106e-10
        6.129748e+04	        8.807215e-10
        6.198404e+04	        8.410601e-10
        6.267829e+04	        7.980962e-10
        6.338032e+04	        7.493078e-10
        6.409021e+04	        7.043551e-10
        6.480805e+04	        6.753304e-10
        6.553393e+04	        6.477392e-10
        6.626795e+04	        6.176789e-10
        6.701018e+04	        5.942680e-10
        6.776073e+04	        5.701377e-10
        6.851968e+04	        5.439723e-10
        6.928713e+04	        5.224681e-10
        7.006318e+04	        5.015774e-10
        7.084793e+04	        4.802402e-10
        7.164146e+04	        4.589231e-10
        7.244388e+04	        4.382067e-10
        7.325529e+04	        4.173732e-10
        7.407578e+04	        3.965817e-10
        7.490547e+04	        3.769002e-10
        7.574444e+04	        3.567975e-10
        7.659282e+04	        3.367606e-10
        7.745070e+04	        3.176923e-10
        7.831818e+04	        2.987388e-10
        7.919539e+04	        2.801854e-10
        8.008241e+04	        2.616664e-10
        8.097938e+04	        2.419715e-10
        8.188638e+04	        2.226601e-10
        8.280355e+04	        2.024598e-10
        8.373099e+04	        1.814645e-10
        8.466882e+04	        1.609108e-10
        8.561715e+04	        1.359176e-10
        8.657611e+04	        1.150995e-10
        8.754580e+04	        9.264912e-11
        8.852636e+04	        7.290174e-11
        8.951790e+04	        6.019259e-11
        9.052054e+04	        4.714717e-11
        9.153442e+04	        3.266760e-11
        9.255965e+04	        1.478854e-11
        9.359636e+04	        3.409128e-12
        9.464469e+04	        2.385871e-12
        9.570475e+04	        2.190798e-12
        9.677669e+04	        1.991716e-12
        9.786064e+04	        1.779370e-12
        9.895673e+04	        1.558058e-12
        1.000651e+05	        1.304136e-12
        1.011859e+05	        9.875451e-13
        1.023192e+05	        5.022532e-13
        1.034652e+05	        2.833591e-13
        1.046241e+05	        8.442486e-14
        1.057959e+05	        0.000000e+00
        1.069809e+05	        0.000000e+00
        1.081791e+05	        0.000000e+00
        1.093908e+05	        0.000000e+00

