# -------------------------------------------------------------------------------
#		C:/Users/Michael Chadolias/Documents/CubeSat/Radiation Analysis (Viyas Da Best)/Scenarios/CDR/SSO_500km/LET_ALL_5.7_500.txt
# -------------------------------------------------------------------------------
# ID: 1 2 1

# Graph: Integral LET spectrum 
# min: 1.60896 0.01 max: 109391 7493.55
# X-axis L: LET (MeV.cm^2.g^{-1})
# Y-axis L: Flux (cm^{-2}.s^{-1})
# -------------------------------------------------------------------------------
# Curve 0: Integral spectrum
# Params: 0 5 #fe1448 2 1
#	LET (MeV.cm^2.g^{-1})		Flux (cm^{-2}.s^{-1})
# -------------------------------------------------------------------------------
        1.608960e+00	        7.493545e+03
        1.626982e+00	        7.493545e+03
        1.645205e+00	        7.493545e+03
        1.663632e+00	        7.493545e+03
        1.682265e+00	        7.493435e+03
        1.701107e+00	        7.493297e+03
        1.720161e+00	        7.493209e+03
        1.739427e+00	        7.493147e+03
        1.758910e+00	        7.493093e+03
        1.778610e+00	        7.493049e+03
        1.798532e+00	        7.493012e+03
        1.818676e+00	        7.492979e+03
        1.839046e+00	        7.492949e+03
        1.859644e+00	        7.492859e+03
        1.880473e+00	        7.492527e+03
        1.901536e+00	        7.492194e+03
        1.922834e+00	        7.491680e+03
        1.944370e+00	        7.491042e+03
        1.966148e+00	        7.490403e+03
        1.988170e+00	        7.489723e+03
        2.010439e+00	        7.489022e+03
        2.032956e+00	        7.488313e+03
        2.055727e+00	        7.487567e+03
        2.078752e+00	        7.486756e+03
        2.102035e+00	        7.485935e+03
        2.125579e+00	        7.485104e+03
        2.149386e+00	        7.484208e+03
        2.173460e+00	        7.483264e+03
        2.197804e+00	        7.482309e+03
        2.222421e+00	        7.481344e+03
        2.247313e+00	        7.480366e+03
        2.272484e+00	        7.479376e+03
        2.297937e+00	        7.478375e+03
        2.323675e+00	        7.477363e+03
        2.349701e+00	        7.476339e+03
        2.376019e+00	        7.475100e+03
        2.402632e+00	        7.473728e+03
        2.429542e+00	        7.472340e+03
        2.456754e+00	        7.470936e+03
        2.484271e+00	        7.469545e+03
        2.512096e+00	        7.468306e+03
        2.540233e+00	        7.467053e+03
        2.568685e+00	        7.465786e+03
        2.597455e+00	        7.464504e+03
        2.626548e+00	        7.463209e+03
        2.655967e+00	        7.461898e+03
        2.685715e+00	        7.460068e+03
        2.715796e+00	        7.458203e+03
        2.746214e+00	        7.456317e+03
        2.776973e+00	        7.454411e+03
        2.808077e+00	        7.452482e+03
        2.839529e+00	        7.450459e+03
        2.871333e+00	        7.448386e+03
        2.903493e+00	        7.446289e+03
        2.936014e+00	        7.444169e+03
        2.968899e+00	        7.442026e+03
        3.002152e+00	        7.439858e+03
        3.035777e+00	        7.437394e+03
        3.069779e+00	        7.434859e+03
        3.104162e+00	        7.432296e+03
        3.138931e+00	        7.429705e+03
        3.174088e+00	        7.427084e+03
        3.209640e+00	        7.424434e+03
        3.245589e+00	        7.421793e+03
        3.281941e+00	        7.419131e+03
        3.318701e+00	        7.416438e+03
        3.355872e+00	        7.413716e+03
        3.393459e+00	        7.410963e+03
        3.431468e+00	        7.408180e+03
        3.469902e+00	        7.405365e+03
        3.508766e+00	        7.402091e+03
        3.548066e+00	        7.398650e+03
        3.587806e+00	        7.395171e+03
        3.627992e+00	        7.391652e+03
        3.668627e+00	        7.388094e+03
        3.709717e+00	        7.384497e+03
        3.751268e+00	        7.380860e+03
        3.793284e+00	        7.377238e+03
        3.835771e+00	        7.373576e+03
        3.878733e+00	        7.369872e+03
        3.922177e+00	        7.366127e+03
        3.966107e+00	        7.362340e+03
        4.010530e+00	        7.358511e+03
        4.055449e+00	        7.354639e+03
        4.100872e+00	        7.350249e+03
        4.146804e+00	        7.344682e+03
        4.193250e+00	        7.339053e+03
        4.240217e+00	        7.333361e+03
        4.287709e+00	        7.327606e+03
        4.335734e+00	        7.321785e+03
        4.384296e+00	        7.315900e+03
        4.433403e+00	        7.310309e+03
        4.483059e+00	        7.304667e+03
        4.533271e+00	        7.298962e+03
        4.584046e+00	        7.293192e+03
        4.635390e+00	        7.287359e+03
        4.687308e+00	        7.281459e+03
        4.739809e+00	        7.275494e+03
        4.792897e+00	        7.269462e+03
        4.846580e+00	        7.261139e+03
        4.900864e+00	        7.252383e+03
        4.955756e+00	        7.243530e+03
        5.011263e+00	        7.234578e+03
        5.067391e+00	        7.225525e+03
        5.124149e+00	        7.216371e+03
        5.181542e+00	        7.207114e+03
        5.239577e+00	        7.197321e+03
        5.298263e+00	        7.187297e+03
        5.357606e+00	        7.177161e+03
        5.417614e+00	        7.166911e+03
        5.478294e+00	        7.156546e+03
        5.539654e+00	        7.146066e+03
        5.601701e+00	        7.135467e+03
        5.664442e+00	        7.124751e+03
        5.727887e+00	        7.112964e+03
        5.792042e+00	        7.100552e+03
        5.856916e+00	        7.088001e+03
        5.922516e+00	        7.075309e+03
        5.988851e+00	        7.062476e+03
        6.055929e+00	        7.049498e+03
        6.123759e+00	        7.036375e+03
        6.192348e+00	        7.023106e+03
        6.261705e+00	        7.008529e+03
        6.331839e+00	        6.991701e+03
        6.402759e+00	        6.974685e+03
        6.474473e+00	        6.957478e+03
        6.546991e+00	        6.940078e+03
        6.620320e+00	        6.922484e+03
        6.694471e+00	        6.904692e+03
        6.769452e+00	        6.886682e+03
        6.845274e+00	        6.867583e+03
        6.921944e+00	        6.847696e+03
        6.999473e+00	        6.827589e+03
        7.077871e+00	        6.807256e+03
        7.157146e+00	        6.786698e+03
        7.237310e+00	        6.765909e+03
        7.318371e+00	        6.744889e+03
        7.400341e+00	        6.723633e+03
        7.483228e+00	        6.701418e+03
        7.567044e+00	        6.678137e+03
        7.651799e+00	        6.654596e+03
        7.737503e+00	        6.630791e+03
        7.824166e+00	        6.606720e+03
        7.911801e+00	        6.582380e+03
        8.000417e+00	        6.557768e+03
        8.090026e+00	        6.532880e+03
        8.180638e+00	        6.507684e+03
        8.272265e+00	        6.479377e+03
        8.364918e+00	        6.450752e+03
        8.458610e+00	        6.421807e+03
        8.553350e+00	        6.392538e+03
        8.649152e+00	        6.362941e+03
        8.746027e+00	        6.333012e+03
        8.843987e+00	        6.302748e+03
        8.943044e+00	        6.272146e+03
        9.043210e+00	        6.238503e+03
        9.144499e+00	        6.202286e+03
        9.246921e+00	        6.165663e+03
        9.350492e+00	        6.128630e+03
        9.455222e+00	        6.091183e+03
        9.561125e+00	        6.053315e+03
        9.668214e+00	        6.015024e+03
        9.776503e+00	        5.976304e+03
        9.886005e+00	        5.938064e+03
        9.996733e+00	        5.900704e+03
        1.010870e+01	        5.862926e+03
        1.022192e+01	        5.824724e+03
        1.033641e+01	        5.786095e+03
        1.045219e+01	        5.747033e+03
        1.056926e+01	        5.707533e+03
        1.068764e+01	        5.667591e+03
        1.080734e+01	        5.627201e+03
        1.092839e+01	        5.584351e+03
        1.105080e+01	        5.534488e+03
        1.117457e+01	        5.484066e+03
        1.129973e+01	        5.433080e+03
        1.142629e+01	        5.381522e+03
        1.155427e+01	        5.329387e+03
        1.168369e+01	        5.276668e+03
        1.181455e+01	        5.223358e+03
        1.194688e+01	        5.172417e+03
        1.208069e+01	        5.128752e+03
        1.221600e+01	        5.084598e+03
        1.235282e+01	        5.039949e+03
        1.249118e+01	        4.994800e+03
        1.263109e+01	        4.949145e+03
        1.277256e+01	        4.902979e+03
        1.291562e+01	        4.856295e+03
        1.306028e+01	        4.809089e+03
        1.320657e+01	        4.761354e+03
        1.335449e+01	        4.708916e+03
        1.350406e+01	        4.652838e+03
        1.365531e+01	        4.596133e+03
        1.380826e+01	        4.538792e+03
        1.396292e+01	        4.480809e+03
        1.411931e+01	        4.422175e+03
        1.427746e+01	        4.362885e+03
        1.443737e+01	        4.302931e+03
        1.459908e+01	        4.250096e+03
        1.476259e+01	        4.198737e+03
        1.492794e+01	        4.146802e+03
        1.509514e+01	        4.094286e+03
        1.526421e+01	        4.041181e+03
        1.543518e+01	        3.987482e+03
        1.560806e+01	        3.933181e+03
        1.578288e+01	        3.878271e+03
        1.595966e+01	        3.823361e+03
        1.613841e+01	        3.771375e+03
        1.631917e+01	        3.718807e+03
        1.650195e+01	        3.665648e+03
        1.668678e+01	        3.611893e+03
        1.687368e+01	        3.557536e+03
        1.706268e+01	        3.502571e+03
        1.725379e+01	        3.446989e+03
        1.744704e+01	        3.390786e+03
        1.764245e+01	        3.340951e+03
        1.784006e+01	        3.293132e+03
        1.803988e+01	        3.244777e+03
        1.824193e+01	        3.195881e+03
        1.844625e+01	        3.146437e+03
        1.865286e+01	        3.096439e+03
        1.886178e+01	        3.045881e+03
        1.907304e+01	        2.994757e+03
        1.928667e+01	        2.943059e+03
        1.950269e+01	        2.898251e+03
        1.972113e+01	        2.853059e+03
        1.994201e+01	        2.807361e+03
        2.016537e+01	        2.761151e+03
        2.039124e+01	        2.714424e+03
        2.061963e+01	        2.667173e+03
        2.085058e+01	        2.619392e+03
        2.108411e+01	        2.571074e+03
        2.132027e+01	        2.526047e+03
        2.155906e+01	        2.486566e+03
        2.180054e+01	        2.446642e+03
        2.204471e+01	        2.406271e+03
        2.229162e+01	        2.365447e+03
        2.254130e+01	        2.324167e+03
        2.279378e+01	        2.282423e+03
        2.304908e+01	        2.240208e+03
        2.330724e+01	        2.197520e+03
        2.356829e+01	        2.154703e+03
        2.383227e+01	        2.111705e+03
        2.409920e+01	        2.068226e+03
        2.436912e+01	        2.024260e+03
        2.464207e+01	        1.979801e+03
        2.491807e+01	        1.934845e+03
        2.519717e+01	        1.889377e+03
        2.547939e+01	        1.846335e+03
        2.576477e+01	        1.816165e+03
        2.605335e+01	        1.785657e+03
        2.634516e+01	        1.754808e+03
        2.664024e+01	        1.723613e+03
        2.693862e+01	        1.692068e+03
        2.724035e+01	        1.660170e+03
        2.754545e+01	        1.627908e+03
        2.785397e+01	        1.595284e+03
        2.816595e+01	        1.562295e+03
        2.848142e+01	        1.532029e+03
        2.880043e+01	        1.501493e+03
        2.912301e+01	        1.470614e+03
        2.944920e+01	        1.439390e+03
        2.977905e+01	        1.407817e+03
        3.011259e+01	        1.375882e+03
        3.044986e+01	        1.343589e+03
        3.079092e+01	        1.310934e+03
        3.113579e+01	        1.285599e+03
        3.148453e+01	        1.260980e+03
        3.183717e+01	        1.236086e+03
        3.219376e+01	        1.210913e+03
        3.255435e+01	        1.185458e+03
        3.291897e+01	        1.159712e+03
        3.328768e+01	        1.133672e+03
        3.366052e+01	        1.107340e+03
        3.403753e+01	        1.082687e+03
        3.441877e+01	        1.063033e+03
        3.480428e+01	        1.043159e+03
        3.519410e+01	        1.023062e+03
        3.558829e+01	        1.002740e+03
        3.598690e+01	        9.821900e+02
        3.638997e+01	        9.613922e+02
        3.679756e+01	        9.403615e+02
        3.720971e+01	        9.190953e+02
        3.762647e+01	        8.982625e+02
        3.804791e+01	        8.793996e+02
        3.847406e+01	        8.603253e+02
        3.890499e+01	        8.410375e+02
        3.934075e+01	        8.215336e+02
        3.978138e+01	        8.018124e+02
        4.022696e+01	        7.818704e+02
        4.067752e+01	        7.617051e+02
        4.113313e+01	        7.429356e+02
        4.159384e+01	        7.282108e+02
        4.205971e+01	        7.133211e+02
        4.253080e+01	        6.982644e+02
        4.300716e+01	        6.830392e+02
        4.348887e+01	        6.676434e+02
        4.397596e+01	        6.520527e+02
        4.446851e+01	        6.362775e+02
        4.496658e+01	        6.203256e+02
        4.547023e+01	        6.073841e+02
        4.597952e+01	        5.952477e+02
        4.649451e+01	        5.829753e+02
        4.701528e+01	        5.705655e+02
        4.754187e+01	        5.580167e+02
        4.807436e+01	        5.453402e+02
        4.861282e+01	        5.325267e+02
        4.915731e+01	        5.195698e+02
        4.970789e+01	        5.069959e+02
        5.026464e+01	        4.969568e+02
        5.082763e+01	        4.868053e+02
        5.139693e+01	        4.765401e+02
        5.197260e+01	        4.661599e+02
        5.255472e+01	        4.556635e+02
        5.314336e+01	        4.450474e+02
        5.373859e+01	        4.342605e+02
        5.434049e+01	        4.233529e+02
        5.494913e+01	        4.137014e+02
        5.556458e+01	        4.046449e+02
        5.618694e+01	        3.954870e+02
        5.681626e+01	        3.862266e+02
        5.745263e+01	        3.768624e+02
        5.809612e+01	        3.673951e+02
        5.874683e+01	        3.578270e+02
        5.940482e+01	        3.481517e+02
        6.007019e+01	        3.404018e+02
        6.074300e+01	        3.331334e+02
        6.142335e+01	        3.257834e+02
        6.211133e+01	        3.183513e+02
        6.280700e+01	        3.108360e+02
        6.351047e+01	        3.032366e+02
        6.422182e+01	        2.955420e+02
        6.494114e+01	        2.877569e+02
        6.566851e+01	        2.808592e+02
        6.640403e+01	        2.743729e+02
        6.714779e+01	        2.678139e+02
        6.789988e+01	        2.611815e+02
        6.866039e+01	        2.544748e+02
        6.942942e+01	        2.476930e+02
        7.020706e+01	        2.408428e+02
        7.099342e+01	        2.342620e+02
        7.178858e+01	        2.297917e+02
        7.259264e+01	        2.252713e+02
        7.340572e+01	        2.207003e+02
        7.422790e+01	        2.160781e+02
        7.505929e+01	        2.114042e+02
        7.589999e+01	        2.066779e+02
        7.675011e+01	        2.018986e+02
        7.760974e+01	        1.970824e+02
        7.847901e+01	        1.922872e+02
        7.935802e+01	        1.877602e+02
        8.024686e+01	        1.831825e+02
        8.114567e+01	        1.785535e+02
        8.205454e+01	        1.738727e+02
        8.297359e+01	        1.691393e+02
        8.390294e+01	        1.643530e+02
        8.484269e+01	        1.595430e+02
        8.579297e+01	        1.561278e+02
        8.675389e+01	        1.527479e+02
        8.772558e+01	        1.493302e+02
        8.870815e+01	        1.458742e+02
        8.970173e+01	        1.423795e+02
        9.070643e+01	        1.388457e+02
        9.172239e+01	        1.352723e+02
        9.274972e+01	        1.316565e+02
        9.378856e+01	        1.286393e+02
        9.483904e+01	        1.256867e+02
        9.590129e+01	        1.227010e+02
        9.697543e+01	        1.196819e+02
        9.806160e+01	        1.166289e+02
        9.915994e+01	        1.135418e+02
        1.002706e+02	        1.104480e+02
        1.013937e+02	        1.074897e+02
        1.025293e+02	        1.050956e+02
        1.036777e+02	        1.026748e+02
        1.048389e+02	        1.002268e+02
        1.060132e+02	        9.775148e+01
        1.072006e+02	        9.524838e+01
        1.084013e+02	        9.271685e+01
        1.096154e+02	        9.015705e+01
        1.108432e+02	        8.789788e+01
        1.120847e+02	        8.591827e+01
        1.133401e+02	        8.391651e+01
        1.146095e+02	        8.189236e+01
        1.158932e+02	        7.984557e+01
        1.171913e+02	        7.777585e+01
        1.185039e+02	        7.568296e+01
        1.198312e+02	        7.356663e+01
        1.211734e+02	        7.181080e+01
        1.225306e+02	        7.012671e+01
        1.239030e+02	        6.842377e+01
        1.252907e+02	        6.670176e+01
        1.266941e+02	        6.496047e+01
        1.281131e+02	        6.319968e+01
        1.295480e+02	        6.141918e+01
        1.309990e+02	        5.974412e+01
        1.324663e+02	        5.816321e+01
        1.339500e+02	        5.661761e+01
        1.354503e+02	        5.505469e+01
        1.369674e+02	        5.347426e+01
        1.385015e+02	        5.187612e+01
        1.400528e+02	        5.027456e+01
        1.416214e+02	        4.910687e+01
        1.432077e+02	        4.792610e+01
        1.448117e+02	        4.673210e+01
        1.464336e+02	        4.552474e+01
        1.480737e+02	        4.432383e+01
        1.497322e+02	        4.310965e+01
        1.514093e+02	        4.188186e+01
        1.531052e+02	        4.079242e+01
        1.548200e+02	        3.972191e+01
        1.565541e+02	        3.863941e+01
        1.583076e+02	        3.754478e+01
        1.600807e+02	        3.643904e+01
        1.618737e+02	        3.536312e+01
        1.636867e+02	        3.433308e+01
        1.655201e+02	        3.345246e+01
        1.673740e+02	        3.256198e+01
        1.692487e+02	        3.166147e+01
        1.711444e+02	        3.075087e+01
        1.730613e+02	        2.983008e+01
        1.749996e+02	        2.889895e+01
        1.769597e+02	        2.816121e+01
        1.789418e+02	        2.747285e+01
        1.809460e+02	        2.677679e+01
        1.829727e+02	        2.607293e+01
        1.850221e+02	        2.536118e+01
        1.870944e+02	        2.464147e+01
        1.891900e+02	        2.391444e+01
        1.913090e+02	        2.325052e+01
        1.934517e+02	        2.257917e+01
        1.956185e+02	        2.191911e+01
        1.978095e+02	        2.125676e+01
        2.000251e+02	        2.058698e+01
        2.022655e+02	        1.993006e+01
        2.045309e+02	        1.940142e+01
        2.068218e+02	        1.886684e+01
        2.091383e+02	        1.832627e+01
        2.114807e+02	        1.777965e+01
        2.138494e+02	        1.722970e+01
        2.162446e+02	        1.668677e+01
        2.186667e+02	        1.624769e+01
        2.211159e+02	        1.580369e+01
        2.235925e+02	        1.535472e+01
        2.260968e+02	        1.490068e+01
        2.286292e+02	        1.444153e+01
        2.311900e+02	        1.397724e+01
        2.337794e+02	        1.358351e+01
        2.363979e+02	        1.321327e+01
        2.390456e+02	        1.283888e+01
        2.417231e+02	        1.246030e+01
        2.444305e+02	        1.207737e+01
        2.471682e+02	        1.169020e+01
        2.499366e+02	        1.134786e+01
        2.527360e+02	        1.101061e+01
        2.555668e+02	        1.066957e+01
        2.584293e+02	        1.033374e+01
        2.613238e+02	        9.995956e+00
        2.642508e+02	        9.667255e+00
        2.672105e+02	        9.396608e+00
        2.702034e+02	        9.122936e+00
        2.732298e+02	        8.846204e+00
        2.762901e+02	        8.566373e+00
        2.793847e+02	        8.285575e+00
        2.825139e+02	        8.028317e+00
        2.856782e+02	        7.800380e+00
        2.888780e+02	        7.569886e+00
        2.921136e+02	        7.336816e+00
        2.953854e+02	        7.101140e+00
        2.986938e+02	        6.862829e+00
        3.020393e+02	        6.650732e+00
        3.054223e+02	        6.457668e+00
        3.088432e+02	        6.262463e+00
        3.123024e+02	        6.067952e+00
        3.158004e+02	        5.871262e+00
        3.193375e+02	        5.672370e+00
        3.229142e+02	        5.477039e+00
        3.265310e+02	        5.282057e+00
        3.301883e+02	        5.084891e+00
        3.338866e+02	        4.885479e+00
        3.376263e+02	        4.691407e+00
        3.414079e+02	        4.541927e+00
        3.452318e+02	        4.401858e+00
        3.490986e+02	        4.260223e+00
        3.530086e+02	        4.117005e+00
        3.569625e+02	        3.972237e+00
        3.609607e+02	        3.827083e+00
        3.650036e+02	        3.699116e+00
        3.690918e+02	        3.571865e+00
        3.732258e+02	        3.446618e+00
        3.774062e+02	        3.319968e+00
        3.816333e+02	        3.191902e+00
        3.859078e+02	        3.072374e+00
        3.902301e+02	        2.958038e+00
        3.946009e+02	        2.842421e+00
        3.990206e+02	        2.725504e+00
        4.034898e+02	        2.609678e+00
        4.080091e+02	        2.503505e+00
        4.125790e+02	        2.405722e+00
        4.172001e+02	        2.306843e+00
        4.218730e+02	        2.206856e+00
        4.265982e+02	        2.105749e+00
        4.313763e+02	        2.007228e+00
        4.362079e+02	        1.912859e+00
        4.410936e+02	        1.820793e+00
        4.460341e+02	        1.729032e+00
        4.510299e+02	        1.636247e+00
        4.560817e+02	        1.546335e+00
        4.611900e+02	        1.456046e+00
        4.663556e+02	        1.364747e+00
        4.715790e+02	        1.272425e+00
        4.768609e+02	        1.184866e+00
        4.822020e+02	        1.099484e+00
        4.876029e+02	        1.013577e+00
        4.930643e+02	        9.253158e-01
        4.985868e+02	        8.340961e-01
        5.041712e+02	        7.418550e-01
        5.098182e+02	        6.454504e-01
        5.155284e+02	        5.461143e-01
        5.213026e+02	        4.843572e-01
        5.271414e+02	        4.731060e-01
        5.330457e+02	        4.617387e-01
        5.390161e+02	        4.502437e-01
        5.450533e+02	        4.386220e-01
        5.511582e+02	        4.268708e-01
        5.573314e+02	        4.149832e-01
        5.635738e+02	        4.054248e-01
        5.698861e+02	        3.967716e-01
        5.762691e+02	        3.880533e-01
        5.827236e+02	        3.792744e-01
        5.892504e+02	        3.704096e-01
        5.958503e+02	        3.614421e-01
        6.025241e+02	        3.523716e-01
        6.092727e+02	        3.437599e-01
        6.160968e+02	        3.358705e-01
        6.229974e+02	        3.278930e-01
        6.299753e+02	        3.198495e-01
        6.370313e+02	        3.118562e-01
        6.441664e+02	        3.037821e-01
        6.513814e+02	        2.956179e-01
        6.586772e+02	        2.886169e-01
        6.660547e+02	        2.819423e-01
        6.735148e+02	        2.751929e-01
        6.810585e+02	        2.683637e-01
        6.886867e+02	        2.614536e-01
        6.964003e+02	        2.545039e-01
        7.042004e+02	        2.478886e-01
        7.120878e+02	        2.424726e-01
        7.200635e+02	        2.370001e-01
        7.281286e+02	        2.314670e-01
        7.362840e+02	        2.258724e-01
        7.445307e+02	        2.202161e-01
        7.528698e+02	        2.144998e-01
        7.613023e+02	        2.089877e-01
        7.698293e+02	        2.038458e-01
        7.784518e+02	        1.986619e-01
        7.871708e+02	        1.934242e-01
        7.959875e+02	        1.881283e-01
        8.049030e+02	        1.827734e-01
        8.139183e+02	        1.781289e-01
        8.230346e+02	        1.738288e-01
        8.322529e+02	        1.694770e-01
        8.415746e+02	        1.650815e-01
        8.510006e+02	        1.606459e-01
        8.605323e+02	        1.561656e-01
        8.701706e+02	        1.521666e-01
        8.799170e+02	        1.483750e-01
        8.897725e+02	        1.445417e-01
        8.997384e+02	        1.406656e-01
        9.098159e+02	        1.367430e-01
        9.200063e+02	        1.328507e-01
        9.303108e+02	        1.294887e-01
        9.407307e+02	        1.262051e-01
        9.512674e+02	        1.228848e-01
        9.619221e+02	        1.195265e-01
        9.726961e+02	        1.161308e-01
        9.835907e+02	        1.128259e-01
        9.946074e+02	        1.097786e-01
        1.005748e+03	        1.067019e-01
        1.017012e+03	        1.036221e-01
        1.028403e+03	        1.005504e-01
        1.039922e+03	        9.754667e-02
        1.051570e+03	        9.495325e-02
        1.063348e+03	        9.233060e-02
        1.075258e+03	        8.967516e-02
        1.087301e+03	        8.699652e-02
        1.099480e+03	        8.430326e-02
        1.111794e+03	        8.188272e-02
        1.124247e+03	        7.949997e-02
        1.136839e+03	        7.709224e-02
        1.149572e+03	        7.465948e-02
        1.162448e+03	        7.228294e-02
        1.175468e+03	        7.011591e-02
        1.188634e+03	        6.793898e-02
        1.201947e+03	        6.575533e-02
        1.215409e+03	        6.355938e-02
        1.229023e+03	        6.143719e-02
        1.242788e+03	        5.933186e-02
        1.256708e+03	        5.720617e-02
        1.270784e+03	        5.505795e-02
        1.285017e+03	        5.320937e-02
        1.299410e+03	        5.137576e-02
        1.313964e+03	        4.952565e-02
        1.328681e+03	        4.765517e-02
        1.343563e+03	        4.588994e-02
        1.358612e+03	        4.416078e-02
        1.373829e+03	        4.241573e-02
        1.389216e+03	        4.069144e-02
        1.404776e+03	        3.901666e-02
        1.420510e+03	        3.732524e-02
        1.436421e+03	        3.562111e-02
        1.452509e+03	        3.387944e-02
        1.468778e+03	        3.214559e-02
        1.485229e+03	        3.039218e-02
        1.501865e+03	        2.862352e-02
        1.518686e+03	        2.677943e-02
        1.535696e+03	        2.473240e-02
        1.552897e+03	        2.205030e-02
        1.570290e+03	        1.654359e-02
        1.587878e+03	        1.621762e-02
        1.605663e+03	        1.590723e-02
        1.623647e+03	        1.565183e-02
        1.641833e+03	        1.539446e-02
        1.660222e+03	        1.513590e-02
        1.678818e+03	        1.487525e-02
        1.697621e+03	        1.461191e-02
        1.716635e+03	        1.434777e-02
        1.735863e+03	        1.409358e-02
        1.755305e+03	        1.385324e-02
        1.774965e+03	        1.361400e-02
        1.794846e+03	        1.338540e-02
        1.814949e+03	        1.315565e-02
        1.835277e+03	        1.292219e-02
        1.855833e+03	        1.268553e-02
        1.876620e+03	        1.244632e-02
        1.897639e+03	        1.220499e-02
        1.918893e+03	        1.197648e-02
        1.940386e+03	        1.175149e-02
        1.962119e+03	        1.154837e-02
        1.984096e+03	        1.134453e-02
        2.006319e+03	        1.113843e-02
        2.028790e+03	        1.093084e-02
        2.051514e+03	        1.072125e-02
        2.074492e+03	        1.051791e-02
        2.097727e+03	        1.032235e-02
        2.121223e+03	        1.012937e-02
        2.144981e+03	        9.953664e-03
        2.169006e+03	        9.778750e-03
        2.193300e+03	        9.601946e-03
        2.217866e+03	        9.423955e-03
        2.242707e+03	        9.247820e-03
        2.267827e+03	        9.070867e-03
        2.293228e+03	        8.900443e-03
        2.318913e+03	        8.733008e-03
        2.344886e+03	        8.569725e-03
        2.371150e+03	        8.408923e-03
        2.397708e+03	        8.247479e-03
        2.424563e+03	        8.090310e-03
        2.451720e+03	        7.931764e-03
        2.479180e+03	        7.771850e-03
        2.506948e+03	        7.619380e-03
        2.535027e+03	        7.471465e-03
        2.563421e+03	        7.335898e-03
        2.592132e+03	        7.199963e-03
        2.621165e+03	        7.063784e-03
        2.650524e+03	        6.926119e-03
        2.680211e+03	        6.786954e-03
        2.710231e+03	        6.646457e-03
        2.740587e+03	        6.515847e-03
        2.771282e+03	        6.395147e-03
        2.802322e+03	        6.279189e-03
        2.833710e+03	        6.161331e-03
        2.865449e+03	        6.042152e-03
        2.897543e+03	        5.921651e-03
        2.929997e+03	        5.800304e-03
        2.962814e+03	        5.678571e-03
        2.995999e+03	        5.563700e-03
        3.029556e+03	        5.463392e-03
        3.063488e+03	        5.361978e-03
        3.097801e+03	        5.259429e-03
        3.132498e+03	        5.155751e-03
        3.167583e+03	        5.052547e-03
        3.203062e+03	        4.950223e-03
        3.238938e+03	        4.846914e-03
        3.275216e+03	        4.747697e-03
        3.311900e+03	        4.653120e-03
        3.348994e+03	        4.557864e-03
        3.386505e+03	        4.463602e-03
        3.424435e+03	        4.368436e-03
        3.462791e+03	        4.272317e-03
        3.501576e+03	        4.178072e-03
        3.540795e+03	        4.090269e-03
        3.580454e+03	        4.007915e-03
        3.620557e+03	        3.928577e-03
        3.661109e+03	        3.849442e-03
        3.702115e+03	        3.769421e-03
        3.743580e+03	        3.688709e-03
        3.785510e+03	        3.610493e-03
        3.827910e+03	        3.532384e-03
        3.870784e+03	        3.455199e-03
        3.914139e+03	        3.379332e-03
        3.957979e+03	        3.307214e-03
        4.002311e+03	        3.235077e-03
        4.047138e+03	        3.167601e-03
        4.092468e+03	        3.100445e-03
        4.138306e+03	        3.033443e-03
        4.184657e+03	        2.966285e-03
        4.231527e+03	        2.899791e-03
        4.278923e+03	        2.835008e-03
        4.326849e+03	        2.770829e-03
        4.375311e+03	        2.707178e-03
        4.424317e+03	        2.643067e-03
        4.473872e+03	        2.578599e-03
        4.523981e+03	        2.513372e-03
        4.574652e+03	        2.450978e-03
        4.625890e+03	        2.392695e-03
        4.677703e+03	        2.337038e-03
        4.730095e+03	        2.282343e-03
        4.783075e+03	        2.227036e-03
        4.836647e+03	        2.170479e-03
        4.890820e+03	        2.114656e-03
        4.945600e+03	        2.058812e-03
        5.000993e+03	        2.003893e-03
        5.057007e+03	        1.947166e-03
        5.113648e+03	        1.881830e-03
        5.170923e+03	        1.822857e-03
        5.228840e+03	        1.781182e-03
        5.287405e+03	        1.739571e-03
        5.346627e+03	        1.697559e-03
        5.406512e+03	        1.655903e-03
        5.467067e+03	        1.618176e-03
        5.528301e+03	        1.581112e-03
        5.590221e+03	        1.544648e-03
        5.652834e+03	        1.508003e-03
        5.716149e+03	        1.471356e-03
        5.780172e+03	        1.434645e-03
        5.844913e+03	        1.397698e-03
        5.910379e+03	        1.362021e-03
        5.976578e+03	        1.327673e-03
        6.043519e+03	        1.294224e-03
        6.111209e+03	        1.260156e-03
        6.179658e+03	        1.225502e-03
        6.248873e+03	        1.189039e-03
        6.318863e+03	        1.157162e-03
        6.389638e+03	        1.125979e-03
        6.461205e+03	        1.097012e-03
        6.533574e+03	        1.068416e-03
        6.606753e+03	        1.039457e-03
        6.680752e+03	        1.010645e-03
        6.755579e+03	        9.816310e-04
        6.831245e+03	        9.525403e-04
        6.907759e+03	        9.229471e-04
        6.985129e+03	        8.937705e-04
        7.063366e+03	        8.643689e-04
        7.142479e+03	        8.332230e-04
        7.222478e+03	        8.002028e-04
        7.303374e+03	        7.595374e-04
        7.385175e+03	        7.119998e-04
        7.467893e+03	        6.938403e-04
        7.551537e+03	        6.773347e-04
        7.636118e+03	        6.624955e-04
        7.721646e+03	        6.478543e-04
        7.808132e+03	        6.333028e-04
        7.895587e+03	        6.186156e-04
        7.984022e+03	        6.037665e-04
        8.073446e+03	        5.894587e-04
        8.163873e+03	        5.755178e-04
        8.255312e+03	        5.615140e-04
        8.347776e+03	        5.475146e-04
        8.441275e+03	        5.333933e-04
        8.535822e+03	        5.191382e-04
        8.631427e+03	        5.050373e-04
        8.728103e+03	        4.909282e-04
        8.825862e+03	        4.767322e-04
        8.924716e+03	        4.636654e-04
        9.024678e+03	        4.515958e-04
        9.125758e+03	        4.398380e-04
        9.227971e+03	        4.280977e-04
        9.331329e+03	        4.161175e-04
        9.435845e+03	        4.038829e-04
        9.541531e+03	        3.913633e-04
        9.648401e+03	        3.769300e-04
        9.756468e+03	        3.672959e-04
        9.865745e+03	        3.577535e-04
        9.976246e+03	        3.481616e-04
        1.008798e+04	        3.384596e-04
        1.020098e+04	        3.288825e-04
        1.031523e+04	        3.195131e-04
        1.043077e+04	        3.103398e-04
        1.054760e+04	        3.020906e-04
        1.066573e+04	        2.938582e-04
        1.078520e+04	        2.855189e-04
        1.090600e+04	        2.771167e-04
        1.102815e+04	        2.688340e-04
        1.115167e+04	        2.604971e-04
        1.127657e+04	        2.522639e-04
        1.140288e+04	        2.446693e-04
        1.153059e+04	        2.369501e-04
        1.165974e+04	        2.290580e-04
        1.179034e+04	        2.208953e-04
        1.192240e+04	        2.119321e-04
        1.205593e+04	        2.009771e-04
        1.219096e+04	        1.949463e-04
        1.232751e+04	        1.897317e-04
        1.246558e+04	        1.845361e-04
        1.260520e+04	        1.792671e-04
        1.274639e+04	        1.739322e-04
        1.288915e+04	        1.685290e-04
        1.303352e+04	        1.631007e-04
        1.317950e+04	        1.574768e-04
        1.332712e+04	        1.520801e-04
        1.347639e+04	        1.469166e-04
        1.362733e+04	        1.416006e-04
        1.377996e+04	        1.359967e-04
        1.393431e+04	        1.301020e-04
        1.409038e+04	        1.235688e-04
        1.424820e+04	        1.176626e-04
        1.440778e+04	        1.148079e-04
        1.456916e+04	        1.119367e-04
        1.473234e+04	        1.090373e-04
        1.489735e+04	        1.061116e-04
        1.506421e+04	        1.031589e-04
        1.523293e+04	        1.003376e-04
        1.540355e+04	        9.760066e-05
        1.557608e+04	        9.485251e-05
        1.575054e+04	        9.207204e-05
        1.592695e+04	        8.925513e-05
        1.610534e+04	        8.644157e-05
        1.628573e+04	        8.399380e-05
        1.646814e+04	        8.158518e-05
        1.665259e+04	        7.904812e-05
        1.683910e+04	        7.674731e-05
        1.702771e+04	        7.442625e-05
        1.721843e+04	        7.213374e-05
        1.741128e+04	        7.016537e-05
        1.760630e+04	        6.818423e-05
        1.780350e+04	        6.618450e-05
        1.800291e+04	        6.416459e-05
        1.820455e+04	        6.213747e-05
        1.840845e+04	        6.020210e-05
        1.861463e+04	        5.832155e-05
        1.882312e+04	        5.641625e-05
        1.903395e+04	        5.448506e-05
        1.924714e+04	        5.255512e-05
        1.946272e+04	        5.081255e-05
        1.968071e+04	        4.916473e-05
        1.990114e+04	        4.749487e-05
        2.012405e+04	        4.580853e-05
        2.034945e+04	        4.408069e-05
        2.057737e+04	        4.253873e-05
        2.080785e+04	        4.100627e-05
        2.104091e+04	        3.945142e-05
        2.127657e+04	        3.784691e-05
        2.151488e+04	        3.621399e-05
        2.175586e+04	        3.471647e-05
        2.199954e+04	        3.338104e-05
        2.224594e+04	        3.203153e-05
        2.249511e+04	        3.069890e-05
        2.274706e+04	        2.942904e-05
        2.300184e+04	        2.814141e-05
        2.325947e+04	        2.683924e-05
        2.351999e+04	        2.557638e-05
        2.378343e+04	        2.438397e-05
        2.404981e+04	        2.318066e-05
        2.431918e+04	        2.197104e-05
        2.459157e+04	        2.077203e-05
        2.486701e+04	        1.955855e-05
        2.514553e+04	        1.833571e-05
        2.542717e+04	        1.716586e-05
        2.571197e+04	        1.595554e-05
        2.599996e+04	        1.462557e-05
        2.629117e+04	        1.350268e-05
        2.658564e+04	        1.233900e-05
        2.688341e+04	        1.112676e-05
        2.718452e+04	        9.820917e-06
        2.748900e+04	        8.432127e-06
        2.779689e+04	        6.954830e-06
        2.810823e+04	        5.108197e-06
        2.842306e+04	        1.809443e-06
        2.874141e+04	        5.626684e-07
        2.906333e+04	        5.118728e-07
        2.938885e+04	        4.562017e-07
        2.971802e+04	        3.926113e-07
        3.005088e+04	        3.355742e-07
        3.038746e+04	        2.720154e-07
        3.072782e+04	        1.864151e-07
        3.107198e+04	        4.473547e-08
        3.142000e+04	        4.113469e-08
        3.177192e+04	        3.730629e-08
        3.212779e+04	        3.297804e-08
        3.248763e+04	        2.870914e-08
        3.285151e+04	        2.477334e-08
        3.321946e+04	        1.996058e-08
        3.359154e+04	        1.159034e-08
        3.396778e+04	        1.082661e-08
        3.434823e+04	        1.014965e-08
        3.473295e+04	        9.432838e-09
        3.512198e+04	        8.377797e-09
        3.551536e+04	        7.902965e-09
        3.591315e+04	        7.398538e-09
        3.631540e+04	        6.858001e-09
        3.672215e+04	        6.328342e-09
        3.713345e+04	        5.751119e-09
        3.754937e+04	        4.870912e-09
        3.796994e+04	        4.307772e-09
        3.839522e+04	        4.132064e-09
        3.882526e+04	        3.937286e-09
        3.926013e+04	        3.761559e-09
        3.969986e+04	        3.595998e-09
        4.014452e+04	        3.397193e-09
        4.059416e+04	        3.258646e-09
        4.104883e+04	        3.117638e-09
        4.150860e+04	        2.961885e-09
        4.197351e+04	        2.839111e-09
        4.244364e+04	        2.698497e-09
        4.291903e+04	        2.554040e-09
        4.339974e+04	        2.459991e-09
        4.388584e+04	        2.360370e-09
        4.437738e+04	        2.269202e-09
        4.487443e+04	        2.176911e-09
        4.537705e+04	        2.076130e-09
        4.588529e+04	        2.004282e-09
        4.639923e+04	        1.933350e-09
        4.691893e+04	        1.865360e-09
        4.744444e+04	        1.798417e-09
        4.797584e+04	        1.730654e-09
        4.851319e+04	        1.668613e-09
        4.905657e+04	        1.606368e-09
        4.960602e+04	        1.543590e-09
        5.016164e+04	        1.479315e-09
        5.072347e+04	        1.418073e-09
        5.129160e+04	        1.356198e-09
        5.186609e+04	        1.298294e-09
        5.244702e+04	        1.239447e-09
        5.303445e+04	        1.179319e-09
        5.362846e+04	        1.114546e-09
        5.422913e+04	        1.056469e-09
        5.483652e+04	        1.005161e-09
        5.545071e+04	        9.527938e-10
        5.607179e+04	        8.954816e-10
        5.669982e+04	        8.407449e-10
        5.733489e+04	        7.870337e-10
        5.797707e+04	        7.313666e-10
        5.862644e+04	        6.545346e-10
        5.928308e+04	        6.100850e-10
        5.994708e+04	        5.791833e-10
        6.061852e+04	        5.519908e-10
        6.129748e+04	        5.222576e-10
        6.198404e+04	        4.971968e-10
        6.267829e+04	        4.698802e-10
        6.338032e+04	        4.420139e-10
        6.409021e+04	        4.163211e-10
        6.480805e+04	        3.989250e-10
        6.553393e+04	        3.819404e-10
        6.626795e+04	        3.636555e-10
        6.701018e+04	        3.488376e-10
        6.776073e+04	        3.341889e-10
        6.851968e+04	        3.186532e-10
        6.928713e+04	        3.050097e-10
        7.006318e+04	        2.916886e-10
        7.084793e+04	        2.783673e-10
        7.164146e+04	        2.650792e-10
        7.244388e+04	        2.520430e-10
        7.325529e+04	        2.393101e-10
        7.407578e+04	        2.267828e-10
        7.490547e+04	        2.146756e-10
        7.574444e+04	        2.024498e-10
        7.659282e+04	        1.903569e-10
        7.745070e+04	        1.785605e-10
        7.831818e+04	        1.667925e-10
        7.919539e+04	        1.552844e-10
        8.008241e+04	        1.438523e-10
        8.097938e+04	        1.318869e-10
        8.188638e+04	        1.199117e-10
        8.280355e+04	        1.077989e-10
        8.373099e+04	        9.490413e-11
        8.466882e+04	        8.166257e-11
        8.561715e+04	        6.654499e-11
        8.657611e+04	        5.264979e-11
        8.754580e+04	        3.516696e-11
        8.852636e+04	        1.944908e-11
        8.951790e+04	        1.527273e-11
        9.052054e+04	        1.082102e-11
        9.153442e+04	        7.608617e-12
        9.255965e+04	        4.724823e-12
        9.359636e+04	        2.223756e-12
        9.464469e+04	        9.413682e-13
        9.570475e+04	        8.641663e-13
        9.677669e+04	        7.864143e-13
        9.786064e+04	        7.040481e-13
        9.895673e+04	        6.188416e-13
        1.000651e+05	        5.228428e-13
        1.011859e+05	        4.073104e-13
        1.023192e+05	        2.375870e-13
        1.034652e+05	        1.439375e-13
        1.046241e+05	        4.280241e-14
        1.057959e+05	        0.000000e+00
        1.069809e+05	        0.000000e+00
        1.081791e+05	        0.000000e+00
        1.093908e+05	        0.000000e+00

# -------------------------------------------------------------------------------
# Curve 1: Integral spectrum
# Params: 0 5 #14bf4c 2 1
#	LET (MeV.cm^2.g^{-1})		Flux (cm^{-2}.s^{-1})
# -------------------------------------------------------------------------------
        1.608960e+00	        5.823619e+01
        1.626982e+00	        5.823619e+01
        1.645205e+00	        5.823619e+01
        1.663632e+00	        5.823619e+01
        1.682265e+00	        5.812599e+01
        1.701107e+00	        5.798818e+01
        1.720161e+00	        5.789935e+01
        1.739427e+00	        5.783782e+01
        1.758910e+00	        5.778354e+01
        1.778610e+00	        5.773963e+01
        1.798532e+00	        5.770236e+01
        1.818676e+00	        5.766939e+01
        1.839046e+00	        5.763927e+01
        1.859644e+00	        5.761077e+01
        1.880473e+00	        5.758523e+01
        1.901536e+00	        5.756121e+01
        1.922834e+00	        5.753988e+01
        1.944370e+00	        5.752369e+01
        1.966148e+00	        5.751208e+01
        1.988170e+00	        5.750442e+01
        2.010439e+00	        5.749735e+01
        2.032956e+00	        5.749020e+01
        2.055727e+00	        5.748351e+01
        2.078752e+00	        5.747782e+01
        2.102035e+00	        5.747206e+01
        2.125579e+00	        5.746623e+01
        2.149386e+00	        5.746116e+01
        2.173460e+00	        5.745658e+01
        2.197804e+00	        5.745194e+01
        2.222421e+00	        5.744725e+01
        2.247313e+00	        5.744328e+01
        2.272484e+00	        5.743998e+01
        2.297937e+00	        5.743663e+01
        2.323675e+00	        5.743325e+01
        2.349701e+00	        5.742983e+01
        2.376019e+00	        5.742660e+01
        2.402632e+00	        5.742347e+01
        2.429542e+00	        5.742031e+01
        2.456754e+00	        5.741711e+01
        2.484271e+00	        5.741407e+01
        2.512096e+00	        5.741215e+01
        2.540233e+00	        5.741021e+01
        2.568685e+00	        5.740825e+01
        2.597455e+00	        5.740627e+01
        2.626548e+00	        5.740426e+01
        2.655967e+00	        5.740223e+01
        2.685715e+00	        5.740030e+01
        2.715796e+00	        5.739835e+01
        2.746214e+00	        5.739638e+01
        2.776973e+00	        5.739439e+01
        2.808077e+00	        5.739237e+01
        2.839529e+00	        5.739077e+01
        2.871333e+00	        5.738932e+01
        2.903493e+00	        5.738784e+01
        2.936014e+00	        5.738635e+01
        2.968899e+00	        5.738484e+01
        3.002152e+00	        5.738332e+01
        3.035777e+00	        5.736901e+01
        3.069779e+00	        5.735252e+01
        3.104162e+00	        5.733585e+01
        3.138931e+00	        5.731900e+01
        3.174088e+00	        5.730195e+01
        3.209640e+00	        5.728472e+01
        3.245589e+00	        5.725781e+01
        3.281941e+00	        5.722863e+01
        3.318701e+00	        5.719912e+01
        3.355872e+00	        5.716928e+01
        3.393459e+00	        5.713911e+01
        3.431468e+00	        5.710860e+01
        3.469902e+00	        5.707775e+01
        3.508766e+00	        5.699780e+01
        3.548066e+00	        5.690212e+01
        3.587806e+00	        5.680537e+01
        3.627992e+00	        5.670754e+01
        3.668627e+00	        5.660861e+01
        3.709717e+00	        5.650857e+01
        3.751268e+00	        5.640641e+01
        3.793284e+00	        5.626476e+01
        3.835771e+00	        5.612152e+01
        3.878733e+00	        5.597668e+01
        3.922177e+00	        5.583022e+01
        3.966107e+00	        5.568212e+01
        4.010530e+00	        5.553236e+01
        4.055449e+00	        5.538092e+01
        4.100872e+00	        5.521254e+01
        4.146804e+00	        5.500600e+01
        4.193250e+00	        5.479714e+01
        4.240217e+00	        5.458594e+01
        4.287709e+00	        5.437238e+01
        4.335734e+00	        5.415642e+01
        4.384296e+00	        5.393805e+01
        4.433403e+00	        5.375340e+01
        4.483059e+00	        5.356777e+01
        4.533271e+00	        5.338007e+01
        4.584046e+00	        5.319026e+01
        4.635390e+00	        5.299833e+01
        4.687308e+00	        5.280425e+01
        4.739809e+00	        5.260800e+01
        4.792897e+00	        5.240955e+01
        4.846580e+00	        5.217653e+01
        4.900864e+00	        5.193598e+01
        4.955756e+00	        5.169273e+01
        5.011263e+00	        5.144676e+01
        5.067391e+00	        5.119803e+01
        5.124149e+00	        5.094652e+01
        5.181542e+00	        5.069219e+01
        5.239577e+00	        5.045594e+01
        5.298263e+00	        5.022290e+01
        5.357606e+00	        4.998724e+01
        5.417614e+00	        4.974894e+01
        5.478294e+00	        4.950798e+01
        5.539654e+00	        4.926431e+01
        5.601701e+00	        4.901792e+01
        5.664442e+00	        4.876877e+01
        5.727887e+00	        4.852005e+01
        5.792042e+00	        4.827023e+01
        5.856916e+00	        4.801761e+01
        5.922516e+00	        4.776215e+01
        5.988851e+00	        4.750384e+01
        6.055929e+00	        4.724263e+01
        6.123759e+00	        4.697850e+01
        6.192348e+00	        4.671141e+01
        6.261705e+00	        4.643403e+01
        6.331839e+00	        4.614037e+01
        6.402759e+00	        4.584343e+01
        6.474473e+00	        4.554316e+01
        6.546991e+00	        4.523953e+01
        6.620320e+00	        4.493250e+01
        6.694471e+00	        4.462203e+01
        6.769452e+00	        4.428897e+01
        6.845274e+00	        4.397143e+01
        6.921944e+00	        4.366063e+01
        6.999473e+00	        4.334778e+01
        7.077871e+00	        4.303203e+01
        7.157146e+00	        4.271433e+01
        7.237310e+00	        4.239341e+01
        7.318371e+00	        4.206932e+01
        7.400341e+00	        4.174164e+01
        7.483228e+00	        4.142222e+01
        7.567044e+00	        4.111247e+01
        7.651799e+00	        4.079951e+01
        7.737503e+00	        4.048348e+01
        7.824166e+00	        4.016439e+01
        7.911801e+00	        3.984216e+01
        8.000417e+00	        3.951658e+01
        8.090026e+00	        3.918736e+01
        8.180638e+00	        3.885461e+01
        8.272265e+00	        3.853484e+01
        8.364918e+00	        3.821153e+01
        8.458610e+00	        3.788459e+01
        8.553350e+00	        3.755401e+01
        8.649152e+00	        3.721991e+01
        8.746027e+00	        3.688207e+01
        8.843987e+00	        3.654044e+01
        8.943044e+00	        3.619499e+01
        9.043210e+00	        3.584901e+01
        9.144499e+00	        3.550169e+01
        9.246921e+00	        3.515049e+01
        9.350492e+00	        3.479535e+01
        9.455222e+00	        3.443624e+01
        9.561125e+00	        3.407314e+01
        9.668214e+00	        3.370598e+01
        9.776503e+00	        3.333470e+01
        9.886005e+00	        3.298797e+01
        9.996733e+00	        3.267852e+01
        1.010870e+01	        3.236571e+01
        1.022192e+01	        3.204939e+01
        1.033641e+01	        3.172953e+01
        1.045219e+01	        3.140609e+01
        1.056926e+01	        3.107902e+01
        1.068764e+01	        3.074829e+01
        1.080734e+01	        3.041387e+01
        1.092839e+01	        3.007153e+01
        1.105080e+01	        2.971179e+01
        1.117457e+01	        2.934803e+01
        1.129973e+01	        2.898021e+01
        1.142629e+01	        2.860837e+01
        1.155427e+01	        2.823235e+01
        1.168369e+01	        2.785213e+01
        1.181455e+01	        2.746765e+01
        1.194688e+01	        2.710816e+01
        1.208069e+01	        2.682216e+01
        1.221600e+01	        2.653301e+01
        1.235282e+01	        2.624061e+01
        1.249118e+01	        2.594495e+01
        1.263109e+01	        2.564597e+01
        1.277256e+01	        2.534364e+01
        1.291562e+01	        2.503795e+01
        1.306028e+01	        2.472890e+01
        1.320657e+01	        2.441639e+01
        1.335449e+01	        2.408473e+01
        1.350406e+01	        2.373789e+01
        1.365531e+01	        2.338718e+01
        1.380826e+01	        2.303253e+01
        1.396292e+01	        2.267392e+01
        1.411931e+01	        2.231131e+01
        1.427746e+01	        2.194465e+01
        1.443737e+01	        2.157388e+01
        1.459908e+01	        2.126138e+01
        1.476259e+01	        2.096196e+01
        1.492794e+01	        2.065918e+01
        1.509514e+01	        2.035304e+01
        1.526421e+01	        2.004341e+01
        1.543518e+01	        1.973036e+01
        1.560806e+01	        1.941382e+01
        1.578288e+01	        1.909374e+01
        1.595966e+01	        1.877612e+01
        1.613841e+01	        1.848989e+01
        1.631917e+01	        1.820045e+01
        1.650195e+01	        1.790776e+01
        1.668678e+01	        1.761180e+01
        1.687368e+01	        1.731252e+01
        1.706268e+01	        1.700990e+01
        1.725379e+01	        1.670388e+01
        1.744704e+01	        1.639444e+01
        1.764245e+01	        1.612764e+01
        1.784006e+01	        1.587483e+01
        1.803988e+01	        1.561919e+01
        1.824193e+01	        1.536068e+01
        1.844625e+01	        1.509928e+01
        1.865286e+01	        1.483495e+01
        1.886178e+01	        1.456766e+01
        1.907304e+01	        1.429738e+01
        1.928667e+01	        1.402406e+01
        1.950269e+01	        1.379425e+01
        1.972113e+01	        1.356259e+01
        1.994201e+01	        1.332834e+01
        2.016537e+01	        1.309147e+01
        2.039124e+01	        1.285194e+01
        2.061963e+01	        1.260973e+01
        2.085058e+01	        1.236481e+01
        2.108411e+01	        1.211715e+01
        2.132027e+01	        1.188811e+01
        2.155906e+01	        1.169027e+01
        2.180054e+01	        1.149021e+01
        2.204471e+01	        1.128791e+01
        2.229162e+01	        1.108334e+01
        2.254130e+01	        1.087649e+01
        2.279378e+01	        1.066731e+01
        2.304908e+01	        1.045578e+01
        2.330724e+01	        1.024187e+01
        2.356829e+01	        1.002932e+01
        2.383227e+01	        9.817612e+00
        2.409920e+01	        9.603529e+00
        2.436912e+01	        9.387048e+00
        2.464207e+01	        9.168142e+00
        2.491807e+01	        8.946784e+00
        2.519717e+01	        8.722892e+00
        2.547939e+01	        8.511584e+00
        2.576477e+01	        8.366564e+00
        2.605335e+01	        8.219920e+00
        2.634516e+01	        8.071634e+00
        2.664024e+01	        7.921686e+00
        2.693862e+01	        7.770056e+00
        2.724035e+01	        7.616678e+00
        2.754545e+01	        7.461554e+00
        2.785397e+01	        7.304701e+00
        2.816595e+01	        7.146094e+00
        2.848142e+01	        7.004081e+00
        2.880043e+01	        6.860889e+00
        2.912301e+01	        6.716094e+00
        2.944920e+01	        6.569678e+00
        2.977905e+01	        6.421623e+00
        3.011259e+01	        6.271849e+00
        3.044986e+01	        6.120396e+00
        3.079092e+01	        5.967247e+00
        3.113579e+01	        5.849132e+00
        3.148453e+01	        5.734477e+00
        3.183717e+01	        5.618540e+00
        3.219376e+01	        5.501304e+00
        3.255435e+01	        5.382754e+00
        3.291897e+01	        5.262832e+00
        3.328768e+01	        5.141521e+00
        3.366052e+01	        5.018853e+00
        3.403753e+01	        4.903973e+00
        3.441877e+01	        4.812299e+00
        3.480428e+01	        4.719599e+00
        3.519410e+01	        4.625860e+00
        3.558829e+01	        4.531072e+00
        3.598690e+01	        4.435216e+00
        3.638997e+01	        4.338160e+00
        3.679756e+01	        4.240016e+00
        3.720971e+01	        4.140773e+00
        3.762647e+01	        4.043702e+00
        3.804791e+01	        3.956311e+00
        3.847406e+01	        3.867941e+00
        3.890499e+01	        3.778582e+00
        3.934075e+01	        3.688221e+00
        3.978138e+01	        3.596865e+00
        4.022696e+01	        3.504488e+00
        4.067752e+01	        3.411076e+00
        4.113313e+01	        3.324241e+00
        4.159384e+01	        3.256434e+00
        4.205971e+01	        3.187868e+00
        4.253080e+01	        3.118361e+00
        4.300716e+01	        3.048164e+00
        4.348887e+01	        2.977212e+00
        4.397596e+01	        2.905318e+00
        4.446851e+01	        2.832558e+00
        4.496658e+01	        2.758994e+00
        4.547023e+01	        2.699266e+00
        4.597952e+01	        2.643240e+00
        4.649451e+01	        2.586588e+00
        4.701528e+01	        2.529306e+00
        4.754187e+01	        2.471385e+00
        4.807436e+01	        2.412956e+00
        4.861282e+01	        2.353930e+00
        4.915731e+01	        2.294246e+00
        4.970789e+01	        2.236325e+00
        5.026464e+01	        2.190062e+00
        5.082763e+01	        2.143280e+00
        5.139693e+01	        2.095974e+00
        5.197260e+01	        2.048140e+00
        5.255472e+01	        1.999771e+00
        5.314336e+01	        1.950850e+00
        5.373859e+01	        1.901134e+00
        5.434049e+01	        1.850863e+00
        5.494913e+01	        1.806414e+00
        5.556458e+01	        1.764725e+00
        5.618694e+01	        1.722570e+00
        5.681626e+01	        1.679944e+00
        5.745263e+01	        1.636840e+00
        5.809612e+01	        1.593300e+00
        5.874683e+01	        1.549401e+00
        5.940482e+01	        1.505011e+00
        6.007019e+01	        1.469485e+00
        6.074300e+01	        1.435930e+00
        6.142335e+01	        1.401821e+00
        6.211133e+01	        1.367492e+00
        6.280700e+01	        1.332870e+00
        6.351047e+01	        1.297878e+00
        6.422182e+01	        1.262560e+00
        6.494114e+01	        1.226890e+00
        6.566851e+01	        1.195338e+00
        6.640403e+01	        1.165697e+00
        6.714779e+01	        1.135730e+00
        6.789988e+01	        1.105442e+00
        6.866039e+01	        1.074822e+00
        6.942942e+01	        1.043868e+00
        7.020706e+01	        1.012662e+00
        7.099342e+01	        9.827442e-01
        7.178858e+01	        9.623316e-01
        7.259264e+01	        9.416934e-01
        7.340572e+01	        9.208240e-01
        7.422790e+01	        8.997226e-01
        7.505929e+01	        8.783891e-01
        7.589999e+01	        8.568170e-01
        7.675011e+01	        8.350036e-01
        7.760974e+01	        8.131068e-01
        7.847901e+01	        7.912892e-01
        7.935802e+01	        7.705889e-01
        8.024686e+01	        7.496568e-01
        8.114567e+01	        7.284934e-01
        8.205454e+01	        7.070969e-01
        8.297359e+01	        6.853525e-01
        8.390294e+01	        6.633818e-01
        8.484269e+01	        6.413663e-01
        8.579297e+01	        6.257551e-01
        8.675389e+01	        6.103110e-01
        8.772558e+01	        5.947047e-01
        8.870815e+01	        5.789297e-01
        8.970173e+01	        5.629819e-01
        9.070643e+01	        5.468622e-01
        9.172239e+01	        5.305643e-01
        9.274972e+01	        5.140835e-01
        9.378856e+01	        5.003362e-01
        9.483904e+01	        4.868844e-01
        9.590129e+01	        4.732855e-01
        9.697543e+01	        4.595371e-01
        9.806160e+01	        4.456376e-01
        9.915994e+01	        4.315828e-01
        1.002706e+02	        4.174980e-01
        1.013937e+02	        4.040289e-01
        1.025293e+02	        3.931097e-01
        1.036777e+02	        3.820692e-01
        1.048389e+02	        3.709050e-01
        1.060132e+02	        3.596169e-01
        1.072006e+02	        3.482027e-01
        1.084013e+02	        3.362694e-01
        1.096154e+02	        3.242825e-01
        1.108432e+02	        3.137453e-01
        1.120847e+02	        3.045367e-01
        1.133401e+02	        2.952430e-01
        1.146095e+02	        2.858820e-01
        1.158932e+02	        2.764359e-01
        1.171913e+02	        2.668972e-01
        1.185039e+02	        2.572529e-01
        1.198312e+02	        2.475097e-01
        1.211734e+02	        2.394034e-01
        1.225306e+02	        2.316186e-01
        1.239030e+02	        2.237578e-01
        1.252907e+02	        2.158245e-01
        1.266941e+02	        2.078144e-01
        1.281131e+02	        1.997255e-01
        1.295480e+02	        1.915471e-01
        1.309990e+02	        1.838561e-01
        1.324663e+02	        1.766028e-01
        1.339500e+02	        1.694912e-01
        1.354503e+02	        1.622999e-01
        1.369674e+02	        1.550221e-01
        1.385015e+02	        1.476641e-01
        1.400528e+02	        1.402963e-01
        1.416214e+02	        1.349485e-01
        1.432077e+02	        1.295413e-01
        1.448117e+02	        1.240786e-01
        1.464336e+02	        1.185571e-01
        1.480737e+02	        1.130618e-01
        1.497322e+02	        1.075066e-01
        1.514093e+02	        1.018894e-01
        1.531052e+02	        9.692591e-02
        1.548200e+02	        9.205373e-02
        1.565541e+02	        8.712722e-02
        1.583076e+02	        8.214598e-02
        1.600807e+02	        7.711798e-02
        1.618737e+02	        7.222059e-02
        1.636867e+02	        6.753833e-02
        1.655201e+02	        6.355359e-02
        1.673740e+02	        5.952428e-02
        1.692487e+02	        5.539297e-02
        1.711444e+02	        5.121624e-02
        1.730613e+02	        4.701112e-02
        1.749996e+02	        4.276986e-02
        1.769597e+02	        4.037533e-02
        1.789418e+02	        3.842871e-02
        1.809460e+02	        3.646393e-02
        1.829727e+02	        3.448178e-02
        1.850221e+02	        3.247805e-02
        1.870944e+02	        3.045347e-02
        1.891900e+02	        2.842331e-02
        1.913090e+02	        2.775831e-02
        1.934517e+02	        2.708766e-02
        1.956185e+02	        2.649426e-02
        1.978095e+02	        2.591787e-02
        2.000251e+02	        2.533679e-02
        2.022655e+02	        2.475776e-02
        2.045309e+02	        2.421781e-02
        2.068218e+02	        2.366779e-02
        2.091383e+02	        2.311944e-02
        2.114807e+02	        2.256785e-02
        2.138494e+02	        2.202283e-02
        2.162446e+02	        2.152895e-02
        2.186667e+02	        2.107480e-02
        2.211159e+02	        2.061595e-02
        2.235925e+02	        2.015214e-02
        2.260968e+02	        1.968478e-02
        2.286292e+02	        1.921299e-02
        2.311900e+02	        1.873618e-02
        2.337794e+02	        1.829932e-02
        2.363979e+02	        1.793437e-02
        2.390456e+02	        1.756580e-02
        2.417231e+02	        1.719394e-02
        2.444305e+02	        1.672052e-02
        2.471682e+02	        1.627912e-02
        2.499366e+02	        1.587041e-02
        2.527360e+02	        1.547098e-02
        2.555668e+02	        1.507133e-02
        2.584293e+02	        1.471538e-02
        2.613238e+02	        1.436602e-02
        2.642508e+02	        1.402047e-02
        2.672105e+02	        1.369545e-02
        2.702034e+02	        1.336951e-02
        2.732298e+02	        1.304209e-02
        2.762901e+02	        1.271277e-02
        2.793847e+02	        1.239128e-02
        2.825139e+02	        1.214475e-02
        2.856782e+02	        1.190160e-02
        2.888780e+02	        1.165272e-02
        2.921136e+02	        1.140667e-02
        2.953854e+02	        1.116091e-02
        2.986938e+02	        1.091389e-02
        3.020393e+02	        1.067744e-02
        3.054223e+02	        1.044847e-02
        3.088432e+02	        1.021747e-02
        3.123024e+02	        9.996498e-03
        3.158004e+02	        9.773316e-03
        3.193375e+02	        9.548129e-03
        3.229142e+02	        9.323062e-03
        3.265310e+02	        9.098261e-03
        3.301883e+02	        8.871596e-03
        3.338866e+02	        8.603645e-03
        3.376263e+02	        8.339836e-03
        3.414079e+02	        8.133196e-03
        3.452318e+02	        7.942800e-03
        3.490986e+02	        7.752980e-03
        3.530086e+02	        7.566137e-03
        3.569625e+02	        7.382282e-03
        3.609607e+02	        7.199563e-03
        3.650036e+02	        7.023675e-03
        3.690918e+02	        6.856370e-03
        3.732258e+02	        6.704206e-03
        3.774062e+02	        6.551545e-03
        3.816333e+02	        6.399032e-03
        3.859078e+02	        6.246794e-03
        3.902301e+02	        6.099791e-03
        3.946009e+02	        5.953949e-03
        3.990206e+02	        5.807092e-03
        4.034898e+02	        5.669370e-03
        4.080091e+02	        5.545833e-03
        4.125790e+02	        5.425763e-03
        4.172001e+02	        5.304435e-03
        4.218730e+02	        5.181775e-03
        4.265982e+02	        5.058614e-03
        4.313763e+02	        4.936298e-03
        4.362079e+02	        4.806845e-03
        4.410936e+02	        4.686506e-03
        4.460341e+02	        4.576312e-03
        4.510299e+02	        4.468093e-03
        4.560817e+02	        4.360851e-03
        4.611900e+02	        4.253736e-03
        4.663556e+02	        4.146466e-03
        4.715790e+02	        4.038819e-03
        4.768609e+02	        3.932532e-03
        4.822020e+02	        3.837363e-03
        4.876029e+02	        3.743703e-03
        4.930643e+02	        3.646547e-03
        4.985868e+02	        3.548487e-03
        5.041712e+02	        3.450679e-03
        5.098182e+02	        3.351736e-03
        5.155284e+02	        3.251646e-03
        5.213026e+02	        3.168858e-03
        5.271414e+02	        3.111401e-03
        5.330457e+02	        3.053559e-03
        5.390161e+02	        2.995227e-03
        5.450533e+02	        2.936402e-03
        5.511582e+02	        2.875371e-03
        5.573314e+02	        2.808841e-03
        5.635738e+02	        2.756223e-03
        5.698861e+02	        2.709120e-03
        5.762691e+02	        2.662130e-03
        5.827236e+02	        2.615446e-03
        5.892504e+02	        2.569121e-03
        5.958503e+02	        2.522525e-03
        6.025241e+02	        2.475818e-03
        6.092727e+02	        2.431265e-03
        6.160968e+02	        2.386709e-03
        6.229974e+02	        2.341936e-03
        6.299753e+02	        2.298028e-03
        6.370313e+02	        2.255442e-03
        6.441664e+02	        2.213182e-03
        6.513814e+02	        2.171078e-03
        6.586772e+02	        2.134462e-03
        6.660547e+02	        2.099401e-03
        6.735148e+02	        2.063993e-03
        6.810585e+02	        2.023939e-03
        6.886867e+02	        1.978955e-03
        6.964003e+02	        1.937568e-03
        7.042004e+02	        1.899626e-03
        7.120878e+02	        1.867538e-03
        7.200635e+02	        1.835876e-03
        7.281286e+02	        1.804625e-03
        7.362840e+02	        1.773443e-03
        7.445307e+02	        1.742181e-03
        7.528698e+02	        1.709251e-03
        7.613023e+02	        1.677754e-03
        7.698293e+02	        1.648533e-03
        7.784518e+02	        1.619612e-03
        7.871708e+02	        1.590948e-03
        7.959875e+02	        1.562391e-03
        8.049030e+02	        1.533830e-03
        8.139183e+02	        1.508523e-03
        8.230346e+02	        1.484891e-03
        8.322529e+02	        1.455442e-03
        8.415746e+02	        1.426864e-03
        8.510006e+02	        1.399430e-03
        8.605323e+02	        1.372964e-03
        8.701706e+02	        1.349009e-03
        8.799170e+02	        1.326586e-03
        8.897725e+02	        1.304217e-03
        8.997384e+02	        1.281820e-03
        9.098159e+02	        1.256404e-03
        9.200063e+02	        1.232190e-03
        9.303108e+02	        1.211093e-03
        9.407307e+02	        1.190968e-03
        9.512674e+02	        1.170969e-03
        9.619221e+02	        1.151212e-03
        9.726961e+02	        1.131495e-03
        9.835907e+02	        1.112446e-03
        9.946074e+02	        1.086867e-03
        1.005748e+03	        1.064708e-03
        1.017012e+03	        1.044206e-03
        1.028403e+03	        1.024410e-03
        1.039922e+03	        1.005369e-03
        1.051570e+03	        9.886990e-04
        1.063348e+03	        9.721315e-04
        1.075258e+03	        9.513068e-04
        1.087301e+03	        9.314332e-04
        1.099480e+03	        9.124994e-04
        1.111794e+03	        8.957382e-04
        1.124247e+03	        8.794756e-04
        1.136839e+03	        8.636389e-04
        1.149572e+03	        8.480410e-04
        1.162448e+03	        7.899582e-04
        1.175468e+03	        7.395327e-04
        1.188634e+03	        6.991172e-04
        1.201947e+03	        6.659449e-04
        1.215409e+03	        6.344423e-04
        1.229023e+03	        6.073748e-04
        1.242788e+03	        5.820630e-04
        1.256708e+03	        5.577163e-04
        1.270784e+03	        5.340015e-04
        1.285017e+03	        5.125112e-04
        1.299410e+03	        4.922475e-04
        1.313964e+03	        4.727382e-04
        1.328681e+03	        4.542119e-04
        1.343563e+03	        4.367404e-04
        1.358612e+03	        4.192030e-04
        1.373829e+03	        4.040552e-04
        1.389216e+03	        3.895196e-04
        1.404776e+03	        3.752455e-04
        1.420510e+03	        3.614169e-04
        1.436421e+03	        3.479591e-04
        1.452509e+03	        3.343681e-04
        1.468778e+03	        3.210681e-04
        1.485229e+03	        3.081782e-04
        1.501865e+03	        2.953304e-04
        1.518686e+03	        2.822102e-04
        1.535696e+03	        2.682184e-04
        1.552897e+03	        2.519228e-04
        1.570290e+03	        2.232519e-04
        1.587878e+03	        2.179636e-04
        1.605663e+03	        2.128738e-04
        1.623647e+03	        2.080933e-04
        1.641833e+03	        2.034168e-04
        1.660222e+03	        1.988179e-04
        1.678818e+03	        1.941936e-04
        1.697621e+03	        1.895327e-04
        1.716635e+03	        1.853357e-04
        1.735863e+03	        1.814039e-04
        1.755305e+03	        1.776332e-04
        1.774965e+03	        1.739036e-04
        1.794846e+03	        1.702526e-04
        1.814949e+03	        1.666275e-04
        1.835277e+03	        1.629785e-04
        1.855833e+03	        1.593160e-04
        1.876620e+03	        1.556320e-04
        1.897639e+03	        1.519572e-04
        1.918893e+03	        1.484117e-04
        1.940386e+03	        1.450325e-04
        1.962119e+03	        1.419237e-04
        1.984096e+03	        1.388454e-04
        2.006319e+03	        1.357557e-04
        2.028790e+03	        1.326564e-04
        2.051514e+03	        1.295616e-04
        2.074492e+03	        1.266527e-04
        2.097727e+03	        1.238826e-04
        2.121223e+03	        1.211503e-04
        2.144981e+03	        1.185311e-04
        2.169006e+03	        1.159287e-04
        2.193300e+03	        1.133188e-04
        2.217866e+03	        1.109009e-04
        2.242707e+03	        1.085379e-04
        2.267827e+03	        1.061705e-04
        2.293228e+03	        1.038600e-04
        2.318913e+03	        1.015787e-04
        2.344886e+03	        9.934779e-05
        2.371150e+03	        9.713334e-05
        2.397708e+03	        9.501195e-05
        2.424563e+03	        9.293617e-05
        2.451720e+03	        9.084187e-05
        2.479180e+03	        8.873008e-05
        2.506948e+03	        8.670838e-05
        2.535027e+03	        8.475033e-05
        2.563421e+03	        8.294588e-05
        2.592132e+03	        8.124339e-05
        2.621165e+03	        7.953349e-05
        2.650524e+03	        7.780620e-05
        2.680211e+03	        7.606129e-05
        2.710231e+03	        7.430054e-05
        2.740587e+03	        7.263813e-05
        2.771282e+03	        7.108223e-05
        2.802322e+03	        6.957984e-05
        2.833710e+03	        6.806105e-05
        2.865449e+03	        6.652546e-05
        2.897543e+03	        6.497370e-05
        2.929997e+03	        6.340996e-05
        2.962814e+03	        6.184765e-05
        2.995999e+03	        6.044877e-05
        3.029556e+03	        5.923514e-05
        3.063488e+03	        5.800833e-05
        3.097801e+03	        5.676796e-05
        3.132498e+03	        5.551444e-05
        3.167583e+03	        5.427250e-05
        3.203062e+03	        5.304532e-05
        3.238938e+03	        5.180788e-05
        3.275216e+03	        5.063699e-05
        3.311900e+03	        4.952497e-05
        3.348994e+03	        4.840399e-05
        3.386505e+03	        4.728839e-05
        3.424435e+03	        4.616530e-05
        3.462791e+03	        4.503378e-05
        3.501576e+03	        4.391149e-05
        3.540795e+03	        4.289528e-05
        3.580454e+03	        4.194754e-05
        3.620557e+03	        4.103351e-05
        3.661109e+03	        4.013018e-05
        3.702115e+03	        3.921680e-05
        3.743580e+03	        3.829523e-05
        3.785510e+03	        3.738667e-05
        3.827910e+03	        3.648191e-05
        3.870784e+03	        3.562258e-05
        3.914139e+03	        3.479757e-05
        3.957979e+03	        3.400559e-05
        4.002311e+03	        3.321124e-05
        4.047138e+03	        3.243967e-05
        4.092468e+03	        3.166770e-05
        4.138306e+03	        3.090251e-05
        4.184657e+03	        3.014185e-05
        4.231527e+03	        2.941747e-05
        4.278923e+03	        2.871471e-05
        4.326849e+03	        2.801634e-05
        4.375311e+03	        2.732308e-05
        4.424317e+03	        2.662548e-05
        4.473872e+03	        2.592465e-05
        4.523981e+03	        2.521680e-05
        4.574652e+03	        2.456136e-05
        4.625890e+03	        2.394538e-05
        4.677703e+03	        2.335458e-05
        4.730095e+03	        2.277084e-05
        4.783075e+03	        2.218060e-05
        4.836647e+03	        2.158001e-05
        4.890820e+03	        2.098282e-05
        4.945600e+03	        2.038920e-05
        5.000993e+03	        1.982002e-05
        5.057007e+03	        1.924115e-05
        5.113648e+03	        1.858925e-05
        5.170923e+03	        1.798911e-05
        5.228840e+03	        1.753599e-05
        5.287405e+03	        1.708788e-05
        5.346627e+03	        1.663605e-05
        5.406512e+03	        1.619147e-05
        5.467067e+03	        1.579182e-05
        5.528301e+03	        1.539919e-05
        5.590221e+03	        1.501106e-05
        5.652834e+03	        1.462312e-05
        5.716149e+03	        1.423230e-05
        5.780172e+03	        1.384032e-05
        5.844913e+03	        1.344584e-05
        5.910379e+03	        1.306784e-05
        5.976578e+03	        1.270851e-05
        6.043519e+03	        1.235681e-05
        6.111209e+03	        1.199289e-05
        6.179658e+03	        1.161326e-05
        6.248873e+03	        1.115720e-05
        6.318863e+03	        1.084903e-05
        6.389638e+03	        1.054994e-05
        6.461205e+03	        1.027757e-05
        6.533574e+03	        1.001073e-05
        6.606753e+03	        9.741798e-06
        6.680752e+03	        9.474420e-06
        6.755579e+03	        9.207795e-06
        6.831245e+03	        8.941361e-06
        6.907759e+03	        8.671410e-06
        6.985129e+03	        8.406526e-06
        7.063366e+03	        8.146946e-06
        7.142479e+03	        7.878685e-06
        7.222478e+03	        7.600812e-06
        7.303374e+03	        7.278586e-06
        7.385175e+03	        6.915650e-06
        7.467893e+03	        6.725439e-06
        7.551537e+03	        6.551543e-06
        7.636118e+03	        6.395457e-06
        7.721646e+03	        6.242859e-06
        7.808132e+03	        6.091616e-06
        7.895587e+03	        5.939041e-06
        7.984022e+03	        5.784804e-06
        8.073446e+03	        5.635254e-06
        8.163873e+03	        5.489625e-06
        8.255312e+03	        5.344049e-06
        8.347776e+03	        5.200908e-06
        8.441275e+03	        5.056933e-06
        8.535822e+03	        4.911610e-06
        8.631427e+03	        4.767632e-06
        8.728103e+03	        4.624040e-06
        8.825862e+03	        4.479896e-06
        8.924716e+03	        4.346684e-06
        9.024678e+03	        4.223517e-06
        9.125758e+03	        4.103247e-06
        9.227971e+03	        3.982680e-06
        9.331329e+03	        3.858936e-06
        9.435845e+03	        3.731232e-06
        9.541531e+03	        3.599174e-06
        9.648401e+03	        3.432876e-06
        9.756468e+03	        3.341356e-06
        9.865745e+03	        3.251174e-06
        9.976246e+03	        3.160689e-06
        1.008798e+04	        3.069302e-06
        1.020098e+04	        2.979006e-06
        1.031523e+04	        2.890511e-06
        1.043077e+04	        2.803770e-06
        1.054760e+04	        2.725671e-06
        1.066573e+04	        2.648157e-06
        1.078520e+04	        2.569664e-06
        1.090600e+04	        2.490637e-06
        1.102815e+04	        2.412950e-06
        1.115167e+04	        2.334824e-06
        1.127657e+04	        2.257647e-06
        1.140288e+04	        2.186436e-06
        1.153059e+04	        2.114603e-06
        1.165974e+04	        2.041131e-06
        1.179034e+04	        1.964950e-06
        1.192240e+04	        1.880984e-06
        1.205593e+04	        1.777476e-06
        1.219096e+04	        1.722655e-06
        1.232751e+04	        1.675226e-06
        1.246558e+04	        1.628103e-06
        1.260520e+04	        1.580473e-06
        1.274639e+04	        1.532279e-06
        1.288915e+04	        1.483398e-06
        1.303352e+04	        1.434340e-06
        1.317950e+04	        1.383795e-06
        1.332712e+04	        1.335710e-06
        1.347639e+04	        1.289786e-06
        1.362733e+04	        1.242611e-06
        1.377996e+04	        1.193185e-06
        1.393431e+04	        1.141490e-06
        1.409038e+04	        1.084919e-06
        1.424820e+04	        1.034009e-06
        1.440778e+04	        1.007700e-06
        1.456916e+04	        9.812231e-07
        1.473234e+04	        9.544774e-07
        1.489735e+04	        9.275937e-07
        1.506421e+04	        9.005294e-07
        1.523293e+04	        8.747313e-07
        1.540355e+04	        8.496368e-07
        1.557608e+04	        8.245325e-07
        1.575054e+04	        7.991528e-07
        1.592695e+04	        7.734467e-07
        1.610534e+04	        7.477685e-07
        1.628573e+04	        7.250391e-07
        1.646814e+04	        7.022940e-07
        1.665259e+04	        6.774617e-07
        1.683910e+04	        6.572795e-07
        1.702771e+04	        6.369616e-07
        1.721843e+04	        6.168996e-07
        1.741128e+04	        5.995511e-07
        1.760630e+04	        5.820956e-07
        1.780350e+04	        5.644185e-07
        1.800291e+04	        5.466738e-07
        1.820455e+04	        5.289343e-07
        1.840845e+04	        5.120236e-07
        1.861463e+04	        4.955614e-07
        1.882312e+04	        4.788594e-07
        1.903395e+04	        4.617186e-07
        1.924714e+04	        4.448748e-07
        1.946272e+04	        4.298830e-07
        1.968071e+04	        4.156810e-07
        1.990114e+04	        4.013030e-07
        2.012405e+04	        3.868019e-07
        2.034945e+04	        3.719396e-07
        2.057737e+04	        3.586960e-07
        2.080785e+04	        3.455360e-07
        2.104091e+04	        3.321941e-07
        2.127657e+04	        3.184701e-07
        2.151488e+04	        3.045404e-07
        2.175586e+04	        2.916951e-07
        2.199954e+04	        2.801279e-07
        2.224594e+04	        2.684503e-07
        2.249511e+04	        2.568703e-07
        2.274706e+04	        2.457424e-07
        2.300184e+04	        2.343913e-07
        2.325947e+04	        2.230379e-07
        2.351999e+04	        2.116170e-07
        2.378343e+04	        2.015616e-07
        2.404981e+04	        1.914026e-07
        2.431918e+04	        1.811385e-07
        2.459157e+04	        1.708232e-07
        2.486701e+04	        1.603639e-07
        2.514553e+04	        1.502851e-07
        2.542717e+04	        1.406247e-07
        2.571197e+04	        1.305971e-07
        2.599996e+04	        1.195122e-07
        2.629117e+04	        1.102936e-07
        2.658564e+04	        1.007242e-07
        2.688341e+04	        9.067953e-08
        2.718452e+04	        7.956409e-08
        2.748900e+04	        6.824761e-08
        2.779689e+04	        5.638521e-08
        2.810823e+04	        4.151356e-08
        2.842306e+04	        1.483707e-08
        2.874141e+04	        4.728414e-09
        2.906333e+04	        4.301502e-09
        2.938885e+04	        3.832432e-09
        2.971802e+04	        3.292224e-09
        3.005088e+04	        2.812356e-09
        3.038746e+04	        2.275651e-09
        3.072782e+04	        1.545556e-09
        3.107198e+04	        3.254223e-10
        3.142000e+04	        3.036088e-10
        3.177192e+04	        2.800493e-10
        3.212779e+04	        2.517294e-10
        3.248763e+04	        2.248175e-10
        3.285151e+04	        2.068914e-10
        3.321946e+04	        1.860195e-10
        3.359154e+04	        1.529576e-10
        3.396778e+04	        1.452017e-10
        3.434823e+04	        1.387113e-10
        3.473295e+04	        1.320014e-10
        3.512198e+04	        1.227734e-10
        3.551536e+04	        1.181299e-10
        3.591315e+04	        1.134622e-10
        3.631540e+04	        1.087040e-10
        3.672215e+04	        1.040714e-10
        3.713345e+04	        9.935088e-11
        3.754937e+04	        9.405968e-11
        3.796994e+04	        8.945691e-11
        3.839522e+04	        8.557161e-11
        3.882526e+04	        8.102449e-11
        3.926013e+04	        7.726974e-11
        3.969986e+04	        7.412059e-11
        4.014452e+04	        7.046183e-11
        4.059416e+04	        6.776258e-11
        4.104883e+04	        6.505151e-11
        4.150860e+04	        6.215183e-11
        4.197351e+04	        5.968471e-11
        4.244364e+04	        5.692376e-11
        4.291903e+04	        5.410369e-11
        4.339974e+04	        5.214279e-11
        4.388584e+04	        5.013884e-11
        4.437738e+04	        4.826846e-11
        4.487443e+04	        4.638440e-11
        4.537705e+04	        4.436580e-11
        4.588529e+04	        4.283941e-11
        4.639923e+04	        4.129388e-11
        4.691893e+04	        3.982283e-11
        4.744444e+04	        3.836874e-11
        4.797584e+04	        3.688736e-11
        4.851319e+04	        3.557926e-11
        4.905657e+04	        3.426906e-11
        4.960602e+04	        3.297498e-11
        5.016164e+04	        3.162648e-11
        5.072347e+04	        3.038189e-11
        5.129160e+04	        2.911973e-11
        5.186609e+04	        2.802898e-11
        5.244702e+04	        2.691841e-11
        5.303445e+04	        2.583554e-11
        5.362846e+04	        2.472479e-11
        5.422913e+04	        2.367377e-11
        5.483652e+04	        2.266284e-11
        5.545071e+04	        2.166441e-11
        5.607179e+04	        2.061540e-11
        5.669982e+04	        1.964762e-11
        5.733489e+04	        1.875436e-11
        5.797707e+04	        1.785856e-11
        5.862644e+04	        1.687869e-11
        5.928308e+04	        1.607145e-11
        5.994708e+04	        1.530864e-11
        6.061852e+04	        1.458109e-11
        6.129748e+04	        1.379317e-11
        6.198404e+04	        1.313234e-11
        6.267829e+04	        1.243608e-11
        6.338032e+04	        1.167483e-11
        6.409021e+04	        1.096385e-11
        6.480805e+04	        1.044240e-11
        6.553393e+04	        9.939513e-12
        6.626795e+04	        9.401308e-12
        6.701018e+04	        8.958636e-12
        6.776073e+04	        8.504653e-12
        6.851968e+04	        8.021089e-12
        6.928713e+04	        7.612886e-12
        7.006318e+04	        7.207064e-12
        7.084793e+04	        6.785890e-12
        7.164146e+04	        6.378934e-12
        7.244388e+04	        6.009953e-12
        7.325529e+04	        5.639007e-12
        7.407578e+04	        5.269449e-12
        7.490547e+04	        4.930325e-12
        7.574444e+04	        4.587475e-12
        7.659282e+04	        4.248188e-12
        7.745070e+04	        3.936246e-12
        7.831818e+04	        3.633496e-12
        7.919539e+04	        3.347826e-12
        8.008241e+04	        3.069907e-12
        8.097938e+04	        2.756957e-12
        8.188638e+04	        2.485243e-12
        8.280355e+04	        2.197617e-12
        8.373099e+04	        1.894317e-12
        8.466882e+04	        1.648509e-12
        8.561715e+04	        1.356007e-12
        8.657611e+04	        1.138805e-12
        8.754580e+04	        9.038593e-13
        8.852636e+04	        6.969267e-13
        8.951790e+04	        5.662908e-13
        9.052054e+04	        4.307914e-13
        9.153442e+04	        3.058690e-13
        9.255965e+04	        1.552052e-13
        9.359636e+04	        5.892082e-14
        9.464469e+04	        4.847524e-14
        9.570475e+04	        4.435099e-14
        9.677669e+04	        4.019742e-14
        9.786064e+04	        3.579739e-14
        9.895673e+04	        3.125571e-14
        1.000651e+05	        2.608953e-14
        1.011859e+05	        1.973286e-14
        1.023192e+05	        1.008378e-14
        1.034652e+05	        5.697739e-15
        1.046241e+05	        1.692860e-15
        1.057959e+05	        0.000000e+00
        1.069809e+05	        0.000000e+00
        1.081791e+05	        0.000000e+00
        1.093908e+05	        0.000000e+00

