# -------------------------------------------------------------------------------
#		C:/Users/Michael Chadolias/Documents/CubeSat/Radiation Analysis (Viyas Da Best)/Scenarios/CDR/SSO_500km/Proton and Ion differential flux.txt
# -------------------------------------------------------------------------------
# ID: 1 2 1

# Graph: Proton and Ion differential flux 
# min: 0.0101145 1.0179e-17 max: 5973.83 6.07745e+08
# X-axis L: Energy (MeV/nuc)
# Y-axis L: flux (ion..cm^{-2}.s^{-1}.(MeV/nuc)^{-1})
# -------------------------------------------------------------------------------
# Curve 0: Diff flux - SAPPHIRE-ions, Z=1
# Params: 2 5 #7def21 1 1
#	Energy (MeV/nuc)		flux (ion..cm^{-2}.s^{-1}.(MeV/nuc)^{-1})
# -------------------------------------------------------------------------------
        1.000000e-01	        4.395979e+07
        2.500000e-01	        8.045287e+06
        6.300000e-01	        1.400246e+06
        1.600000e+00	        2.268493e+05
        4.000000e+00	        3.808886e+04
        1.000000e+01	        5.265226e+03
        2.500000e+01	        5.588587e+02
        6.300000e+01	        3.331288e+01
        1.600000e+02	        1.004511e+00
        4.000000e+02	        7.346700e-02
        1.000000e+03	        4.041962e-03

# -------------------------------------------------------------------------------
# Curve 1: Diff flux - SAPPHIRE-ions, Z=2
# Params: 2 5 #ff963e 1 1
#	Energy (MeV/nuc)		flux (ion..cm^{-2}.s^{-1}.(MeV/nuc)^{-1})
# -------------------------------------------------------------------------------
        1.000000e-01	        1.012197e+06
        2.500000e-01	        1.807064e+05
        6.300000e-01	        3.016024e+04
        1.600000e+00	        4.557642e+03
        4.000000e+00	        7.052692e+02
        1.000000e+01	        9.768324e+01
        2.500000e+01	        8.966973e+00
        6.300000e+01	        1.954591e-01
        1.600000e+02	        2.432607e-03
        4.000000e+02	        7.702274e-05
        1.000000e+03	        2.147499e-06

# -------------------------------------------------------------------------------
# Curve 2: Diff flux - SAPPHIRE-ions, Z=3
# Params: 2 5 #1bcdff 1 1
#	Energy (MeV/nuc)		flux (ion..cm^{-2}.s^{-1}.(MeV/nuc)^{-1})
# -------------------------------------------------------------------------------
        1.000000e-01	        5.668305e-04
        2.500000e-01	        1.011956e-04
        6.300000e-01	        1.688973e-05
        1.600000e+00	        2.552280e-06
        4.000000e+00	        3.949507e-07
        1.000000e+01	        6.291778e-08
        2.500000e+01	        8.216437e-09
        6.300000e+01	        2.912340e-10
        1.600000e+02	        5.500125e-12
        4.000000e+02	        1.848546e-13
        1.000000e+03	        5.153998e-15

# -------------------------------------------------------------------------------
# Curve 3: Diff flux - SAPPHIRE-ions, Z=4
# Params: 2 5 #c314fe 1 1
#	Energy (MeV/nuc)		flux (ion..cm^{-2}.s^{-1}.(MeV/nuc)^{-1})
# -------------------------------------------------------------------------------
        1.000000e-01	        1.214637e-03
        2.500000e-01	        2.168476e-04
        6.300000e-01	        3.619229e-05
        1.600000e+00	        5.469170e-06
        4.000000e+00	        8.463230e-07
        1.000000e+01	        1.346075e-07
        2.500000e+01	        1.753940e-08
        6.300000e+01	        6.237099e-10
        1.600000e+02	        1.176895e-11
        4.000000e+02	        3.951267e-13
        1.000000e+03	        1.101667e-14

# -------------------------------------------------------------------------------
# Curve 4: Diff flux - SAPPHIRE-ions, Z=5
# Params: 2 5 #14ce57 1 1
#	Energy (MeV/nuc)		flux (ion..cm^{-2}.s^{-1}.(MeV/nuc)^{-1})
# -------------------------------------------------------------------------------
        1.000000e-01	        2.530493e-02
        2.500000e-01	        4.517659e-03
        6.300000e-01	        7.540060e-04
        1.600000e+00	        1.139411e-04
        4.000000e+00	        1.763173e-05
        1.000000e+01	        2.807416e-06
        2.500000e+01	        3.673769e-07
        6.300000e+01	        1.302344e-08
        1.600000e+02	        2.449635e-10
        4.000000e+02	        8.241434e-12
        1.000000e+03	        2.297824e-13

# -------------------------------------------------------------------------------
# Curve 5: Diff flux - SAPPHIRE-ions, Z=6
# Params: 2 5 #ff5b17 1 1
#	Energy (MeV/nuc)		flux (ion..cm^{-2}.s^{-1}.(MeV/nuc)^{-1})
# -------------------------------------------------------------------------------
        1.000000e-01	        5.830256e+03
        2.500000e-01	        1.040869e+03
        6.300000e-01	        1.737230e+02
        1.600000e+00	        2.625202e+01
        4.000000e+00	        4.062350e+00
        1.000000e+01	        6.481283e-01
        2.500000e+01	        8.462132e-02
        6.300000e+01	        3.010070e-03
        1.600000e+02	        5.667974e-05
        4.000000e+02	        1.902462e-06
        1.000000e+03	        5.304323e-08

# -------------------------------------------------------------------------------
# Curve 6: Diff flux - SAPPHIRE-ions, Z=7
# Params: 2 5 #3690cb 1 1
#	Energy (MeV/nuc)		flux (ion..cm^{-2}.s^{-1}.(MeV/nuc)^{-1})
# -------------------------------------------------------------------------------
        1.000000e-01	        2.216712e+03
        2.500000e-01	        3.957469e+02
        6.300000e-01	        6.605092e+01
        1.600000e+00	        9.981236e+00
        4.000000e+00	        1.544539e+00
        1.000000e+01	        2.179313e-01
        2.500000e+01	        2.109032e-02
        6.300000e+01	        4.868885e-04
        1.600000e+02	        5.928263e-06
        4.000000e+02	        1.833141e-07
        1.000000e+03	        5.111048e-09

# -------------------------------------------------------------------------------
# Curve 7: Diff flux - SAPPHIRE-ions, Z=8
# Params: 2 5 #e086ff 1 1
#	Energy (MeV/nuc)		flux (ion..cm^{-2}.s^{-1}.(MeV/nuc)^{-1})
# -------------------------------------------------------------------------------
        1.000000e-01	        1.356344e+04
        2.500000e-01	        2.421465e+03
        6.300000e-01	        4.041472e+02
        1.600000e+00	        6.107240e+01
        4.000000e+00	        9.450607e+00
        1.000000e+01	        1.409569e+00
        2.500000e+01	        1.575497e-01
        6.300000e+01	        4.696881e-03
        1.600000e+02	        8.844959e-05
        4.000000e+02	        3.311978e-06
        1.000000e+03	        9.234246e-08

# -------------------------------------------------------------------------------
# Curve 8: Diff flux - SAPPHIRE-ions, Z=9
# Params: 2 5 #14bf4c 1 1
#	Energy (MeV/nuc)		flux (ion..cm^{-2}.s^{-1}.(MeV/nuc)^{-1})
# -------------------------------------------------------------------------------
        1.000000e-01	        6.650136e-01
        2.500000e-01	        1.187241e-01
        6.300000e-01	        1.981528e-02
        1.600000e+00	        2.994371e-03
        4.000000e+00	        4.633618e-04
        1.000000e+01	        6.909136e-05
        2.500000e+01	        7.710700e-06
        6.300000e+01	        2.300553e-07
        1.600000e+02	        4.325175e-09
        4.000000e+02	        1.617478e-10
        1.000000e+03	        4.509748e-12

# -------------------------------------------------------------------------------
# Curve 9: Diff flux - SAPPHIRE-ions, Z=10
# Params: 2 5 #fe1448 1 1
#	Energy (MeV/nuc)		flux (ion..cm^{-2}.s^{-1}.(MeV/nuc)^{-1})
# -------------------------------------------------------------------------------
        1.000000e-01	        2.732933e+03
        2.500000e-01	        4.879072e+02
        6.300000e-01	        8.143264e+01
        1.600000e+00	        1.230563e+01
        4.000000e+00	        1.904227e+00
        1.000000e+01	        2.721455e-01
        2.500000e+01	        2.687402e-02
        6.300000e+01	        6.457967e-04
        1.600000e+02	        9.163631e-06
        4.000000e+02	        3.142528e-07
        1.000000e+03	        8.761796e-09

# -------------------------------------------------------------------------------
# Curve 10: Diff flux - SAPPHIRE-ions, Z=11
# Params: 2 5 #169ced 1 1
#	Energy (MeV/nuc)		flux (ion..cm^{-2}.s^{-1}.(MeV/nuc)^{-1})
# -------------------------------------------------------------------------------
        1.000000e-01	        1.680247e+02
        2.500000e-01	        2.999726e+01
        6.300000e-01	        5.006600e+00
        1.600000e+00	        7.565686e-01
        4.000000e+00	        1.170747e-01
        1.000000e+01	        1.766113e-02
        2.500000e+01	        2.023846e-03
        6.300000e+01	        6.426694e-05
        1.600000e+02	        1.485107e-06
        4.000000e+02	        6.778001e-08
        1.000000e+03	        1.889799e-09

# -------------------------------------------------------------------------------
# Curve 11: Diff flux - SAPPHIRE-ions, Z=12
# Params: 2 5 #c967d0 1 1
#	Energy (MeV/nuc)		flux (ion..cm^{-2}.s^{-1}.(MeV/nuc)^{-1})
# -------------------------------------------------------------------------------
        1.000000e-01	        3.158055e+03
        2.500000e-01	        5.638039e+02
        6.300000e-01	        9.409995e+01
        1.600000e+00	        1.421984e+01
        4.000000e+00	        2.200440e+00
        1.000000e+01	        3.263597e-01
        2.500000e+01	        3.532091e-02
        6.300000e+01	        1.013260e-03
        1.600000e+02	        2.542074e-05
        4.000000e+02	        1.632882e-06
        1.000000e+03	        4.552698e-08

# -------------------------------------------------------------------------------
# Curve 12: Diff flux - SAPPHIRE-ions, Z=13
# Params: 2 5 #7def21 1 1
#	Energy (MeV/nuc)		flux (ion..cm^{-2}.s^{-1}.(MeV/nuc)^{-1})
# -------------------------------------------------------------------------------
        1.000000e-01	        2.540615e+02
        2.500000e-01	        4.535730e+01
        6.300000e-01	        7.570220e+00
        1.600000e+00	        1.143968e+00
        4.000000e+00	        1.770226e-01
        1.000000e+01	        2.670660e-02
        2.500000e+01	        3.066705e-03
        6.300000e+01	        9.745589e-05
        1.600000e+02	        2.247242e-06
        4.000000e+02	        1.024402e-07
        1.000000e+03	        2.856174e-09

# -------------------------------------------------------------------------------
# Curve 13: Diff flux - SAPPHIRE-ions, Z=14
# Params: 2 5 #ff963e 1 1
#	Energy (MeV/nuc)		flux (ion..cm^{-2}.s^{-1}.(MeV/nuc)^{-1})
# -------------------------------------------------------------------------------
        1.000000e-01	        2.479883e+03
        2.500000e-01	        4.427306e+02
        6.300000e-01	        7.389259e+01
        1.600000e+00	        1.116622e+01
        4.000000e+00	        1.727909e+00
        1.000000e+01	        2.608143e-01
        2.500000e+01	        2.995866e-02
        6.300000e+01	        9.516902e-04
        1.600000e+02	        2.195671e-05
        4.000000e+02	        1.001296e-06
        1.000000e+03	        2.791749e-08

# -------------------------------------------------------------------------------
# Curve 14: Diff flux - SAPPHIRE-ions, Z=15
# Params: 2 5 #1bcdff 1 1
#	Energy (MeV/nuc)		flux (ion..cm^{-2}.s^{-1}.(MeV/nuc)^{-1})
# -------------------------------------------------------------------------------
        1.000000e-01	        1.062807e+01
        2.500000e-01	        1.897417e+00
        6.300000e-01	        3.166825e-01
        1.600000e+00	        4.785524e-02
        4.000000e+00	        7.405326e-03
        1.000000e+01	        1.113589e-03
        2.500000e+01	        1.280484e-04
        6.300000e+01	        4.055775e-06
        1.600000e+02	        9.370402e-08
        4.000000e+02	        4.274762e-09
        1.000000e+03	        1.191862e-10

# -------------------------------------------------------------------------------
# Curve 15: Diff flux - SAPPHIRE-ions, Z=16
# Params: 2 5 #c314fe 1 1
#	Energy (MeV/nuc)		flux (ion..cm^{-2}.s^{-1}.(MeV/nuc)^{-1})
# -------------------------------------------------------------------------------
        1.000000e-01	        1.730857e+02
        2.500000e-01	        3.090079e+01
        6.300000e-01	        5.157401e+00
        1.600000e+00	        7.793568e-01
        4.000000e+00	        1.206010e-01
        1.000000e+01	        1.818862e-02
        2.500000e+01	        2.085718e-03
        6.300000e+01	        6.624108e-05
        1.600000e+02	        1.529867e-06
        4.000000e+02	        6.978261e-08
        1.000000e+03	        1.945634e-09

# -------------------------------------------------------------------------------
# Curve 16: Diff flux - SAPPHIRE-ions, Z=17
# Params: 2 5 #14ce57 1 1
#	Energy (MeV/nuc)		flux (ion..cm^{-2}.s^{-1}.(MeV/nuc)^{-1})
# -------------------------------------------------------------------------------
        1.000000e-01	        3.846350e+00
        2.500000e-01	        6.866842e-01
        6.300000e-01	        1.146089e-01
        1.600000e+00	        1.731904e-02
        4.000000e+00	        2.680023e-03
        1.000000e+01	        4.045063e-04
        2.500000e+01	        4.639512e-05
        6.300000e+01	        1.474348e-06
        1.600000e+02	        3.398352e-08
        4.000000e+02	        1.555859e-09
        1.000000e+03	        4.337948e-11

# -------------------------------------------------------------------------------
# Curve 17: Diff flux - SAPPHIRE-ions, Z=18
# Params: 2 5 #ff5b17 1 1
#	Energy (MeV/nuc)		flux (ion..cm^{-2}.s^{-1}.(MeV/nuc)^{-1})
# -------------------------------------------------------------------------------
        1.000000e-01	        1.771345e+01
        2.500000e-01	        3.162361e+00
        6.300000e-01	        5.278042e-01
        1.600000e+00	        7.975874e-02
        4.000000e+00	        1.234221e-02
        1.000000e+01	        1.857935e-03
        2.500000e+01	        2.137726e-04
        6.300000e+01	        6.786339e-06
        1.600000e+02	        1.565139e-07
        4.000000e+02	        7.147711e-09
        1.000000e+03	        1.992879e-10

# -------------------------------------------------------------------------------
# Curve 18: Diff flux - SAPPHIRE-ions, Z=19
# Params: 2 5 #3690cb 1 1
#	Energy (MeV/nuc)		flux (ion..cm^{-2}.s^{-1}.(MeV/nuc)^{-1})
# -------------------------------------------------------------------------------
        1.000000e-01	        2.641835e+01
        2.500000e-01	        4.716436e+00
        6.300000e-01	        7.871822e-01
        1.600000e+00	        1.189545e-01
        4.000000e+00	        1.840752e-02
        1.000000e+01	        2.778111e-03
        2.500000e+01	        3.189552e-04
        6.300000e+01	        1.012478e-05
        1.600000e+02	        2.337249e-07
        4.000000e+02	        1.070616e-08
        1.000000e+03	        2.985024e-10

# -------------------------------------------------------------------------------
# Curve 19: Diff flux - SAPPHIRE-ions, Z=20
# Params: 2 5 #e086ff 1 1
#	Energy (MeV/nuc)		flux (ion..cm^{-2}.s^{-1}.(MeV/nuc)^{-1})
# -------------------------------------------------------------------------------
        1.000000e-01	        2.824030e+02
        2.500000e-01	        5.041708e+01
        6.300000e-01	        8.414707e+00
        1.600000e+00	        1.271582e+00
        4.000000e+00	        1.967701e-01
        1.000000e+01	        3.037949e-02
        2.500000e+01	        3.584996e-03
        6.300000e+01	        1.084407e-04
        1.600000e+02	        1.942437e-06
        4.000000e+02	        7.394183e-08
        1.000000e+03	        2.061599e-09

# -------------------------------------------------------------------------------
# Curve 20: Diff flux - SAPPHIRE-ions, Z=21
# Params: 2 5 #14bf4c 1 1
#	Energy (MeV/nuc)		flux (ion..cm^{-2}.s^{-1}.(MeV/nuc)^{-1})
# -------------------------------------------------------------------------------
        1.000000e-01	        1.508174e-01
        2.500000e-01	        2.692525e-02
        6.300000e-01	        4.493876e-03
        1.600000e+00	        6.790887e-04
        4.000000e+00	        1.050851e-04
        1.000000e+01	        1.616658e-05
        2.500000e+01	        1.916242e-06
        6.300000e+01	        5.781679e-08
        1.600000e+02	        1.037020e-09
        4.000000e+02	        3.943564e-11
        1.000000e+03	        1.099520e-12

# -------------------------------------------------------------------------------
# Curve 21: Diff flux - SAPPHIRE-ions, Z=22
# Params: 2 5 #fe1448 1 1
#	Energy (MeV/nuc)		flux (ion..cm^{-2}.s^{-1}.(MeV/nuc)^{-1})
# -------------------------------------------------------------------------------
        1.000000e-01	        2.743055e+01
        2.500000e-01	        4.897143e+00
        6.300000e-01	        8.173425e-01
        1.600000e+00	        1.235121e-01
        4.000000e+00	        1.911279e-02
        1.000000e+01	        2.949057e-03
        2.500000e+01	        3.486359e-04
        6.300000e+01	        1.051765e-05
        1.600000e+02	        1.887217e-07
        4.000000e+02	        7.178520e-09
        1.000000e+03	        2.001469e-10

# -------------------------------------------------------------------------------
# Curve 22: Diff flux - SAPPHIRE-ions, Z=23
# Params: 2 5 #169ced 1 1
#	Energy (MeV/nuc)		flux (ion..cm^{-2}.s^{-1}.(MeV/nuc)^{-1})
# -------------------------------------------------------------------------------
        1.000000e-01	        9.079409e-01
        2.500000e-01	        1.620936e-01
        6.300000e-01	        2.705373e-02
        1.600000e+00	        4.088205e-03
        4.000000e+00	        6.326264e-04
        1.000000e+01	        9.778093e-05
        2.500000e+01	        1.156740e-05
        6.300000e+01	        3.483080e-07
        1.600000e+02	        6.251800e-09
        4.000000e+02	        2.380003e-10
        1.000000e+03	        6.635772e-12

# -------------------------------------------------------------------------------
# Curve 23: Diff flux - SAPPHIRE-ions, Z=24
# Params: 2 5 #c967d0 1 1
#	Energy (MeV/nuc)		flux (ion..cm^{-2}.s^{-1}.(MeV/nuc)^{-1})
# -------------------------------------------------------------------------------
        1.000000e-01	        1.690369e+02
        2.500000e-01	        3.017796e+01
        6.300000e-01	        5.036760e+00
        1.600000e+00	        7.611262e-01
        4.000000e+00	        1.177799e-01
        1.000000e+01	        1.815931e-02
        2.500000e+01	        2.145797e-03
        6.300000e+01	        6.487286e-05
        1.600000e+02	        1.163759e-06
        4.000000e+02	        4.428808e-08
        1.000000e+03	        1.234812e-09

# -------------------------------------------------------------------------------
# Curve 24: Diff flux - SAPPHIRE-ions, Z=25
# Params: 2 5 #7def21 1 1
#	Energy (MeV/nuc)		flux (ion..cm^{-2}.s^{-1}.(MeV/nuc)^{-1})
# -------------------------------------------------------------------------------
        1.000000e-01	        2.874640e+01
        2.500000e-01	        5.132061e+00
        6.300000e-01	        8.565508e-01
        1.600000e+00	        1.294370e-01
        4.000000e+00	        2.002964e-02
        1.000000e+01	        3.089721e-03
        2.500000e+01	        3.646868e-04
        6.300000e+01	        1.101412e-05
        1.600000e+02	        1.975763e-07
        4.000000e+02	        7.517420e-09
        1.000000e+03	        2.095959e-10

# -------------------------------------------------------------------------------
# Curve 25: Diff flux - SAPPHIRE-ions, Z=26
# Params: 2 5 #ff963e 1 1
#	Energy (MeV/nuc)		flux (ion..cm^{-2}.s^{-1}.(MeV/nuc)^{-1})
# -------------------------------------------------------------------------------
        1.000000e-01	        3.552812e+03
        2.500000e-01	        6.342794e+02
        6.300000e-01	        1.058624e+02
        1.600000e+00	        1.599732e+01
        4.000000e+00	        2.475495e+00
        1.000000e+01	        3.824299e-01
        2.500000e+01	        4.520251e-02
        6.300000e+01	        1.364109e-03
        1.600000e+02	        2.442338e-05
        4.000000e+02	        9.319752e-07
        1.000000e+03	        2.598474e-08

# -------------------------------------------------------------------------------
# Curve 26: Diff flux - SAPPHIRE-ions, Z=27
# Params: 2 5 #1bcdff 1 1
#	Energy (MeV/nuc)		flux (ion..cm^{-2}.s^{-1}.(MeV/nuc)^{-1})
# -------------------------------------------------------------------------------
        1.000000e-01	        1.042563e+01
        2.500000e-01	        1.861276e+00
        6.300000e-01	        3.106505e-01
        1.600000e+00	        4.694371e-02
        4.000000e+00	        7.264272e-03
        1.000000e+01	        1.120427e-03
        2.500000e+01	        1.324422e-04
        6.300000e+01	        3.999092e-06
        1.600000e+02	        7.161595e-08
        4.000000e+02	        2.726605e-09
        1.000000e+03	        7.602147e-11

# -------------------------------------------------------------------------------
# Curve 27: Diff flux - SAPPHIRE-ions, Z=28
# Params: 2 5 #c314fe 1 1
#	Energy (MeV/nuc)		flux (ion..cm^{-2}.s^{-1}.(MeV/nuc)^{-1})
# -------------------------------------------------------------------------------
        1.000000e-01	        1.700491e+02
        2.500000e-01	        3.035867e+01
        6.300000e-01	        5.066920e+00
        1.600000e+00	        7.656839e-01
        4.000000e+00	        1.184852e-01
        1.000000e+01	        1.829607e-02
        2.500000e+01	        2.163731e-03
        6.300000e+01	        6.526378e-05
        1.600000e+02	        1.171057e-06
        4.000000e+02	        4.459617e-08
        1.000000e+03	        1.243402e-09

# -------------------------------------------------------------------------------
# Curve 28: Diff flux - SAPPHIRE-ions, Z=29
# Params: 2 5 #14ce57 1 1
#	Energy (MeV/nuc)		flux (ion..cm^{-2}.s^{-1}.(MeV/nuc)^{-1})
# -------------------------------------------------------------------------------
        1.000000e-01	        1.649882e+00
        2.500000e-01	        2.945514e-01
        6.300000e-01	        4.916119e-02
        1.600000e+00	        7.428957e-03
        4.000000e+00	        1.149589e-03
        1.000000e+01	        1.776858e-04
        2.500000e+01	        2.100962e-05
        6.300000e+01	        6.336783e-07
        1.600000e+02	        1.137487e-08
        4.000000e+02	        4.328678e-10
        1.000000e+03	        1.206894e-11

# -------------------------------------------------------------------------------
# Curve 29: Diff flux - SAPPHIRE-ions, Z=30
# Params: 2 5 #ff5b17 1 1
#	Energy (MeV/nuc)		flux (ion..cm^{-2}.s^{-1}.(MeV/nuc)^{-1})
# -------------------------------------------------------------------------------
        1.000000e-01	        8.866848e+00
        2.500000e-01	        1.582988e+00
        6.300000e-01	        2.642037e-01
        1.600000e+00	        3.992494e-02
        4.000000e+00	        6.178158e-03
        1.000000e+01	        9.536815e-04
        2.500000e+01	        1.129839e-04
        6.300000e+01	        3.397078e-06
        1.600000e+02	        6.108276e-08
        4.000000e+02	        2.326087e-09
        1.000000e+03	        6.485447e-11

# -------------------------------------------------------------------------------
# Curve 30: Diff flux - SAPPHIRE-ions, Z=31
# Params: 2 5 #3690cb 1 1
#	Energy (MeV/nuc)		flux (ion..cm^{-2}.s^{-1}.(MeV/nuc)^{-1})
# -------------------------------------------------------------------------------
        1.000000e-01	        1.174149e-01
        2.500000e-01	        2.096194e-02
        6.300000e-01	        3.498588e-03
        1.600000e+00	        5.286865e-04
        4.000000e+00	        8.181122e-05
        1.000000e+01	        1.261091e-05
        2.500000e+01	        1.483137e-06
        6.300000e+01	        4.487740e-08
        1.600000e+02	        8.044632e-10
        4.000000e+02	        3.065505e-11
        1.000000e+03	        8.547046e-13

# -------------------------------------------------------------------------------
# Curve 31: Diff flux - SAPPHIRE-ions, Z=32
# Params: 2 5 #e086ff 1 1
#	Energy (MeV/nuc)		flux (ion..cm^{-2}.s^{-1}.(MeV/nuc)^{-1})
# -------------------------------------------------------------------------------
        1.000000e-01	        4.767449e-01
        2.500000e-01	        8.511270e-02
        6.300000e-01	        1.420547e-02
        1.600000e+00	        2.146649e-03
        4.000000e+00	        3.321818e-04
        1.000000e+01	        5.121532e-05
        2.500000e+01	        6.055397e-06
        6.300000e+01	        1.826565e-07
        1.600000e+02	        3.281587e-09
        4.000000e+02	        1.247768e-10
        1.000000e+03	        3.478949e-12

# -------------------------------------------------------------------------------
# Curve 32: Diff flux - SAPPHIRE-ions, Z=33
# Params: 2 5 #14bf4c 1 1
#	Energy (MeV/nuc)		flux (ion..cm^{-2}.s^{-1}.(MeV/nuc)^{-1})
# -------------------------------------------------------------------------------
        1.000000e-01	        7.550991e-02
        2.500000e-01	        1.348070e-02
        6.300000e-01	        2.249954e-03
        1.600000e+00	        3.400001e-04
        4.000000e+00	        5.261308e-05
        1.000000e+01	        8.120408e-06
        2.500000e+01	        9.621562e-07
        6.300000e+01	        2.900612e-08
        1.600000e+02	        5.196049e-10
        4.000000e+02	        1.979485e-11
        1.000000e+03	        5.519073e-13

# -------------------------------------------------------------------------------
# Curve 33: Diff flux - SAPPHIRE-ions, Z=34
# Params: 2 5 #fe1448 1 1
#	Energy (MeV/nuc)		flux (ion..cm^{-2}.s^{-1}.(MeV/nuc)^{-1})
# -------------------------------------------------------------------------------
        1.000000e-01	        8.279774e-01
        2.500000e-01	        1.478178e-01
        6.300000e-01	        2.467108e-02
        1.600000e+00	        3.728151e-03
        4.000000e+00	        5.769102e-04
        1.000000e+01	        8.903828e-05
        2.500000e+01	        1.050033e-05
        6.300000e+01	        3.174255e-07
        1.600000e+02	        5.699598e-09
        4.000000e+02	        2.164339e-10
        1.000000e+03	        6.034472e-12

# -------------------------------------------------------------------------------
# Curve 34: Diff flux - SAPPHIRE-ions, Z=35
# Params: 2 5 #169ced 1 1
#	Energy (MeV/nuc)		flux (ion..cm^{-2}.s^{-1}.(MeV/nuc)^{-1})
# -------------------------------------------------------------------------------
        1.000000e-01	        4.372692e-02
        2.500000e-01	        7.806515e-03
        6.300000e-01	        1.302922e-03
        1.600000e+00	        1.968901e-04
        4.000000e+00	        3.046763e-05
        1.000000e+01	        4.703448e-06
        2.500000e+01	        5.554143e-07
        6.300000e+01	        1.678993e-08
        1.600000e+02	        3.016433e-10
        4.000000e+02	        1.147639e-11
        1.000000e+03	        3.199774e-13

# -------------------------------------------------------------------------------
# Curve 35: Diff flux - SAPPHIRE-ions, Z=36
# Params: 2 5 #c967d0 1 1
#	Energy (MeV/nuc)		flux (ion..cm^{-2}.s^{-1}.(MeV/nuc)^{-1})
# -------------------------------------------------------------------------------
        1.000000e-01	        6.316111e-02
        2.500000e-01	        1.127608e-02
        6.300000e-01	        1.881999e-03
        1.600000e+00	        2.843969e-04
        4.000000e+00	        4.400880e-05
        1.000000e+01	        6.796800e-06
        2.500000e+01	        8.033511e-07
        6.300000e+01	        2.429556e-08
        1.600000e+02	        4.356799e-10
        4.000000e+02	        1.655989e-11
        1.000000e+03	        4.617123e-13

# -------------------------------------------------------------------------------
# Curve 36: Diff flux - SAPPHIRE-ions, Z=37
# Params: 2 5 #7def21 1 1
#	Energy (MeV/nuc)		flux (ion..cm^{-2}.s^{-1}.(MeV/nuc)^{-1})
# -------------------------------------------------------------------------------
        1.000000e-01	        3.532568e-02
        2.500000e-01	        6.306652e-03
        6.300000e-01	        1.052592e-03
        1.600000e+00	        1.590617e-04
        4.000000e+00	        2.461389e-05
        1.000000e+01	        3.798901e-06
        2.500000e+01	        4.485280e-07
        6.300000e+01	        1.355509e-08
        1.600000e+02	        2.419958e-10
        4.000000e+02	        9.242729e-12
        1.000000e+03	        2.576999e-13

# -------------------------------------------------------------------------------
# Curve 37: Diff flux - SAPPHIRE-ions, Z=38
# Params: 2 5 #ff963e 1 1
#	Energy (MeV/nuc)		flux (ion..cm^{-2}.s^{-1}.(MeV/nuc)^{-1})
# -------------------------------------------------------------------------------
        1.000000e-01	        7.905261e-02
        2.500000e-01	        1.411317e-02
        6.300000e-01	        2.355515e-03
        1.600000e+00	        3.559518e-04
        4.000000e+00	        5.508152e-05
        1.000000e+01	        8.502350e-06
        2.500000e+01	        1.006991e-06
        6.300000e+01	        3.031570e-08
        1.600000e+02	        5.436877e-10
        4.000000e+02	        2.071912e-11
        1.000000e+03	        5.776773e-13

# -------------------------------------------------------------------------------
# Curve 38: Diff flux - SAPPHIRE-ions, Z=39
# Params: 2 5 #1bcdff 1 1
#	Energy (MeV/nuc)		flux (ion..cm^{-2}.s^{-1}.(MeV/nuc)^{-1})
# -------------------------------------------------------------------------------
        1.000000e-01	        1.730857e-02
        2.500000e-01	        3.090079e-03
        6.300000e-01	        5.157401e-04
        1.600000e+00	        7.793568e-05
        4.000000e+00	        1.206010e-05
        1.000000e+01	        1.858912e-06
        2.500000e+01	        2.197805e-07
        6.300000e+01	        6.643653e-09
        1.600000e+02	        1.190275e-10
        4.000000e+02	        4.528937e-12
        1.000000e+03	        1.262729e-13

# -------------------------------------------------------------------------------
# Curve 39: Diff flux - SAPPHIRE-ions, Z=40
# Params: 2 5 #c314fe 1 1
#	Energy (MeV/nuc)		flux (ion..cm^{-2}.s^{-1}.(MeV/nuc)^{-1})
# -------------------------------------------------------------------------------
        1.000000e-01	        4.058911e-02
        2.500000e-01	        7.246325e-03
        6.300000e-01	        1.209426e-03
        1.600000e+00	        1.827614e-04
        4.000000e+00	        2.828129e-05
        1.000000e+01	        4.360580e-06
        2.500000e+01	        5.155113e-07
        6.300000e+01	        1.556245e-08
        1.600000e+02	        2.799931e-10
        4.000000e+02	        1.062914e-11
        1.000000e+03	        2.963549e-13

# -------------------------------------------------------------------------------
# Curve 40: Diff flux - SAPPHIRE-ions, Z=41
# Params: 2 5 #14ce57 1 1
#	Energy (MeV/nuc)		flux (ion..cm^{-2}.s^{-1}.(MeV/nuc)^{-1})
# -------------------------------------------------------------------------------
        1.000000e-01	        3.077080e-03
        2.500000e-01	        5.493474e-04
        6.300000e-01	        9.168713e-05
        1.600000e+00	        1.385523e-05
        4.000000e+00	        2.144018e-06
        1.000000e+01	        3.312439e-07
        2.500000e+01	        3.910497e-08
        6.300000e+01	        1.181159e-09
        1.600000e+02	        2.116855e-11
        4.000000e+02	        8.087388e-13
        1.000000e+03	        2.254874e-14

# -------------------------------------------------------------------------------
# Curve 41: Diff flux - SAPPHIRE-ions, Z=42
# Params: 2 5 #ff5b17 1 1
#	Energy (MeV/nuc)		flux (ion..cm^{-2}.s^{-1}.(MeV/nuc)^{-1})
# -------------------------------------------------------------------------------
        1.000000e-01	        8.087456e-03
        2.500000e-01	        1.443844e-03
        6.300000e-01	        2.409803e-04
        1.600000e+00	        3.641556e-05
        4.000000e+00	        5.635101e-06
        1.000000e+01	        8.704554e-07
        2.500000e+01	        1.024925e-07
        6.300000e+01	        3.109754e-09
        1.600000e+02	        5.556075e-11
        4.000000e+02	        2.118125e-12
        1.000000e+03	        5.905623e-14

# -------------------------------------------------------------------------------
# Curve 42: Diff flux - SAPPHIRE-ions, Z=43
# Params: 2 5 #3690cb 1 1
#	Energy (MeV/nuc)		flux (ion..cm^{-2}.s^{-1}.(MeV/nuc)^{-1})
# -------------------------------------------------------------------------------
        1.000000e-01	        0.000000e+00
        2.500000e-01	        0.000000e+00
        6.300000e-01	        0.000000e+00
        1.600000e+00	        0.000000e+00
        4.000000e+00	        0.000000e+00
        1.000000e+01	        0.000000e+00
        2.500000e+01	        0.000000e+00
        6.300000e+01	        0.000000e+00
        1.600000e+02	        0.000000e+00
        4.000000e+02	        0.000000e+00
        1.000000e+03	        0.000000e+00

# -------------------------------------------------------------------------------
# Curve 43: Diff flux - SAPPHIRE-ions, Z=44
# Params: 2 5 #e086ff 1 1
#	Energy (MeV/nuc)		flux (ion..cm^{-2}.s^{-1}.(MeV/nuc)^{-1})
# -------------------------------------------------------------------------------
        1.000000e-01	        5.992208e-03
        2.500000e-01	        1.069782e-03
        6.300000e-01	        1.785486e-04
        1.600000e+00	        2.698124e-05
        4.000000e+00	        4.175193e-06
        1.000000e+01	        6.451001e-07
        2.500000e+01	        7.620134e-08
        6.300000e+01	        2.306417e-09
        1.600000e+02	        4.118404e-11
        4.000000e+02	        1.571264e-12
        1.000000e+03	        4.380898e-14

# -------------------------------------------------------------------------------
# Curve 44: Diff flux - SAPPHIRE-ions, Z=45
# Params: 2 5 #14bf4c 1 1
#	Energy (MeV/nuc)		flux (ion..cm^{-2}.s^{-1}.(MeV/nuc)^{-1})
# -------------------------------------------------------------------------------
        1.000000e-01	        8.664408e-04
        2.500000e-01	        1.546847e-04
        6.300000e-01	        2.581716e-05
        1.600000e+00	        3.901342e-06
        4.000000e+00	        6.037104e-07
        1.000000e+01	        9.328750e-08
        2.500000e+01	        1.102938e-08
        6.300000e+01	        3.332577e-10
        1.600000e+02	        5.964753e-12
        4.000000e+02	        2.272171e-13
        1.000000e+03	        6.335122e-15

# -------------------------------------------------------------------------------
# Curve 45: Diff flux - SAPPHIRE-ions, Z=46
# Params: 2 5 #fe1448 1 1
#	Energy (MeV/nuc)		flux (ion..cm^{-2}.s^{-1}.(MeV/nuc)^{-1})
# -------------------------------------------------------------------------------
        1.000000e-01	        3.957691e-03
        2.500000e-01	        7.065619e-04
        6.300000e-01	        1.179265e-04
        1.600000e+00	        1.782038e-05
        4.000000e+00	        2.757602e-06
        1.000000e+01	        4.262897e-07
        2.500000e+01	        5.032265e-08
        6.300000e+01	        1.520867e-09
        1.600000e+02	        2.729385e-11
        4.000000e+02	        1.039807e-12
        1.000000e+03	        2.899124e-14

# -------------------------------------------------------------------------------
# Curve 46: Diff flux - SAPPHIRE-ions, Z=47
# Params: 2 5 #169ced 1 1
#	Energy (MeV/nuc)		flux (ion..cm^{-2}.s^{-1}.(MeV/nuc)^{-1})
# -------------------------------------------------------------------------------
        1.000000e-01	        9.281849e-04
        2.500000e-01	        1.657077e-04
        6.300000e-01	        2.765694e-05
        1.600000e+00	        4.179358e-06
        4.000000e+00	        6.467318e-07
        1.000000e+01	        9.992996e-08
        2.500000e+01	        1.181847e-08
        6.300000e+01	        3.561264e-10
        1.600000e+02	        6.395324e-12
        4.000000e+02	        2.433919e-13
        1.000000e+03	        6.786097e-15

# -------------------------------------------------------------------------------
# Curve 47: Diff flux - SAPPHIRE-ions, Z=48
# Params: 2 5 #c967d0 1 1
#	Energy (MeV/nuc)		flux (ion..cm^{-2}.s^{-1}.(MeV/nuc)^{-1})
# -------------------------------------------------------------------------------
        1.000000e-01	        1.943419e-02
        2.500000e-01	        3.469562e-03
        6.300000e-01	        5.790766e-04
        1.600000e+00	        8.750673e-05
        4.000000e+00	        1.354117e-05
        1.000000e+01	        2.090421e-06
        2.500000e+01	        2.463227e-07
        6.300000e+01	        7.446990e-09
        1.600000e+02	        1.336231e-10
        4.000000e+02	        5.083501e-12
        1.000000e+03	        1.417349e-13

# -------------------------------------------------------------------------------
# Curve 48: Diff flux - SAPPHIRE-ions, Z=49
# Params: 2 5 #7def21 1 1
#	Energy (MeV/nuc)		flux (ion..cm^{-2}.s^{-1}.(MeV/nuc)^{-1})
# -------------------------------------------------------------------------------
        1.000000e-01	        6.731112e-04
        2.500000e-01	        1.201697e-04
        6.300000e-01	        2.005656e-05
        1.600000e+00	        3.030832e-06
        4.000000e+00	        4.690040e-07
        1.000000e+01	        7.238328e-08
        2.500000e+01	        8.547319e-09
        6.300000e+01	        2.574196e-10
        1.600000e+02	        4.624386e-12
        4.000000e+02	        1.763821e-13
        1.000000e+03	        4.917773e-15

# -------------------------------------------------------------------------------
# Curve 49: Diff flux - SAPPHIRE-ions, Z=50
# Params: 2 5 #ff963e 1 1
#	Energy (MeV/nuc)		flux (ion..cm^{-2}.s^{-1}.(MeV/nuc)^{-1})
# -------------------------------------------------------------------------------
        1.000000e-01	        1.174149e-02
        2.500000e-01	        2.096194e-03
        6.300000e-01	        3.498588e-04
        1.600000e+00	        5.286865e-05
        4.000000e+00	        8.181122e-06
        1.000000e+01	        1.261091e-06
        2.500000e+01	        1.483137e-07
        6.300000e+01	        4.487740e-09
        1.600000e+02	        8.044632e-11
        4.000000e+02	        3.065505e-12
        1.000000e+03	        8.547046e-14

# -------------------------------------------------------------------------------
# Curve 50: Diff flux - SAPPHIRE-ions, Z=51
# Params: 2 5 #1bcdff 1 1
#	Energy (MeV/nuc)		flux (ion..cm^{-2}.s^{-1}.(MeV/nuc)^{-1})
# -------------------------------------------------------------------------------
        1.000000e-01	        3.866593e-03
        2.500000e-01	        6.902983e-04
        6.300000e-01	        1.152121e-04
        1.600000e+00	        1.741019e-05
        4.000000e+00	        2.694128e-06
        1.000000e+01	        4.161306e-07
        2.500000e+01	        4.918385e-08
        6.300000e+01	        1.485684e-09
        1.600000e+02	        2.658840e-11
        4.000000e+02	        1.016700e-12
        1.000000e+03	        2.834699e-14

# -------------------------------------------------------------------------------
# Curve 51: Diff flux - SAPPHIRE-ions, Z=52
# Params: 2 5 #c314fe 1 1
#	Energy (MeV/nuc)		flux (ion..cm^{-2}.s^{-1}.(MeV/nuc)^{-1})
# -------------------------------------------------------------------------------
        1.000000e-01	        5.729036e-02
        2.500000e-01	        1.022798e-02
        6.300000e-01	        1.707070e-03
        1.600000e+00	        2.579625e-04
        4.000000e+00	        3.991823e-05
        1.000000e+01	        6.159905e-06
        2.500000e+01	        7.274905e-07
        6.300000e+01	        2.200869e-08
        1.600000e+02	        3.950554e-10
        4.000000e+02	        1.501944e-11
        1.000000e+03	        4.187623e-13

# -------------------------------------------------------------------------------
# Curve 52: Diff flux - SAPPHIRE-ions, Z=53
# Params: 2 5 #14ce57 1 1
#	Energy (MeV/nuc)		flux (ion..cm^{-2}.s^{-1}.(MeV/nuc)^{-1})
# -------------------------------------------------------------------------------
        1.000000e-01	        4.473912e-03
        2.500000e-01	        7.987221e-04
        6.300000e-01	        1.333083e-04
        1.600000e+00	        2.014478e-05
        4.000000e+00	        3.117290e-06
        1.000000e+01	        4.813830e-07
        2.500000e+01	        5.685958e-08
        6.300000e+01	        1.718085e-09
        1.600000e+02	        3.089411e-11
        4.000000e+02	        1.170746e-12
        1.000000e+03	        3.264199e-14

# -------------------------------------------------------------------------------
# Curve 53: Diff flux - SAPPHIRE-ions, Z=54
# Params: 2 5 #ff5b17 1 1
#	Energy (MeV/nuc)		flux (ion..cm^{-2}.s^{-1}.(MeV/nuc)^{-1})
# -------------------------------------------------------------------------------
        1.000000e-01	        6.174403e-03
        2.500000e-01	        1.102309e-03
        6.300000e-01	        1.839775e-04
        1.600000e+00	        2.780162e-05
        4.000000e+00	        4.302142e-06
        1.000000e+01	        6.643437e-07
        2.500000e+01	        7.848791e-08
        6.300000e+01	        2.370918e-09
        1.600000e+02	        4.261928e-11
        4.000000e+02	        1.617478e-12
        1.000000e+03	        4.509748e-14

# -------------------------------------------------------------------------------
# Curve 54: Diff flux - SAPPHIRE-ions, Z=55
# Params: 2 5 #3690cb 1 1
#	Energy (MeV/nuc)		flux (ion..cm^{-2}.s^{-1}.(MeV/nuc)^{-1})
# -------------------------------------------------------------------------------
        1.000000e-01	        4.544766e-03
        2.500000e-01	        8.113716e-04
        6.300000e-01	        1.354195e-04
        1.600000e+00	        2.046381e-05
        4.000000e+00	        3.166659e-06
        1.000000e+01	        4.895884e-07
        2.500000e+01	        5.782801e-08
        6.300000e+01	        1.745645e-09
        1.600000e+02	        3.138063e-11
        4.000000e+02	        1.193853e-12
        1.000000e+03	        3.328624e-14

# -------------------------------------------------------------------------------
# Curve 55: Diff flux - SAPPHIRE-ions, Z=56
# Params: 2 5 #e086ff 1 1
#	Energy (MeV/nuc)		flux (ion..cm^{-2}.s^{-1}.(MeV/nuc)^{-1})
# -------------------------------------------------------------------------------
        1.000000e-01	        1.609394e-02
        2.500000e-01	        2.873231e-03
        6.300000e-01	        4.795478e-04
        1.600000e+00	        7.246651e-05
        4.000000e+00	        1.121378e-05
        1.000000e+01	        1.737785e-06
        2.500000e+01	        2.048057e-07
        6.300000e+01	        6.194098e-09
        1.600000e+02	        1.111215e-10
        4.000000e+02	        4.228549e-12
        1.000000e+03	        1.178977e-13

# -------------------------------------------------------------------------------
# Curve 56: Diff flux - SAPPHIRE-ions, Z=57
# Params: 2 5 #14bf4c 1 1
#	Energy (MeV/nuc)		flux (ion..cm^{-2}.s^{-1}.(MeV/nuc)^{-1})
# -------------------------------------------------------------------------------
        1.000000e-01	        1.346222e-03
        2.500000e-01	        2.403395e-04
        6.300000e-01	        4.011312e-05
        1.600000e+00	        6.061664e-06
        4.000000e+00	        9.380080e-07
        1.000000e+01	        1.443758e-07
        2.500000e+01	        1.704622e-08
        6.300000e+01	        5.148392e-10
        1.600000e+02	        9.241474e-12
        4.000000e+02	        3.519939e-13
        1.000000e+03	        9.814071e-15

# -------------------------------------------------------------------------------
# Curve 57: Diff flux - SAPPHIRE-ions, Z=58
# Params: 2 5 #fe1448 1 1
#	Energy (MeV/nuc)		flux (ion..cm^{-2}.s^{-1}.(MeV/nuc)^{-1})
# -------------------------------------------------------------------------------
        1.000000e-01	        4.058911e-03
        2.500000e-01	        7.246325e-04
        6.300000e-01	        1.209426e-04
        1.600000e+00	        1.827614e-05
        4.000000e+00	        2.828129e-06
        1.000000e+01	        4.360580e-07
        2.500000e+01	        5.155113e-08
        6.300000e+01	        1.556245e-09
        1.600000e+02	        2.799931e-11
        4.000000e+02	        1.062914e-12
        1.000000e+03	        2.963549e-14

# -------------------------------------------------------------------------------
# Curve 58: Diff flux - SAPPHIRE-ions, Z=59
# Params: 2 5 #169ced 1 1
#	Energy (MeV/nuc)		flux (ion..cm^{-2}.s^{-1}.(MeV/nuc)^{-1})
# -------------------------------------------------------------------------------
        1.000000e-01	        5.597451e-04
        2.500000e-01	        9.993062e-05
        6.300000e-01	        1.667861e-05
        1.600000e+00	        2.520376e-06
        4.000000e+00	        3.900138e-07
        1.000000e+01	        6.020218e-08
        2.500000e+01	        7.115293e-09
        6.300000e+01	        2.142231e-10
        1.600000e+02	        3.855682e-12
        4.000000e+02	        1.463432e-13
        1.000000e+03	        4.080248e-15

# -------------------------------------------------------------------------------
# Curve 59: Diff flux - SAPPHIRE-ions, Z=60
# Params: 2 5 #c967d0 1 1
#	Energy (MeV/nuc)		flux (ion..cm^{-2}.s^{-1}.(MeV/nuc)^{-1})
# -------------------------------------------------------------------------------
        1.000000e-01	        2.803786e-03
        2.500000e-01	        5.005566e-04
        6.300000e-01	        8.354386e-05
        1.600000e+00	        1.262467e-05
        4.000000e+00	        1.953596e-06
        1.000000e+01	        3.018412e-07
        2.500000e+01	        3.567062e-08
        6.300000e+01	        1.076588e-09
        1.600000e+02	        1.930030e-11
        4.000000e+02	        7.347970e-13
        1.000000e+03	        2.048714e-14

# -------------------------------------------------------------------------------
# Curve 60: Diff flux - SAPPHIRE-ions, Z=61
# Params: 2 5 #7def21 1 1
#	Energy (MeV/nuc)		flux (ion..cm^{-2}.s^{-1}.(MeV/nuc)^{-1})
# -------------------------------------------------------------------------------
        1.000000e-01	        0.000000e+00
        2.500000e-01	        0.000000e+00
        6.300000e-01	        0.000000e+00
        1.600000e+00	        0.000000e+00
        4.000000e+00	        0.000000e+00
        1.000000e+01	        0.000000e+00
        2.500000e+01	        0.000000e+00
        6.300000e+01	        0.000000e+00
        1.600000e+02	        0.000000e+00
        4.000000e+02	        0.000000e+00
        1.000000e+03	        0.000000e+00

# -------------------------------------------------------------------------------
# Curve 61: Diff flux - SAPPHIRE-ions, Z=62
# Params: 2 5 #ff963e 1 1
#	Energy (MeV/nuc)		flux (ion..cm^{-2}.s^{-1}.(MeV/nuc)^{-1})
# -------------------------------------------------------------------------------
        1.000000e-01	        9.727216e-04
        2.500000e-01	        1.736588e-04
        6.300000e-01	        2.898399e-05
        1.600000e+00	        4.379894e-06
        4.000000e+00	        6.777637e-07
        1.000000e+01	        1.048141e-07
        2.500000e+01	        1.235649e-08
        6.300000e+01	        3.731313e-10
        1.600000e+02	        6.704265e-12
        4.000000e+02	        2.549453e-13
        1.000000e+03	        7.108222e-15

# -------------------------------------------------------------------------------
# Curve 62: Diff flux - SAPPHIRE-ions, Z=63
# Params: 2 5 #1bcdff 1 1
#	Energy (MeV/nuc)		flux (ion..cm^{-2}.s^{-1}.(MeV/nuc)^{-1})
# -------------------------------------------------------------------------------
        1.000000e-01	        3.532568e-04
        2.500000e-01	        6.306652e-05
        6.300000e-01	        1.052592e-05
        1.600000e+00	        1.590617e-06
        4.000000e+00	        2.461389e-07
        1.000000e+01	        3.798901e-08
        2.500000e+01	        4.485280e-09
        6.300000e+01	        1.355509e-10
        1.600000e+02	        2.419958e-12
        4.000000e+02	        9.242729e-14
        1.000000e+03	        2.576999e-15

# -------------------------------------------------------------------------------
# Curve 63: Diff flux - SAPPHIRE-ions, Z=64
# Params: 2 5 #c314fe 1 1
#	Energy (MeV/nuc)		flux (ion..cm^{-2}.s^{-1}.(MeV/nuc)^{-1})
# -------------------------------------------------------------------------------
        1.000000e-01	        1.255125e-03
        2.500000e-01	        2.240759e-04
        6.300000e-01	        3.739870e-05
        1.600000e+00	        5.651476e-06
        4.000000e+00	        8.745338e-07
        1.000000e+01	        1.346075e-07
        2.500000e+01	        1.589844e-08
        6.300000e+01	        4.814157e-10
        1.600000e+02	        8.621159e-12
        4.000000e+02	        3.281169e-13
        1.000000e+03	        9.148346e-15

# -------------------------------------------------------------------------------
# Curve 64: Diff flux - SAPPHIRE-ions, Z=65
# Params: 2 5 #14ce57 1 1
#	Energy (MeV/nuc)		flux (ion..cm^{-2}.s^{-1}.(MeV/nuc)^{-1})
# -------------------------------------------------------------------------------
        1.000000e-01	        2.125614e-04
        2.500000e-01	        3.794834e-05
        6.300000e-01	        6.333650e-06
        1.600000e+00	        9.571048e-07
        4.000000e+00	        1.481065e-07
        1.000000e+01	        2.289695e-08
        2.500000e+01	        2.700852e-09
        6.300000e+01	        8.166279e-11
        1.600000e+02	        1.463456e-12
        4.000000e+02	        5.576447e-14
        1.000000e+03	        1.554789e-15

# -------------------------------------------------------------------------------
# Curve 65: Diff flux - SAPPHIRE-ions, Z=66
# Params: 2 5 #ff5b17 1 1
#	Energy (MeV/nuc)		flux (ion..cm^{-2}.s^{-1}.(MeV/nuc)^{-1})
# -------------------------------------------------------------------------------
        1.000000e-01	        1.346222e-03
        2.500000e-01	        2.403395e-04
        6.300000e-01	        4.011312e-05
        1.600000e+00	        6.061664e-06
        4.000000e+00	        9.380080e-07
        1.000000e+01	        1.443758e-07
        2.500000e+01	        1.704622e-08
        6.300000e+01	        5.148392e-10
        1.600000e+02	        9.241474e-12
        4.000000e+02	        3.519939e-13
        1.000000e+03	        9.814071e-15

# -------------------------------------------------------------------------------
# Curve 66: Diff flux - SAPPHIRE-ions, Z=67
# Params: 2 5 #3690cb 1 1
#	Energy (MeV/nuc)		flux (ion..cm^{-2}.s^{-1}.(MeV/nuc)^{-1})
# -------------------------------------------------------------------------------
        1.000000e-01	        3.218787e-04
        2.500000e-01	        5.746463e-05
        6.300000e-01	        9.590956e-06
        1.600000e+00	        1.449330e-06
        4.000000e+00	        2.242756e-07
        1.000000e+01	        3.461894e-08
        2.500000e+01	        4.096113e-09
        6.300000e+01	        1.236669e-10
        1.600000e+02	        2.217321e-12
        4.000000e+02	        8.472502e-14
        1.000000e+03	        2.362249e-15

# -------------------------------------------------------------------------------
# Curve 67: Diff flux - SAPPHIRE-ions, Z=68
# Params: 2 5 #e086ff 1 1
#	Energy (MeV/nuc)		flux (ion..cm^{-2}.s^{-1}.(MeV/nuc)^{-1})
# -------------------------------------------------------------------------------
        1.000000e-01	        8.866848e-04
        2.500000e-01	        1.582988e-04
        6.300000e-01	        2.642037e-05
        1.600000e+00	        3.992494e-06
        4.000000e+00	        6.178158e-07
        1.000000e+01	        9.536815e-08
        2.500000e+01	        1.129839e-08
        6.300000e+01	        3.397078e-10
        1.600000e+02	        6.108276e-12
        4.000000e+02	        2.326087e-13
        1.000000e+03	        6.485447e-15

# -------------------------------------------------------------------------------
# Curve 68: Diff flux - SAPPHIRE-ions, Z=69
# Params: 2 5 #14bf4c 1 1
#	Energy (MeV/nuc)		flux (ion..cm^{-2}.s^{-1}.(MeV/nuc)^{-1})
# -------------------------------------------------------------------------------
        1.000000e-01	        1.346222e-04
        2.500000e-01	        2.403395e-05
        6.300000e-01	        4.011312e-06
        1.600000e+00	        6.061664e-07
        4.000000e+00	        9.380080e-08
        1.000000e+01	        1.443758e-08
        2.500000e+01	        1.704622e-09
        6.300000e+01	        5.148392e-11
        1.600000e+02	        9.241474e-13
        4.000000e+02	        3.519939e-14
        1.000000e+03	        9.814071e-16

# -------------------------------------------------------------------------------
# Curve 69: Diff flux - SAPPHIRE-ions, Z=70
# Params: 2 5 #fe1448 1 1
#	Energy (MeV/nuc)		flux (ion..cm^{-2}.s^{-1}.(MeV/nuc)^{-1})
# -------------------------------------------------------------------------------
        1.000000e-01	        7.378918e-04
        2.500000e-01	        1.317349e-04
        6.300000e-01	        2.198681e-05
        1.600000e+00	        3.322521e-06
        4.000000e+00	        5.141412e-07
        1.000000e+01	        7.936764e-08
        2.500000e+01	        9.361520e-09
        6.300000e+01	        2.836111e-10
        1.600000e+02	        5.079284e-12
        4.000000e+02	        1.933271e-13
        1.000000e+03	        5.390223e-15

# -------------------------------------------------------------------------------
# Curve 70: Diff flux - SAPPHIRE-ions, Z=71
# Params: 2 5 #169ced 1 1
#	Energy (MeV/nuc)		flux (ion..cm^{-2}.s^{-1}.(MeV/nuc)^{-1})
# -------------------------------------------------------------------------------
        1.000000e-01	        1.346222e-04
        2.500000e-01	        2.403395e-05
        6.300000e-01	        4.011312e-06
        1.600000e+00	        6.061664e-07
        4.000000e+00	        9.380080e-08
        1.000000e+01	        1.443758e-08
        2.500000e+01	        1.704622e-09
        6.300000e+01	        5.148392e-11
        1.600000e+02	        9.241474e-13
        4.000000e+02	        3.519939e-14
        1.000000e+03	        9.814071e-16

# -------------------------------------------------------------------------------
# Curve 71: Diff flux - SAPPHIRE-ions, Z=72
# Params: 2 5 #c967d0 1 1
#	Energy (MeV/nuc)		flux (ion..cm^{-2}.s^{-1}.(MeV/nuc)^{-1})
# -------------------------------------------------------------------------------
        1.000000e-01	        7.550991e-04
        2.500000e-01	        1.348070e-04
        6.300000e-01	        2.249954e-05
        1.600000e+00	        3.400001e-06
        4.000000e+00	        5.261308e-07
        1.000000e+01	        8.120408e-08
        2.500000e+01	        9.621562e-09
        6.300000e+01	        2.900612e-10
        1.600000e+02	        5.196049e-12
        4.000000e+02	        1.979485e-13
        1.000000e+03	        5.519073e-15

# -------------------------------------------------------------------------------
# Curve 72: Diff flux - SAPPHIRE-ions, Z=73
# Params: 2 5 #7def21 1 1
#	Energy (MeV/nuc)		flux (ion..cm^{-2}.s^{-1}.(MeV/nuc)^{-1})
# -------------------------------------------------------------------------------
        1.000000e-01	        2.874640e-04
        2.500000e-01	        5.132061e-05
        6.300000e-01	        8.565508e-06
        1.600000e+00	        1.294370e-06
        4.000000e+00	        2.002964e-07
        1.000000e+01	        3.089721e-08
        2.500000e+01	        3.646868e-09
        6.300000e+01	        1.101412e-10
        1.600000e+02	        1.975763e-12
        4.000000e+02	        7.517420e-14
        1.000000e+03	        2.095959e-15

# -------------------------------------------------------------------------------
# Curve 73: Diff flux - SAPPHIRE-ions, Z=74
# Params: 2 5 #ff963e 1 1
#	Energy (MeV/nuc)		flux (ion..cm^{-2}.s^{-1}.(MeV/nuc)^{-1})
# -------------------------------------------------------------------------------
        1.000000e-01	        7.550991e-04
        2.500000e-01	        1.348070e-04
        6.300000e-01	        2.249954e-05
        1.600000e+00	        3.400001e-06
        4.000000e+00	        5.261308e-07
        1.000000e+01	        8.120408e-08
        2.500000e+01	        9.621562e-09
        6.300000e+01	        2.900612e-10
        1.600000e+02	        5.196049e-12
        4.000000e+02	        1.979485e-13
        1.000000e+03	        5.519073e-15

# -------------------------------------------------------------------------------
# Curve 74: Diff flux - SAPPHIRE-ions, Z=75
# Params: 2 5 #1bcdff 1 1
#	Energy (MeV/nuc)		flux (ion..cm^{-2}.s^{-1}.(MeV/nuc)^{-1})
# -------------------------------------------------------------------------------
        1.000000e-01	        6.882941e-04
        2.500000e-01	        1.228803e-04
        6.300000e-01	        2.050896e-05
        1.600000e+00	        3.099197e-06
        4.000000e+00	        4.795830e-07
        1.000000e+01	        7.401459e-08
        2.500000e+01	        8.749075e-09
        6.300000e+01	        2.638697e-10
        1.600000e+02	        4.741151e-12
        4.000000e+02	        1.802332e-13
        1.000000e+03	        5.025148e-15

# -------------------------------------------------------------------------------
# Curve 75: Diff flux - SAPPHIRE-ions, Z=76
# Params: 2 5 #c314fe 1 1
#	Energy (MeV/nuc)		flux (ion..cm^{-2}.s^{-1}.(MeV/nuc)^{-1})
# -------------------------------------------------------------------------------
        1.000000e-01	        2.682323e-03
        2.500000e-01	        4.788719e-04
        6.300000e-01	        7.992463e-05
        1.600000e+00	        1.207775e-05
        4.000000e+00	        1.868963e-06
        1.000000e+01	        2.877748e-07
        2.500000e+01	        3.407450e-08
        6.300000e+01	        1.028896e-09
        1.600000e+02	        1.843916e-11
        4.000000e+02	        7.016772e-13
        1.000000e+03	        1.956372e-14

# -------------------------------------------------------------------------------
# Curve 76: Diff flux - SAPPHIRE-ions, Z=77
# Params: 2 5 #14ce57 1 1
#	Energy (MeV/nuc)		flux (ion..cm^{-2}.s^{-1}.(MeV/nuc)^{-1})
# -------------------------------------------------------------------------------
        1.000000e-01	        2.560859e-03
        2.500000e-01	        4.571871e-04
        6.300000e-01	        7.630540e-05
        1.600000e+00	        1.153083e-05
        4.000000e+00	        1.784331e-06
        1.000000e+01	        2.746853e-07
        2.500000e+01	        3.249631e-08
        6.300000e+01	        9.819863e-10
        1.600000e+02	        1.760234e-11
        4.000000e+02	        6.700979e-13
        1.000000e+03	        1.868324e-14

# -------------------------------------------------------------------------------
# Curve 77: Diff flux - SAPPHIRE-ions, Z=78
# Params: 2 5 #ff5b17 1 1
#	Energy (MeV/nuc)		flux (ion..cm^{-2}.s^{-1}.(MeV/nuc)^{-1})
# -------------------------------------------------------------------------------
        1.000000e-01	        1.579028e-02
        2.500000e-01	        2.819019e-03
        6.300000e-01	        4.704997e-04
        1.600000e+00	        7.109922e-05
        4.000000e+00	        1.100220e-05
        1.000000e+01	        1.694804e-06
        2.500000e+01	        2.004118e-07
        6.300000e+01	        6.049458e-09
        1.600000e+02	        1.084699e-10
        4.000000e+02	        4.128419e-12
        1.000000e+03	        1.151060e-13

# -------------------------------------------------------------------------------
# Curve 78: Diff flux - SAPPHIRE-ions, Z=79
# Params: 2 5 #3690cb 1 1
#	Energy (MeV/nuc)		flux (ion..cm^{-2}.s^{-1}.(MeV/nuc)^{-1})
# -------------------------------------------------------------------------------
        1.000000e-01	        8.866848e-04
        2.500000e-01	        1.582988e-04
        6.300000e-01	        2.642037e-05
        1.600000e+00	        3.992494e-06
        4.000000e+00	        6.178158e-07
        1.000000e+01	        9.536815e-08
        2.500000e+01	        1.129839e-08
        6.300000e+01	        3.397078e-10
        1.600000e+02	        6.108276e-12
        4.000000e+02	        2.326087e-13
        1.000000e+03	        6.485447e-15

# -------------------------------------------------------------------------------
# Curve 79: Diff flux - SAPPHIRE-ions, Z=80
# Params: 2 5 #e086ff 1 1
#	Energy (MeV/nuc)		flux (ion..cm^{-2}.s^{-1}.(MeV/nuc)^{-1})
# -------------------------------------------------------------------------------
        1.000000e-01	        1.862443e-03
        2.500000e-01	        3.324997e-04
        6.300000e-01	        5.549484e-05
        1.600000e+00	        8.386061e-06
        4.000000e+00	        1.297695e-06
        1.000000e+01	        2.008367e-07
        2.500000e+01	        2.374454e-08
        6.300000e+01	        7.159665e-10
        1.600000e+02	        1.283687e-11
        4.000000e+02	        4.883242e-13
        1.000000e+03	        1.361514e-14

# -------------------------------------------------------------------------------
# Curve 80: Diff flux - SAPPHIRE-ions, Z=81
# Params: 2 5 #14bf4c 1 1
#	Energy (MeV/nuc)		flux (ion..cm^{-2}.s^{-1}.(MeV/nuc)^{-1})
# -------------------------------------------------------------------------------
        1.000000e-01	        8.472091e-04
        2.500000e-01	        1.512512e-04
        6.300000e-01	        2.524412e-05
        1.600000e+00	        3.814746e-06
        4.000000e+00	        5.903103e-07
        1.000000e+01	        9.109939e-08
        2.500000e+01	        1.076933e-08
        6.300000e+01	        3.254393e-10
        1.600000e+02	        5.821229e-12
        4.000000e+02	        2.218255e-13
        1.000000e+03	        6.184797e-15

# -------------------------------------------------------------------------------
# Curve 81: Diff flux - SAPPHIRE-ions, Z=82
# Params: 2 5 #fe1448 1 1
#	Energy (MeV/nuc)		flux (ion..cm^{-2}.s^{-1}.(MeV/nuc)^{-1})
# -------------------------------------------------------------------------------
        1.000000e-01	        1.994029e-03
        2.500000e-01	        3.559915e-04
        6.300000e-01	        5.941567e-05
        1.600000e+00	        8.978555e-06
        4.000000e+00	        1.389380e-06
        1.000000e+01	        2.149031e-07
        2.500000e+01	        2.542137e-08
        6.300000e+01	        7.675677e-10
        1.600000e+02	        1.374910e-11
        4.000000e+02	        5.237547e-13
        1.000000e+03	        1.460299e-14

# -------------------------------------------------------------------------------
# Curve 82: Diff flux - SAPPHIRE-ions, Z=83
# Params: 2 5 #169ced 1 1
#	Energy (MeV/nuc)		flux (ion..cm^{-2}.s^{-1}.(MeV/nuc)^{-1})
# -------------------------------------------------------------------------------
        1.000000e-01	        1.690369e-03
        2.500000e-01	        3.017796e-04
        6.300000e-01	        5.036760e-05
        1.600000e+00	        7.611262e-06
        4.000000e+00	        1.177799e-06
        1.000000e+01	        1.815931e-07
        2.500000e+01	        2.145797e-08
        6.300000e+01	        6.487286e-10
        1.600000e+02	        1.163759e-11
        4.000000e+02	        4.428808e-13
        1.000000e+03	        1.234812e-14

# -------------------------------------------------------------------------------
# Curve 83: Diff flux - SAPPHIRE-ions, Z=84
# Params: 2 5 #c967d0 1 1
#	Energy (MeV/nuc)		flux (ion..cm^{-2}.s^{-1}.(MeV/nuc)^{-1})
# -------------------------------------------------------------------------------
        1.000000e-01	        0.000000e+00
        2.500000e-01	        0.000000e+00
        6.300000e-01	        0.000000e+00
        1.600000e+00	        0.000000e+00
        4.000000e+00	        0.000000e+00
        1.000000e+01	        0.000000e+00
        2.500000e+01	        0.000000e+00
        6.300000e+01	        0.000000e+00
        1.600000e+02	        0.000000e+00
        4.000000e+02	        0.000000e+00
        1.000000e+03	        0.000000e+00

# -------------------------------------------------------------------------------
# Curve 84: Diff flux - SAPPHIRE-ions, Z=85
# Params: 2 5 #7def21 1 1
#	Energy (MeV/nuc)		flux (ion..cm^{-2}.s^{-1}.(MeV/nuc)^{-1})
# -------------------------------------------------------------------------------
        1.000000e-01	        0.000000e+00
        2.500000e-01	        0.000000e+00
        6.300000e-01	        0.000000e+00
        1.600000e+00	        0.000000e+00
        4.000000e+00	        0.000000e+00
        1.000000e+01	        0.000000e+00
        2.500000e+01	        0.000000e+00
        6.300000e+01	        0.000000e+00
        1.600000e+02	        0.000000e+00
        4.000000e+02	        0.000000e+00
        1.000000e+03	        0.000000e+00

# -------------------------------------------------------------------------------
# Curve 85: Diff flux - SAPPHIRE-ions, Z=86
# Params: 2 5 #ff963e 1 1
#	Energy (MeV/nuc)		flux (ion..cm^{-2}.s^{-1}.(MeV/nuc)^{-1})
# -------------------------------------------------------------------------------
        1.000000e-01	        0.000000e+00
        2.500000e-01	        0.000000e+00
        6.300000e-01	        0.000000e+00
        1.600000e+00	        0.000000e+00
        4.000000e+00	        0.000000e+00
        1.000000e+01	        0.000000e+00
        2.500000e+01	        0.000000e+00
        6.300000e+01	        0.000000e+00
        1.600000e+02	        0.000000e+00
        4.000000e+02	        0.000000e+00
        1.000000e+03	        0.000000e+00

# -------------------------------------------------------------------------------
# Curve 86: Diff flux - SAPPHIRE-ions, Z=87
# Params: 2 5 #1bcdff 1 1
#	Energy (MeV/nuc)		flux (ion..cm^{-2}.s^{-1}.(MeV/nuc)^{-1})
# -------------------------------------------------------------------------------
        1.000000e-01	        0.000000e+00
        2.500000e-01	        0.000000e+00
        6.300000e-01	        0.000000e+00
        1.600000e+00	        0.000000e+00
        4.000000e+00	        0.000000e+00
        1.000000e+01	        0.000000e+00
        2.500000e+01	        0.000000e+00
        6.300000e+01	        0.000000e+00
        1.600000e+02	        0.000000e+00
        4.000000e+02	        0.000000e+00
        1.000000e+03	        0.000000e+00

# -------------------------------------------------------------------------------
# Curve 87: Diff flux - SAPPHIRE-ions, Z=88
# Params: 2 5 #c314fe 1 1
#	Energy (MeV/nuc)		flux (ion..cm^{-2}.s^{-1}.(MeV/nuc)^{-1})
# -------------------------------------------------------------------------------
        1.000000e-01	        0.000000e+00
        2.500000e-01	        0.000000e+00
        6.300000e-01	        0.000000e+00
        1.600000e+00	        0.000000e+00
        4.000000e+00	        0.000000e+00
        1.000000e+01	        0.000000e+00
        2.500000e+01	        0.000000e+00
        6.300000e+01	        0.000000e+00
        1.600000e+02	        0.000000e+00
        4.000000e+02	        0.000000e+00
        1.000000e+03	        0.000000e+00

# -------------------------------------------------------------------------------
# Curve 88: Diff flux - SAPPHIRE-ions, Z=89
# Params: 2 5 #14ce57 1 1
#	Energy (MeV/nuc)		flux (ion..cm^{-2}.s^{-1}.(MeV/nuc)^{-1})
# -------------------------------------------------------------------------------
        1.000000e-01	        0.000000e+00
        2.500000e-01	        0.000000e+00
        6.300000e-01	        0.000000e+00
        1.600000e+00	        0.000000e+00
        4.000000e+00	        0.000000e+00
        1.000000e+01	        0.000000e+00
        2.500000e+01	        0.000000e+00
        6.300000e+01	        0.000000e+00
        1.600000e+02	        0.000000e+00
        4.000000e+02	        0.000000e+00
        1.000000e+03	        0.000000e+00

# -------------------------------------------------------------------------------
# Curve 89: Diff flux - SAPPHIRE-ions, Z=90
# Params: 2 5 #ff5b17 1 1
#	Energy (MeV/nuc)		flux (ion..cm^{-2}.s^{-1}.(MeV/nuc)^{-1})
# -------------------------------------------------------------------------------
        1.000000e-01	        1.113417e-04
        2.500000e-01	        1.987770e-05
        6.300000e-01	        3.317626e-06
        1.600000e+00	        5.013406e-07
        4.000000e+00	        7.757961e-08
        1.000000e+01	        1.202481e-08
        2.500000e+01	        1.422162e-09
        6.300000e+01	        4.286417e-11
        1.600000e+02	        7.687038e-13
        4.000000e+02	        2.926864e-14
        1.000000e+03	        8.160497e-16

# -------------------------------------------------------------------------------
# Curve 90: Diff flux - SAPPHIRE-ions, Z=91
# Params: 2 5 #3690cb 1 1
#	Energy (MeV/nuc)		flux (ion..cm^{-2}.s^{-1}.(MeV/nuc)^{-1})
# -------------------------------------------------------------------------------
        1.000000e-01	        0.000000e+00
        2.500000e-01	        0.000000e+00
        6.300000e-01	        0.000000e+00
        1.600000e+00	        0.000000e+00
        4.000000e+00	        0.000000e+00
        1.000000e+01	        0.000000e+00
        2.500000e+01	        0.000000e+00
        6.300000e+01	        0.000000e+00
        1.600000e+02	        0.000000e+00
        4.000000e+02	        0.000000e+00
        1.000000e+03	        0.000000e+00

# -------------------------------------------------------------------------------
# Curve 91: Diff flux - SAPPHIRE-ions, Z=92
# Params: 2 5 #e086ff 1 1
#	Energy (MeV/nuc)		flux (ion..cm^{-2}.s^{-1}.(MeV/nuc)^{-1})
# -------------------------------------------------------------------------------
        1.000000e-01	        1.093173e-04
        2.500000e-01	        1.951629e-05
        6.300000e-01	        3.257306e-06
        1.600000e+00	        4.922253e-07
        4.000000e+00	        7.616907e-08
        1.000000e+01	        1.172199e-08
        2.500000e+01	        1.386294e-09
        6.300000e+01	        4.194551e-11
        1.600000e+02	        7.519188e-13
        4.000000e+02	        2.857544e-14
        1.000000e+03	        7.967222e-16

# -------------------------------------------------------------------------------
# Curve 92: Diff flux - SAPPHIRE-protons
# Params: 2 5 #14bf4c 1 1
#	Energy (MeV/nuc)		flux (ion..cm^{-2}.s^{-1}.(MeV/nuc)^{-1})
# -------------------------------------------------------------------------------
        1.000000e-01	        4.395979e+07
        2.500000e-01	        8.045287e+06
        6.300000e-01	        1.400246e+06
        1.600000e+00	        2.268493e+05
        4.000000e+00	        3.808886e+04
        1.000000e+01	        5.265226e+03
        2.500000e+01	        5.588587e+02
        6.300000e+01	        3.331288e+01
        1.600000e+02	        1.004511e+00
        4.000000e+02	        7.346700e-02
        1.000000e+03	        4.041962e-03

