# -------------------------------------------------------------------------------
#		C:/Users/ASAT 02/Documents/OMERE 5.4/CDR CLOSE-OUT/SSO 450/Dose  Silicon Target .txt
# -------------------------------------------------------------------------------
# ID: 1 2 1

# Graph: Dose - Silicon Target  
# min: -4.9895 0.01 max: 104.999 457878
# X-axis: Thickness  (mm Al)
# Y-axis L: Dose (rad)
# -------------------------------------------------------------------------------
# Curve 0: Trapped electrons
# Params: 2 5 #fe1448 1 1
#	Thickness  (mm Al)		Dose (rad)
# -------------------------------------------------------------------------------
            0.010000	        3.350324e+05
            0.100000	        7.794700e+04
            0.200000	        3.649331e+04
            0.300000	        2.147853e+04
            0.400000	        1.447010e+04
            0.500000	        1.060132e+04
            0.600000	        8.219008e+03
            0.700000	        6.628799e+03
            0.800000	        5.503503e+03
            0.900000	        4.670963e+03
            1.000000	        4.032057e+03
            1.100000	        3.526716e+03
            1.200000	        3.117537e+03
            1.300000	        2.779382e+03
            1.400000	        2.493525e+03
            1.500000	        2.247506e+03
            1.600000	        2.033421e+03
            1.700000	        1.844986e+03
            1.800000	        1.677392e+03
            1.900000	        1.527361e+03
            2.000000	        1.392425e+03
            2.250000	        1.109463e+03
            2.500000	        8.882271e+02
            2.750000	        7.140460e+02
            3.000000	        5.760061e+02
            3.250000	        4.658542e+02
            3.500000	        3.771601e+02
            3.750000	        3.051612e+02
            4.000000	        2.464494e+02
            4.250000	        1.985001e+02
            4.500000	        1.593983e+02
            4.750000	        1.276125e+02
            5.000000	        1.018654e+02
            5.250000	        8.108137e+01
            5.500000	        6.435528e+01
            5.750000	        5.093045e+01
            6.000000	        4.017982e+01
            6.250000	        3.158896e+01
            6.500000	        2.473967e+01
            6.750000	        1.929372e+01
            7.000000	        1.497782e+01
            7.250000	        1.157100e+01
            7.500000	        8.894019e+00
            7.750000	        6.801044e+00
            8.000000	        5.173417e+00
            8.250000	        3.914737e+00
            8.500000	        2.946779e+00
            8.750000	        2.206503e+00
            9.000000	        1.643241e+00
            9.500000	        8.958734e-01
           10.000000	        4.756680e-01
           10.500000	        2.445950e-01
           11.000000	        1.210703e-01
           11.500000	        5.741067e-02
           12.000000	        2.599091e-02
           12.500000	        1.119839e-02
           13.000000	        4.564667e-03
           13.500000	        1.737366e-03
           14.000000	        6.031076e-04
           14.500000	        1.878543e-04
           15.000000	        5.117005e-05
           16.000000	        4.299390e-06
           17.000000	        4.381403e-07
           18.000000	        6.531940e-08
           19.000000	        2.821068e-09
           20.000000	        0.000000e+00
           30.000000	        0.000000e+00
           40.000000	        0.000000e+00
           50.000000	        0.000000e+00
          100.000000	        0.000000e+00

# -------------------------------------------------------------------------------
# Curve 1: Trapped protons
# Params: 2 5 #169ced 1 1
#	Thickness  (mm Al)		Dose (rad)
# -------------------------------------------------------------------------------
            0.010000	        1.066342e+04
            0.100000	        1.055641e+03
            0.200000	        5.088565e+02
            0.300000	        3.360153e+02
            0.400000	        2.547261e+02
            0.500000	        2.083598e+02
            0.600000	        1.791786e+02
            0.700000	        1.607719e+02
            0.800000	        1.471287e+02
            0.900000	        1.372790e+02
            1.000000	        1.286399e+02
            1.100000	        1.227283e+02
            1.200000	        1.165109e+02
            1.300000	        1.117517e+02
            1.400000	        1.073967e+02
            1.500000	        1.036703e+02
            1.600000	        1.006109e+02
            1.700000	        9.705362e+01
            1.800000	        9.469336e+01
            1.900000	        9.245154e+01
            2.000000	        9.013361e+01
            2.250000	        8.545771e+01
            2.500000	        8.172209e+01
            2.750000	        7.854312e+01
            3.000000	        7.649357e+01
            3.250000	        7.412243e+01
            3.500000	        7.238013e+01
            3.750000	        7.096333e+01
            4.000000	        6.919324e+01
            4.250000	        6.777999e+01
            4.500000	        6.672420e+01
            4.750000	        6.525329e+01
            5.000000	        6.443259e+01
            5.250000	        6.308598e+01
            5.500000	        6.197508e+01
            5.750000	        6.109888e+01
            6.000000	        6.021938e+01
            6.250000	        5.956201e+01
            6.500000	        5.794638e+01
            6.750000	        5.780114e+01
            7.000000	        5.690484e+01
            7.250000	        5.590275e+01
            7.500000	        5.545697e+01
            7.750000	        5.416373e+01
            8.000000	        5.457248e+01
            8.250000	        5.386741e+01
            8.500000	        5.245957e+01
            8.750000	        5.227115e+01
            9.000000	        5.135881e+01
            9.500000	        5.041604e+01
           10.000000	        4.967895e+01
           10.500000	        4.894203e+01
           11.000000	        4.779448e+01
           11.500000	        4.678525e+01
           12.000000	        4.619753e+01
           12.500000	        4.466519e+01
           13.000000	        4.435879e+01
           13.500000	        4.392653e+01
           14.000000	        4.254627e+01
           14.500000	        4.161224e+01
           15.000000	        4.125893e+01
           16.000000	        3.994774e+01
           17.000000	        3.834448e+01
           18.000000	        3.726529e+01
           19.000000	        3.618143e+01
           20.000000	        3.508012e+01
           30.000000	        2.638849e+01
           40.000000	        2.042967e+01
           50.000000	        1.648767e+01
          100.000000	        5.436589e+00

# -------------------------------------------------------------------------------
# Curve 2: Solar protons
# Params: 2 5 #c967d0 1 1
#	Thickness  (mm Al)		Dose (rad)
# -------------------------------------------------------------------------------
            0.010000	        1.117731e+05
            0.100000	        2.528442e+04
            0.200000	        1.388764e+04
            0.300000	        9.535478e+03
            0.400000	        7.272156e+03
            0.500000	        5.866486e+03
            0.600000	        4.877737e+03
            0.700000	        4.189267e+03
            0.800000	        3.636016e+03
            0.900000	        3.226131e+03
            1.000000	        2.859181e+03
            1.100000	        2.610147e+03
            1.200000	        2.350730e+03
            1.300000	        2.159681e+03
            1.400000	        1.983597e+03
            1.500000	        1.840257e+03
            1.600000	        1.719730e+03
            1.700000	        1.588985e+03
            1.800000	        1.498713e+03
            1.900000	        1.414678e+03
            2.000000	        1.328748e+03
            2.250000	        1.156889e+03
            2.500000	        1.018132e+03
            2.750000	        9.035332e+02
            3.000000	        8.243224e+02
            3.250000	        7.412571e+02
            3.500000	        6.794032e+02
            3.750000	        6.285994e+02
            4.000000	        5.743862e+02
            4.250000	        5.318147e+02
            4.500000	        4.989968e+02
            4.750000	        4.612848e+02
            5.000000	        4.372812e+02
            5.250000	        4.064182e+02
            5.500000	        3.816482e+02
            5.750000	        3.616990e+02
            6.000000	        3.430052e+02
            6.250000	        3.281341e+02
            6.500000	        3.022293e+02
            6.750000	        2.957555e+02
            7.000000	        2.804267e+02
            7.250000	        2.649261e+02
            7.500000	        2.560671e+02
            7.750000	        2.387812e+02
            8.000000	        2.394883e+02
            8.250000	        2.286910e+02
            8.500000	        2.119131e+02
            8.750000	        2.071179e+02
            9.000000	        1.960173e+02
            9.500000	        1.827829e+02
           10.000000	        1.721030e+02
           10.500000	        1.620473e+02
           11.000000	        1.501450e+02
           11.500000	        1.401991e+02
           12.000000	        1.336137e+02
           12.500000	        1.221454e+02
           13.000000	        1.183077e+02
           13.500000	        1.138715e+02
           14.000000	        1.050276e+02
           14.500000	        9.903242e+01
           15.000000	        9.598815e+01
           16.000000	        8.766115e+01
           17.000000	        7.902791e+01
           18.000000	        7.314246e+01
           19.000000	        6.763058e+01
           20.000000	        6.252726e+01
           30.000000	        3.229432e+01
           40.000000	        1.977311e+01
           50.000000	        1.352609e+01
          100.000000	        3.220573e+00

# -------------------------------------------------------------------------------
# Curve 3: Secondary photons
# Params: 2 5 #7def21 1 1
#	Thickness  (mm Al)		Dose (rad)
# -------------------------------------------------------------------------------
            0.010000	        4.090946e+02
            0.100000	        1.657693e+02
            0.200000	        9.274271e+01
            0.300000	        6.173078e+01
            0.400000	        4.550083e+01
            0.500000	        3.596041e+01
            0.600000	        2.977051e+01
            0.700000	        2.550070e+01
            0.800000	        2.238434e+01
            0.900000	        1.992497e+01
            1.000000	        1.793367e+01
            1.100000	        1.642090e+01
            1.200000	        1.513531e+01
            1.300000	        1.395785e+01
            1.400000	        1.295377e+01
            1.500000	        1.210828e+01
            1.600000	        1.135145e+01
            1.700000	        1.065431e+01
            1.800000	        1.003862e+01
            1.900000	        9.485067e+00
            2.000000	        8.980357e+00
            2.250000	        7.914236e+00
            2.500000	        7.056277e+00
            2.750000	        6.346282e+00
            3.000000	        5.784136e+00
            3.250000	        5.306133e+00
            3.500000	        4.885354e+00
            3.750000	        4.552248e+00
            4.000000	        4.256882e+00
            4.250000	        3.984708e+00
            4.500000	        3.750888e+00
            4.750000	        3.543817e+00
            5.000000	        3.360713e+00
            5.250000	        3.196311e+00
            5.500000	        3.052752e+00
            5.750000	        2.924291e+00
            6.000000	        2.804780e+00
            6.250000	        2.696284e+00
            6.500000	        2.597641e+00
            6.750000	        2.507400e+00
            7.000000	        2.424992e+00
            7.250000	        2.347736e+00
            7.500000	        2.271670e+00
            7.750000	        2.203891e+00
            8.000000	        2.144591e+00
            8.250000	        2.088462e+00
            8.500000	        2.036403e+00
            8.750000	        1.987749e+00
            9.000000	        1.942282e+00
            9.500000	        1.859932e+00
           10.000000	        1.787015e+00
           10.500000	        1.723288e+00
           11.000000	        1.662281e+00
           11.500000	        1.606349e+00
           12.000000	        1.559143e+00
           12.500000	        1.516125e+00
           13.000000	        1.476509e+00
           13.500000	        1.439853e+00
           14.000000	        1.405657e+00
           14.500000	        1.373981e+00
           15.000000	        1.344811e+00
           16.000000	        1.290126e+00
           17.000000	        1.240098e+00
           18.000000	        1.193740e+00
           19.000000	        1.150096e+00
           20.000000	        1.109769e+00
           30.000000	        8.341421e-01
           40.000000	        6.556804e-01
           50.000000	        5.570680e-01
          100.000000	        1.894001e-01

# -------------------------------------------------------------------------------
# Curve 4: Total dose
# Params: 2 5 #ff963e 1 1
#	Thickness  (mm Al)		Dose (rad)
# -------------------------------------------------------------------------------
            0.010000	        4.578781e+05
            0.100000	        1.044528e+05
            0.200000	        5.098255e+04
            0.300000	        3.141175e+04
            0.400000	        2.204249e+04
            0.500000	        1.671213e+04
            0.600000	        1.330569e+04
            0.700000	        1.100434e+04
            0.800000	        9.309032e+03
            0.900000	        8.054298e+03
            1.000000	        7.037812e+03
            1.100000	        6.276012e+03
            1.200000	        5.599913e+03
            1.300000	        5.064772e+03
            1.400000	        4.597473e+03
            1.500000	        4.203541e+03
            1.600000	        3.865113e+03
            1.700000	        3.541679e+03
            1.800000	        3.280837e+03
            1.900000	        3.043976e+03
            2.000000	        2.820287e+03
            2.250000	        2.359724e+03
            2.500000	        1.995138e+03
            2.750000	        1.702469e+03
            3.000000	        1.482606e+03
            3.250000	        1.286540e+03
            3.500000	        1.133829e+03
            3.750000	        1.009276e+03
            4.000000	        8.942858e+02
            4.250000	        8.020794e+02
            4.500000	        7.288702e+02
            4.750000	        6.576944e+02
            5.000000	        6.069400e+02
            5.250000	        5.537819e+02
            5.500000	        5.110313e+02
            5.750000	        4.766526e+02
            6.000000	        4.462092e+02
            6.250000	        4.219814e+02
            6.500000	        3.875130e+02
            6.750000	        3.753578e+02
            7.000000	        3.547343e+02
            7.250000	        3.347476e+02
            7.500000	        3.226898e+02
            7.750000	        3.019499e+02
            8.000000	        3.013788e+02
            8.250000	        2.885616e+02
            8.500000	        2.693559e+02
            8.750000	        2.635833e+02
            9.000000	        2.509616e+02
            9.500000	        2.359548e+02
           10.000000	        2.240446e+02
           10.500000	        2.129572e+02
           11.000000	        1.997228e+02
           11.500000	        1.886481e+02
           12.000000	        1.813964e+02
           12.500000	        1.683380e+02
           13.000000	        1.641476e+02
           13.500000	        1.592396e+02
           14.000000	        1.489801e+02
           14.500000	        1.420188e+02
           15.000000	        1.385919e+02
           16.000000	        1.288990e+02
           17.000000	        1.186125e+02
           18.000000	        1.116015e+02
           19.000000	        1.049621e+02
           20.000000	        9.871714e+01
           30.000000	        5.951696e+01
           40.000000	        4.085845e+01
           50.000000	        3.057084e+01
          100.000000	        8.846562e+00

