# -------------------------------------------------------------------------------
#		C:/Users/ASAT 02/Documents/OMERE 5.4/CDR CLOSE-OUT/SSO 450/Trapped Particles AE8 and  AP8.txt
# -------------------------------------------------------------------------------
# ID: 1 2 1

# Graph: Trapped Particles AE8 and  AP8 
# min: 0.04 0.01 max: 300 974314
# X-axis L: Energy(MeV)
# Y-axis L: Flux (cm^{-2}.s^{-1}.MeV^{-1}) or (cm^{-2}.s^{-1})
# -------------------------------------------------------------------------------
# Curve 0: Diff flux - AP8 min
# Params: 2 5 #fe1448 1 1
#	Energy(MeV)		Flux (cm^{-2}.s^{-1}.MeV^{-1}) or (cm^{-2}.s^{-1})
# -------------------------------------------------------------------------------
        1.000000e-01	        4.168739e+03
        2.500000e-01	        1.426604e+03
        5.000000e-01	        4.212718e+02
        7.500000e-01	        1.798220e+02
        1.000000e+00	        8.768700e+01
        2.000000e+00	        2.233445e+01
        3.000000e+00	        1.089869e+01
        4.000000e+00	        5.894216e+00
        5.000000e+00	        3.687551e+00
        6.000000e+00	        2.405551e+00
        8.000000e+00	        1.259575e+00
        1.000000e+01	        7.233043e-01
        1.200000e+01	        4.977497e-01
        1.500000e+01	        3.505684e-01
        1.700000e+01	        2.896664e-01
        2.000000e+01	        2.220021e-01
        2.500000e+01	        1.657750e-01
        3.000000e+01	        1.464972e-01
        3.500000e+01	        1.356246e-01
        4.000000e+01	        1.257453e-01
        4.500000e+01	        1.170653e-01
        5.000000e+01	        1.150977e-01
        6.000000e+01	        1.093250e-01
        7.000000e+01	        9.859315e-02
        8.000000e+01	        9.012029e-02
        9.000000e+01	        8.181995e-02
        1.000000e+02	        7.472782e-02
        1.250000e+02	        5.551871e-02
        1.500000e+02	        4.023388e-02
        1.750000e+02	        2.945944e-02
        2.000000e+02	        2.179193e-02
        3.000000e+02	        6.916335e-03

# -------------------------------------------------------------------------------
# Curve 1: Integ flux - AP8 min
# Params: 2 5 #169ced 1 1
#	Energy(MeV)		Flux (cm^{-2}.s^{-1}.MeV^{-1}) or (cm^{-2}.s^{-1})
# -------------------------------------------------------------------------------
        1.000000e-01	        7.894020e+02
        2.500000e-01	        4.058232e+02
        5.000000e-01	        2.023127e+02
        7.500000e-01	        1.329608e+02
        1.000000e+00	        1.006642e+02
        2.000000e+00	        5.517662e+01
        3.000000e+00	        4.055873e+01
        4.000000e+00	        3.206304e+01
        5.000000e+00	        2.763938e+01
        6.000000e+00	        2.451118e+01
        8.000000e+00	        2.103376e+01
        1.000000e+01	        1.907990e+01
        1.200000e+01	        1.797317e+01
        1.500000e+01	        1.667038e+01
        1.700000e+01	        1.605894e+01
        2.000000e+01	        1.524904e+01
        2.500000e+01	        1.435412e+01
        3.000000e+01	        1.357581e+01
        3.500000e+01	        1.286852e+01
        4.000000e+01	        1.221444e+01
        4.500000e+01	        1.160683e+01
        5.000000e+01	        1.104048e+01
        6.000000e+01	        9.907907e+00
        7.000000e+01	        8.850870e+00
        8.000000e+01	        7.925418e+00
        9.000000e+01	        7.048352e+00
        1.000000e+02	        6.281026e+00
        1.250000e+02	        4.630356e+00
        1.500000e+02	        3.441541e+00
        1.750000e+02	        2.574700e+00
        2.000000e+02	        1.936500e+00
        3.000000e+02	        6.402641e-01

# -------------------------------------------------------------------------------
# Curve 2: Diff flux - AE8 max
# Params: 2 5 #c967d0 1 1
#	Energy(MeV)		Flux (cm^{-2}.s^{-1}.MeV^{-1}) or (cm^{-2}.s^{-1})
# -------------------------------------------------------------------------------
        4.000000e-02	        9.743138e+05
        1.000000e-01	        5.926026e+05
        2.500000e-01	        1.449554e+05
        5.000000e-01	        2.390587e+04
        7.500000e-01	        7.973773e+03
        1.000000e+00	        3.882615e+03
        1.500000e+00	        1.556771e+03
        2.000000e+00	        6.631764e+02
        2.500000e+00	        3.164345e+02
        3.000000e+00	        1.351595e+02
        3.500000e+00	        5.668288e+01
        4.000000e+00	        2.158886e+01
        4.500000e+00	        7.000178e+00
        5.000000e+00	        2.051801e+00
        5.500000e+00	        4.639464e-01
        6.000000e+00	        7.317762e-02
        6.500000e+00	        1.101026e-02
        7.000000e+00	        7.112451e-04

# -------------------------------------------------------------------------------
# Curve 3: Integ flux - AE8 max
# Params: 2 5 #7def21 1 1
#	Energy(MeV)		Flux (cm^{-2}.s^{-1}.MeV^{-1}) or (cm^{-2}.s^{-1})
# -------------------------------------------------------------------------------
        4.000000e-02	        1.176108e+05
        1.000000e-01	        7.203769e+04
        2.500000e-01	        2.250479e+04
        5.000000e-01	        6.906006e+03
        7.500000e-01	        3.489972e+03
        1.000000e+00	        2.153173e+03
        1.500000e+00	        9.364134e+02
        2.000000e+00	        4.051237e+02
        2.500000e+00	        1.824286e+02
        3.000000e+00	        7.201026e+01
        3.500000e+00	        2.789652e+01
        4.000000e+00	        9.436768e+00
        4.500000e+00	        2.803291e+00
        5.000000e+00	        7.698889e-01
        5.500000e+00	        1.619086e-01
        6.000000e+00	        2.166105e-02
        6.500000e+00	        0.000000e+00
        7.000000e+00	        0.000000e+00

