# -------------------------------------------------------------------------------
#		C:/Users/ACUBESAT-01/Documents/OMERE 5.3/SSO_570km/Proton and Ion differential flux.txt
# -------------------------------------------------------------------------------
# ID: 1 2 1

# Graph: Proton and Ion differential flux 
# min: 0.0001 1e-05 max: 1e+06 4.48848e+10
# X-axis L: Energy (MeV/nuc)
# Y-axis L: flux (ion..cm^{-2}.s^{-1}.(MeV/nuc)^{-1})
# -------------------------------------------------------------------------------
# Curve 0: Diff flux - SAPPHIRE-ions, Z=1
# Params: 2 5 #7def21 1 1
#	Energy (MeV/nuc)		flux (ion..cm^{-2}.s^{-1}.(MeV/nuc)^{-1})
# -------------------------------------------------------------------------------
        1.000000e-01	        4.488480e+07
        2.500000e-01	        8.214526e+06
        6.300000e-01	        1.429678e+06
        1.600000e+00	        2.316081e+05
        4.000000e+00	        3.888398e+04
        1.000000e+01	        5.373811e+03
        2.500000e+01	        5.704799e+02
        6.300000e+01	        3.408917e+01
        1.600000e+02	        1.029016e+00
        4.000000e+02	        7.527972e-02
        1.000000e+03	        4.142674e-03

# -------------------------------------------------------------------------------
# Curve 1: Diff flux - SAPPHIRE-ions, Z=2
# Params: 2 5 #ff963e 1 1
#	Energy (MeV/nuc)		flux (ion..cm^{-2}.s^{-1}.(MeV/nuc)^{-1})
# -------------------------------------------------------------------------------
        1.000000e-01	        1.033496e+06
        2.500000e-01	        1.845077e+05
        6.300000e-01	        3.079419e+04
        1.600000e+00	        4.653252e+03
        4.000000e+00	        7.199920e+02
        1.000000e+01	        9.969778e+01
        2.500000e+01	        9.153437e+00
        6.300000e+01	        2.000138e-01
        1.600000e+02	        2.491950e-03
        4.000000e+02	        7.892320e-05
        1.000000e+03	        2.201007e-06

# -------------------------------------------------------------------------------
# Curve 2: Diff flux - SAPPHIRE-ions, Z=3
# Params: 2 5 #1bcdff 1 1
#	Energy (MeV/nuc)		flux (ion..cm^{-2}.s^{-1}.(MeV/nuc)^{-1})
# -------------------------------------------------------------------------------
        1.000000e-01	        5.787579e-04
        2.500000e-01	        1.033243e-04
        6.300000e-01	        1.724475e-05
        1.600000e+00	        2.605821e-06
        4.000000e+00	        4.031955e-07
        1.000000e+01	        6.421534e-08
        2.500000e+01	        8.387295e-09
        6.300000e+01	        2.980206e-10
        1.600000e+02	        5.634300e-12
        4.000000e+02	        1.894157e-13
        1.000000e+03	        5.282417e-15

# -------------------------------------------------------------------------------
# Curve 3: Diff flux - SAPPHIRE-ions, Z=4
# Params: 2 5 #c314fe 1 1
#	Energy (MeV/nuc)		flux (ion..cm^{-2}.s^{-1}.(MeV/nuc)^{-1})
# -------------------------------------------------------------------------------
        1.000000e-01	        1.240195e-03
        2.500000e-01	        2.214092e-04
        6.300000e-01	        3.695303e-05
        1.600000e+00	        5.583902e-06
        4.000000e+00	        8.639904e-07
        1.000000e+01	        1.373835e-07
        2.500000e+01	        1.790412e-08
        6.300000e+01	        6.382441e-10
        1.600000e+02	        1.205606e-11
        4.000000e+02	        4.048760e-13
        1.000000e+03	        1.129117e-14

# -------------------------------------------------------------------------------
# Curve 4: Diff flux - SAPPHIRE-ions, Z=5
# Params: 2 5 #14ce57 1 1
#	Energy (MeV/nuc)		flux (ion..cm^{-2}.s^{-1}.(MeV/nuc)^{-1})
# -------------------------------------------------------------------------------
        1.000000e-01	        2.583740e-02
        2.500000e-01	        4.612692e-03
        6.300000e-01	        7.698548e-04
        1.600000e+00	        1.163313e-04
        4.000000e+00	        1.799980e-05
        1.000000e+01	        2.865314e-06
        2.500000e+01	        3.750163e-07
        6.300000e+01	        1.332692e-08
        1.600000e+02	        2.509394e-10
        4.000000e+02	        8.444782e-12
        1.000000e+03	        2.355078e-13

# -------------------------------------------------------------------------------
# Curve 5: Diff flux - SAPPHIRE-ions, Z=6
# Params: 2 5 #ff5b17 1 1
#	Energy (MeV/nuc)		flux (ion..cm^{-2}.s^{-1}.(MeV/nuc)^{-1})
# -------------------------------------------------------------------------------
        1.000000e-01	        5.952938e+03
        2.500000e-01	        1.062764e+03
        6.300000e-01	        1.773745e+02
        1.600000e+00	        2.680273e+01
        4.000000e+00	        4.147154e+00
        1.000000e+01	        6.614948e-01
        2.500000e+01	        8.638099e-02
        6.300000e+01	        3.080213e-03
        1.600000e+02	        5.806244e-05
        4.000000e+02	        1.949403e-06
        1.000000e+03	        5.436488e-08

# -------------------------------------------------------------------------------
# Curve 6: Diff flux - SAPPHIRE-ions, Z=7
# Params: 2 5 #3690cb 1 1
#	Energy (MeV/nuc)		flux (ion..cm^{-2}.s^{-1}.(MeV/nuc)^{-1})
# -------------------------------------------------------------------------------
        1.000000e-01	        2.263357e+03
        2.500000e-01	        4.040718e+02
        6.300000e-01	        6.743928e+01
        1.600000e+00	        1.019062e+01
        4.000000e+00	        1.576782e+00
        1.000000e+01	        2.224257e-01
        2.500000e+01	        2.152888e-02
        6.300000e+01	        4.982344e-04
        1.600000e+02	        6.072883e-06
        4.000000e+02	        1.878372e-07
        1.000000e+03	        5.238397e-09

# -------------------------------------------------------------------------------
# Curve 7: Diff flux - SAPPHIRE-ions, Z=8
# Params: 2 5 #e086ff 1 1
#	Energy (MeV/nuc)		flux (ion..cm^{-2}.s^{-1}.(MeV/nuc)^{-1})
# -------------------------------------------------------------------------------
        1.000000e-01	        1.384885e+04
        2.500000e-01	        2.472403e+03
        6.300000e-01	        4.126422e+02
        1.600000e+00	        6.235357e+01
        4.000000e+00	        9.647893e+00
        1.000000e+01	        1.438639e+00
        2.500000e+01	        1.608259e-01
        6.300000e+01	        4.806332e-03
        1.600000e+02	        9.060731e-05
        4.000000e+02	        3.393697e-06
        1.000000e+03	        9.464331e-08

# -------------------------------------------------------------------------------
# Curve 8: Diff flux - SAPPHIRE-ions, Z=9
# Params: 2 5 #14bf4c 1 1
#	Energy (MeV/nuc)		flux (ion..cm^{-2}.s^{-1}.(MeV/nuc)^{-1})
# -------------------------------------------------------------------------------
        1.000000e-01	        6.790070e-01
        2.500000e-01	        1.212215e-01
        6.300000e-01	        2.023178e-02
        1.600000e+00	        3.057186e-03
        4.000000e+00	        4.730347e-04
        1.000000e+01	        7.051624e-05
        2.500000e+01	        7.871041e-06
        6.300000e+01	        2.354163e-07
        1.600000e+02	        4.430688e-09
        4.000000e+02	        1.657387e-10
        1.000000e+03	        4.622115e-12

# -------------------------------------------------------------------------------
# Curve 9: Diff flux - SAPPHIRE-ions, Z=10
# Params: 2 5 #fe1448 1 1
#	Energy (MeV/nuc)		flux (ion..cm^{-2}.s^{-1}.(MeV/nuc)^{-1})
# -------------------------------------------------------------------------------
        1.000000e-01	        2.790440e+03
        2.500000e-01	        4.981707e+02
        6.300000e-01	        8.314432e+01
        1.600000e+00	        1.256378e+01
        4.000000e+00	        1.943978e+00
        1.000000e+01	        2.777580e-01
        2.500000e+01	        2.743285e-02
        6.300000e+01	        6.608457e-04
        1.600000e+02	        9.387177e-06
        4.000000e+02	        3.220066e-07
        1.000000e+03	        8.980109e-09

# -------------------------------------------------------------------------------
# Curve 10: Diff flux - SAPPHIRE-ions, Z=11
# Params: 2 5 #169ced 1 1
#	Energy (MeV/nuc)		flux (ion..cm^{-2}.s^{-1}.(MeV/nuc)^{-1})
# -------------------------------------------------------------------------------
        1.000000e-01	        1.715604e+02
        2.500000e-01	        3.062827e+01
        6.300000e-01	        5.111836e+00
        1.600000e+00	        7.724398e-01
        4.000000e+00	        1.195187e-01
        1.000000e+01	        1.802536e-02
        2.500000e+01	        2.065931e-03
        6.300000e+01	        6.576455e-05
        1.600000e+02	        1.521336e-06
        4.000000e+02	        6.945241e-08
        1.000000e+03	        1.936886e-09

# -------------------------------------------------------------------------------
# Curve 11: Diff flux - SAPPHIRE-ions, Z=12
# Params: 2 5 #c967d0 1 1
#	Energy (MeV/nuc)		flux (ion..cm^{-2}.s^{-1}.(MeV/nuc)^{-1})
# -------------------------------------------------------------------------------
        1.000000e-01	        3.224508e+03
        2.500000e-01	        5.756640e+02
        6.300000e-01	        9.607788e+01
        1.600000e+00	        1.451815e+01
        4.000000e+00	        2.246375e+00
        1.000000e+01	        3.330903e-01
        2.500000e+01	        3.605539e-02
        6.300000e+01	        1.036872e-03
        1.600000e+02	        2.604088e-05
        4.000000e+02	        1.673172e-06
        1.000000e+03	        4.666135e-08

# -------------------------------------------------------------------------------
# Curve 12: Diff flux - SAPPHIRE-ions, Z=13
# Params: 2 5 #7def21 1 1
#	Energy (MeV/nuc)		flux (ion..cm^{-2}.s^{-1}.(MeV/nuc)^{-1})
# -------------------------------------------------------------------------------
        1.000000e-01	        2.594075e+02
        2.500000e-01	        4.631143e+01
        6.300000e-01	        7.729342e+00
        1.600000e+00	        1.167966e+00
        4.000000e+00	        1.807180e-01
        1.000000e+01	        2.725737e-02
        2.500000e+01	        3.130476e-03
        6.300000e+01	        9.972689e-05
        1.600000e+02	        2.302064e-06
        4.000000e+02	        1.049678e-07
        1.000000e+03	        2.927340e-09

# -------------------------------------------------------------------------------
# Curve 13: Diff flux - SAPPHIRE-ions, Z=14
# Params: 2 5 #ff963e 1 1
#	Energy (MeV/nuc)		flux (ion..cm^{-2}.s^{-1}.(MeV/nuc)^{-1})
# -------------------------------------------------------------------------------
        1.000000e-01	        2.532066e+03
        2.500000e-01	        4.520438e+02
        6.300000e-01	        7.544577e+01
        1.600000e+00	        1.140047e+01
        4.000000e+00	        1.763980e+00
        1.000000e+01	        2.661931e-01
        2.500000e+01	        3.058163e-02
        6.300000e+01	        9.738673e-04
        1.600000e+02	        2.249234e-05
        4.000000e+02	        1.026002e-06
        1.000000e+03	        2.861309e-08

# -------------------------------------------------------------------------------
# Curve 14: Diff flux - SAPPHIRE-ions, Z=15
# Params: 2 5 #1bcdff 1 1
#	Energy (MeV/nuc)		flux (ion..cm^{-2}.s^{-1}.(MeV/nuc)^{-1})
# -------------------------------------------------------------------------------
        1.000000e-01	        1.085171e+01
        2.500000e-01	        1.937331e+00
        6.300000e-01	        3.233390e-01
        1.600000e+00	        4.885914e-02
        4.000000e+00	        7.559916e-03
        1.000000e+01	        1.136555e-03
        2.500000e+01	        1.307111e-04
        6.300000e+01	        4.150287e-06
        1.600000e+02	        9.598992e-08
        4.000000e+02	        4.380237e-09
        1.000000e+03	        1.221559e-10

# -------------------------------------------------------------------------------
# Curve 15: Diff flux - SAPPHIRE-ions, Z=16
# Params: 2 5 #c314fe 1 1
#	Energy (MeV/nuc)		flux (ion..cm^{-2}.s^{-1}.(MeV/nuc)^{-1})
# -------------------------------------------------------------------------------
        1.000000e-01	        1.767279e+02
        2.500000e-01	        3.155081e+01
        6.300000e-01	        5.265807e+00
        1.600000e+00	        7.957060e-01
        4.000000e+00	        1.231186e-01
        1.000000e+01	        1.856373e-02
        2.500000e+01	        2.129090e-03
        6.300000e+01	        6.778468e-05
        1.600000e+02	        1.567188e-06
        4.000000e+02	        7.150442e-08
        1.000000e+03	        1.994113e-09

# -------------------------------------------------------------------------------
# Curve 16: Diff flux - SAPPHIRE-ions, Z=17
# Params: 2 5 #14ce57 1 1
#	Energy (MeV/nuc)		flux (ion..cm^{-2}.s^{-1}.(MeV/nuc)^{-1})
# -------------------------------------------------------------------------------
        1.000000e-01	        3.927286e+00
        2.500000e-01	        7.011292e-01
        6.300000e-01	        1.170179e-01
        1.600000e+00	        1.768236e-02
        4.000000e+00	        2.735970e-03
        1.000000e+01	        4.128485e-04
        2.500000e+01	        4.735989e-05
        6.300000e+01	        1.508704e-06
        1.600000e+02	        3.481255e-08
        4.000000e+02	        1.594249e-09
        1.000000e+03	        4.446035e-11

# -------------------------------------------------------------------------------
# Curve 17: Diff flux - SAPPHIRE-ions, Z=18
# Params: 2 5 #ff5b17 1 1
#	Energy (MeV/nuc)		flux (ion..cm^{-2}.s^{-1}.(MeV/nuc)^{-1})
# -------------------------------------------------------------------------------
        1.000000e-01	        1.808618e+01
        2.500000e-01	        3.228884e+00
        6.300000e-01	        5.388984e-01
        1.600000e+00	        8.143191e-02
        4.000000e+00	        1.259986e-02
        1.000000e+01	        1.896252e-03
        2.500000e+01	        2.182179e-04
        6.300000e+01	        6.944480e-06
        1.600000e+02	        1.603321e-07
        4.000000e+02	        7.324073e-09
        1.000000e+03	        2.042535e-10

# -------------------------------------------------------------------------------
# Curve 18: Diff flux - SAPPHIRE-ions, Z=19
# Params: 2 5 #3690cb 1 1
#	Energy (MeV/nuc)		flux (ion..cm^{-2}.s^{-1}.(MeV/nuc)^{-1})
# -------------------------------------------------------------------------------
        1.000000e-01	        2.697425e+01
        2.500000e-01	        4.815650e+00
        6.300000e-01	        8.037284e-01
        1.600000e+00	        1.214499e-01
        4.000000e+00	        1.879179e-02
        1.000000e+01	        2.835405e-03
        2.500000e+01	        3.255878e-04
        6.300000e+01	        1.036072e-05
        1.600000e+02	        2.394266e-07
        4.000000e+02	        1.097032e-08
        1.000000e+03	        3.059400e-10

# -------------------------------------------------------------------------------
# Curve 19: Diff flux - SAPPHIRE-ions, Z=20
# Params: 2 5 #e086ff 1 1
#	Energy (MeV/nuc)		flux (ion..cm^{-2}.s^{-1}.(MeV/nuc)^{-1})
# -------------------------------------------------------------------------------
        1.000000e-01	        2.883454e+02
        2.500000e-01	        5.147764e+01
        6.300000e-01	        8.591580e+00
        1.600000e+00	        1.298257e+00
        4.000000e+00	        2.008778e-01
        1.000000e+01	        3.100601e-02
        2.500000e+01	        3.659544e-03
        6.300000e+01	        1.109677e-04
        1.600000e+02	        1.989822e-06
        4.000000e+02	        7.576627e-08
        1.000000e+03	        2.112967e-09

# -------------------------------------------------------------------------------
# Curve 20: Diff flux - SAPPHIRE-ions, Z=21
# Params: 2 5 #14bf4c 1 1
#	Energy (MeV/nuc)		flux (ion..cm^{-2}.s^{-1}.(MeV/nuc)^{-1})
# -------------------------------------------------------------------------------
        1.000000e-01	        1.539909e-01
        2.500000e-01	        2.749164e-02
        6.300000e-01	        4.588335e-03
        1.600000e+00	        6.933345e-04
        4.000000e+00	        1.072788e-04
        1.000000e+01	        1.649998e-05
        2.500000e+01	        1.956090e-06
        6.300000e+01	        5.916409e-08
        1.600000e+02	        1.062318e-09
        4.000000e+02	        4.040868e-11
        1.000000e+03	        1.126916e-12

# -------------------------------------------------------------------------------
# Curve 21: Diff flux - SAPPHIRE-ions, Z=22
# Params: 2 5 #fe1448 1 1
#	Energy (MeV/nuc)		flux (ion..cm^{-2}.s^{-1}.(MeV/nuc)^{-1})
# -------------------------------------------------------------------------------
        1.000000e-01	        2.800775e+01
        2.500000e-01	        5.000158e+00
        6.300000e-01	        8.345226e-01
        1.600000e+00	        1.261031e-01
        4.000000e+00	        1.951178e-02
        1.000000e+01	        3.009876e-03
        2.500000e+01	        3.558856e-04
        6.300000e+01	        1.076274e-05
        1.600000e+02	        1.933255e-07
        4.000000e+02	        7.355642e-09
        1.000000e+03	        2.051339e-10

# -------------------------------------------------------------------------------
# Curve 22: Diff flux - SAPPHIRE-ions, Z=23
# Params: 2 5 #169ced 1 1
#	Energy (MeV/nuc)		flux (ion..cm^{-2}.s^{-1}.(MeV/nuc)^{-1})
# -------------------------------------------------------------------------------
        1.000000e-01	        9.270461e-01
        2.500000e-01	        1.655034e-01
        6.300000e-01	        2.762239e-02
        1.600000e+00	        4.173967e-03
        4.000000e+00	        6.458328e-04
        1.000000e+01	        9.979748e-05
        2.500000e+01	        1.180793e-05
        6.300000e+01	        3.564246e-07
        1.600000e+02	        6.404312e-09
        4.000000e+02	        2.438727e-10
        1.000000e+03	        6.801112e-12

# -------------------------------------------------------------------------------
# Curve 23: Diff flux - SAPPHIRE-ions, Z=24
# Params: 2 5 #c967d0 1 1
#	Energy (MeV/nuc)		flux (ion..cm^{-2}.s^{-1}.(MeV/nuc)^{-1})
# -------------------------------------------------------------------------------
        1.000000e-01	        1.725939e+02
        2.500000e-01	        3.081278e+01
        6.300000e-01	        5.142630e+00
        1.600000e+00	        7.770930e-01
        4.000000e+00	        1.202387e-01
        1.000000e+01	        1.853382e-02
        2.500000e+01	        2.190418e-03
        6.300000e+01	        6.638459e-05
        1.600000e+02	        1.192149e-06
        4.000000e+02	        4.538084e-08
        1.000000e+03	        1.265579e-09

# -------------------------------------------------------------------------------
# Curve 24: Diff flux - SAPPHIRE-ions, Z=25
# Params: 2 5 #7def21 1 1
#	Energy (MeV/nuc)		flux (ion..cm^{-2}.s^{-1}.(MeV/nuc)^{-1})
# -------------------------------------------------------------------------------
        1.000000e-01	        2.935129e+01
        2.500000e-01	        5.240018e+00
        6.300000e-01	        8.745550e-01
        1.600000e+00	        1.321523e-01
        4.000000e+00	        2.044777e-02
        1.000000e+01	        3.153441e-03
        2.500000e+01	        3.722703e-04
        6.300000e+01	        1.127078e-05
        1.600000e+02	        2.023962e-07
        4.000000e+02	        7.702904e-09
        1.000000e+03	        2.148183e-10

# -------------------------------------------------------------------------------
# Curve 25: Diff flux - SAPPHIRE-ions, Z=26
# Params: 2 5 #ff963e 1 1
#	Energy (MeV/nuc)		flux (ion..cm^{-2}.s^{-1}.(MeV/nuc)^{-1})
# -------------------------------------------------------------------------------
        1.000000e-01	        3.627572e+03
        2.500000e-01	        6.476219e+02
        6.300000e-01	        1.080876e+02
        1.600000e+00	        1.633291e+01
        4.000000e+00	        2.527172e+00
        1.000000e+01	        3.903168e-01
        2.500000e+01	        4.614248e-02
        6.300000e+01	        1.395896e-03
        1.600000e+02	        2.501918e-05
        4.000000e+02	        9.549707e-07
        1.000000e+03	        2.663219e-08

# -------------------------------------------------------------------------------
# Curve 26: Diff flux - SAPPHIRE-ions, Z=27
# Params: 2 5 #1bcdff 1 1
#	Energy (MeV/nuc)		flux (ion..cm^{-2}.s^{-1}.(MeV/nuc)^{-1})
# -------------------------------------------------------------------------------
        1.000000e-01	        1.064501e+01
        2.500000e-01	        1.900429e+00
        6.300000e-01	        3.171802e-01
        1.600000e+00	        4.792849e-02
        4.000000e+00	        7.415918e-03
        1.000000e+01	        1.143534e-03
        2.500000e+01	        1.351963e-04
        6.300000e+01	        4.092283e-06
        1.600000e+02	        7.336302e-08
        4.000000e+02	        2.793881e-09
        1.000000e+03	        7.791565e-11

# -------------------------------------------------------------------------------
# Curve 27: Diff flux - SAPPHIRE-ions, Z=28
# Params: 2 5 #c314fe 1 1
#	Energy (MeV/nuc)		flux (ion..cm^{-2}.s^{-1}.(MeV/nuc)^{-1})
# -------------------------------------------------------------------------------
        1.000000e-01	        1.736274e+02
        2.500000e-01	        3.099729e+01
        6.300000e-01	        5.173424e+00
        1.600000e+00	        7.817463e-01
        4.000000e+00	        1.209587e-01
        1.000000e+01	        1.867339e-02
        2.500000e+01	        2.208724e-03
        6.300000e+01	        6.678462e-05
        1.600000e+02	        1.199625e-06
        4.000000e+02	        4.569653e-08
        1.000000e+03	        1.274383e-09

# -------------------------------------------------------------------------------
# Curve 28: Diff flux - SAPPHIRE-ions, Z=29
# Params: 2 5 #14ce57 1 1
#	Energy (MeV/nuc)		flux (ion..cm^{-2}.s^{-1}.(MeV/nuc)^{-1})
# -------------------------------------------------------------------------------
        1.000000e-01	        1.684599e+00
        2.500000e-01	        3.007475e-01
        6.300000e-01	        5.019453e-02
        1.600000e+00	        7.584800e-03
        4.000000e+00	        1.173587e-03
        1.000000e+01	        1.813503e-04
        2.500000e+01	        2.144650e-05
        6.300000e+01	        6.484448e-07
        1.600000e+02	        1.165236e-08
        4.000000e+02	        4.435484e-10
        1.000000e+03	        1.236966e-11

# -------------------------------------------------------------------------------
# Curve 29: Diff flux - SAPPHIRE-ions, Z=30
# Params: 2 5 #ff5b17 1 1
#	Energy (MeV/nuc)		flux (ion..cm^{-2}.s^{-1}.(MeV/nuc)^{-1})
# -------------------------------------------------------------------------------
        1.000000e-01	        9.053427e+00
        2.500000e-01	        1.616287e+00
        6.300000e-01	        2.697571e-01
        1.600000e+00	        4.076249e-02
        4.000000e+00	        6.307130e-03
        1.000000e+01	        9.733494e-04
        2.500000e+01	        1.153333e-04
        6.300000e+01	        3.476240e-06
        1.600000e+02	        6.257287e-08
        4.000000e+02	        2.383481e-09
        1.000000e+03	        6.647042e-11

# -------------------------------------------------------------------------------
# Curve 30: Diff flux - SAPPHIRE-ions, Z=31
# Params: 2 5 #3690cb 1 1
#	Energy (MeV/nuc)		flux (ion..cm^{-2}.s^{-1}.(MeV/nuc)^{-1})
# -------------------------------------------------------------------------------
        1.000000e-01	        1.198856e-01
        2.500000e-01	        2.140289e-02
        6.300000e-01	        3.572126e-03
        1.600000e+00	        5.397772e-04
        4.000000e+00	        8.351907e-05
        1.000000e+01	        1.287098e-05
        2.500000e+01	        1.513979e-06
        6.300000e+01	        4.592317e-08
        1.600000e+02	        8.240880e-10
        4.000000e+02	        3.141143e-11
        1.000000e+03	        8.760009e-13

# -------------------------------------------------------------------------------
# Curve 31: Diff flux - SAPPHIRE-ions, Z=32
# Params: 2 5 #e086ff 1 1
#	Energy (MeV/nuc)		flux (ion..cm^{-2}.s^{-1}.(MeV/nuc)^{-1})
# -------------------------------------------------------------------------------
        1.000000e-01	        4.867767e-01
        2.500000e-01	        8.690312e-02
        6.300000e-01	        1.450406e-02
        1.600000e+00	        2.191682e-03
        4.000000e+00	        3.391162e-04
        1.000000e+01	        5.227155e-05
        2.500000e+01	        6.181316e-06
        6.300000e+01	        1.869129e-07
        1.600000e+02	        3.361641e-09
        4.000000e+02	        1.278556e-10
        1.000000e+03	        3.565632e-12

# -------------------------------------------------------------------------------
# Curve 32: Diff flux - SAPPHIRE-ions, Z=33
# Params: 2 5 #14bf4c 1 1
#	Energy (MeV/nuc)		flux (ion..cm^{-2}.s^{-1}.(MeV/nuc)^{-1})
# -------------------------------------------------------------------------------
        1.000000e-01	        7.709882e-02
        2.500000e-01	        1.376427e-02
        6.300000e-01	        2.297247e-03
        1.600000e+00	        3.471326e-04
        4.000000e+00	        5.371140e-05
        1.000000e+01	        8.287876e-06
        2.500000e+01	        9.821638e-07
        6.300000e+01	        2.968205e-08
        1.600000e+02	        5.322806e-10
        4.000000e+02	        2.028326e-11
        1.000000e+03	        5.656588e-13

# -------------------------------------------------------------------------------
# Curve 33: Diff flux - SAPPHIRE-ions, Z=34
# Params: 2 5 #fe1448 1 1
#	Energy (MeV/nuc)		flux (ion..cm^{-2}.s^{-1}.(MeV/nuc)^{-1})
# -------------------------------------------------------------------------------
        1.000000e-01	        8.453999e-01
        2.500000e-01	        1.509273e-01
        6.300000e-01	        2.518965e-02
        1.600000e+00	        3.806360e-03
        4.000000e+00	        5.889535e-04
        1.000000e+01	        9.087453e-05
        2.500000e+01	        1.071868e-05
        6.300000e+01	        3.248224e-07
        1.600000e+02	        5.838640e-09
        4.000000e+02	        2.217742e-10
        1.000000e+03	        6.184830e-12

# -------------------------------------------------------------------------------
# Curve 34: Diff flux - SAPPHIRE-ions, Z=35
# Params: 2 5 #169ced 1 1
#	Energy (MeV/nuc)		flux (ion..cm^{-2}.s^{-1}.(MeV/nuc)^{-1})
# -------------------------------------------------------------------------------
        1.000000e-01	        4.464704e-02
        2.500000e-01	        7.970732e-03
        6.300000e-01	        1.330309e-03
        1.600000e+00	        2.010205e-04
        4.000000e+00	        3.110365e-05
        1.000000e+01	        4.800448e-06
        2.500000e+01	        5.669639e-07
        6.300000e+01	        1.718119e-08
        1.600000e+02	        3.090018e-10
        4.000000e+02	        1.175956e-11
        1.000000e+03	        3.279501e-13

# -------------------------------------------------------------------------------
# Curve 35: Diff flux - SAPPHIRE-ions, Z=36
# Params: 2 5 #c967d0 1 1
#	Energy (MeV/nuc)		flux (ion..cm^{-2}.s^{-1}.(MeV/nuc)^{-1})
# -------------------------------------------------------------------------------
        1.000000e-01	        6.449016e-02
        2.500000e-01	        1.151328e-02
        6.300000e-01	        1.921558e-03
        1.600000e+00	        2.903629e-04
        4.000000e+00	        4.492750e-05
        1.000000e+01	        6.936971e-06
        2.500000e+01	        8.200565e-07
        6.300000e+01	        2.486172e-08
        1.600000e+02	        4.463083e-10
        4.000000e+02	        1.696849e-11
        1.000000e+03	        4.732165e-13

# -------------------------------------------------------------------------------
# Curve 36: Diff flux - SAPPHIRE-ions, Z=37
# Params: 2 5 #7def21 1 1
#	Energy (MeV/nuc)		flux (ion..cm^{-2}.s^{-1}.(MeV/nuc)^{-1})
# -------------------------------------------------------------------------------
        1.000000e-01	        3.606902e-02
        2.500000e-01	        6.439318e-03
        6.300000e-01	        1.074717e-03
        1.600000e+00	        1.623985e-04
        4.000000e+00	        2.512772e-05
        1.000000e+01	        3.877247e-06
        2.500000e+01	        4.578549e-07
        6.300000e+01	        1.387096e-08
        1.600000e+02	        2.478992e-10
        4.000000e+02	        9.470783e-12
        1.000000e+03	        2.641209e-13

# -------------------------------------------------------------------------------
# Curve 37: Diff flux - SAPPHIRE-ions, Z=38
# Params: 2 5 #ff963e 1 1
#	Energy (MeV/nuc)		flux (ion..cm^{-2}.s^{-1}.(MeV/nuc)^{-1})
# -------------------------------------------------------------------------------
        1.000000e-01	        8.071605e-02
        2.500000e-01	        1.441005e-02
        6.300000e-01	        2.405026e-03
        1.600000e+00	        3.634190e-04
        4.000000e+00	        5.623138e-05
        1.000000e+01	        8.677695e-06
        2.500000e+01	        1.027931e-06
        6.300000e+01	        3.102214e-08
        1.600000e+02	        5.569509e-10
        4.000000e+02	        2.123034e-11
        1.000000e+03	        5.920709e-13

# -------------------------------------------------------------------------------
# Curve 38: Diff flux - SAPPHIRE-ions, Z=39
# Params: 2 5 #1bcdff 1 1
#	Energy (MeV/nuc)		flux (ion..cm^{-2}.s^{-1}.(MeV/nuc)^{-1})
# -------------------------------------------------------------------------------
        1.000000e-01	        1.767279e-02
        2.500000e-01	        3.155081e-03
        6.300000e-01	        5.265807e-04
        1.600000e+00	        7.957060e-05
        4.000000e+00	        1.231186e-05
        1.000000e+01	        1.897249e-06
        2.500000e+01	        2.243508e-07
        6.300000e+01	        6.798470e-09
        1.600000e+02	        1.219311e-10
        4.000000e+02	        4.640684e-12
        1.000000e+03	        1.294192e-13

# -------------------------------------------------------------------------------
# Curve 39: Diff flux - SAPPHIRE-ions, Z=40
# Params: 2 5 #c314fe 1 1
#	Energy (MeV/nuc)		flux (ion..cm^{-2}.s^{-1}.(MeV/nuc)^{-1})
# -------------------------------------------------------------------------------
        1.000000e-01	        4.144320e-02
        2.500000e-01	        7.398758e-03
        6.300000e-01	        1.234847e-03
        1.600000e+00	        1.865954e-04
        4.000000e+00	        2.887168e-05
        1.000000e+01	        4.450509e-06
        2.500000e+01	        5.262311e-07
        6.300000e+01	        1.592510e-08
        1.600000e+02	        2.868235e-10
        4.000000e+02	        1.089140e-11
        1.000000e+03	        3.037390e-13

# -------------------------------------------------------------------------------
# Curve 40: Diff flux - SAPPHIRE-ions, Z=41
# Params: 2 5 #14ce57 1 1
#	Energy (MeV/nuc)		flux (ion..cm^{-2}.s^{-1}.(MeV/nuc)^{-1})
# -------------------------------------------------------------------------------
        1.000000e-01	        3.141828e-03
        2.500000e-01	        5.609033e-04
        6.300000e-01	        9.361434e-05
        1.600000e+00	        1.414589e-05
        4.000000e+00	        2.188776e-06
        1.000000e+01	        3.380752e-07
        2.500000e+01	        3.991814e-08
        6.300000e+01	        1.208684e-09
        1.600000e+02	        2.168495e-11
        4.000000e+02	        8.286936e-13
        1.000000e+03	        2.311058e-14

# -------------------------------------------------------------------------------
# Curve 41: Diff flux - SAPPHIRE-ions, Z=42
# Params: 2 5 #ff5b17 1 1
#	Energy (MeV/nuc)		flux (ion..cm^{-2}.s^{-1}.(MeV/nuc)^{-1})
# -------------------------------------------------------------------------------
        1.000000e-01	        8.257635e-03
        2.500000e-01	        1.474216e-03
        6.300000e-01	        2.460456e-04
        1.600000e+00	        3.717948e-05
        4.000000e+00	        5.752736e-06
        1.000000e+01	        8.884069e-07
        2.500000e+01	        1.046238e-07
        6.300000e+01	        3.182220e-09
        1.600000e+02	        5.691614e-11
        4.000000e+02	        2.170388e-12
        1.000000e+03	        6.052770e-14

# -------------------------------------------------------------------------------
# Curve 42: Diff flux - SAPPHIRE-ions, Z=43
# Params: 2 5 #3690cb 1 1
#	Energy (MeV/nuc)		flux (ion..cm^{-2}.s^{-1}.(MeV/nuc)^{-1})
# -------------------------------------------------------------------------------
        1.000000e-01	        0.000000e+00
        2.500000e-01	        0.000000e+00
        6.300000e-01	        0.000000e+00
        1.600000e+00	        0.000000e+00
        4.000000e+00	        0.000000e+00
        1.000000e+01	        0.000000e+00
        2.500000e+01	        0.000000e+00
        6.300000e+01	        0.000000e+00
        1.600000e+02	        0.000000e+00
        4.000000e+02	        0.000000e+00
        1.000000e+03	        0.000000e+00

# -------------------------------------------------------------------------------
# Curve 43: Diff flux - SAPPHIRE-ions, Z=44
# Params: 2 5 #e086ff 1 1
#	Energy (MeV/nuc)		flux (ion..cm^{-2}.s^{-1}.(MeV/nuc)^{-1})
# -------------------------------------------------------------------------------
        1.000000e-01	        6.118298e-03
        2.500000e-01	        1.092285e-03
        6.300000e-01	        1.823016e-04
        1.600000e+00	        2.754725e-05
        4.000000e+00	        4.262353e-06
        1.000000e+01	        6.584041e-07
        2.500000e+01	        7.778591e-08
        6.300000e+01	        2.360163e-09
        1.600000e+02	        4.218872e-11
        4.000000e+02	        1.610033e-12
        1.000000e+03	        4.490055e-14

# -------------------------------------------------------------------------------
# Curve 44: Diff flux - SAPPHIRE-ions, Z=45
# Params: 2 5 #14bf4c 1 1
#	Energy (MeV/nuc)		flux (ion..cm^{-2}.s^{-1}.(MeV/nuc)^{-1})
# -------------------------------------------------------------------------------
        1.000000e-01	        8.846727e-04
        2.500000e-01	        1.579386e-04
        6.300000e-01	        2.635983e-05
        1.600000e+00	        3.983183e-06
        4.000000e+00	        6.163132e-07
        1.000000e+01	        9.521138e-08
        2.500000e+01	        1.125873e-08
        6.300000e+01	        3.410236e-10
        1.600000e+02	        6.110262e-12
        4.000000e+02	        2.328234e-13
        1.000000e+03	        6.492971e-15

# -------------------------------------------------------------------------------
# Curve 45: Diff flux - SAPPHIRE-ions, Z=46
# Params: 2 5 #fe1448 1 1
#	Energy (MeV/nuc)		flux (ion..cm^{-2}.s^{-1}.(MeV/nuc)^{-1})
# -------------------------------------------------------------------------------
        1.000000e-01	        4.040970e-03
        2.500000e-01	        7.214250e-04
        6.300000e-01	        1.204053e-04
        1.600000e+00	        1.819421e-05
        4.000000e+00	        2.815169e-06
        1.000000e+01	        4.350811e-07
        2.500000e+01	        5.136909e-08
        6.300000e+01	        1.556308e-09
        1.600000e+02	        2.795968e-11
        4.000000e+02	        1.065463e-12
        1.000000e+03	        2.971360e-14

# -------------------------------------------------------------------------------
# Curve 46: Diff flux - SAPPHIRE-ions, Z=47
# Params: 2 5 #169ced 1 1
#	Energy (MeV/nuc)		flux (ion..cm^{-2}.s^{-1}.(MeV/nuc)^{-1})
# -------------------------------------------------------------------------------
        1.000000e-01	        9.477160e-04
        2.500000e-01	        1.691935e-04
        6.300000e-01	        2.823827e-05
        1.600000e+00	        4.267032e-06
        4.000000e+00	        6.602327e-07
        1.000000e+01	        1.019908e-07
        2.500000e+01	        1.206423e-08
        6.300000e+01	        3.644252e-10
        1.600000e+02	        6.551337e-12
        4.000000e+02	        2.493973e-13
        1.000000e+03	        6.955183e-15

# -------------------------------------------------------------------------------
# Curve 47: Diff flux - SAPPHIRE-ions, Z=48
# Params: 2 5 #c967d0 1 1
#	Energy (MeV/nuc)		flux (ion..cm^{-2}.s^{-1}.(MeV/nuc)^{-1})
# -------------------------------------------------------------------------------
        1.000000e-01	        1.984313e-02
        2.500000e-01	        3.542547e-03
        6.300000e-01	        5.912485e-04
        1.600000e+00	        8.934243e-05
        4.000000e+00	        1.382385e-05
        1.000000e+01	        2.133532e-06
        2.500000e+01	        2.514449e-07
        6.300000e+01	        7.620527e-09
        1.600000e+02	        1.368828e-10
        4.000000e+02	        5.208931e-12
        1.000000e+03	        1.452665e-13

# -------------------------------------------------------------------------------
# Curve 48: Diff flux - SAPPHIRE-ions, Z=49
# Params: 2 5 #7def21 1 1
#	Energy (MeV/nuc)		flux (ion..cm^{-2}.s^{-1}.(MeV/nuc)^{-1})
# -------------------------------------------------------------------------------
        1.000000e-01	        6.872750e-04
        2.500000e-01	        1.226976e-04
        6.300000e-01	        2.047814e-05
        1.600000e+00	        3.094412e-06
        4.000000e+00	        4.787947e-07
        1.000000e+01	        7.387605e-08
        2.500000e+01	        8.725057e-09
        6.300000e+01	        2.634182e-10
        1.600000e+02	        4.737197e-12
        4.000000e+02	        1.807341e-13
        1.000000e+03	        5.040306e-15

# -------------------------------------------------------------------------------
# Curve 49: Diff flux - SAPPHIRE-ions, Z=50
# Params: 2 5 #ff963e 1 1
#	Energy (MeV/nuc)		flux (ion..cm^{-2}.s^{-1}.(MeV/nuc)^{-1})
# -------------------------------------------------------------------------------
        1.000000e-01	        1.198856e-02
        2.500000e-01	        2.140289e-03
        6.300000e-01	        3.572126e-04
        1.600000e+00	        5.397772e-05
        4.000000e+00	        8.351907e-06
        1.000000e+01	        1.287098e-06
        2.500000e+01	        1.513979e-07
        6.300000e+01	        4.592317e-09
        1.600000e+02	        8.240880e-11
        4.000000e+02	        3.141143e-12
        1.000000e+03	        8.760009e-14

# -------------------------------------------------------------------------------
# Curve 50: Diff flux - SAPPHIRE-ions, Z=51
# Params: 2 5 #1bcdff 1 1
#	Energy (MeV/nuc)		flux (ion..cm^{-2}.s^{-1}.(MeV/nuc)^{-1})
# -------------------------------------------------------------------------------
        1.000000e-01	        3.947955e-03
        2.500000e-01	        7.048193e-04
        6.300000e-01	        1.176338e-04
        1.600000e+00	        1.777542e-05
        4.000000e+00	        2.750369e-06
        1.000000e+01	        4.247125e-07
        2.500000e+01	        5.020660e-08
        6.300000e+01	        1.520305e-09
        1.600000e+02	        2.723702e-11
        4.000000e+02	        1.041786e-12
        1.000000e+03	        2.905329e-14

# -------------------------------------------------------------------------------
# Curve 51: Diff flux - SAPPHIRE-ions, Z=52
# Params: 2 5 #c314fe 1 1
#	Energy (MeV/nuc)		flux (ion..cm^{-2}.s^{-1}.(MeV/nuc)^{-1})
# -------------------------------------------------------------------------------
        1.000000e-01	        5.849588e-02
        2.500000e-01	        1.044313e-02
        6.300000e-01	        1.742951e-03
        1.600000e+00	        2.633740e-04
        4.000000e+00	        4.075155e-05
        1.000000e+01	        6.286942e-06
        2.500000e+01	        7.426184e-07
        6.300000e+01	        2.252156e-08
        1.600000e+02	        4.046927e-10
        4.000000e+02	        1.539002e-11
        1.000000e+03	        4.291964e-13

# -------------------------------------------------------------------------------
# Curve 52: Diff flux - SAPPHIRE-ions, Z=53
# Params: 2 5 #14ce57 1 1
#	Energy (MeV/nuc)		flux (ion..cm^{-2}.s^{-1}.(MeV/nuc)^{-1})
# -------------------------------------------------------------------------------
        1.000000e-01	        4.568053e-03
        2.500000e-01	        8.155239e-04
        6.300000e-01	        1.361103e-04
        1.600000e+00	        2.056737e-05
        4.000000e+00	        3.182365e-06
        1.000000e+01	        4.913107e-07
        2.500000e+01	        5.804195e-08
        6.300000e+01	        1.758122e-09
        1.600000e+02	        3.164777e-11
        4.000000e+02	        1.199633e-12
        1.000000e+03	        3.345531e-14

# -------------------------------------------------------------------------------
# Curve 53: Diff flux - SAPPHIRE-ions, Z=54
# Params: 2 5 #ff5b17 1 1
#	Energy (MeV/nuc)		flux (ion..cm^{-2}.s^{-1}.(MeV/nuc)^{-1})
# -------------------------------------------------------------------------------
        1.000000e-01	        6.304327e-03
        2.500000e-01	        1.125497e-03
        6.300000e-01	        1.878446e-04
        1.600000e+00	        2.838484e-05
        4.000000e+00	        4.391951e-06
        1.000000e+01	        6.780446e-07
        2.500000e+01	        8.012004e-08
        6.300000e+01	        2.426168e-09
        1.600000e+02	        4.365897e-11
        4.000000e+02	        1.657387e-12
        1.000000e+03	        4.622115e-14

# -------------------------------------------------------------------------------
# Curve 54: Diff flux - SAPPHIRE-ions, Z=55
# Params: 2 5 #3690cb 1 1
#	Energy (MeV/nuc)		flux (ion..cm^{-2}.s^{-1}.(MeV/nuc)^{-1})
# -------------------------------------------------------------------------------
        1.000000e-01	        4.640398e-03
        2.500000e-01	        8.284395e-04
        6.300000e-01	        1.382659e-04
        1.600000e+00	        2.089310e-05
        4.000000e+00	        3.232764e-06
        1.000000e+01	        4.996853e-07
        2.500000e+01	        5.903052e-08
        6.300000e+01	        1.786323e-09
        1.600000e+02	        3.214616e-11
        4.000000e+02	        1.223310e-12
        1.000000e+03	        3.411561e-14

# -------------------------------------------------------------------------------
# Curve 55: Diff flux - SAPPHIRE-ions, Z=56
# Params: 2 5 #e086ff 1 1
#	Energy (MeV/nuc)		flux (ion..cm^{-2}.s^{-1}.(MeV/nuc)^{-1})
# -------------------------------------------------------------------------------
        1.000000e-01	        1.643259e-02
        2.500000e-01	        2.933672e-03
        6.300000e-01	        4.896277e-04
        1.600000e+00	        7.398670e-05
        4.000000e+00	        1.144787e-05
        1.000000e+01	        1.773623e-06
        2.500000e+01	        2.090645e-07
        6.300000e+01	        6.338438e-09
        1.600000e+02	        1.138323e-10
        4.000000e+02	        4.332883e-12
        1.000000e+03	        1.208353e-13

# -------------------------------------------------------------------------------
# Curve 56: Diff flux - SAPPHIRE-ions, Z=57
# Params: 2 5 #14bf4c 1 1
#	Energy (MeV/nuc)		flux (ion..cm^{-2}.s^{-1}.(MeV/nuc)^{-1})
# -------------------------------------------------------------------------------
        1.000000e-01	        1.374550e-03
        2.500000e-01	        2.453952e-04
        6.300000e-01	        4.095628e-05
        1.600000e+00	        6.188825e-06
        4.000000e+00	        9.575894e-07
        1.000000e+01	        1.473533e-07
        2.500000e+01	        1.740068e-08
        6.300000e+01	        5.268364e-10
        1.600000e+02	        9.466919e-12
        4.000000e+02	        3.606790e-13
        1.000000e+03	        1.005860e-14

# -------------------------------------------------------------------------------
# Curve 57: Diff flux - SAPPHIRE-ions, Z=58
# Params: 2 5 #fe1448 1 1
#	Energy (MeV/nuc)		flux (ion..cm^{-2}.s^{-1}.(MeV/nuc)^{-1})
# -------------------------------------------------------------------------------
        1.000000e-01	        4.144320e-03
        2.500000e-01	        7.398758e-04
        6.300000e-01	        1.234847e-04
        1.600000e+00	        1.865954e-05
        4.000000e+00	        2.887168e-06
        1.000000e+01	        4.450509e-07
        2.500000e+01	        5.262311e-08
        6.300000e+01	        1.592510e-09
        1.600000e+02	        2.868235e-11
        4.000000e+02	        1.089140e-12
        1.000000e+03	        3.037390e-14

# -------------------------------------------------------------------------------
# Curve 58: Diff flux - SAPPHIRE-ions, Z=59
# Params: 2 5 #169ced 1 1
#	Energy (MeV/nuc)		flux (ion..cm^{-2}.s^{-1}.(MeV/nuc)^{-1})
# -------------------------------------------------------------------------------
        1.000000e-01	        5.715234e-04
        2.500000e-01	        1.020327e-04
        6.300000e-01	        1.702919e-05
        1.600000e+00	        2.573248e-06
        4.000000e+00	        3.981556e-07
        1.000000e+01	        6.144374e-08
        2.500000e+01	        7.263253e-09
        6.300000e+01	        2.192152e-10
        1.600000e+02	        3.949741e-12
        4.000000e+02	        1.499541e-13
        1.000000e+03	        4.181914e-15

# -------------------------------------------------------------------------------
# Curve 59: Diff flux - SAPPHIRE-ions, Z=60
# Params: 2 5 #c967d0 1 1
#	Energy (MeV/nuc)		flux (ion..cm^{-2}.s^{-1}.(MeV/nuc)^{-1})
# -------------------------------------------------------------------------------
        1.000000e-01	        2.862784e-03
        2.500000e-01	        5.110863e-04
        6.300000e-01	        8.529991e-05
        1.600000e+00	        1.288951e-05
        4.000000e+00	        1.994378e-06
        1.000000e+01	        3.080661e-07
        2.500000e+01	        3.641237e-08
        6.300000e+01	        1.101676e-09
        1.600000e+02	        1.977113e-11
        4.000000e+02	        7.529273e-13
        1.000000e+03	        2.099761e-14

# -------------------------------------------------------------------------------
# Curve 60: Diff flux - SAPPHIRE-ions, Z=61
# Params: 2 5 #7def21 1 1
#	Energy (MeV/nuc)		flux (ion..cm^{-2}.s^{-1}.(MeV/nuc)^{-1})
# -------------------------------------------------------------------------------
        1.000000e-01	        0.000000e+00
        2.500000e-01	        0.000000e+00
        6.300000e-01	        0.000000e+00
        1.600000e+00	        0.000000e+00
        4.000000e+00	        0.000000e+00
        1.000000e+01	        0.000000e+00
        2.500000e+01	        0.000000e+00
        6.300000e+01	        0.000000e+00
        1.600000e+02	        0.000000e+00
        4.000000e+02	        0.000000e+00
        1.000000e+03	        0.000000e+00

# -------------------------------------------------------------------------------
# Curve 61: Diff flux - SAPPHIRE-ions, Z=62
# Params: 2 5 #ff963e 1 1
#	Energy (MeV/nuc)		flux (ion..cm^{-2}.s^{-1}.(MeV/nuc)^{-1})
# -------------------------------------------------------------------------------
        1.000000e-01	        9.931898e-04
        2.500000e-01	        1.773119e-04
        6.300000e-01	        2.959322e-05
        1.600000e+00	        4.471775e-06
        4.000000e+00	        6.919123e-07
        1.000000e+01	        1.069757e-07
        2.500000e+01	        1.261344e-08
        6.300000e+01	        3.818264e-10
        1.600000e+02	        6.867815e-12
        4.000000e+02	        2.612358e-13
        1.000000e+03	        7.285334e-15

# -------------------------------------------------------------------------------
# Curve 62: Diff flux - SAPPHIRE-ions, Z=63
# Params: 2 5 #1bcdff 1 1
#	Energy (MeV/nuc)		flux (ion..cm^{-2}.s^{-1}.(MeV/nuc)^{-1})
# -------------------------------------------------------------------------------
        1.000000e-01	        3.606902e-04
        2.500000e-01	        6.439318e-05
        6.300000e-01	        1.074717e-05
        1.600000e+00	        1.623985e-06
        4.000000e+00	        2.512772e-07
        1.000000e+01	        3.877247e-08
        2.500000e+01	        4.578549e-09
        6.300000e+01	        1.387096e-10
        1.600000e+02	        2.478992e-12
        4.000000e+02	        9.470783e-14
        1.000000e+03	        2.641209e-15

# -------------------------------------------------------------------------------
# Curve 63: Diff flux - SAPPHIRE-ions, Z=64
# Params: 2 5 #c314fe 1 1
#	Energy (MeV/nuc)		flux (ion..cm^{-2}.s^{-1}.(MeV/nuc)^{-1})
# -------------------------------------------------------------------------------
        1.000000e-01	        1.281535e-03
        2.500000e-01	        2.287895e-04
        6.300000e-01	        3.818480e-05
        1.600000e+00	        5.770032e-06
        4.000000e+00	        8.927901e-07
        1.000000e+01	        1.373835e-07
        2.500000e+01	        1.622904e-08
        6.300000e+01	        4.926340e-10
        1.600000e+02	        8.831472e-12
        4.000000e+02	        3.362128e-13
        1.000000e+03	        9.376291e-15

# -------------------------------------------------------------------------------
# Curve 64: Diff flux - SAPPHIRE-ions, Z=65
# Params: 2 5 #14ce57 1 1
#	Energy (MeV/nuc)		flux (ion..cm^{-2}.s^{-1}.(MeV/nuc)^{-1})
# -------------------------------------------------------------------------------
        1.000000e-01	        2.170342e-04
        2.500000e-01	        3.874661e-05
        6.300000e-01	        6.466780e-06
        1.600000e+00	        9.771829e-07
        4.000000e+00	        1.511983e-07
        1.000000e+01	        2.336916e-08
        2.500000e+01	        2.757015e-09
        6.300000e+01	        8.356578e-11
        1.600000e+02	        1.499157e-12
        4.000000e+02	        5.714039e-14
        1.000000e+03	        1.593529e-15

# -------------------------------------------------------------------------------
# Curve 65: Diff flux - SAPPHIRE-ions, Z=66
# Params: 2 5 #ff5b17 1 1
#	Energy (MeV/nuc)		flux (ion..cm^{-2}.s^{-1}.(MeV/nuc)^{-1})
# -------------------------------------------------------------------------------
        1.000000e-01	        1.374550e-03
        2.500000e-01	        2.453952e-04
        6.300000e-01	        4.095628e-05
        1.600000e+00	        6.188825e-06
        4.000000e+00	        9.575894e-07
        1.000000e+01	        1.473533e-07
        2.500000e+01	        1.740068e-08
        6.300000e+01	        5.268364e-10
        1.600000e+02	        9.466919e-12
        4.000000e+02	        3.606790e-13
        1.000000e+03	        1.005860e-14

# -------------------------------------------------------------------------------
# Curve 66: Diff flux - SAPPHIRE-ions, Z=67
# Params: 2 5 #3690cb 1 1
#	Energy (MeV/nuc)		flux (ion..cm^{-2}.s^{-1}.(MeV/nuc)^{-1})
# -------------------------------------------------------------------------------
        1.000000e-01	        3.286518e-04
        2.500000e-01	        5.867344e-05
        6.300000e-01	        9.792553e-06
        1.600000e+00	        1.479734e-06
        4.000000e+00	        2.289575e-07
        1.000000e+01	        3.533289e-08
        2.500000e+01	        4.181290e-09
        6.300000e+01	        1.265487e-10
        1.600000e+02	        2.271413e-12
        4.000000e+02	        8.681551e-14
        1.000000e+03	        2.421108e-15

# -------------------------------------------------------------------------------
# Curve 67: Diff flux - SAPPHIRE-ions, Z=68
# Params: 2 5 #e086ff 1 1
#	Energy (MeV/nuc)		flux (ion..cm^{-2}.s^{-1}.(MeV/nuc)^{-1})
# -------------------------------------------------------------------------------
        1.000000e-01	        9.053427e-04
        2.500000e-01	        1.616287e-04
        6.300000e-01	        2.697571e-05
        1.600000e+00	        4.076249e-06
        4.000000e+00	        6.307130e-07
        1.000000e+01	        9.733494e-08
        2.500000e+01	        1.153333e-08
        6.300000e+01	        3.476240e-10
        1.600000e+02	        6.257287e-12
        4.000000e+02	        2.383481e-13
        1.000000e+03	        6.647042e-15

# -------------------------------------------------------------------------------
# Curve 68: Diff flux - SAPPHIRE-ions, Z=69
# Params: 2 5 #14bf4c 1 1
#	Energy (MeV/nuc)		flux (ion..cm^{-2}.s^{-1}.(MeV/nuc)^{-1})
# -------------------------------------------------------------------------------
        1.000000e-01	        1.374550e-04
        2.500000e-01	        2.453952e-05
        6.300000e-01	        4.095628e-06
        1.600000e+00	        6.188825e-07
        4.000000e+00	        9.575894e-08
        1.000000e+01	        1.473533e-08
        2.500000e+01	        1.740068e-09
        6.300000e+01	        5.268364e-11
        1.600000e+02	        9.466919e-13
        4.000000e+02	        3.606790e-14
        1.000000e+03	        1.005860e-15

# -------------------------------------------------------------------------------
# Curve 69: Diff flux - SAPPHIRE-ions, Z=70
# Params: 2 5 #fe1448 1 1
#	Energy (MeV/nuc)		flux (ion..cm^{-2}.s^{-1}.(MeV/nuc)^{-1})
# -------------------------------------------------------------------------------
        1.000000e-01	        7.534187e-04
        2.500000e-01	        1.345061e-04
        6.300000e-01	        2.244897e-05
        1.600000e+00	        3.392221e-06
        4.000000e+00	        5.248742e-07
        1.000000e+01	        8.100445e-08
        2.500000e+01	        9.556189e-09
        6.300000e+01	        2.902201e-10
        1.600000e+02	        5.203192e-12
        4.000000e+02	        1.980972e-13
        1.000000e+03	        5.524528e-15

# -------------------------------------------------------------------------------
# Curve 70: Diff flux - SAPPHIRE-ions, Z=71
# Params: 2 5 #169ced 1 1
#	Energy (MeV/nuc)		flux (ion..cm^{-2}.s^{-1}.(MeV/nuc)^{-1})
# -------------------------------------------------------------------------------
        1.000000e-01	        1.374550e-04
        2.500000e-01	        2.453952e-05
        6.300000e-01	        4.095628e-06
        1.600000e+00	        6.188825e-07
        4.000000e+00	        9.575894e-08
        1.000000e+01	        1.473533e-08
        2.500000e+01	        1.740068e-09
        6.300000e+01	        5.268364e-11
        1.600000e+02	        9.466919e-13
        4.000000e+02	        3.606790e-14
        1.000000e+03	        1.005860e-15

# -------------------------------------------------------------------------------
# Curve 71: Diff flux - SAPPHIRE-ions, Z=72
# Params: 2 5 #c967d0 1 1
#	Energy (MeV/nuc)		flux (ion..cm^{-2}.s^{-1}.(MeV/nuc)^{-1})
# -------------------------------------------------------------------------------
        1.000000e-01	        7.709882e-04
        2.500000e-01	        1.376427e-04
        6.300000e-01	        2.297247e-05
        1.600000e+00	        3.471326e-06
        4.000000e+00	        5.371140e-07
        1.000000e+01	        8.287876e-08
        2.500000e+01	        9.821638e-09
        6.300000e+01	        2.968205e-10
        1.600000e+02	        5.322806e-12
        4.000000e+02	        2.028326e-13
        1.000000e+03	        5.656588e-15

# -------------------------------------------------------------------------------
# Curve 72: Diff flux - SAPPHIRE-ions, Z=73
# Params: 2 5 #7def21 1 1
#	Energy (MeV/nuc)		flux (ion..cm^{-2}.s^{-1}.(MeV/nuc)^{-1})
# -------------------------------------------------------------------------------
        1.000000e-01	        2.935129e-04
        2.500000e-01	        5.240018e-05
        6.300000e-01	        8.745550e-06
        1.600000e+00	        1.321523e-06
        4.000000e+00	        2.044777e-07
        1.000000e+01	        3.153441e-08
        2.500000e+01	        3.722703e-09
        6.300000e+01	        1.127078e-10
        1.600000e+02	        2.023962e-12
        4.000000e+02	        7.702904e-14
        1.000000e+03	        2.148183e-15

# -------------------------------------------------------------------------------
# Curve 73: Diff flux - SAPPHIRE-ions, Z=74
# Params: 2 5 #ff963e 1 1
#	Energy (MeV/nuc)		flux (ion..cm^{-2}.s^{-1}.(MeV/nuc)^{-1})
# -------------------------------------------------------------------------------
        1.000000e-01	        7.709882e-04
        2.500000e-01	        1.376427e-04
        6.300000e-01	        2.297247e-05
        1.600000e+00	        3.471326e-06
        4.000000e+00	        5.371140e-07
        1.000000e+01	        8.287876e-08
        2.500000e+01	        9.821638e-09
        6.300000e+01	        2.968205e-10
        1.600000e+02	        5.322806e-12
        4.000000e+02	        2.028326e-13
        1.000000e+03	        5.656588e-15

# -------------------------------------------------------------------------------
# Curve 74: Diff flux - SAPPHIRE-ions, Z=75
# Params: 2 5 #1bcdff 1 1
#	Energy (MeV/nuc)		flux (ion..cm^{-2}.s^{-1}.(MeV/nuc)^{-1})
# -------------------------------------------------------------------------------
        1.000000e-01	        7.027774e-04
        2.500000e-01	        1.254652e-04
        6.300000e-01	        2.094005e-05
        1.600000e+00	        3.164211e-06
        4.000000e+00	        4.895946e-07
        1.000000e+01	        7.554101e-08
        2.500000e+01	        8.931009e-09
        6.300000e+01	        2.700187e-10
        1.600000e+02	        4.856811e-12
        4.000000e+02	        1.846803e-13
        1.000000e+03	        5.150357e-15

# -------------------------------------------------------------------------------
# Curve 75: Diff flux - SAPPHIRE-ions, Z=76
# Params: 2 5 #c314fe 1 1
#	Energy (MeV/nuc)		flux (ion..cm^{-2}.s^{-1}.(MeV/nuc)^{-1})
# -------------------------------------------------------------------------------
        1.000000e-01	        2.738765e-03
        2.500000e-01	        4.889453e-04
        6.300000e-01	        8.160461e-05
        1.600000e+00	        1.233112e-05
        4.000000e+00	        1.907979e-06
        1.000000e+01	        2.937097e-07
        2.500000e+01	        3.478306e-08
        6.300000e+01	        1.052873e-09
        1.600000e+02	        1.888898e-11
        4.000000e+02	        7.189903e-13
        1.000000e+03	        2.005118e-14

# -------------------------------------------------------------------------------
# Curve 76: Diff flux - SAPPHIRE-ions, Z=77
# Params: 2 5 #14ce57 1 1
#	Energy (MeV/nuc)		flux (ion..cm^{-2}.s^{-1}.(MeV/nuc)^{-1})
# -------------------------------------------------------------------------------
        1.000000e-01	        2.614745e-03
        2.500000e-01	        4.668044e-04
        6.300000e-01	        7.790931e-05
        1.600000e+00	        1.177273e-05
        4.000000e+00	        1.821580e-06
        1.000000e+01	        2.803502e-07
        2.500000e+01	        3.317206e-08
        6.300000e+01	        1.004869e-09
        1.600000e+02	        1.803175e-11
        4.000000e+02	        6.866318e-13
        1.000000e+03	        1.914876e-14

# -------------------------------------------------------------------------------
# Curve 77: Diff flux - SAPPHIRE-ions, Z=78
# Params: 2 5 #ff5b17 1 1
#	Energy (MeV/nuc)		flux (ion..cm^{-2}.s^{-1}.(MeV/nuc)^{-1})
# -------------------------------------------------------------------------------
        1.000000e-01	        1.612254e-02
        2.500000e-01	        2.878320e-03
        6.300000e-01	        4.803894e-04
        1.600000e+00	        7.259073e-05
        4.000000e+00	        1.123188e-05
        1.000000e+01	        1.729756e-06
        2.500000e+01	        2.045793e-07
        6.300000e+01	        6.190428e-09
        1.600000e+02	        1.111161e-10
        4.000000e+02	        4.230283e-12
        1.000000e+03	        1.179740e-13

# -------------------------------------------------------------------------------
# Curve 78: Diff flux - SAPPHIRE-ions, Z=79
# Params: 2 5 #3690cb 1 1
#	Energy (MeV/nuc)		flux (ion..cm^{-2}.s^{-1}.(MeV/nuc)^{-1})
# -------------------------------------------------------------------------------
        1.000000e-01	        9.053427e-04
        2.500000e-01	        1.616287e-04
        6.300000e-01	        2.697571e-05
        1.600000e+00	        4.076249e-06
        4.000000e+00	        6.307130e-07
        1.000000e+01	        9.733494e-08
        2.500000e+01	        1.153333e-08
        6.300000e+01	        3.476240e-10
        1.600000e+02	        6.257287e-12
        4.000000e+02	        2.383481e-13
        1.000000e+03	        6.647042e-15

# -------------------------------------------------------------------------------
# Curve 79: Diff flux - SAPPHIRE-ions, Z=80
# Params: 2 5 #e086ff 1 1
#	Energy (MeV/nuc)		flux (ion..cm^{-2}.s^{-1}.(MeV/nuc)^{-1})
# -------------------------------------------------------------------------------
        1.000000e-01	        1.901633e-03
        2.500000e-01	        3.394941e-04
        6.300000e-01	        5.666131e-05
        1.600000e+00	        8.561983e-06
        4.000000e+00	        1.324785e-06
        1.000000e+01	        2.049786e-07
        2.500000e+01	        2.423830e-08
        6.300000e+01	        7.326506e-10
        1.600000e+02	        1.315002e-11
        4.000000e+02	        5.003731e-13
        1.000000e+03	        1.395439e-14

# -------------------------------------------------------------------------------
# Curve 80: Diff flux - SAPPHIRE-ions, Z=81
# Params: 2 5 #14bf4c 1 1
#	Energy (MeV/nuc)		flux (ion..cm^{-2}.s^{-1}.(MeV/nuc)^{-1})
# -------------------------------------------------------------------------------
        1.000000e-01	        8.650363e-04
        2.500000e-01	        1.544329e-04
        6.300000e-01	        2.577474e-05
        1.600000e+00	        3.894772e-06
        4.000000e+00	        6.026333e-07
        1.000000e+01	        9.297815e-08
        2.500000e+01	        1.099328e-08
        6.300000e+01	        3.330230e-10
        1.600000e+02	        5.963237e-12
        4.000000e+02	        2.272988e-13
        1.000000e+03	        6.338901e-15

# -------------------------------------------------------------------------------
# Curve 81: Diff flux - SAPPHIRE-ions, Z=82
# Params: 2 5 #fe1448 1 1
#	Energy (MeV/nuc)		flux (ion..cm^{-2}.s^{-1}.(MeV/nuc)^{-1})
# -------------------------------------------------------------------------------
        1.000000e-01	        2.035988e-03
        2.500000e-01	        3.634801e-04
        6.300000e-01	        6.066456e-05
        1.600000e+00	        9.166906e-06
        4.000000e+00	        1.418384e-06
        1.000000e+01	        2.193351e-07
        2.500000e+01	        2.595000e-08
        6.300000e+01	        7.854543e-10
        1.600000e+02	        1.408450e-11
        4.000000e+02	        5.366777e-13
        1.000000e+03	        1.496685e-14

# -------------------------------------------------------------------------------
# Curve 82: Diff flux - SAPPHIRE-ions, Z=83
# Params: 2 5 #169ced 1 1
#	Energy (MeV/nuc)		flux (ion..cm^{-2}.s^{-1}.(MeV/nuc)^{-1})
# -------------------------------------------------------------------------------
        1.000000e-01	        1.725939e-03
        2.500000e-01	        3.081278e-04
        6.300000e-01	        5.142630e-05
        1.600000e+00	        7.770930e-06
        4.000000e+00	        1.202387e-06
        1.000000e+01	        1.853382e-07
        2.500000e+01	        2.190418e-08
        6.300000e+01	        6.638459e-10
        1.600000e+02	        1.192149e-11
        4.000000e+02	        4.538084e-13
        1.000000e+03	        1.265579e-14

# -------------------------------------------------------------------------------
# Curve 83: Diff flux - SAPPHIRE-ions, Z=84
# Params: 2 5 #c967d0 1 1
#	Energy (MeV/nuc)		flux (ion..cm^{-2}.s^{-1}.(MeV/nuc)^{-1})
# -------------------------------------------------------------------------------
        1.000000e-01	        0.000000e+00
        2.500000e-01	        0.000000e+00
        6.300000e-01	        0.000000e+00
        1.600000e+00	        0.000000e+00
        4.000000e+00	        0.000000e+00
        1.000000e+01	        0.000000e+00
        2.500000e+01	        0.000000e+00
        6.300000e+01	        0.000000e+00
        1.600000e+02	        0.000000e+00
        4.000000e+02	        0.000000e+00
        1.000000e+03	        0.000000e+00

# -------------------------------------------------------------------------------
# Curve 84: Diff flux - SAPPHIRE-ions, Z=85
# Params: 2 5 #7def21 1 1
#	Energy (MeV/nuc)		flux (ion..cm^{-2}.s^{-1}.(MeV/nuc)^{-1})
# -------------------------------------------------------------------------------
        1.000000e-01	        0.000000e+00
        2.500000e-01	        0.000000e+00
        6.300000e-01	        0.000000e+00
        1.600000e+00	        0.000000e+00
        4.000000e+00	        0.000000e+00
        1.000000e+01	        0.000000e+00
        2.500000e+01	        0.000000e+00
        6.300000e+01	        0.000000e+00
        1.600000e+02	        0.000000e+00
        4.000000e+02	        0.000000e+00
        1.000000e+03	        0.000000e+00

# -------------------------------------------------------------------------------
# Curve 85: Diff flux - SAPPHIRE-ions, Z=86
# Params: 2 5 #ff963e 1 1
#	Energy (MeV/nuc)		flux (ion..cm^{-2}.s^{-1}.(MeV/nuc)^{-1})
# -------------------------------------------------------------------------------
        1.000000e-01	        0.000000e+00
        2.500000e-01	        0.000000e+00
        6.300000e-01	        0.000000e+00
        1.600000e+00	        0.000000e+00
        4.000000e+00	        0.000000e+00
        1.000000e+01	        0.000000e+00
        2.500000e+01	        0.000000e+00
        6.300000e+01	        0.000000e+00
        1.600000e+02	        0.000000e+00
        4.000000e+02	        0.000000e+00
        1.000000e+03	        0.000000e+00

# -------------------------------------------------------------------------------
# Curve 86: Diff flux - SAPPHIRE-ions, Z=87
# Params: 2 5 #1bcdff 1 1
#	Energy (MeV/nuc)		flux (ion..cm^{-2}.s^{-1}.(MeV/nuc)^{-1})
# -------------------------------------------------------------------------------
        1.000000e-01	        0.000000e+00
        2.500000e-01	        0.000000e+00
        6.300000e-01	        0.000000e+00
        1.600000e+00	        0.000000e+00
        4.000000e+00	        0.000000e+00
        1.000000e+01	        0.000000e+00
        2.500000e+01	        0.000000e+00
        6.300000e+01	        0.000000e+00
        1.600000e+02	        0.000000e+00
        4.000000e+02	        0.000000e+00
        1.000000e+03	        0.000000e+00

# -------------------------------------------------------------------------------
# Curve 87: Diff flux - SAPPHIRE-ions, Z=88
# Params: 2 5 #c314fe 1 1
#	Energy (MeV/nuc)		flux (ion..cm^{-2}.s^{-1}.(MeV/nuc)^{-1})
# -------------------------------------------------------------------------------
        1.000000e-01	        0.000000e+00
        2.500000e-01	        0.000000e+00
        6.300000e-01	        0.000000e+00
        1.600000e+00	        0.000000e+00
        4.000000e+00	        0.000000e+00
        1.000000e+01	        0.000000e+00
        2.500000e+01	        0.000000e+00
        6.300000e+01	        0.000000e+00
        1.600000e+02	        0.000000e+00
        4.000000e+02	        0.000000e+00
        1.000000e+03	        0.000000e+00

# -------------------------------------------------------------------------------
# Curve 88: Diff flux - SAPPHIRE-ions, Z=89
# Params: 2 5 #14ce57 1 1
#	Energy (MeV/nuc)		flux (ion..cm^{-2}.s^{-1}.(MeV/nuc)^{-1})
# -------------------------------------------------------------------------------
        1.000000e-01	        0.000000e+00
        2.500000e-01	        0.000000e+00
        6.300000e-01	        0.000000e+00
        1.600000e+00	        0.000000e+00
        4.000000e+00	        0.000000e+00
        1.000000e+01	        0.000000e+00
        2.500000e+01	        0.000000e+00
        6.300000e+01	        0.000000e+00
        1.600000e+02	        0.000000e+00
        4.000000e+02	        0.000000e+00
        1.000000e+03	        0.000000e+00

# -------------------------------------------------------------------------------
# Curve 89: Diff flux - SAPPHIRE-ions, Z=90
# Params: 2 5 #ff5b17 1 1
#	Energy (MeV/nuc)		flux (ion..cm^{-2}.s^{-1}.(MeV/nuc)^{-1})
# -------------------------------------------------------------------------------
        1.000000e-01	        1.136846e-04
        2.500000e-01	        2.029584e-05
        6.300000e-01	        3.387361e-06
        1.600000e+00	        5.118577e-07
        4.000000e+00	        7.919912e-08
        1.000000e+01	        1.227280e-08
        2.500000e+01	        1.451735e-09
        6.300000e+01	        4.386303e-11
        1.600000e+02	        7.874563e-13
        4.000000e+02	        2.999081e-14
        1.000000e+03	        8.363827e-16

# -------------------------------------------------------------------------------
# Curve 90: Diff flux - SAPPHIRE-ions, Z=91
# Params: 2 5 #3690cb 1 1
#	Energy (MeV/nuc)		flux (ion..cm^{-2}.s^{-1}.(MeV/nuc)^{-1})
# -------------------------------------------------------------------------------
        1.000000e-01	        0.000000e+00
        2.500000e-01	        0.000000e+00
        6.300000e-01	        0.000000e+00
        1.600000e+00	        0.000000e+00
        4.000000e+00	        0.000000e+00
        1.000000e+01	        0.000000e+00
        2.500000e+01	        0.000000e+00
        6.300000e+01	        0.000000e+00
        1.600000e+02	        0.000000e+00
        4.000000e+02	        0.000000e+00
        1.000000e+03	        0.000000e+00

# -------------------------------------------------------------------------------
# Curve 91: Diff flux - SAPPHIRE-ions, Z=92
# Params: 2 5 #e086ff 1 1
#	Energy (MeV/nuc)		flux (ion..cm^{-2}.s^{-1}.(MeV/nuc)^{-1})
# -------------------------------------------------------------------------------
        1.000000e-01	        1.116176e-04
        2.500000e-01	        1.992683e-05
        6.300000e-01	        3.325773e-06
        1.600000e+00	        5.025512e-07
        4.000000e+00	        7.775914e-08
        1.000000e+01	        1.196373e-08
        2.500000e+01	        1.415121e-09
        6.300000e+01	        4.292297e-11
        1.600000e+02	        7.702618e-13
        4.000000e+02	        2.928051e-14
        1.000000e+03	        8.165737e-16

# -------------------------------------------------------------------------------
# Curve 92: Diff flux - SAPPHIRE-protons
# Params: 2 5 #14bf4c 1 1
#	Energy (MeV/nuc)		flux (ion..cm^{-2}.s^{-1}.(MeV/nuc)^{-1})
# -------------------------------------------------------------------------------
        1.000000e-01	        4.488480e+07
        2.500000e-01	        8.214526e+06
        6.300000e-01	        1.429678e+06
        1.600000e+00	        2.316081e+05
        4.000000e+00	        3.888398e+04
        1.000000e+01	        5.373811e+03
        2.500000e+01	        5.704799e+02
        6.300000e+01	        3.408917e+01
        1.600000e+02	        1.029016e+00
        4.000000e+02	        7.527972e-02
        1.000000e+03	        4.142674e-03

