# -------------------------------------------------------------------------------
#		C:/Users/Michael Chadolias/Documents/OMERE/LEO ISS/LET_NF_5.7_ISS.txt
# -------------------------------------------------------------------------------
# ID: 1 2 1

# Graph: Integral LET spectrum 
# min: 1.60896 0.01 max: 109391 12.1492
# X-axis L: LET (MeV.cm^2.g^{-1})
# Y-axis L: Flux (cm^{-2}.s^{-1})
# -------------------------------------------------------------------------------
# Curve 0: Integral spectrum
# Params: 0 5 #c967d0 2 1
#	LET (MeV.cm^2.g^{-1})		Flux (cm^{-2}.s^{-1})
# -------------------------------------------------------------------------------
        1.608960e+00	        1.214921e+01
        1.626982e+00	        1.214921e+01
        1.645205e+00	        1.214921e+01
        1.663632e+00	        1.214921e+01
        1.682265e+00	        1.209681e+01
        1.701107e+00	        1.202730e+01
        1.720161e+00	        1.198225e+01
        1.739427e+00	        1.194880e+01
        1.758910e+00	        1.191961e+01
        1.778610e+00	        1.189506e+01
        1.798532e+00	        1.187346e+01
        1.818676e+00	        1.185417e+01
        1.839046e+00	        1.183624e+01
        1.859644e+00	        1.181907e+01
        1.880473e+00	        1.180299e+01
        1.901536e+00	        1.178802e+01
        1.922834e+00	        1.177469e+01
        1.944370e+00	        1.176580e+01
        1.966148e+00	        1.176144e+01
        1.988170e+00	        1.175977e+01
        2.010439e+00	        1.175827e+01
        2.032956e+00	        1.175676e+01
        2.055727e+00	        1.175537e+01
        2.078752e+00	        1.175427e+01
        2.102035e+00	        1.175315e+01
        2.125579e+00	        1.175201e+01
        2.149386e+00	        1.175107e+01
        2.173460e+00	        1.175025e+01
        2.197804e+00	        1.174942e+01
        2.222421e+00	        1.174858e+01
        2.247313e+00	        1.174790e+01
        2.272484e+00	        1.174735e+01
        2.297937e+00	        1.174680e+01
        2.323675e+00	        1.174625e+01
        2.349701e+00	        1.174569e+01
        2.376019e+00	        1.174519e+01
        2.402632e+00	        1.174472e+01
        2.429542e+00	        1.174425e+01
        2.456754e+00	        1.174377e+01
        2.484271e+00	        1.174332e+01
        2.512096e+00	        1.174306e+01
        2.540233e+00	        1.174280e+01
        2.568685e+00	        1.174253e+01
        2.597455e+00	        1.174226e+01
        2.626548e+00	        1.174199e+01
        2.655967e+00	        1.174172e+01
        2.685715e+00	        1.174148e+01
        2.715796e+00	        1.174124e+01
        2.746214e+00	        1.174100e+01
        2.776973e+00	        1.174076e+01
        2.808077e+00	        1.174052e+01
        2.839529e+00	        1.174034e+01
        2.871333e+00	        1.174018e+01
        2.903493e+00	        1.174002e+01
        2.936014e+00	        1.173985e+01
        2.968899e+00	        1.173969e+01
        3.002152e+00	        1.173952e+01
        3.035777e+00	        1.173822e+01
        3.069779e+00	        1.173672e+01
        3.104162e+00	        1.173521e+01
        3.138931e+00	        1.173368e+01
        3.174088e+00	        1.173213e+01
        3.209640e+00	        1.173056e+01
        3.245589e+00	        1.172829e+01
        3.281941e+00	        1.172585e+01
        3.318701e+00	        1.172339e+01
        3.355872e+00	        1.172090e+01
        3.393459e+00	        1.171838e+01
        3.431468e+00	        1.171583e+01
        3.469902e+00	        1.171325e+01
        3.508766e+00	        1.168255e+01
        3.548066e+00	        1.164297e+01
        3.587806e+00	        1.160295e+01
        3.627992e+00	        1.156247e+01
        3.668627e+00	        1.152154e+01
        3.709717e+00	        1.148016e+01
        3.751268e+00	        1.143766e+01
        3.793284e+00	        1.137014e+01
        3.835771e+00	        1.130185e+01
        3.878733e+00	        1.123280e+01
        3.922177e+00	        1.116298e+01
        3.966107e+00	        1.109237e+01
        4.010530e+00	        1.102098e+01
        4.055449e+00	        1.094878e+01
        4.100872e+00	        1.086915e+01
        4.146804e+00	        1.077285e+01
        4.193250e+00	        1.067547e+01
        4.240217e+00	        1.057699e+01
        4.287709e+00	        1.047742e+01
        4.335734e+00	        1.037673e+01
        4.384296e+00	        1.027491e+01
        4.433403e+00	        1.019149e+01
        4.483059e+00	        1.010772e+01
        4.533271e+00	        1.002302e+01
        4.584046e+00	        9.937368e+00
        4.635390e+00	        9.850757e+00
        4.687308e+00	        9.763175e+00
        4.739809e+00	        9.674613e+00
        4.792897e+00	        9.585058e+00
        4.846580e+00	        9.484043e+00
        4.900864e+00	        9.380303e+00
        4.955756e+00	        9.275401e+00
        5.011263e+00	        9.169324e+00
        5.067391e+00	        9.062059e+00
        5.124149e+00	        8.953593e+00
        5.181542e+00	        8.843911e+00
        5.239577e+00	        8.746753e+00
        5.298263e+00	        8.652344e+00
        5.357606e+00	        8.556878e+00
        5.417614e+00	        8.460342e+00
        5.478294e+00	        8.362725e+00
        5.539654e+00	        8.264014e+00
        5.601701e+00	        8.164198e+00
        5.664442e+00	        8.063264e+00
        5.727887e+00	        7.967343e+00
        5.792042e+00	        7.873537e+00
        5.856916e+00	        7.778681e+00
        5.922516e+00	        7.682762e+00
        5.988851e+00	        7.585768e+00
        6.055929e+00	        7.487689e+00
        6.123759e+00	        7.388510e+00
        6.192348e+00	        7.288221e+00
        6.261705e+00	        7.187966e+00
        6.331839e+00	        7.088674e+00
        6.402759e+00	        6.988270e+00
        6.474473e+00	        6.886741e+00
        6.546991e+00	        6.784076e+00
        6.620320e+00	        6.680260e+00
        6.694471e+00	        6.575281e+00
        6.769452e+00	        6.454887e+00
        6.845274e+00	        6.350321e+00
        6.921944e+00	        6.254056e+00
        6.999473e+00	        6.157754e+00
        7.077871e+00	        6.060863e+00
        7.157146e+00	        5.964012e+00
        7.237310e+00	        5.866385e+00
        7.318371e+00	        5.767968e+00
        7.400341e+00	        5.668468e+00
        7.483228e+00	        5.576738e+00
        7.567044e+00	        5.493833e+00
        7.651799e+00	        5.410249e+00
        7.737503e+00	        5.326065e+00
        7.824166e+00	        5.241407e+00
        7.911801e+00	        5.156219e+00
        8.000417e+00	        5.070205e+00
        8.090026e+00	        4.983229e+00
        8.180638e+00	        4.895428e+00
        8.272265e+00	        4.821191e+00
        8.364918e+00	        4.746142e+00
        8.458610e+00	        4.670252e+00
        8.553350e+00	        4.593521e+00
        8.649152e+00	        4.516012e+00
        8.746027e+00	        4.437634e+00
        8.843987e+00	        4.358379e+00
        8.943044e+00	        4.278236e+00
        9.043210e+00	        4.203325e+00
        9.144499e+00	        4.132496e+00
        9.246921e+00	        4.060873e+00
        9.350492e+00	        3.988448e+00
        9.455222e+00	        3.915214e+00
        9.561125e+00	        3.841182e+00
        9.668214e+00	        3.766321e+00
        9.776503e+00	        3.690621e+00
        9.886005e+00	        3.622832e+00
        9.996733e+00	        3.566854e+00
        1.010870e+01	        3.510281e+00
        1.022192e+01	        3.453075e+00
        1.033641e+01	        3.395227e+00
        1.045219e+01	        3.336732e+00
        1.056926e+01	        3.277582e+00
        1.068764e+01	        3.217773e+00
        1.080734e+01	        3.157300e+00
        1.092839e+01	        3.097236e+00
        1.105080e+01	        3.040036e+00
        1.117457e+01	        2.982195e+00
        1.129973e+01	        2.923713e+00
        1.142629e+01	        2.864606e+00
        1.155427e+01	        2.804836e+00
        1.168369e+01	        2.744396e+00
        1.181455e+01	        2.683280e+00
        1.194688e+01	        2.627578e+00
        1.208069e+01	        2.587394e+00
        1.221600e+01	        2.546775e+00
        1.235282e+01	        2.505701e+00
        1.249118e+01	        2.464167e+00
        1.263109e+01	        2.422168e+00
        1.277256e+01	        2.379698e+00
        1.291562e+01	        2.336760e+00
        1.306028e+01	        2.293359e+00
        1.320657e+01	        2.249471e+00
        1.335449e+01	        2.205916e+00
        1.350406e+01	        2.162478e+00
        1.365531e+01	        2.118554e+00
        1.380826e+01	        2.074137e+00
        1.396292e+01	        2.029226e+00
        1.411931e+01	        1.983819e+00
        1.427746e+01	        1.937904e+00
        1.443737e+01	        1.891475e+00
        1.459908e+01	        1.855306e+00
        1.476259e+01	        1.821593e+00
        1.492794e+01	        1.787502e+00
        1.509514e+01	        1.753037e+00
        1.526421e+01	        1.718126e+00
        1.543518e+01	        1.682857e+00
        1.560806e+01	        1.647205e+00
        1.578288e+01	        1.611157e+00
        1.595966e+01	        1.575804e+00
        1.613841e+01	        1.546375e+00
        1.631917e+01	        1.516618e+00
        1.650195e+01	        1.486531e+00
        1.668678e+01	        1.456109e+00
        1.687368e+01	        1.425348e+00
        1.706268e+01	        1.394243e+00
        1.725379e+01	        1.362791e+00
        1.744704e+01	        1.330988e+00
        1.764245e+01	        1.304853e+00
        1.784006e+01	        1.280645e+00
        1.803988e+01	        1.256167e+00
        1.824193e+01	        1.231414e+00
        1.844625e+01	        1.206384e+00
        1.865286e+01	        1.181074e+00
        1.886178e+01	        1.155481e+00
        1.907304e+01	        1.129601e+00
        1.928667e+01	        1.103433e+00
        1.950269e+01	        1.082628e+00
        1.972113e+01	        1.061679e+00
        1.994201e+01	        1.040495e+00
        2.016537e+01	        1.019075e+00
        2.039124e+01	        9.974141e-01
        2.061963e+01	        9.755111e-01
        2.085058e+01	        9.533642e-01
        2.108411e+01	        9.309730e-01
        2.132027e+01	        9.106368e-01
        2.155906e+01	        8.937116e-01
        2.180054e+01	        8.765968e-01
        2.204471e+01	        8.592903e-01
        2.229162e+01	        8.417900e-01
        2.254130e+01	        8.240940e-01
        2.279378e+01	        8.062003e-01
        2.304908e+01	        7.881087e-01
        2.330724e+01	        7.698145e-01
        2.356829e+01	        7.520221e-01
        2.383227e+01	        7.346358e-01
        2.409920e+01	        7.170547e-01
        2.436912e+01	        6.992768e-01
        2.464207e+01	        6.812998e-01
        2.491807e+01	        6.631214e-01
        2.519717e+01	        6.447408e-01
        2.547939e+01	        6.274482e-01
        2.576477e+01	        6.158422e-01
        2.605335e+01	        6.041063e-01
        2.634516e+01	        5.922390e-01
        2.664024e+01	        5.802387e-01
        2.693862e+01	        5.681014e-01
        2.724035e+01	        5.557944e-01
        2.754545e+01	        5.433697e-01
        2.785397e+01	        5.308127e-01
        2.816595e+01	        5.181166e-01
        2.848142e+01	        5.070234e-01
        2.880043e+01	        4.958466e-01
        2.912301e+01	        4.845451e-01
        2.944920e+01	        4.731180e-01
        2.977905e+01	        4.615636e-01
        3.011259e+01	        4.498820e-01
        3.044986e+01	        4.380701e-01
        3.079092e+01	        4.261263e-01
        3.113579e+01	        4.171565e-01
        3.148453e+01	        4.084911e-01
        3.183717e+01	        3.997292e-01
        3.219376e+01	        3.908695e-01
        3.255435e+01	        3.819106e-01
        3.291897e+01	        3.728518e-01
        3.328768e+01	        3.636923e-01
        3.366052e+01	        3.544301e-01
        3.403753e+01	        3.458099e-01
        3.441877e+01	        3.390860e-01
        3.480428e+01	        3.322869e-01
        3.519410e+01	        3.254117e-01
        3.558829e+01	        3.184595e-01
        3.598690e+01	        3.114295e-01
        3.638997e+01	        3.043215e-01
        3.679756e+01	        2.971340e-01
        3.720971e+01	        2.898659e-01
        3.762647e+01	        2.827835e-01
        3.804791e+01	        2.764974e-01
        3.847406e+01	        2.701409e-01
        3.890499e+01	        2.637133e-01
        3.934075e+01	        2.572137e-01
        3.978138e+01	        2.506419e-01
        4.022696e+01	        2.439968e-01
        4.067752e+01	        2.372772e-01
        4.113313e+01	        2.310570e-01
        4.159384e+01	        2.262743e-01
        4.205971e+01	        2.214380e-01
        4.253080e+01	        2.164150e-01
        4.300716e+01	        2.114045e-01
        4.348887e+01	        2.063606e-01
        4.397596e+01	        2.012666e-01
        4.446851e+01	        1.961216e-01
        4.496658e+01	        1.909265e-01
        4.547023e+01	        1.867626e-01
        4.597952e+01	        1.828794e-01
        4.649451e+01	        1.789551e-01
        4.701528e+01	        1.749904e-01
        4.754187e+01	        1.709831e-01
        4.807436e+01	        1.669330e-01
        4.861282e+01	        1.628405e-01
        4.915731e+01	        1.587048e-01
        4.970789e+01	        1.547006e-01
        5.026464e+01	        1.515412e-01
        5.082763e+01	        1.483465e-01
        5.139693e+01	        1.451160e-01
        5.197260e+01	        1.418504e-01
        5.255472e+01	        1.385482e-01
        5.314336e+01	        1.352090e-01
        5.373859e+01	        1.318327e-01
        5.434049e+01	        1.284193e-01
        5.494913e+01	        1.254285e-01
        5.556458e+01	        1.226394e-01
        5.618694e+01	        1.198192e-01
        5.681626e+01	        1.169681e-01
        5.745263e+01	        1.140851e-01
        5.809612e+01	        1.111699e-01
        5.874683e+01	        1.082222e-01
        5.940482e+01	        1.052415e-01
        6.007019e+01	        1.028827e-01
        6.074300e+01	        1.004943e-01
        6.142335e+01	        9.794692e-02
        6.211133e+01	        9.549544e-02
        6.280700e+01	        9.308044e-02
        6.351047e+01	        9.065321e-02
        6.422182e+01	        8.822134e-02
        6.494114e+01	        8.578361e-02
        6.566851e+01	        8.363791e-02
        6.640403e+01	        8.162711e-02
        6.714779e+01	        7.959987e-02
        6.789988e+01	        7.756177e-02
        6.866039e+01	        7.550769e-02
        6.942942e+01	        7.343817e-02
        7.020706e+01	        7.135810e-02
        7.099342e+01	        6.937145e-02
        7.178858e+01	        6.805382e-02
        7.259264e+01	        6.672299e-02
        7.340572e+01	        6.537726e-02
        7.422790e+01	        6.401727e-02
        7.505929e+01	        6.264419e-02
        7.589999e+01	        6.125585e-02
        7.675011e+01	        5.985205e-02
        7.760974e+01	        5.843394e-02
        7.847901e+01	        5.702447e-02
        7.935802e+01	        5.570093e-02
        8.024686e+01	        5.436258e-02
        8.114567e+01	        5.301048e-02
        8.205454e+01	        5.164470e-02
        8.297359e+01	        5.018303e-02
        8.390294e+01	        4.871761e-02
        8.484269e+01	        4.725700e-02
        8.579297e+01	        4.624546e-02
        8.675389e+01	        4.525067e-02
        8.772558e+01	        4.425214e-02
        8.870815e+01	        4.324709e-02
        8.970173e+01	        4.223363e-02
        9.070643e+01	        4.121113e-02
        9.172239e+01	        4.017934e-02
        9.274972e+01	        3.913867e-02
        9.378856e+01	        3.828982e-02
        9.483904e+01	        3.746444e-02
        9.590129e+01	        3.663312e-02
        9.697543e+01	        3.579520e-02
        9.806160e+01	        3.494977e-02
        9.915994e+01	        3.409509e-02
        1.002706e+02	        3.323084e-02
        1.013937e+02	        3.238387e-02
        1.025293e+02	        3.171315e-02
        1.036777e+02	        3.103524e-02
        1.048389e+02	        3.034973e-02
        1.060132e+02	        2.965706e-02
        1.072006e+02	        2.895680e-02
        1.084013e+02	        2.795679e-02
        1.096154e+02	        2.700317e-02
        1.108432e+02	        2.620779e-02
        1.120847e+02	        2.553288e-02
        1.133401e+02	        2.486616e-02
        1.146095e+02	        2.421734e-02
        1.158932e+02	        2.357709e-02
        1.171913e+02	        2.293897e-02
        1.185039e+02	        2.229316e-02
        1.198312e+02	        2.164849e-02
        1.211734e+02	        2.111334e-02
        1.225306e+02	        2.059764e-02
        1.239030e+02	        2.008443e-02
        1.252907e+02	        1.958019e-02
        1.266941e+02	        1.908198e-02
        1.281131e+02	        1.858533e-02
        1.295480e+02	        1.808368e-02
        1.309990e+02	        1.761478e-02
        1.324663e+02	        1.717640e-02
        1.339500e+02	        1.673452e-02
        1.354503e+02	        1.628770e-02
        1.369674e+02	        1.583051e-02
        1.385015e+02	        1.536807e-02
        1.400528e+02	        1.490848e-02
        1.416214e+02	        1.458501e-02
        1.432077e+02	        1.425838e-02
        1.448117e+02	        1.393039e-02
        1.464336e+02	        1.359984e-02
        1.480737e+02	        1.326583e-02
        1.497322e+02	        1.292846e-02
        1.514093e+02	        1.258751e-02
        1.531052e+02	        1.229106e-02
        1.548200e+02	        1.200132e-02
        1.565541e+02	        1.170853e-02
        1.583076e+02	        1.141280e-02
        1.600807e+02	        1.111511e-02
        1.618737e+02	        1.081568e-02
        1.636867e+02	        1.053093e-02
        1.655201e+02	        1.029298e-02
        1.673740e+02	        1.005238e-02
        1.692487e+02	        9.766443e-03
        1.711444e+02	        9.477791e-03
        1.730613e+02	        9.200352e-03
        1.749996e+02	        8.927273e-03
        1.769597e+02	        8.711302e-03
        1.789418e+02	        8.509601e-03
        1.809460e+02	        8.308505e-03
        1.829727e+02	        8.107514e-03
        1.850221e+02	        7.904485e-03
        1.870944e+02	        7.700425e-03
        1.891900e+02	        7.496079e-03
        1.913090e+02	        7.312080e-03
        1.934517e+02	        7.127350e-03
        1.956185e+02	        6.943215e-03
        1.978095e+02	        6.758762e-03
        2.000251e+02	        6.573452e-03
        2.022655e+02	        6.392490e-03
        2.045309e+02	        6.243958e-03
        2.068218e+02	        6.090476e-03
        2.091383e+02	        5.940258e-03
        2.114807e+02	        5.790402e-03
        2.138494e+02	        5.639443e-03
        2.162446e+02	        5.488126e-03
        2.186667e+02	        5.369238e-03
        2.211159e+02	        5.249351e-03
        2.235925e+02	        5.128237e-03
        2.260968e+02	        5.006484e-03
        2.286292e+02	        4.883944e-03
        2.311900e+02	        4.760273e-03
        2.337794e+02	        4.657302e-03
        2.363979e+02	        4.557017e-03
        2.390456e+02	        4.456050e-03
        2.417231e+02	        4.354360e-03
        2.444305e+02	        4.177936e-03
        2.471682e+02	        4.027374e-03
        2.499366e+02	        3.903732e-03
        2.527360e+02	        3.788199e-03
        2.555668e+02	        3.674934e-03
        2.584293e+02	        3.566681e-03
        2.613238e+02	        3.459632e-03
        2.642508e+02	        3.357196e-03
        2.672105e+02	        3.271855e-03
        2.702034e+02	        3.187983e-03
        2.732298e+02	        3.105018e-03
        2.762901e+02	        3.022801e-03
        2.793847e+02	        2.941371e-03
        2.825139e+02	        2.865620e-03
        2.856782e+02	        2.793473e-03
        2.888780e+02	        2.717879e-03
        2.921136e+02	        2.645857e-03
        2.953854e+02	        2.575156e-03
        2.986938e+02	        2.504681e-03
        3.020393e+02	        2.443364e-03
        3.054223e+02	        2.388843e-03
        3.088432e+02	        2.334094e-03
        3.123024e+02	        2.279315e-03
        3.158004e+02	        2.224147e-03
        3.193375e+02	        2.168788e-03
        3.229142e+02	        2.114872e-03
        3.265310e+02	        2.061974e-03
        3.301883e+02	        2.009025e-03
        3.338866e+02	        1.926446e-03
        3.376263e+02	        1.823136e-03
        3.414079e+02	        1.751402e-03
        3.452318e+02	        1.692021e-03
        3.490986e+02	        1.634194e-03
        3.530086e+02	        1.579298e-03
        3.569625e+02	        1.527424e-03
        3.609607e+02	        1.477034e-03
        3.650036e+02	        1.432340e-03
        3.690918e+02	        1.387903e-03
        3.732258e+02	        1.344764e-03
        3.774062e+02	        1.302309e-03
        3.816333e+02	        1.260769e-03
        3.859078e+02	        1.220612e-03
        3.902301e+02	        1.185808e-03
        3.946009e+02	        1.152752e-03
        3.990206e+02	        1.119747e-03
        4.034898e+02	        1.086554e-03
        4.080091e+02	        1.055909e-03
        4.125790e+02	        1.028289e-03
        4.172001e+02	        1.000438e-03
        4.218730e+02	        9.722780e-04
        4.265982e+02	        9.442144e-04
        4.313763e+02	        9.171195e-04
        4.362079e+02	        8.849383e-04
        4.410936e+02	        8.490942e-04
        4.460341e+02	        8.170166e-04
        4.510299e+02	        7.867185e-04
        4.560817e+02	        7.577731e-04
        4.611900e+02	        7.294397e-04
        4.663556e+02	        7.015460e-04
        4.715790e+02	        6.738214e-04
        4.768609e+02	        6.476865e-04
        4.822020e+02	        6.216115e-04
        4.876029e+02	        5.956361e-04
        4.930643e+02	        5.674286e-04
        4.985868e+02	        5.387821e-04
        5.041712e+02	        5.109402e-04
        5.098182e+02	        4.827706e-04
        5.155284e+02	        4.542275e-04
        5.213026e+02	        4.372024e-04
        5.271414e+02	        4.353924e-04
        5.330457e+02	        4.337127e-04
        5.390161e+02	        4.321010e-04
        5.450533e+02	        4.305515e-04
        5.511582e+02	        4.276901e-04
        5.573314e+02	        4.210244e-04
        5.635738e+02	        4.168791e-04
        5.698861e+02	        4.138194e-04
        5.762691e+02	        4.110471e-04
        5.827236e+02	        4.086853e-04
        5.892504e+02	        4.066353e-04
        5.958503e+02	        4.046899e-04
        6.025241e+02	        4.029440e-04
        6.092727e+02	        4.012796e-04
        6.160968e+02	        3.971521e-04
        6.229974e+02	        3.932098e-04
        6.299753e+02	        3.901705e-04
        6.370313e+02	        3.877956e-04
        6.441664e+02	        3.858040e-04
        6.513814e+02	        3.842150e-04
        6.586772e+02	        3.828351e-04
        6.660547e+02	        3.815408e-04
        6.735148e+02	        3.802551e-04
        6.810585e+02	        3.757564e-04
        6.886867e+02	        3.678285e-04
        6.964003e+02	        3.626929e-04
        7.042004e+02	        3.589580e-04
        7.120878e+02	        3.555757e-04
        7.200635e+02	        3.526646e-04
        7.281286e+02	        3.502826e-04
        7.362840e+02	        3.481371e-04
        7.445307e+02	        3.460770e-04
        7.528698e+02	        3.428589e-04
        7.613023e+02	        3.400368e-04
        7.698293e+02	        3.376714e-04
        7.784518e+02	        3.356677e-04
        7.871708e+02	        3.339959e-04
        7.959875e+02	        3.326816e-04
        8.049030e+02	        3.315893e-04
        8.139183e+02	        3.305731e-04
        8.230346e+02	        3.296339e-04
        8.322529e+02	        3.243461e-04
        8.415746e+02	        3.198449e-04
        8.510006e+02	        3.164302e-04
        8.605323e+02	        3.137783e-04
        8.701706e+02	        3.114225e-04
        8.799170e+02	        3.095370e-04
        8.897725e+02	        3.078396e-04
        8.997384e+02	        3.063017e-04
        9.098159e+02	        3.025437e-04
        9.200063e+02	        2.993704e-04
        9.303108e+02	        2.968627e-04
        9.407307e+02	        2.947988e-04
        9.512674e+02	        2.929437e-04
        9.619221e+02	        2.914473e-04
        9.726961e+02	        2.901375e-04
        9.835907e+02	        2.890262e-04
        9.946074e+02	        2.819211e-04
        1.005748e+03	        2.775841e-04
        1.017012e+03	        2.744424e-04
        1.028403e+03	        2.717906e-04
        1.039922e+03	        2.693926e-04
        1.051570e+03	        2.674674e-04
        1.063348e+03	        2.657295e-04
        1.075258e+03	        2.608163e-04
        1.087301e+03	        2.567222e-04
        1.099480e+03	        2.534637e-04
        1.111794e+03	        2.508525e-04
        1.124247e+03	        2.484886e-04
        1.136839e+03	        2.465387e-04
        1.149572e+03	        2.448463e-04
        1.162448e+03	        2.102469e-04
        1.175468e+03	        1.805602e-04
        1.188634e+03	        1.589262e-04
        1.201947e+03	        1.424915e-04
        1.215409e+03	        1.275036e-04
        1.229023e+03	        1.155462e-04
        1.242788e+03	        1.047578e-04
        1.256708e+03	        9.482778e-05
        1.270784e+03	        8.548816e-05
        1.285017e+03	        7.699829e-05
        1.299410e+03	        6.956838e-05
        1.313964e+03	        6.294130e-05
        1.328681e+03	        5.721368e-05
        1.343563e+03	        5.231591e-05
        1.358612e+03	        4.755907e-05
        1.373829e+03	        4.459671e-05
        1.389216e+03	        4.202757e-05
        1.404776e+03	        3.954149e-05
        1.420510e+03	        3.737245e-05
        1.436421e+03	        3.547376e-05
        1.452509e+03	        3.361736e-05
        1.468778e+03	        3.182921e-05
        1.485229e+03	        3.029525e-05
        1.501865e+03	        2.882232e-05
        1.518686e+03	        2.739319e-05
        1.535696e+03	        2.600956e-05
        1.552897e+03	        2.489324e-05
        1.570290e+03	        2.388670e-05
        1.587878e+03	        2.297456e-05
        1.605663e+03	        2.208141e-05
        1.623647e+03	        2.119758e-05
        1.641833e+03	        2.037505e-05
        1.660222e+03	        1.957183e-05
        1.678818e+03	        1.876569e-05
        1.697621e+03	        1.795716e-05
        1.716635e+03	        1.733317e-05
        1.735863e+03	        1.678032e-05
        1.755305e+03	        1.623007e-05
        1.774965e+03	        1.568811e-05
        1.794846e+03	        1.515754e-05
        1.814949e+03	        1.463389e-05
        1.835277e+03	        1.412576e-05
        1.855833e+03	        1.362926e-05
        1.876620e+03	        1.313320e-05
        1.897639e+03	        1.264636e-05
        1.918893e+03	        1.216522e-05
        1.940386e+03	        1.173319e-05
        1.962119e+03	        1.135140e-05
        1.984096e+03	        1.097113e-05
        2.006319e+03	        1.059401e-05
        2.028790e+03	        1.021820e-05
        2.051514e+03	        9.849736e-06
        2.074492e+03	        9.527091e-06
        2.097727e+03	        9.223696e-06
        2.121223e+03	        8.918857e-06
        2.144981e+03	        8.615092e-06
        2.169006e+03	        8.311844e-06
        2.193300e+03	        8.011769e-06
        2.217866e+03	        7.773480e-06
        2.242707e+03	        7.547618e-06
        2.267827e+03	        7.323103e-06
        2.293228e+03	        7.100983e-06
        2.318913e+03	        6.879315e-06
        2.344886e+03	        6.658944e-06
        2.371150e+03	        6.439807e-06
        2.397708e+03	        6.251621e-06
        2.424563e+03	        6.066818e-06
        2.451720e+03	        5.880476e-06
        2.479180e+03	        5.692775e-06
        2.506948e+03	        5.504462e-06
        2.535027e+03	        5.318867e-06
        2.563421e+03	        5.154325e-06
        2.592132e+03	        5.020000e-06
        2.621165e+03	        4.884562e-06
        2.650524e+03	        4.747781e-06
        2.680211e+03	        4.609843e-06
        2.710231e+03	        4.470841e-06
        2.740587e+03	        4.334097e-06
        2.771282e+03	        4.203318e-06
        2.802322e+03	        4.080570e-06
        2.833710e+03	        3.958356e-06
        2.865449e+03	        3.834915e-06
        2.897543e+03	        3.710315e-06
        2.929997e+03	        3.584579e-06
        2.962814e+03	        3.457992e-06
        2.995999e+03	        3.357257e-06
        3.029556e+03	        3.274408e-06
        3.063488e+03	        3.190544e-06
        3.097801e+03	        3.105847e-06
        3.132498e+03	        3.020370e-06
        3.167583e+03	        2.934301e-06
        3.203062e+03	        2.847526e-06
        3.238938e+03	        2.760383e-06
        3.275216e+03	        2.684124e-06
        3.311900e+03	        2.611552e-06
        3.348994e+03	        2.538205e-06
        3.386505e+03	        2.464114e-06
        3.424435e+03	        2.389299e-06
        3.462791e+03	        2.314190e-06
        3.501576e+03	        2.239423e-06
        3.540795e+03	        2.180940e-06
        3.580454e+03	        2.126267e-06
        3.620557e+03	        2.072496e-06
        3.661109e+03	        2.018291e-06
        3.702115e+03	        1.963510e-06
        3.743580e+03	        1.908099e-06
        3.785510e+03	        1.852466e-06
        3.827910e+03	        1.798139e-06
        3.870784e+03	        1.752298e-06
        3.914139e+03	        1.708839e-06
        3.957979e+03	        1.665692e-06
        4.002311e+03	        1.622262e-06
        4.047138e+03	        1.578573e-06
        4.092468e+03	        1.534741e-06
        4.138306e+03	        1.490798e-06
        4.184657e+03	        1.448044e-06
        4.231527e+03	        1.410987e-06
        4.278923e+03	        1.374670e-06
        4.326849e+03	        1.338400e-06
        4.375311e+03	        1.301866e-06
        4.424317e+03	        1.264887e-06
        4.473872e+03	        1.227775e-06
        4.523981e+03	        1.190503e-06
        4.574652e+03	        1.159220e-06
        4.625890e+03	        1.130162e-06
        4.677703e+03	        1.102028e-06
        4.730095e+03	        1.073871e-06
        4.783075e+03	        1.045345e-06
        4.836647e+03	        1.016430e-06
        4.890820e+03	        9.875413e-07
        4.945600e+03	        9.595545e-07
        5.000993e+03	        9.357012e-07
        5.057007e+03	        9.126363e-07
        5.113648e+03	        8.894976e-07
        5.170923e+03	        8.663773e-07
        5.228840e+03	        8.433900e-07
        5.287405e+03	        8.203844e-07
        5.346627e+03	        7.973050e-07
        5.406512e+03	        7.752243e-07
        5.467067e+03	        7.562383e-07
        5.528301e+03	        7.379535e-07
        5.590221e+03	        7.195047e-07
        5.652834e+03	        7.010380e-07
        5.716149e+03	        6.824442e-07
        5.780172e+03	        6.638411e-07
        5.844913e+03	        6.451318e-07
        5.910379e+03	        6.278617e-07
        5.976578e+03	        6.119790e-07
        6.043519e+03	        5.965588e-07
        6.111209e+03	        5.810674e-07
        6.179658e+03	        5.654002e-07
        6.248873e+03	        5.495160e-07
        6.318863e+03	        5.338577e-07
        6.389638e+03	        5.187945e-07
        6.461205e+03	        5.060943e-07
        6.533574e+03	        4.940689e-07
        6.606753e+03	        4.820810e-07
        6.680752e+03	        4.700109e-07
        6.755579e+03	        4.578581e-07
        6.831245e+03	        4.455751e-07
        6.907759e+03	        4.332421e-07
        6.985129e+03	        4.212660e-07
        7.063366e+03	        4.102570e-07
        7.142479e+03	        3.993816e-07
        7.222478e+03	        3.884418e-07
        7.303374e+03	        3.771326e-07
        7.385175e+03	        3.655989e-07
        7.467893e+03	        3.549604e-07
        7.551537e+03	        3.453920e-07
        7.636118e+03	        3.372340e-07
        7.721646e+03	        3.294131e-07
        7.808132e+03	        3.216380e-07
        7.895587e+03	        3.138233e-07
        7.984022e+03	        3.059199e-07
        8.073446e+03	        2.980428e-07
        8.163873e+03	        2.901593e-07
        8.255312e+03	        2.823349e-07
        8.347776e+03	        2.750174e-07
        8.441275e+03	        2.677391e-07
        8.535822e+03	        2.604238e-07
        8.631427e+03	        2.530984e-07
        8.728103e+03	        2.457454e-07
        8.825862e+03	        2.383834e-07
        8.924716e+03	        2.318903e-07
        9.024678e+03	        2.260414e-07
        9.125758e+03	        2.204444e-07
        9.227971e+03	        2.147876e-07
        9.331329e+03	        2.090827e-07
        9.435845e+03	        2.033286e-07
        9.541531e+03	        1.975229e-07
        9.648401e+03	        1.917592e-07
        9.756468e+03	        1.869018e-07
        9.865745e+03	        1.821868e-07
        9.976246e+03	        1.774672e-07
        1.008798e+04	        1.727040e-07
        1.020098e+04	        1.679360e-07
        1.031523e+04	        1.631936e-07
        1.043077e+04	        1.585909e-07
        1.054760e+04	        1.546079e-07
        1.066573e+04	        1.507588e-07
        1.078520e+04	        1.468791e-07
        1.090600e+04	        1.429811e-07
        1.102815e+04	        1.390779e-07
        1.115167e+04	        1.351799e-07
        1.127657e+04	        1.312754e-07
        1.140288e+04	        1.278162e-07
        1.153059e+04	        1.244882e-07
        1.165974e+04	        1.210721e-07
        1.179034e+04	        1.176530e-07
        1.192240e+04	        1.141583e-07
        1.205593e+04	        1.105443e-07
        1.219096e+04	        1.072375e-07
        1.232751e+04	        1.044689e-07
        1.246558e+04	        1.017661e-07
        1.260520e+04	        9.903811e-08
        1.274639e+04	        9.629114e-08
        1.288915e+04	        9.346369e-08
        1.303352e+04	        9.066454e-08
        1.317950e+04	        8.785839e-08
        1.332712e+04	        8.525669e-08
        1.347639e+04	        8.269879e-08
        1.362733e+04	        8.012702e-08
        1.377996e+04	        7.752132e-08
        1.393431e+04	        7.486669e-08
        1.409038e+04	        7.220637e-08
        1.424820e+04	        6.998860e-08
        1.440778e+04	        6.815867e-08
        1.456916e+04	        6.632133e-08
        1.473234e+04	        6.446571e-08
        1.489735e+04	        6.260888e-08
        1.506421e+04	        6.074761e-08
        1.523293e+04	        5.899589e-08
        1.540355e+04	        5.729225e-08
        1.557608e+04	        5.559381e-08
        1.575054e+04	        5.388497e-08
        1.592695e+04	        5.216491e-08
        1.610534e+04	        5.045719e-08
        1.628573e+04	        4.895354e-08
        1.646814e+04	        4.747366e-08
        1.665259e+04	        4.593279e-08
        1.683910e+04	        4.450989e-08
        1.702771e+04	        4.308320e-08
        1.721843e+04	        4.168504e-08
        1.741128e+04	        4.045191e-08
        1.760630e+04	        3.921495e-08
        1.780350e+04	        3.796071e-08
        1.800291e+04	        3.671190e-08
        1.820455e+04	        3.547720e-08
        1.840845e+04	        3.430067e-08
        1.861463e+04	        3.315171e-08
        1.882312e+04	        3.198814e-08
        1.903395e+04	        3.079756e-08
        1.924714e+04	        2.963611e-08
        1.946272e+04	        2.858986e-08
        1.968071e+04	        2.758923e-08
        1.990114e+04	        2.657680e-08
        2.012405e+04	        2.556032e-08
        2.034945e+04	        2.451012e-08
        2.057737e+04	        2.358332e-08
        2.080785e+04	        2.265962e-08
        2.104091e+04	        2.172701e-08
        2.127657e+04	        2.076853e-08
        2.151488e+04	        1.978381e-08
        2.175586e+04	        1.887208e-08
        2.199954e+04	        1.806842e-08
        2.224594e+04	        1.725856e-08
        2.249511e+04	        1.644897e-08
        2.274706e+04	        1.565993e-08
        2.300184e+04	        1.484640e-08
        2.325947e+04	        1.404263e-08
        2.351999e+04	        1.318297e-08
        2.378343e+04	        1.251231e-08
        2.404981e+04	        1.183260e-08
        2.431918e+04	        1.114068e-08
        2.459157e+04	        1.042953e-08
        2.486701e+04	        9.705820e-09
        2.514553e+04	        9.049903e-09
        2.542717e+04	        8.412969e-09
        2.571197e+04	        7.732846e-09
        2.599996e+04	        6.921036e-09
        2.629117e+04	        6.365772e-09
        2.658564e+04	        5.787907e-09
        2.688341e+04	        5.175059e-09
        2.718452e+04	        4.463040e-09
        2.748900e+04	        3.807221e-09
        2.779689e+04	        3.146878e-09
        2.810823e+04	        2.323131e-09
        2.842306e+04	        8.557664e-10
        2.874141e+04	        2.995955e-10
        2.906333e+04	        2.734823e-10
        2.938885e+04	        2.447892e-10
        2.971802e+04	        2.108383e-10
        3.005088e+04	        1.828239e-10
        3.038746e+04	        1.521418e-10
        3.072782e+04	        1.111165e-10
        3.107198e+04	        4.380667e-11
        3.142000e+04	        4.145811e-11
        3.177192e+04	        3.898447e-11
        3.212779e+04	        3.615472e-11
        3.248763e+04	        3.345313e-11
        3.285151e+04	        3.151214e-11
        3.321946e+04	        2.937051e-11
        3.359154e+04	        2.632693e-11
        3.396778e+04	        2.515614e-11
        3.434823e+04	        2.415132e-11
        3.473295e+04	        2.313797e-11
        3.512198e+04	        2.188215e-11
        3.551536e+04	        2.110006e-11
        3.591315e+04	        2.032398e-11
        3.631540e+04	        1.954110e-11
        3.672215e+04	        1.878173e-11
        3.713345e+04	        1.801817e-11
        3.754937e+04	        1.721725e-11
        3.796994e+04	        1.648246e-11
        3.839522e+04	        1.580283e-11
        3.882526e+04	        1.500331e-11
        3.926013e+04	        1.435798e-11
        3.969986e+04	        1.384131e-11
        4.014452e+04	        1.327891e-11
        4.059416e+04	        1.282233e-11
        4.104883e+04	        1.237029e-11
        4.150860e+04	        1.190697e-11
        4.197351e+04	        1.148180e-11
        4.244364e+04	        1.103283e-11
        4.291903e+04	        1.057955e-11
        4.339974e+04	        1.021409e-11
        4.388584e+04	        9.850819e-12
        4.437738e+04	        9.504099e-12
        4.487443e+04	        9.156943e-12
        4.537705e+04	        8.795794e-12
        4.588529e+04	        8.494571e-12
        4.639923e+04	        8.190988e-12
        4.691893e+04	        7.902074e-12
        4.744444e+04	        7.617720e-12
        4.797584e+04	        7.329178e-12
        4.851319e+04	        7.070633e-12
        4.905657e+04	        6.812893e-12
        4.960602e+04	        6.560242e-12
        5.016164e+04	        6.299988e-12
        5.072347e+04	        6.056665e-12
        5.129160e+04	        5.809845e-12
        5.186609e+04	        5.594083e-12
        5.244702e+04	        5.375189e-12
        5.303445e+04	        5.162835e-12
        5.362846e+04	        4.946208e-12
        5.422913e+04	        4.741931e-12
        5.483652e+04	        4.546785e-12
        5.545071e+04	        4.353676e-12
        5.607179e+04	        4.151563e-12
        5.669982e+04	        3.963201e-12
        5.733489e+04	        3.786075e-12
        5.797707e+04	        3.609485e-12
        5.862644e+04	        3.420496e-12
        5.928308e+04	        3.260242e-12
        5.994708e+04	        3.106602e-12
        6.061852e+04	        2.960128e-12
        6.129748e+04	        2.803452e-12
        6.198404e+04	        2.669846e-12
        6.267829e+04	        2.529946e-12
        6.338032e+04	        2.378528e-12
        6.409021e+04	        2.236454e-12
        6.480805e+04	        2.128898e-12
        6.553393e+04	        2.024617e-12
        6.626795e+04	        1.913675e-12
        6.701018e+04	        1.820674e-12
        6.776073e+04	        1.725457e-12
        6.851968e+04	        1.624737e-12
        6.928713e+04	        1.538387e-12
        7.006318e+04	        1.452035e-12
        7.084793e+04	        1.362170e-12
        7.164146e+04	        1.275768e-12
        7.244388e+04	        1.198130e-12
        7.325529e+04	        1.119851e-12
        7.407578e+04	        1.041838e-12
        7.490547e+04	        9.707432e-13
        7.574444e+04	        8.990204e-13
        7.659282e+04	        8.281116e-13
        7.745070e+04	        7.634763e-13
        7.831818e+04	        7.013213e-13
        7.919539e+04	        6.431943e-13
        8.008241e+04	        5.870688e-13
        8.097938e+04	        5.233303e-13
        8.188638e+04	        4.703147e-13
        8.280355e+04	        4.123224e-13
        8.373099e+04	        3.505925e-13
        8.466882e+04	        3.026238e-13
        8.561715e+04	        2.456670e-13
        8.657611e+04	        2.045126e-13
        8.754580e+04	        1.604350e-13
        8.852636e+04	        1.221675e-13
        8.951790e+04	        9.836866e-14
        9.052054e+04	        7.362627e-14
        9.153442e+04	        5.359352e-14
        9.255965e+04	        2.971237e-14
        9.359636e+04	        1.433290e-14
        9.464469e+04	        1.234222e-14
        9.570475e+04	        1.129357e-14
        9.677669e+04	        1.023931e-14
        9.786064e+04	        9.123345e-15
        9.895673e+04	        7.972444e-15
        1.000651e+05	        6.666589e-15
        1.011859e+05	        5.068237e-15
        1.023192e+05	        2.657902e-15
        1.034652e+05	        1.523880e-15
        1.046241e+05	        4.526990e-16
        1.057959e+05	        0.000000e+00
        1.069809e+05	        0.000000e+00
        1.081791e+05	        0.000000e+00
        1.093908e+05	        0.000000e+00

