# -------------------------------------------------------------------------------
#		C:/Users/Michael Chadolias/Documents/OMERE/LEO ISS/Orbit average flux.txt
# -------------------------------------------------------------------------------
# ID: 1 2 1

# Graph: Orbit average flux 
# min: 0.04 0.01 max: 300 889911
# X-axis L: Energy(MeV)
# Y-axis L: Flux (cm^{-2}.s^{-1}.MeV^{-1}) or (cm^{-2}.s^{-1})
# -------------------------------------------------------------------------------
# Curve 0: Diff flux - AP8 min
# Params: 2 5 #fe1448 1 1
#	Energy(MeV)		Flux (cm^{-2}.s^{-1}.MeV^{-1}) or (cm^{-2}.s^{-1})
# -------------------------------------------------------------------------------
        1.000000e-01	        2.866344e+03
        2.500000e-01	        1.307966e+03
        5.000000e-01	        4.855331e+02
        7.500000e-01	        2.340543e+02
        1.000000e+00	        1.219361e+02
        2.000000e+00	        3.399500e+01
        3.000000e+00	        1.693646e+01
        4.000000e+00	        9.139370e+00
        5.000000e+00	        5.658956e+00
        6.000000e+00	        3.625411e+00
        8.000000e+00	        1.807213e+00
        1.000000e+01	        9.966688e-01
        1.200000e+01	        6.662340e-01
        1.500000e+01	        4.416264e-01
        1.700000e+01	        3.508977e-01
        2.000000e+01	        2.633027e-01
        2.500000e+01	        1.928324e-01
        3.000000e+01	        1.642091e-01
        3.500000e+01	        1.481991e-01
        4.000000e+01	        1.355539e-01
        4.500000e+01	        1.247551e-01
        5.000000e+01	        1.211508e-01
        6.000000e+01	        1.142314e-01
        7.000000e+01	        1.023858e-01
        8.000000e+01	        9.256637e-02
        9.000000e+01	        8.332207e-02
        1.000000e+02	        7.621955e-02
        1.250000e+02	        5.554668e-02
        1.500000e+02	        3.918806e-02
        1.750000e+02	        2.800534e-02
        2.000000e+02	        2.033443e-02
        3.000000e+02	        6.023131e-03

# -------------------------------------------------------------------------------
# Curve 1: Integ flux - AP8 min
# Params: 2 5 #169ced 1 1
#	Energy(MeV)		Flux (cm^{-2}.s^{-1}.MeV^{-1}) or (cm^{-2}.s^{-1})
# -------------------------------------------------------------------------------
        1.000000e-01	        7.769954e+02
        2.500000e-01	        4.770364e+02
        5.000000e-01	        2.701935e+02
        7.500000e-01	        1.853247e+02
        1.000000e+00	        1.419884e+02
        2.000000e+00	        7.576400e+01
        3.000000e+00	        5.321243e+01
        4.000000e+00	        3.999157e+01
        5.000000e+00	        3.318436e+01
        6.000000e+00	        2.840597e+01
        8.000000e+00	        2.328792e+01
        1.000000e+01	        2.054937e+01
        1.200000e+01	        1.904589e+01
        1.500000e+01	        1.733973e+01
        1.700000e+01	        1.659091e+01
        2.000000e+01	        1.562401e+01
        2.500000e+01	        1.456588e+01
        3.000000e+01	        1.367243e+01
        3.500000e+01	        1.289369e+01
        4.000000e+01	        1.218221e+01
        4.500000e+01	        1.153035e+01
        5.000000e+01	        1.092999e+01
        6.000000e+01	        9.747459e+00
        7.000000e+01	        8.641153e+00
        8.000000e+01	        7.685966e+00
        9.000000e+01	        6.786832e+00
        1.000000e+02	        6.008299e+00
        1.250000e+02	        4.329715e+00
        1.500000e+02	        3.152713e+00
        1.750000e+02	        2.313832e+00
        2.000000e+02	        1.710843e+00
        3.000000e+02	        5.320742e-01

# -------------------------------------------------------------------------------
# Curve 2: Diff flux - AE8 max
# Params: 2 5 #c967d0 1 1
#	Energy(MeV)		Flux (cm^{-2}.s^{-1}.MeV^{-1}) or (cm^{-2}.s^{-1})
# -------------------------------------------------------------------------------
        4.000000e-02	        8.899112e+05
        1.000000e-01	        5.685424e+05
        2.500000e-01	        1.191309e+05
        5.000000e-01	        1.292550e+04
        7.500000e-01	        3.398395e+03
        1.000000e+00	        1.528724e+03
        1.500000e+00	        6.412409e+02
        2.000000e+00	        2.919921e+02
        2.500000e+00	        1.497948e+02
        3.000000e+00	        6.506367e+01
        3.500000e+00	        2.766565e+01
        4.000000e+00	        1.114408e+01
        4.500000e+00	        3.802883e+00
        5.000000e+00	        1.280364e+00
        5.500000e+00	        3.297592e-01
        6.000000e+00	        5.570963e-02
        6.500000e+00	        9.086461e-03
        7.000000e+00	        6.299893e-04

# -------------------------------------------------------------------------------
# Curve 3: Integ flux - AE8 max
# Params: 2 5 #7def21 1 1
#	Energy(MeV)		Flux (cm^{-2}.s^{-1}.MeV^{-1}) or (cm^{-2}.s^{-1})
# -------------------------------------------------------------------------------
        4.000000e-02	        1.019635e+05
        1.000000e-01	        6.066238e+04
        2.500000e-01	        1.444093e+04
        5.000000e-01	        3.065684e+03
        7.500000e-01	        1.446930e+03
        1.000000e+00	        8.881571e+02
        1.500000e+00	        4.153117e+02
        2.000000e+00	        1.891607e+02
        2.500000e+00	        8.870223e+01
        3.000000e+00	        3.575596e+01
        3.500000e+00	        1.433395e+01
        4.000000e+00	        5.164132e+00
        4.500000e+00	        1.645228e+00
        5.000000e+00	        5.133091e-01
        5.500000e+00	        1.204827e-01
        6.000000e+00	        1.893369e-02
        6.500000e+00	        0.000000e+00
        7.000000e+00	        0.000000e+00

