# -------------------------------------------------------------------------------
#		C:/Users/ASAT 02/Documents/OMERE 5.4/CDR CLOSE-OUT/SSO 550 - 1.5 years/dose/silicon/Dose  Silicon.txt
# -------------------------------------------------------------------------------
# ID: 1 2 1

# Graph: Dose - Silicon 
# min: -4.9895 0.01 max: 104.999 997384
# X-axis: Thickness  (mm Al)
# Y-axis L: Dose (rad)
# -------------------------------------------------------------------------------
# Curve 0: Trapped electrons
# Params: 2 5 #14bf4c 1 1
#	Thickness  (mm Al)		Dose (rad)
# -------------------------------------------------------------------------------
            0.010000	        8.150800e+05
            0.100000	        1.938169e+05
            0.200000	        8.710279e+04
            0.300000	        4.923626e+04
            0.400000	        3.213168e+04
            0.500000	        2.301453e+04
            0.600000	        1.756008e+04
            0.700000	        1.400276e+04
            0.800000	        1.153078e+04
            0.900000	        9.727737e+03
            1.000000	        8.359470e+03
            1.100000	        7.286812e+03
            1.200000	        6.424317e+03
            1.300000	        5.715459e+03
            1.400000	        5.118889e+03
            1.500000	        4.607300e+03
            1.600000	        4.163414e+03
            1.700000	        3.773654e+03
            1.800000	        3.427709e+03
            1.900000	        3.118565e+03
            2.000000	        2.840961e+03
            2.250000	        2.260205e+03
            2.500000	        1.807501e+03
            2.750000	        1.451950e+03
            3.000000	        1.170645e+03
            3.250000	        9.463378e+02
            3.500000	        7.657151e+02
            3.750000	        6.190195e+02
            4.000000	        4.993358e+02
            4.250000	        4.015739e+02
            4.500000	        3.218798e+02
            4.750000	        2.571629e+02
            5.000000	        2.048301e+02
            5.250000	        1.626809e+02
            5.500000	        1.288515e+02
            5.750000	        1.017762e+02
            6.000000	        8.015546e+01
            6.250000	        6.292393e+01
            6.500000	        4.921844e+01
            6.750000	        3.834380e+01
            7.000000	        2.974103e+01
            7.250000	        2.296040e+01
            7.500000	        1.763882e+01
            7.750000	        1.348211e+01
            8.000000	        1.025192e+01
            8.250000	        7.755236e+00
            8.500000	        5.835919e+00
            8.750000	        4.368431e+00
            9.000000	        3.252073e+00
            9.500000	        1.771269e+00
           10.000000	        9.392675e-01
           10.500000	        4.822803e-01
           11.000000	        2.383825e-01
           11.500000	        1.129111e-01
           12.000000	        5.107779e-02
           12.500000	        2.199315e-02
           13.000000	        8.956138e-03
           13.500000	        3.403408e-03
           14.000000	        1.179142e-03
           14.500000	        3.666094e-04
           15.000000	        9.981499e-05
           16.000000	        8.395474e-06
           17.000000	        8.560362e-07
           18.000000	        1.272229e-07
           19.000000	        5.449363e-09
           20.000000	        0.000000e+00
           30.000000	        0.000000e+00
           40.000000	        0.000000e+00
           50.000000	        0.000000e+00
          100.000000	        0.000000e+00

# -------------------------------------------------------------------------------
# Curve 1: Trapped protons
# Params: 2 5 #fe1448 1 1
#	Thickness  (mm Al)		Dose (rad)
# -------------------------------------------------------------------------------
            0.010000	        3.026364e+04
            0.100000	        2.952765e+03
            0.200000	        1.456343e+03
            0.300000	        9.816727e+02
            0.400000	        7.554361e+02
            0.500000	        6.243474e+02
            0.600000	        5.402868e+02
            0.700000	        4.867349e+02
            0.800000	        4.463325e+02
            0.900000	        4.171673e+02
            1.000000	        3.909810e+02
            1.100000	        3.734562e+02
            1.200000	        3.542626e+02
            1.300000	        3.397705e+02
            1.400000	        3.262494e+02
            1.500000	        3.147508e+02
            1.600000	        3.053479e+02
            1.700000	        2.940212e+02
            1.800000	        2.867842e+02
            1.900000	        2.798557e+02
            2.000000	        2.725520e+02
            2.250000	        2.579338e+02
            2.500000	        2.463017e+02
            2.750000	        2.364083e+02
            3.000000	        2.303803e+02
            3.250000	        2.230305e+02
            3.500000	        2.178362e+02
            3.750000	        2.137196e+02
            4.000000	        2.082215e+02
            4.250000	        2.039560e+02
            4.500000	        2.009450e+02
            4.750000	        1.963488e+02
            5.000000	        1.941025e+02
            5.250000	        1.898791e+02
            5.500000	        1.865040e+02
            5.750000	        1.839489e+02
            6.000000	        1.813692e+02
            6.250000	        1.795987e+02
            6.500000	        1.741993e+02
            6.750000	        1.742923e+02
            7.000000	        1.715499e+02
            7.250000	        1.683661e+02
            7.500000	        1.672443e+02
            7.750000	        1.629020e+02
            8.000000	        1.649490e+02
            8.250000	        1.627757e+02
            8.500000	        1.579085e+02
            8.750000	        1.576134e+02
            9.000000	        1.545649e+02
            9.500000	        1.517621e+02
           10.000000	        1.497211e+02
           10.500000	        1.476267e+02
           11.000000	        1.440361e+02
           11.500000	        1.409430e+02
           12.000000	        1.394450e+02
           12.500000	        1.344012e+02
           13.000000	        1.339382e+02
           13.500000	        1.330051e+02
           14.000000	        1.285022e+02
           14.500000	        1.256611e+02
           15.000000	        1.249791e+02
           16.000000	        1.213294e+02
           17.000000	        1.164991e+02
           18.000000	        1.135790e+02
           19.000000	        1.105665e+02
           20.000000	        1.074574e+02
           30.000000	        8.249151e+01
           40.000000	        6.544391e+01
           50.000000	        5.424927e+01
          100.000000	        2.049950e+01

# -------------------------------------------------------------------------------
# Curve 2: Solar protons
# Params: 2 5 #169ced 1 1
#	Thickness  (mm Al)		Dose (rad)
# -------------------------------------------------------------------------------
            0.010000	        1.510340e+05
            0.100000	        3.558044e+04
            0.200000	        1.995888e+04
            0.300000	        1.390230e+04
            0.400000	        1.070708e+04
            0.500000	        8.703354e+03
            0.600000	        7.280933e+03
            0.700000	        6.288027e+03
            0.800000	        5.480715e+03
            0.900000	        4.883977e+03
            1.000000	        4.340319e+03
            1.100000	        3.978474e+03
            1.200000	        3.589844e+03
            1.300000	        3.307650e+03
            1.400000	        3.043682e+03
            1.500000	        2.830549e+03
            1.600000	        2.651681e+03
            1.700000	        2.451973e+03
            1.800000	        2.318195e+03
            1.900000	        2.192761e+03
            2.000000	        2.061957e+03
            2.250000	        1.801244e+03
            2.500000	        1.589369e+03
            2.750000	        1.413326e+03
            3.000000	        1.294661e+03
            3.250000	        1.165444e+03
            3.500000	        1.070909e+03
            3.750000	        9.936976e+02
            4.000000	        9.083697e+02
            4.250000	        8.423270e+02
            4.500000	        7.925466e+02
            4.750000	        7.327148e+02
            5.000000	        6.967114e+02
            5.250000	        6.474137e+02
            5.500000	        6.085174e+02
            5.750000	        5.776461e+02
            6.000000	        5.486212e+02
            6.250000	        5.261832e+02
            6.500000	        4.828053e+02
            6.750000	        4.750373e+02
            7.000000	        4.505841e+02
            7.250000	        4.253821e+02
            7.500000	        4.122475e+02
            7.750000	        3.832029e+02
            8.000000	        3.874078e+02
            8.250000	        3.700641e+02
            8.500000	        3.413362e+02
            8.750000	        3.347258e+02
            9.000000	        3.161945e+02
            9.500000	        2.954987e+02
           10.000000	        2.791070e+02
           10.500000	        2.634353e+02
           11.000000	        2.439917e+02
           11.500000	        2.278834e+02
           12.000000	        2.178777e+02
           12.500000	        1.983397e+02
           13.000000	        1.931129e+02
           13.500000	        1.865963e+02
           14.000000	        1.714522e+02
           14.500000	        1.615980e+02
           15.000000	        1.572874e+02
           16.000000	        1.440586e+02
           17.000000	        1.298067e+02
           18.000000	        1.205465e+02
           19.000000	        1.117382e+02
           20.000000	        1.034961e+02
           30.000000	        5.424259e+01
           40.000000	        3.373997e+01
           50.000000	        2.337276e+01
          100.000000	        6.029994e+00

# -------------------------------------------------------------------------------
# Curve 3: Secondary photons
# Params: 2 5 #c967d0 1 1
#	Thickness  (mm Al)		Dose (rad)
# -------------------------------------------------------------------------------
            0.010000	        1.005897e+03
            0.100000	        4.075894e+02
            0.200000	        2.213510e+02
            0.300000	        1.435953e+02
            0.400000	        1.037954e+02
            0.500000	        8.086187e+01
            0.600000	        6.624031e+01
            0.700000	        5.631188e+01
            0.800000	        4.915903e+01
            0.900000	        4.357690e+01
            1.000000	        3.909410e+01
            1.100000	        3.572859e+01
            1.200000	        3.288723e+01
            1.300000	        3.028831e+01
            1.400000	        2.808336e+01
            1.500000	        2.623894e+01
            1.600000	        2.459227e+01
            1.700000	        2.307622e+01
            1.800000	        2.174085e+01
            1.900000	        2.054125e+01
            2.000000	        1.945069e+01
            2.250000	        1.714965e+01
            2.500000	        1.530214e+01
            2.750000	        1.377736e+01
            3.000000	        1.256711e+01
            3.250000	        1.153892e+01
            3.500000	        1.063527e+01
            3.750000	        9.916916e+00
            4.000000	        9.280098e+00
            4.250000	        8.694028e+00
            4.500000	        8.189544e+00
            4.750000	        7.742363e+00
            5.000000	        7.346428e+00
            5.250000	        6.990708e+00
            5.500000	        6.679152e+00
            5.750000	        6.399910e+00
            6.000000	        6.140417e+00
            6.250000	        5.904596e+00
            6.500000	        5.689908e+00
            6.750000	        5.493295e+00
            7.000000	        5.313501e+00
            7.250000	        5.144871e+00
            7.500000	        4.979116e+00
            7.750000	        4.831017e+00
            8.000000	        4.700936e+00
            8.250000	        4.577754e+00
            8.500000	        4.463349e+00
            8.750000	        4.356317e+00
            9.000000	        4.256181e+00
            9.500000	        4.074483e+00
           10.000000	        3.913274e+00
           10.500000	        3.771905e+00
           11.000000	        3.636918e+00
           11.500000	        3.513093e+00
           12.000000	        3.407871e+00
           12.500000	        3.311841e+00
           13.000000	        3.223289e+00
           13.500000	        3.141265e+00
           14.000000	        3.064693e+00
           14.500000	        2.993686e+00
           15.000000	        2.928217e+00
           16.000000	        2.805560e+00
           17.000000	        2.693438e+00
           18.000000	        2.589726e+00
           19.000000	        2.492336e+00
           20.000000	        2.402456e+00
           30.000000	        1.790622e+00
           40.000000	        1.398253e+00
           50.000000	        1.181112e+00
          100.000000	        3.946206e-01

# -------------------------------------------------------------------------------
# Curve 4: Total dose
# Params: 2 5 #7def21 1 1
#	Thickness  (mm Al)		Dose (rad)
# -------------------------------------------------------------------------------
            0.010000	        9.973836e+05
            0.100000	        2.327577e+05
            0.200000	        1.087394e+05
            0.300000	        6.426383e+04
            0.400000	        4.369799e+04
            0.500000	        3.242309e+04
            0.600000	        2.544754e+04
            0.700000	        2.083383e+04
            0.800000	        1.750699e+04
            0.900000	        1.507246e+04
            1.000000	        1.312986e+04
            1.100000	        1.167447e+04
            1.200000	        1.040131e+04
            1.300000	        9.393168e+03
            1.400000	        8.516904e+03
            1.500000	        7.778839e+03
            1.600000	        7.145036e+03
            1.700000	        6.542724e+03
            1.800000	        6.054429e+03
            1.900000	        5.611723e+03
            2.000000	        5.194920e+03
            2.250000	        4.336532e+03
            2.500000	        3.658474e+03
            2.750000	        3.115461e+03
            3.000000	        2.708253e+03
            3.250000	        2.346352e+03
            3.500000	        2.065095e+03
            3.750000	        1.836354e+03
            4.000000	        1.625207e+03
            4.250000	        1.456551e+03
            4.500000	        1.323561e+03
            4.750000	        1.193969e+03
            5.000000	        1.102990e+03
            5.250000	        1.006964e+03
            5.500000	        9.305520e+02
            5.750000	        8.697711e+02
            6.000000	        8.162863e+02
            6.250000	        7.746104e+02
            6.500000	        7.119129e+02
            6.750000	        6.931667e+02
            7.000000	        6.571885e+02
            7.250000	        6.218535e+02
            7.500000	        6.021098e+02
            7.750000	        5.644181e+02
            8.000000	        5.673097e+02
            8.250000	        5.451727e+02
            8.500000	        5.095439e+02
            8.750000	        5.010640e+02
            9.000000	        4.782677e+02
            9.500000	        4.531065e+02
           10.000000	        4.336807e+02
           10.500000	        4.153163e+02
           11.000000	        3.919031e+02
           11.500000	        3.724524e+02
           12.000000	        3.607816e+02
           12.500000	        3.360747e+02
           13.000000	        3.302834e+02
           13.500000	        3.227461e+02
           14.000000	        3.030202e+02
           14.500000	        2.902532e+02
           15.000000	        2.851948e+02
           16.000000	        2.681936e+02
           17.000000	        2.489992e+02
           18.000000	        2.367152e+02
           19.000000	        2.247970e+02
           20.000000	        2.133560e+02
           30.000000	        1.385247e+02
           40.000000	        1.005821e+02
           50.000000	        7.880314e+01
          100.000000	        2.692411e+01

